[
  {
    "link_thumb": "https://live.staticflickr.com/65535/50040246168_f937beb9e3_n.jpg",
    "id_album": "-1449720967",
    "description": "StarTrek_177180",
    "title": "StarTrek_177180",
    "link_img": "https://live.staticflickr.com/65535/50040246168_fdcde32423_o.jpg",
    "id_image": "StarTrek_177180",
    "count_view": 0
  },
  {
    "link_thumb": "https://live.staticflickr.com/65535/50040799636_740e1e55a9_n.jpg",
    "id_album": "-1449720967",
    "description": "StarTrek_182728",
    "title": "StarTrek_182728",
    "link_img": "https://live.staticflickr.com/65535/50040799636_e5e3eaca61_o.jpg",
    "id_image": "StarTrek_182728",
    "count_view": 0
  },
  {
    "link_thumb": "https://live.staticflickr.com/65535/50040802121_34cc083a44_n.jpg",
    "id_album": "-1449720967",
    "description": "StarTrek_186206",
    "title": "StarTrek_186206",
    "link_img": "https://live.staticflickr.com/65535/50040802121_d05002a5fb_o.jpg",
    "id_image": "StarTrek_186206",
    "count_view": 0
  },
  {
    "link_thumb": "https://live.staticflickr.com/65535/50041070682_63e73cdb70_n.jpg",
    "id_album": "-1449720967",
    "description": "StarTrek_207165",
    "title": "StarTrek_207165",
    "link_img": "https://live.staticflickr.com/65535/50041070682_d54226864f_o.jpg",
    "id_image": "StarTrek_207165",
    "count_view": 0
  },
  {
    "link_thumb": "https://live.staticflickr.com/65535/50040253778_94ae445d81_n.jpg",
    "id_album": "-1449720967",
    "description": "StarTrek_207897",
    "title": "StarTrek_207897",
    "link_img": "https://live.staticflickr.com/65535/50040253778_3a8d36fd68_o.jpg",
    "id_image": "StarTrek_207897",
    "count_view": 0
  },
  {
    "link_thumb": "https://live.staticflickr.com/65535/50041074292_94d4842831_n.jpg",
    "id_album": "-1449720967",
    "description": "StarTrek_239566",
    "title": "StarTrek_239566",
    "link_img": "https://live.staticflickr.com/65535/50041074292_b039d04b89_o.jpg",
    "id_image": "StarTrek_239566",
    "count_view": 0
  },
  {
    "link_thumb": "https://live.staticflickr.com/65535/50040810976_88bacb8e2e_n.jpg",
    "id_album": "-1449720967",
    "description": "StarTrek_244068",
    "title": "StarTrek_244068",
    "link_img": "https://live.staticflickr.com/65535/50040810976_8128660180_o.jpg",
    "id_image": "StarTrek_244068",
    "count_view": 0
  },
  {
    "link_thumb": "https://live.staticflickr.com/65535/50040257828_17b44e936a_n.jpg",
    "id_album": "-1449720967",
    "description": "StarTrek_248609",
    "title": "StarTrek_248609",
    "link_img": "https://live.staticflickr.com/65535/50040257828_3c0a0bbd95_o.jpg",
    "id_image": "StarTrek_248609",
    "count_view": 0
  },
  {
    "link_thumb": "https://live.staticflickr.com/65535/50040258008_93b945e5e8_n.jpg",
    "id_album": "-1449720967",
    "description": "StarTrek_248610",
    "title": "StarTrek_248610",
    "link_img": "https://live.staticflickr.com/65535/50040258008_d11813dcee_o.jpg",
    "id_image": "StarTrek_248610",
    "count_view": 0
  },
  {
    "link_thumb": "https://live.staticflickr.com/65535/50040258208_aff9de630c_n.jpg",
    "id_album": "-1449720967",
    "description": "StarTrek_256668",
    "title": "StarTrek_256668",
    "link_img": "https://live.staticflickr.com/65535/50040258208_a8f1556d6d_o.jpg",
    "id_image": "StarTrek_256668",
    "count_view": 0
  },
  {
    "link_thumb": "https://live.staticflickr.com/65535/50040258808_bfd440e3fe_n.jpg",
    "id_album": "-1449720967",
    "description": "StarTrek_258592",
    "title": "StarTrek_258592",
    "link_img": "https://live.staticflickr.com/65535/50040258808_27e0db1efd_o.jpg",
    "id_image": "StarTrek_258592",
    "count_view": 0
  },
  {
    "link_thumb": "https://live.staticflickr.com/65535/50041079292_293171cafe_n.jpg",
    "id_album": "-1449720967",
    "description": "StarTrek_275065",
    "title": "StarTrek_275065",
    "link_img": "https://live.staticflickr.com/65535/50041079292_c873d1a19a_o.jpg",
    "id_image": "StarTrek_275065",
    "count_view": 0
  },
  {
    "link_thumb": "https://live.staticflickr.com/65535/50041081617_72062f3d8a_n.jpg",
    "id_album": "-1449720967",
    "description": "StarTrek_275122",
    "title": "StarTrek_275122",
    "link_img": "https://live.staticflickr.com/65535/50041081617_aeba455822_o.jpg",
    "id_image": "StarTrek_275122",
    "count_view": 0
  },
  {
    "link_thumb": "https://live.staticflickr.com/65535/50040264303_9c477e855b_n.jpg",
    "id_album": "-1449720967",
    "description": "StarTrek_275123",
    "title": "StarTrek_275123",
    "link_img": "https://live.staticflickr.com/65535/50040264303_370f33f96a_o.jpg",
    "id_image": "StarTrek_275123",
    "count_view": 0
  },
  {
    "link_thumb": "https://live.staticflickr.com/65535/50040819776_43789c86fe_n.jpg",
    "id_album": "-1449720967",
    "description": "StarTrek_279989",
    "title": "StarTrek_279989",
    "link_img": "https://live.staticflickr.com/65535/50040819776_a4112354de_o.jpg",
    "id_image": "StarTrek_279989",
    "count_view": 0
  },
  {
    "link_thumb": "https://live.staticflickr.com/65535/50040266778_028c6762ce_n.jpg",
    "id_album": "-1449720967",
    "description": "StarTrek_280876",
    "title": "StarTrek_280876",
    "link_img": "https://live.staticflickr.com/65535/50040266778_61bbec95d5_o.jpg",
    "id_image": "StarTrek_280876",
    "count_view": 0
  },
  {
    "link_thumb": "https://live.staticflickr.com/65535/50040834676_d702d2b8c0_n.jpg",
    "id_album": "-1449720967",
    "description": "StarTrek_323570",
    "title": "StarTrek_323570",
    "link_img": "https://live.staticflickr.com/65535/50040834676_4f29a14210_o.jpg",
    "id_image": "StarTrek_323570",
    "count_view": 0
  },
  {
    "link_thumb": "https://live.staticflickr.com/65535/50041100507_9965084e7e_n.jpg",
    "id_album": "-1449720967",
    "description": "StarTrek_323586",
    "title": "StarTrek_323586",
    "link_img": "https://live.staticflickr.com/65535/50041100507_a06e4c9193_o.jpg",
    "id_image": "StarTrek_323586",
    "count_view": 0
  },
  {
    "link_thumb": "https://live.staticflickr.com/65535/50040284303_a92fb152d8_n.jpg",
    "id_album": "-1449720967",
    "description": "StarTrek_327165",
    "title": "StarTrek_327165",
    "link_img": "https://live.staticflickr.com/65535/50040284303_a55d586106_o.jpg",
    "id_image": "StarTrek_327165",
    "count_view": 0
  },
  {
    "link_thumb": "https://live.staticflickr.com/65535/50040843876_4d72f8d0d2_n.jpg",
    "id_album": "-1449720967",
    "description": "StarTrek_333721",
    "title": "StarTrek_333721",
    "link_img": "https://live.staticflickr.com/65535/50040843876_9278b1db7d_o.jpg",
    "id_image": "StarTrek_333721",
    "count_view": 0
  },
  {
    "link_thumb": "https://live.staticflickr.com/65535/50040290748_830d5627fb_n.jpg",
    "id_album": "-1449720967",
    "description": "StarTrek_334105",
    "title": "StarTrek_334105",
    "link_img": "https://live.staticflickr.com/65535/50040290748_147f3e9e8a_o.jpg",
    "id_image": "StarTrek_334105",
    "count_view": 0
  },
  {
    "link_thumb": "https://live.staticflickr.com/65535/50040850811_a5aa81bc66_n.jpg",
    "id_album": "-1449720967",
    "description": "StarTrek_336821",
    "title": "StarTrek_336821",
    "link_img": "https://live.staticflickr.com/65535/50040850811_cfdb1553e0_o.jpg",
    "id_image": "StarTrek_336821",
    "count_view": 0
  },
  {
    "link_thumb": "https://live.staticflickr.com/65535/50040299813_9491c7e14d_n.jpg",
    "id_album": "-1449720967",
    "description": "StarTrek_337654",
    "title": "StarTrek_337654",
    "link_img": "https://live.staticflickr.com/65535/50040299813_ed6919f9fc_o.jpg",
    "id_image": "StarTrek_337654",
    "count_view": 0
  },
  {
    "link_thumb": "https://live.staticflickr.com/65535/50040300103_8fc449f8f3_n.jpg",
    "id_album": "-1449720967",
    "description": "StarTrek_339024",
    "title": "StarTrek_339024",
    "link_img": "https://live.staticflickr.com/65535/50040300103_2306dc9c3f_o.jpg",
    "id_image": "StarTrek_339024",
    "count_view": 0
  },
  {
    "link_thumb": "https://live.staticflickr.com/65535/50040300303_987bc0fdbc_n.jpg",
    "id_album": "-1449720967",
    "description": "StarTrek_339027",
    "title": "StarTrek_339027",
    "link_img": "https://live.staticflickr.com/65535/50040300303_0cd6d92d04_o.jpg",
    "id_image": "StarTrek_339027",
    "count_view": 0
  },
  {
    "link_thumb": "https://live.staticflickr.com/65535/50041119177_0939035276_n.jpg",
    "id_album": "-1449720967",
    "description": "StarTrek_376988",
    "title": "StarTrek_376988",
    "link_img": "https://live.staticflickr.com/65535/50041119177_0ff35ca25a_o.jpg",
    "id_image": "StarTrek_376988",
    "count_view": 0
  }
]