[
  {
    "link_thumb": "https://live.staticflickr.com/65535/50039566187_bb0cae0cfc_n.jpg",
    "id_album": "523598895",
    "description": "Artistic_175695",
    "title": "Artistic_175695",
    "link_img": "https://live.staticflickr.com/65535/50039566187_1d6a0962af_o.jpg",
    "id_image": "Artistic_175695",
    "count_view": 0
  },
  {
    "link_thumb": "https://live.staticflickr.com/65535/50039643306_aaa0eccb64_n.jpg",
    "id_album": "1204249541",
    "description": "Galaxy_559143",
    "title": "Galaxy_559143",
    "link_img": "https://live.staticflickr.com/65535/50039643306_54fc035ac9_o.jpg",
    "id_image": "Galaxy_559143",
    "count_view": 0
  },
  {
    "link_thumb": "https://live.staticflickr.com/65535/50041442826_5c9ced1e32_n.jpg",
    "id_album": "-1261420436",
    "description": "Warrior_283438",
    "title": "Warrior_283438",
    "link_img": "https://live.staticflickr.com/65535/50041442826_850222ceda_o.jpg",
    "id_image": "Warrior_283438",
    "count_view": 0
  },
  {
    "link_thumb": "https://live.staticflickr.com/65535/50040710678_bfde51f35a_n.jpg",
    "id_album": "-1587696329",
    "description": "Stars_397547",
    "title": "Stars_397547",
    "link_img": "https://live.staticflickr.com/65535/50040710678_3e1a2e2bdf_o.jpg",
    "id_image": "Stars_397547",
    "count_view": 0
  },
  {
    "link_thumb": "https://live.staticflickr.com/65535/50039881938_c3300d6fe0_n.jpg",
    "id_album": "779690680",
    "description": "Robot_940962",
    "title": "Robot_940962",
    "link_img": "https://live.staticflickr.com/65535/50039881938_de3db2b8a3_o.jpg",
    "id_image": "Robot_940962",
    "count_view": 0
  },
  {
    "link_thumb": "https://live.staticflickr.com/65535/50038895223_30abec8f0d_n.jpg",
    "id_album": "-1964113117",
    "description": "City_206125",
    "title": "City_206125",
    "link_img": "https://live.staticflickr.com/65535/50038895223_037e147f21_o.jpg",
    "id_image": "City_206125",
    "count_view": 0
  },
  {
    "link_thumb": "https://live.staticflickr.com/65535/50041341631_575724bd7e_n.jpg",
    "id_album": "-221671103",
    "description": "Sun_204328",
    "title": "Sun_204328",
    "link_img": "https://live.staticflickr.com/65535/50041341631_5584fdbddf_o.jpg",
    "id_image": "Sun_204328",
    "count_view": 0
  },
  {
    "link_thumb": "https://live.staticflickr.com/65535/50039083623_2ababcde74_n.jpg",
    "id_album": "1204249541",
    "description": "Galaxy_418328",
    "title": "Galaxy_418328",
    "link_img": "https://live.staticflickr.com/65535/50039083623_3abe5ae39e_o.jpg",
    "id_image": "Galaxy_418328",
    "count_view": 0
  },
  {
    "link_thumb": "https://live.staticflickr.com/65535/50039640126_124536ea39_n.jpg",
    "id_album": "1204249541",
    "description": "Galaxy_540814",
    "title": "Galaxy_540814",
    "link_img": "https://live.staticflickr.com/65535/50039640126_67d6b7f344_o.jpg",
    "id_image": "Galaxy_540814",
    "count_view": 0
  },
  {
    "link_thumb": "https://live.staticflickr.com/65535/50039638048_309138607b_n.jpg",
    "id_album": "-482547208",
    "description": "PostApocalyptic_118740",
    "title": "PostApocalyptic_118740",
    "link_img": "https://live.staticflickr.com/65535/50039638048_c031c8827b_o.jpg",
    "id_image": "PostApocalyptic_118740",
    "count_view": 0
  },
  {
    "link_thumb": "https://live.staticflickr.com/65535/50039994677_0af103918c_n.jpg",
    "id_album": "-1388385651",
    "description": "MilkyWay_308365",
    "title": "MilkyWay_308365",
    "link_img": "https://live.staticflickr.com/65535/50039994677_4912721877_o.jpg",
    "id_image": "MilkyWay_308365",
    "count_view": 0
  },
  {
    "link_thumb": "https://live.staticflickr.com/65535/50040390787_b07ceb235c_n.jpg",
    "id_album": "-1102314093",
    "description": "Planets_609313",
    "title": "Planets_609313",
    "link_img": "https://live.staticflickr.com/65535/50040390787_9928fa040b_o.jpg",
    "id_image": "Planets_609313",
    "count_view": 0
  },
  {
    "link_thumb": "https://live.staticflickr.com/65535/50039307256_e35e352e29_n.jpg",
    "id_album": "523598895",
    "description": "Artistic_185348",
    "title": "Artistic_185348",
    "link_img": "https://live.staticflickr.com/65535/50039307256_261b721a7f_o.jpg",
    "id_image": "Artistic_185348",
    "count_view": 0
  },
  {
    "link_thumb": "https://live.staticflickr.com/65535/50040017913_35a9e5e9d8_n.jpg",
    "id_album": "2130067313",
    "description": "Spaceship_111950",
    "title": "Spaceship_111950",
    "link_img": "https://live.staticflickr.com/65535/50040017913_3cb71d422f_o.jpg",
    "id_image": "Spaceship_111950",
    "count_view": 0
  },
  {
    "link_thumb": "https://live.staticflickr.com/65535/50039625263_993f79b79c_n.jpg",
    "id_album": "376235057",
    "description": "Planetscape_559145",
    "title": "Planetscape_559145",
    "link_img": "https://live.staticflickr.com/65535/50039625263_83c0774ed9_o.jpg",
    "id_image": "Planetscape_559145",
    "count_view": 0
  },
  {
    "link_thumb": "https://live.staticflickr.com/65535/50039833848_a9eb76e709_n.jpg",
    "id_album": "779690680",
    "description": "Robot_876312",
    "title": "Robot_876312",
    "link_img": "https://live.staticflickr.com/65535/50039833848_5ba1e2d400_o.jpg",
    "id_image": "Robot_876312",
    "count_view": 0
  },
  {
    "link_thumb": "https://live.staticflickr.com/65535/50039779447_f703d448a7_n.jpg",
    "id_album": "-1964113117",
    "description": "City_906094",
    "title": "City_906094",
    "link_img": "https://live.staticflickr.com/65535/50039779447_450cf3ee10_o.jpg",
    "id_image": "City_906094",
    "count_view": 0
  },
  {
    "link_thumb": "https://live.staticflickr.com/65535/50038933013_1dcf5d728a_n.jpg",
    "id_album": "-1964113117",
    "description": "City_616580",
    "title": "City_616580",
    "link_img": "https://live.staticflickr.com/65535/50038933013_d52691ccf8_o.jpg",
    "id_image": "City_616580",
    "count_view": 0
  },
  {
    "link_thumb": "https://live.staticflickr.com/65535/50039938007_5dbff39c0f_n.jpg",
    "id_album": "1402713104",
    "description": "Landscape_314143",
    "title": "Landscape_314143",
    "link_img": "https://live.staticflickr.com/65535/50039938007_46857b28db_o.jpg",
    "id_image": "Landscape_314143",
    "count_view": 0
  },
  {
    "link_thumb": "https://live.staticflickr.com/65535/50039681727_98a2a182da_n.jpg",
    "id_album": "-1780971522",
    "description": "Biohazard_584230",
    "title": "Biohazard_584230",
    "link_img": "https://live.staticflickr.com/65535/50039681727_5d4a865707_o.jpg",
    "id_image": "Biohazard_584230",
    "count_view": 0
  },
  {
    "link_thumb": "https://live.staticflickr.com/65535/50040254991_d9580e24d5_n.jpg",
    "id_album": "779690680",
    "description": "Robot_149264",
    "title": "Robot_149264",
    "link_img": "https://live.staticflickr.com/65535/50040254991_4848efa091_o.jpg",
    "id_image": "Robot_149264",
    "count_view": 0
  },
  {
    "link_thumb": "https://live.staticflickr.com/65535/50039163738_a609013566_n.jpg",
    "id_album": "1402713104",
    "description": "Landscape_864098",
    "title": "Landscape_864098",
    "link_img": "https://live.staticflickr.com/65535/50039163738_11f1a72378_o.jpg",
    "id_image": "Landscape_864098",
    "count_view": 0
  },
  {
    "link_thumb": "https://live.staticflickr.com/65535/50038826893_3b48e23432_n.jpg",
    "id_album": "869545341",
    "description": "Astronaut_865987",
    "title": "Astronaut_865987",
    "link_img": "https://live.staticflickr.com/65535/50038826893_a7bc4c89c8_o.jpg",
    "id_image": "Astronaut_865987",
    "count_view": 0
  },
  {
    "link_thumb": "https://live.staticflickr.com/65535/50040565072_1da31543df_n.jpg",
    "id_album": "779690680",
    "description": "Robot_391619",
    "title": "Robot_391619",
    "link_img": "https://live.staticflickr.com/65535/50040565072_277246a604_o.jpg",
    "id_image": "Robot_391619",
    "count_view": 0
  },
  {
    "link_thumb": "https://live.staticflickr.com/65535/50039733126_9a03c2ea99_n.jpg",
    "id_album": "-1388385651",
    "description": "MilkyWay_555673",
    "title": "MilkyWay_555673",
    "link_img": "https://live.staticflickr.com/65535/50039733126_f60241675a_o.jpg",
    "id_image": "MilkyWay_555673",
    "count_view": 0
  },
  {
    "link_thumb": "https://live.staticflickr.com/65535/50039790131_51b26f8091_n.jpg",
    "id_album": "-1610342324",
    "description": "Nebula_393952",
    "title": "Nebula_393952",
    "link_img": "https://live.staticflickr.com/65535/50039790131_97abc3d65b_o.jpg",
    "id_image": "Nebula_393952",
    "count_view": 0
  },
  {
    "link_thumb": "https://live.staticflickr.com/65535/50039524302_866881c836_n.jpg",
    "id_album": "849020728",
    "description": "Alien_393636",
    "title": "Alien_393636",
    "link_img": "https://live.staticflickr.com/65535/50039524302_e94c17fd43_o.jpg",
    "id_image": "Alien_393636",
    "count_view": 0
  },
  {
    "link_thumb": "https://live.staticflickr.com/65535/50039359141_12e9be8e71_n.jpg",
    "id_album": "869545341",
    "description": "Astronaut_588605",
    "title": "Astronaut_588605",
    "link_img": "https://live.staticflickr.com/65535/50039359141_a1f589eb5a_o.jpg",
    "id_image": "Astronaut_588605",
    "count_view": 0
  },
  {
    "link_thumb": "https://live.staticflickr.com/65535/50039732931_34ab32f9dc_n.jpg",
    "id_album": "-1388385651",
    "description": "MilkyWay_555448",
    "title": "MilkyWay_555448",
    "link_img": "https://live.staticflickr.com/65535/50039732931_9b03219476_o.jpg",
    "id_image": "MilkyWay_555448",
    "count_view": 0
  },
  {
    "link_thumb": "https://live.staticflickr.com/65535/50039071633_44d1d631cf_n.jpg",
    "id_album": "2104507156",
    "description": "Fantasy_651323",
    "title": "Fantasy_651323",
    "link_img": "https://live.staticflickr.com/65535/50039071633_44e85c1f45_o.jpg",
    "id_image": "Fantasy_651323",
    "count_view": 0
  },
  {
    "link_thumb": "https://live.staticflickr.com/65535/50040634398_30e0ecf8db_n.jpg",
    "id_album": "-1863373220",
    "description": "StarWars_497641",
    "title": "StarWars_497641",
    "link_img": "https://live.staticflickr.com/65535/50040634398_82b57c6b64_o.jpg",
    "id_image": "StarWars_497641",
    "count_view": 0
  },
  {
    "link_thumb": "https://live.staticflickr.com/65535/50041606792_835fa7d74d_n.jpg",
    "id_album": "-221671103",
    "description": "Sun_264703",
    "title": "Sun_264703",
    "link_img": "https://live.staticflickr.com/65535/50041606792_82df70dd87_o.jpg",
    "id_image": "Sun_264703",
    "count_view": 0
  },
  {
    "link_thumb": "https://live.staticflickr.com/65535/50040523623_57474da787_n.jpg",
    "id_album": "-1863373220",
    "description": "StarWars_1005773",
    "title": "StarWars_1005773",
    "link_img": "https://live.staticflickr.com/65535/50040523623_a4a24c2909_o.jpg",
    "id_image": "StarWars_1005773",
    "count_view": 0
  },
  {
    "link_thumb": "https://live.staticflickr.com/65535/50039726633_5f4d2490ea_n.jpg",
    "id_album": "779690680",
    "description": "Robot_271434",
    "title": "Robot_271434",
    "link_img": "https://live.staticflickr.com/65535/50039726633_1e5b4c5488_o.jpg",
    "id_image": "Robot_271434",
    "count_view": 0
  },
  {
    "link_thumb": "https://live.staticflickr.com/65535/50039468766_85e8f321b4_n.jpg",
    "id_album": "-1964113117",
    "description": "City_397137",
    "title": "City_397137",
    "link_img": "https://live.staticflickr.com/65535/50039468766_24422fdf45_o.jpg",
    "id_image": "City_397137",
    "count_view": 0
  },
  {
    "link_thumb": "https://live.staticflickr.com/65535/50039355338_cb43afdc57_n.jpg",
    "id_album": "395161030",
    "description": "Planet_129689",
    "title": "Planet_129689",
    "link_img": "https://live.staticflickr.com/65535/50039355338_3b207e4c69_o.jpg",
    "id_image": "Planet_129689",
    "count_view": 0
  },
  {
    "link_thumb": "https://live.staticflickr.com/65535/50039789021_62efb43dca_n.jpg",
    "id_album": "-1610342324",
    "description": "Nebula_376529",
    "title": "Nebula_376529",
    "link_img": "https://live.staticflickr.com/65535/50039789021_e5ff5b5ddf_o.jpg",
    "id_image": "Nebula_376529",
    "count_view": 0
  },
  {
    "link_thumb": "https://live.staticflickr.com/65535/50040088112_90f212da3d_n.jpg",
    "id_album": "-1610342324",
    "description": "Nebula_705310",
    "title": "Nebula_705310",
    "link_img": "https://live.staticflickr.com/65535/50040088112_6a1545ae21_o.jpg",
    "id_image": "Nebula_705310",
    "count_view": 0
  },
  {
    "link_thumb": "https://live.staticflickr.com/65535/50040440072_67d9071678_n.jpg",
    "id_album": "376235057",
    "description": "Planetscape_523425",
    "title": "Planetscape_523425",
    "link_img": "https://live.staticflickr.com/65535/50040440072_180bb8d892_o.jpg",
    "id_image": "Planetscape_523425",
    "count_view": 0
  },
  {
    "link_thumb": "https://live.staticflickr.com/65535/50041257241_4247cfe1ca_n.jpg",
    "id_album": "-1587696329",
    "description": "Stars_173368",
    "title": "Stars_173368",
    "link_img": "https://live.staticflickr.com/65535/50041257241_fe13e4bef0_o.jpg",
    "id_image": "Stars_173368",
    "count_view": 0
  },
  {
    "link_thumb": "https://live.staticflickr.com/65535/50040831358_ec312762f9_n.jpg",
    "id_album": "2020068132",
    "description": "Vehicle_308637",
    "title": "Vehicle_308637",
    "link_img": "https://live.staticflickr.com/65535/50040831358_aeb4b6ebdf_o.jpg",
    "id_image": "Vehicle_308637",
    "count_view": 0
  },
  {
    "link_thumb": "https://live.staticflickr.com/65535/50039652071_e3dd958192_n.jpg",
    "id_album": "1204249541",
    "description": "Galaxy_737203",
    "title": "Galaxy_737203",
    "link_img": "https://live.staticflickr.com/65535/50039652071_03779d7b35_o.jpg",
    "id_image": "Galaxy_737203",
    "count_view": 0
  },
  {
    "link_thumb": "https://live.staticflickr.com/65535/50039580002_7c32119009_n.jpg",
    "id_album": "523598895",
    "description": "Artistic_222317",
    "title": "Artistic_222317",
    "link_img": "https://live.staticflickr.com/65535/50039580002_bcc4d6a7b9_o.jpg",
    "id_image": "Artistic_222317",
    "count_view": 0
  },
  {
    "link_thumb": "https://live.staticflickr.com/65535/50039766366_e91984c447_n.jpg",
    "id_album": "-1610342324",
    "description": "Nebula_182338",
    "title": "Nebula_182338",
    "link_img": "https://live.staticflickr.com/65535/50039766366_b6abb640a1_o.jpg",
    "id_image": "Nebula_182338",
    "count_view": 0
  },
  {
    "link_thumb": "https://live.staticflickr.com/65535/50039698092_3d31cf6608_n.jpg",
    "id_album": "-1964113117",
    "description": "City_146486",
    "title": "City_146486",
    "link_img": "https://live.staticflickr.com/65535/50039698092_d683fb35c4_o.jpg",
    "id_image": "City_146486",
    "count_view": 0
  },
  {
    "link_thumb": "https://live.staticflickr.com/65535/50040729782_8146617089_n.jpg",
    "id_album": "1613540653",
    "description": "Space_114228",
    "title": "Space_114228",
    "link_img": "https://live.staticflickr.com/65535/50040729782_55eb0d59dd_o.jpg",
    "id_image": "Space_114228",
    "count_view": 0
  },
  {
    "link_thumb": "https://live.staticflickr.com/65535/50041390587_f7f91c66f4_n.jpg",
    "id_album": "-1863373220",
    "description": "StarWars_205601",
    "title": "StarWars_205601",
    "link_img": "https://live.staticflickr.com/65535/50041390587_bb11a95dfc_o.jpg",
    "id_image": "StarWars_205601",
    "count_view": 0
  },
  {
    "link_thumb": "https://live.staticflickr.com/65535/50041031763_067fe49795_n.jpg",
    "id_album": "-1675918237",
    "description": "WomenWarrior_616398",
    "title": "WomenWarrior_616398",
    "link_img": "https://live.staticflickr.com/65535/50041031763_fb7673a37f_o.jpg",
    "id_image": "WomenWarrior_616398",
    "count_view": 0
  },
  {
    "link_thumb": "https://live.staticflickr.com/65535/50041248896_17916a875b_n.jpg",
    "id_album": "-1863373220",
    "description": "StarWars_980527",
    "title": "StarWars_980527",
    "link_img": "https://live.staticflickr.com/65535/50041248896_c05969512f_o.jpg",
    "id_image": "StarWars_980527",
    "count_view": 0
  },
  {
    "link_thumb": "https://live.staticflickr.com/65535/50040901073_523786290e_n.jpg",
    "id_album": "-1261420436",
    "description": "Warrior_386012",
    "title": "Warrior_386012",
    "link_img": "https://live.staticflickr.com/65535/50040901073_8deffe721a_o.jpg",
    "id_image": "Warrior_386012",
    "count_view": 0
  },
  {
    "link_thumb": "https://live.staticflickr.com/65535/50039693523_d30101c986_n.jpg",
    "id_album": "-839602625",
    "description": "Predator_658861",
    "title": "Predator_658861",
    "link_img": "https://live.staticflickr.com/65535/50039693523_06d26dd64a_o.jpg",
    "id_image": "Predator_658861",
    "count_view": 0
  },
  {
    "link_thumb": "https://live.staticflickr.com/65535/50039351866_6e83715b91_n.jpg",
    "id_album": "869545341",
    "description": "Astronaut_237564",
    "title": "Astronaut_237564",
    "link_img": "https://live.staticflickr.com/65535/50039351866_088dc648b4_o.jpg",
    "id_image": "Astronaut_237564",
    "count_view": 0
  },
  {
    "link_thumb": "https://live.staticflickr.com/65535/50041486361_0f5c32f121_n.jpg",
    "id_album": "-1261420436",
    "description": "Warrior_778589",
    "title": "Warrior_778589",
    "link_img": "https://live.staticflickr.com/65535/50041486361_04c0a9b187_o.jpg",
    "id_image": "Warrior_778589",
    "count_view": 0
  },
  {
    "link_thumb": "https://live.staticflickr.com/65535/50038750433_64d01feaca_n.jpg",
    "id_album": "523598895",
    "description": "Artistic_153707",
    "title": "Artistic_153707",
    "link_img": "https://live.staticflickr.com/65535/50038750433_161bc5b021_o.jpg",
    "id_image": "Artistic_153707",
    "count_view": 0
  },
  {
    "link_thumb": "https://live.staticflickr.com/65535/50039383368_318351d954_n.jpg",
    "id_album": "395161030",
    "description": "Planet_345103",
    "title": "Planet_345103",
    "link_img": "https://live.staticflickr.com/65535/50039383368_e4de7886ef_o.jpg",
    "id_image": "Planet_345103",
    "count_view": 0
  },
  {
    "link_thumb": "https://live.staticflickr.com/65535/50039498482_e033259357_n.jpg",
    "id_album": "-406145265",
    "description": "Aircraft_269915",
    "title": "Aircraft_269915",
    "link_img": "https://live.staticflickr.com/65535/50039498482_7695ea4691_o.jpg",
    "id_image": "Aircraft_269915",
    "count_view": 0
  },
  {
    "link_thumb": "https://live.staticflickr.com/65535/50040087961_a9ab6f44e7_n.jpg",
    "id_album": "-1102314093",
    "description": "Planets_34359",
    "title": "Planets_34359",
    "link_img": "https://live.staticflickr.com/65535/50040087961_2173244db9_o.jpg",
    "id_image": "Planets_34359",
    "count_view": 0
  },
  {
    "link_thumb": "https://live.staticflickr.com/65535/50039995078_31b5cffd96_n.jpg",
    "id_album": "1613540653",
    "description": "Space_87915",
    "title": "Space_87915",
    "link_img": "https://live.staticflickr.com/65535/50039995078_923df9cb75_o.jpg",
    "id_image": "Space_87915",
    "count_view": 0
  },
  {
    "link_thumb": "https://live.staticflickr.com/65535/50039773871_01c646869e_n.jpg",
    "id_album": "-1610342324",
    "description": "Nebula_229485",
    "title": "Nebula_229485",
    "link_img": "https://live.staticflickr.com/65535/50039773871_3dc3c81495_o.jpg",
    "id_image": "Nebula_229485",
    "count_view": 0
  },
  {
    "link_thumb": "https://live.staticflickr.com/65535/50040027082_2b1cf932b9_n.jpg",
    "id_album": "-1610342324",
    "description": "Nebula_15778",
    "title": "Nebula_15778",
    "link_img": "https://live.staticflickr.com/65535/50040027082_4a33495875_o.jpg",
    "id_image": "Nebula_15778",
    "count_view": 0
  },
  {
    "link_thumb": "https://live.staticflickr.com/65535/50041442602_257bfc854a_n.jpg",
    "id_album": "-1863373220",
    "description": "StarWars_430729",
    "title": "StarWars_430729",
    "link_img": "https://live.staticflickr.com/65535/50041442602_f7c1f17c9b_o.jpg",
    "id_image": "StarWars_430729",
    "count_view": 0
  },
  {
    "link_thumb": "https://live.staticflickr.com/65535/50038699423_24633445e9_n.jpg",
    "id_album": "849020728",
    "description": "Alien_153079",
    "title": "Alien_153079",
    "link_img": "https://live.staticflickr.com/65535/50038699423_b709267d8f_o.jpg",
    "id_image": "Alien_153079",
    "count_view": 0
  },
  {
    "link_thumb": "https://live.staticflickr.com/65535/50040227822_f4bef014f4_n.jpg",
    "id_album": "395161030",
    "description": "Planet_559154",
    "title": "Planet_559154",
    "link_img": "https://live.staticflickr.com/65535/50040227822_2e47cdec46_o.jpg",
    "id_image": "Planet_559154",
    "count_view": 0
  },
  {
    "link_thumb": "https://live.staticflickr.com/65535/50038934653_544287118a_n.jpg",
    "id_album": "-1964113117",
    "description": "City_649176",
    "title": "City_649176",
    "link_img": "https://live.staticflickr.com/65535/50038934653_d003c25b98_o.jpg",
    "id_image": "City_649176",
    "count_view": 0
  },
  {
    "link_thumb": "https://live.staticflickr.com/65535/50040025582_922944695c_n.jpg",
    "id_album": "-1610342324",
    "description": "Nebula_111880",
    "title": "Nebula_111880",
    "link_img": "https://live.staticflickr.com/65535/50040025582_bacffce458_o.jpg",
    "id_image": "Nebula_111880",
    "count_view": 0
  },
  {
    "link_thumb": "https://live.staticflickr.com/65535/50039675871_6c68d89b52_n.jpg",
    "id_album": "1402713104",
    "description": "Landscape_323795",
    "title": "Landscape_323795",
    "link_img": "https://live.staticflickr.com/65535/50039675871_96e5113680_o.jpg",
    "id_image": "Landscape_323795",
    "count_view": 0
  },
  {
    "link_thumb": "https://live.staticflickr.com/65535/50040705506_1a46707f66_n.jpg",
    "id_album": "2130067313",
    "description": "Spaceship_518888",
    "title": "Spaceship_518888",
    "link_img": "https://live.staticflickr.com/65535/50040705506_dfb8026692_o.jpg",
    "id_image": "Spaceship_518888",
    "count_view": 0
  },
  {
    "link_thumb": "https://live.staticflickr.com/65535/50041759407_d33b919e7d_n.jpg",
    "id_album": "-1261420436",
    "description": "Warrior_957239",
    "title": "Warrior_957239",
    "link_img": "https://live.staticflickr.com/65535/50041759407_340cdeebe0_o.jpg",
    "id_image": "Warrior_957239",
    "count_view": 0
  },
  {
    "link_thumb": "https://live.staticflickr.com/65535/50039840393_362ab7f104_n.jpg",
    "id_album": "779690680",
    "description": "Robot_884818",
    "title": "Robot_884818",
    "link_img": "https://live.staticflickr.com/65535/50039840393_0c266092de_o.jpg",
    "id_image": "Robot_884818",
    "count_view": 0
  },
  {
    "link_thumb": "https://live.staticflickr.com/65535/50041191626_0db83cdd74_n.jpg",
    "id_album": "-1863373220",
    "description": "StarWars_559762",
    "title": "StarWars_559762",
    "link_img": "https://live.staticflickr.com/65535/50041191626_eb40939082_o.jpg",
    "id_image": "StarWars_559762",
    "count_view": 0
  },
  {
    "link_thumb": "https://live.staticflickr.com/65535/50039434676_7874f86231_n.jpg",
    "id_album": "-1964113117",
    "description": "City_145401",
    "title": "City_145401",
    "link_img": "https://live.staticflickr.com/65535/50039434676_e60e48be0f_o.jpg",
    "id_image": "City_145401",
    "count_view": 0
  },
  {
    "link_thumb": "https://live.staticflickr.com/65535/50040363916_5fec4e7f5d_n.jpg",
    "id_album": "779690680",
    "description": "Robot_750349",
    "title": "Robot_750349",
    "link_img": "https://live.staticflickr.com/65535/50040363916_91b01c3b59_o.jpg",
    "id_image": "Robot_750349",
    "count_view": 0
  },
  {
    "link_thumb": "https://live.staticflickr.com/65535/50039341856_737d82c9a6_n.jpg",
    "id_album": "523598895",
    "description": "Artistic_669063",
    "title": "Artistic_669063",
    "link_img": "https://live.staticflickr.com/65535/50039341856_e08c7ab3b4_o.jpg",
    "id_image": "Artistic_669063",
    "count_view": 0
  },
  {
    "link_thumb": "https://live.staticflickr.com/65535/50038719678_7005b3c726_n.jpg",
    "id_album": "849020728",
    "description": "Alien_488059",
    "title": "Alien_488059",
    "link_img": "https://live.staticflickr.com/65535/50038719678_4a5a87f722_o.jpg",
    "id_image": "Alien_488059",
    "count_view": 0
  },
  {
    "link_thumb": "https://live.staticflickr.com/65535/50039240283_02f50ff7f2_n.jpg",
    "id_album": "-1610342324",
    "description": "Nebula_383694",
    "title": "Nebula_383694",
    "link_img": "https://live.staticflickr.com/65535/50039240283_374d3b14b1_o.jpg",
    "id_image": "Nebula_383694",
    "count_view": 0
  },
  {
    "link_thumb": "https://live.staticflickr.com/65535/50039687552_ed07c947d4_n.jpg",
    "id_album": "406431601",
    "description": "Building_873147",
    "title": "Building_873147",
    "link_img": "https://live.staticflickr.com/65535/50039687552_41047c2368_o.jpg",
    "id_image": "Building_873147",
    "count_view": 0
  },
  {
    "link_thumb": "https://live.staticflickr.com/65535/50040123217_b9a514aa26_n.jpg",
    "id_album": "-1610342324",
    "description": "Nebula_997315",
    "title": "Nebula_997315",
    "link_img": "https://live.staticflickr.com/65535/50040123217_3fef5baa52_o.jpg",
    "id_image": "Nebula_997315",
    "count_view": 0
  },
  {
    "link_thumb": "https://live.staticflickr.com/65535/50040505482_4a1466bac0_n.jpg",
    "id_album": "-839602625",
    "description": "Predator_340249",
    "title": "Predator_340249",
    "link_img": "https://live.staticflickr.com/65535/50040505482_1225656af3_o.jpg",
    "id_image": "Predator_340249",
    "count_view": 0
  },
  {
    "link_thumb": "https://live.staticflickr.com/65535/50041100507_9965084e7e_n.jpg",
    "id_album": "-1449720967",
    "description": "StarTrek_323586",
    "title": "StarTrek_323586",
    "link_img": "https://live.staticflickr.com/65535/50041100507_a06e4c9193_o.jpg",
    "id_image": "StarTrek_323586",
    "count_view": 0
  },
  {
    "link_thumb": "https://live.staticflickr.com/65535/50039216478_4932b8b923_n.jpg",
    "id_album": "-1610342324",
    "description": "Nebula_180955",
    "title": "Nebula_180955",
    "link_img": "https://live.staticflickr.com/65535/50039216478_7740d5b36e_o.jpg",
    "id_image": "Nebula_180955",
    "count_view": 0
  },
  {
    "link_thumb": "https://live.staticflickr.com/65535/50039603287_5fc069ae44_n.jpg",
    "id_album": "523598895",
    "description": "Artistic_665847",
    "title": "Artistic_665847",
    "link_img": "https://live.staticflickr.com/65535/50039603287_cb667343e3_o.jpg",
    "id_image": "Artistic_665847",
    "count_view": 0
  },
  {
    "link_thumb": "https://live.staticflickr.com/65535/50039293823_dc167aa41d_n.jpg",
    "id_album": "-1610342324",
    "description": "Nebula_84045",
    "title": "Nebula_84045",
    "link_img": "https://live.staticflickr.com/65535/50039293823_ff1d9b3707_o.jpg",
    "id_image": "Nebula_84045",
    "count_view": 0
  },
  {
    "link_thumb": "https://live.staticflickr.com/65535/50041566282_dd8d917598_n.jpg",
    "id_album": "1267121215",
    "description": "Steampunk_236458",
    "title": "Steampunk_236458",
    "link_img": "https://live.staticflickr.com/65535/50041566282_d7c05eaa0a_o.jpg",
    "id_image": "Steampunk_236458",
    "count_view": 0
  },
  {
    "link_thumb": "https://live.staticflickr.com/65535/50040056932_eaa81c0cc3_n.jpg",
    "id_album": "-1610342324",
    "description": "Nebula_405236",
    "title": "Nebula_405236",
    "link_img": "https://live.staticflickr.com/65535/50040056932_bcdb3c4a1f_o.jpg",
    "id_image": "Nebula_405236",
    "count_view": 0
  },
  {
    "link_thumb": "https://live.staticflickr.com/65535/50039190868_2355a81eb0_n.jpg",
    "id_album": "-1388385651",
    "description": "MilkyWay_687245",
    "title": "MilkyWay_687245",
    "link_img": "https://live.staticflickr.com/65535/50039190868_01fe78c341_o.jpg",
    "id_image": "MilkyWay_687245",
    "count_view": 0
  },
  {
    "link_thumb": "https://live.staticflickr.com/65535/50040028042_bb80715ccb_n.jpg",
    "id_album": "-1610342324",
    "description": "Nebula_175209",
    "title": "Nebula_175209",
    "link_img": "https://live.staticflickr.com/65535/50040028042_edb5533ddc_o.jpg",
    "id_image": "Nebula_175209",
    "count_view": 0
  },
  {
    "link_thumb": "https://live.staticflickr.com/65535/50040046007_778a4a84d4_n.jpg",
    "id_album": "-1610342324",
    "description": "Nebula_286778",
    "title": "Nebula_286778",
    "link_img": "https://live.staticflickr.com/65535/50040046007_dd894db021_o.jpg",
    "id_image": "Nebula_286778",
    "count_view": 0
  },
  {
    "link_thumb": "https://live.staticflickr.com/65535/50040280777_69139bd607_n.jpg",
    "id_album": "814701616",
    "description": "PlanetaryRing_103238",
    "title": "PlanetaryRing_103238",
    "link_img": "https://live.staticflickr.com/65535/50040280777_880e593a2b_o.jpg",
    "id_image": "PlanetaryRing_103238",
    "count_view": 0
  },
  {
    "link_thumb": "https://live.staticflickr.com/65535/50040846273_4d3319749f_n.jpg",
    "id_album": "2020068132",
    "description": "Vehicle_427318",
    "title": "Vehicle_427318",
    "link_img": "https://live.staticflickr.com/65535/50040846273_4ddc264315_o.jpg",
    "id_image": "Vehicle_427318",
    "count_view": 0
  },
  {
    "link_thumb": "https://live.staticflickr.com/65535/50040495797_5c00f36a49_n.jpg",
    "id_album": "-482547208",
    "description": "PostApocalyptic_921759",
    "title": "PostApocalyptic_921759",
    "link_img": "https://live.staticflickr.com/65535/50040495797_e625842dd4_o.jpg",
    "id_image": "PostApocalyptic_921759",
    "count_view": 0
  },
  {
    "link_thumb": "https://live.staticflickr.com/65535/50039641882_90e92013b7_n.jpg",
    "id_album": "869545341",
    "description": "Astronaut_923963",
    "title": "Astronaut_923963",
    "link_img": "https://live.staticflickr.com/65535/50039641882_c7a78e4be5_o.jpg",
    "id_image": "Astronaut_923963",
    "count_view": 0
  },
  {
    "link_thumb": "https://live.staticflickr.com/65535/50039138783_ae7bc6b10a_n.jpg",
    "id_album": "1402713104",
    "description": "Landscape_421187",
    "title": "Landscape_421187",
    "link_img": "https://live.staticflickr.com/65535/50039138783_dd1a4cf43c_o.jpg",
    "id_image": "Landscape_421187",
    "count_view": 0
  },
  {
    "link_thumb": "https://live.staticflickr.com/65535/50038903323_f024fc7659_n.jpg",
    "id_album": "-1964113117",
    "description": "City_236462",
    "title": "City_236462",
    "link_img": "https://live.staticflickr.com/65535/50038903323_ba61a6cda5_o.jpg",
    "id_image": "City_236462",
    "count_view": 0
  },
  {
    "link_thumb": "https://live.staticflickr.com/65535/50040081707_e43e2b9939_n.jpg",
    "id_album": "-1610342324",
    "description": "Nebula_63591",
    "title": "Nebula_63591",
    "link_img": "https://live.staticflickr.com/65535/50040081707_7ba6e92990_o.jpg",
    "id_image": "Nebula_63591",
    "count_view": 0
  },
  {
    "link_thumb": "https://live.staticflickr.com/65535/50041464562_769a22a91e_n.jpg",
    "id_album": "-1863373220",
    "description": "StarWars_631990",
    "title": "StarWars_631990",
    "link_img": "https://live.staticflickr.com/65535/50041464562_bef14daf75_o.jpg",
    "id_image": "StarWars_631990",
    "count_view": 0
  },
  {
    "link_thumb": "https://live.staticflickr.com/65535/50039417503_1ded3a6869_n.jpg",
    "id_album": "395161030",
    "description": "Planet_585117",
    "title": "Planet_585117",
    "link_img": "https://live.staticflickr.com/65535/50039417503_e035886e79_o.jpg",
    "id_image": "Planet_585117",
    "count_view": 0
  },
  {
    "link_thumb": "https://live.staticflickr.com/65535/50038878878_31857c2fa2_n.jpg",
    "id_album": "406431601",
    "description": "Building_941589",
    "title": "Building_941589",
    "link_img": "https://live.staticflickr.com/65535/50038878878_01444709ba_o.jpg",
    "id_image": "Building_941589",
    "count_view": 0
  },
  {
    "link_thumb": "https://live.staticflickr.com/65535/50040815973_e1c1ee7618_n.jpg",
    "id_album": "-1177476763",
    "description": "Sunrise_931978",
    "title": "Sunrise_931978",
    "link_img": "https://live.staticflickr.com/65535/50040815973_4d7785e11e_o.jpg",
    "id_image": "Sunrise_931978",
    "count_view": 0
  },
  {
    "link_thumb": "https://live.staticflickr.com/65535/50039508336_0ab8c6a07b_n.jpg",
    "id_album": "-1964113117",
    "description": "City_869604",
    "title": "City_869604",
    "link_img": "https://live.staticflickr.com/65535/50039508336_8a2b5a57d0_o.jpg",
    "id_image": "City_869604",
    "count_view": 0
  },
  {
    "link_thumb": "https://live.staticflickr.com/65535/50041248791_2e0a22919b_n.jpg",
    "id_album": "-1863373220",
    "description": "StarWars_980526",
    "title": "StarWars_980526",
    "link_img": "https://live.staticflickr.com/65535/50041248791_9cce4a1571_o.jpg",
    "id_image": "StarWars_980526",
    "count_view": 0
  },
  {
    "link_thumb": "https://live.staticflickr.com/65535/50039246603_8f6d61e51b_n.jpg",
    "id_album": "-1610342324",
    "description": "Nebula_430797",
    "title": "Nebula_430797",
    "link_img": "https://live.staticflickr.com/65535/50039246603_a31ed7ff76_o.jpg",
    "id_image": "Nebula_430797",
    "count_view": 0
  },
  {
    "link_thumb": "https://live.staticflickr.com/65535/50039526956_26a0c2843c_n.jpg",
    "id_album": "-1964113117",
    "description": "City_955659",
    "title": "City_955659",
    "link_img": "https://live.staticflickr.com/65535/50039526956_a026290a27_o.jpg",
    "id_image": "City_955659",
    "count_view": 0
  },
  {
    "link_thumb": "https://live.staticflickr.com/65535/50038753888_baba6f0565_n.jpg",
    "id_album": "523598895",
    "description": "Artistic_170992",
    "title": "Artistic_170992",
    "link_img": "https://live.staticflickr.com/65535/50038753888_4229e5987e_o.jpg",
    "id_image": "Artistic_170992",
    "count_view": 0
  },
  {
    "link_thumb": "https://live.staticflickr.com/65535/50039808717_e01ba9c995_n.jpg",
    "id_album": "-437872736",
    "description": "Creature_211831",
    "title": "Creature_211831",
    "link_img": "https://live.staticflickr.com/65535/50039808717_ce9407517a_o.jpg",
    "id_image": "Creature_211831",
    "count_view": 0
  },
  {
    "link_thumb": "https://live.staticflickr.com/65535/50038963063_308171d183_n.jpg",
    "id_album": "-1964113117",
    "description": "City_878302",
    "title": "City_878302",
    "link_img": "https://live.staticflickr.com/65535/50038963063_9f00e507d5_o.jpg",
    "id_image": "City_878302",
    "count_view": 0
  },
  {
    "link_thumb": "https://live.staticflickr.com/65535/50038716488_df6335a28c_n.jpg",
    "id_album": "849020728",
    "description": "Alien_410857",
    "title": "Alien_410857",
    "link_img": "https://live.staticflickr.com/65535/50038716488_75988dcf3f_o.jpg",
    "id_image": "Alien_410857",
    "count_view": 0
  },
  {
    "link_thumb": "https://live.staticflickr.com/65535/50039106738_f97c4fb2c0_n.jpg",
    "id_album": "1204249541",
    "description": "Galaxy_921904",
    "title": "Galaxy_921904",
    "link_img": "https://live.staticflickr.com/65535/50039106738_7e5f6903a3_o.jpg",
    "id_image": "Galaxy_921904",
    "count_view": 0
  },
  {
    "link_thumb": "https://live.staticflickr.com/65535/50039901247_1f0e22a3e8_n.jpg",
    "id_album": "1204249541",
    "description": "Galaxy_505531",
    "title": "Galaxy_505531",
    "link_img": "https://live.staticflickr.com/65535/50039901247_ae5bf86863_o.jpg",
    "id_image": "Galaxy_505531",
    "count_view": 0
  },
  {
    "link_thumb": "https://live.staticflickr.com/65535/50041495157_622d057474_n.jpg",
    "id_album": "-1863373220",
    "description": "StarWars_881039",
    "title": "StarWars_881039",
    "link_img": "https://live.staticflickr.com/65535/50041495157_06e1b1be00_o.jpg",
    "id_image": "StarWars_881039",
    "count_view": 0
  },
  {
    "link_thumb": "https://live.staticflickr.com/65535/50041649862_527b2df2ce_n.jpg",
    "id_album": "2020068132",
    "description": "Vehicle_318705",
    "title": "Vehicle_318705",
    "link_img": "https://live.staticflickr.com/65535/50041649862_20534cd3fd_o.jpg",
    "id_image": "Vehicle_318705",
    "count_view": 0
  },
  {
    "link_thumb": "https://live.staticflickr.com/65535/50040777626_7a2c0206d1_n.jpg",
    "id_album": "2130067313",
    "description": "Spaceship_972703",
    "title": "Spaceship_972703",
    "link_img": "https://live.staticflickr.com/65535/50040777626_8c39ee6428_o.jpg",
    "id_image": "Spaceship_972703",
    "count_view": 0
  },
  {
    "link_thumb": "https://live.staticflickr.com/65535/50040143076_2727a224f2_n.jpg",
    "id_album": "-1102314093",
    "description": "Planets_867537",
    "title": "Planets_867537",
    "link_img": "https://live.staticflickr.com/65535/50040143076_f98210988b_o.jpg",
    "id_image": "Planets_867537",
    "count_view": 0
  },
  {
    "link_thumb": "https://live.staticflickr.com/65535/50039680392_d83ca7b55e_n.jpg",
    "id_album": "-1780971522",
    "description": "Biohazard_568514",
    "title": "Biohazard_568514",
    "link_img": "https://live.staticflickr.com/65535/50039680392_2299e9c4de_o.jpg",
    "id_image": "Biohazard_568514",
    "count_view": 0
  },
  {
    "link_thumb": "https://live.staticflickr.com/65535/50040267697_b9251d8c9e_n.jpg",
    "id_album": "1443611160",
    "description": "PlanetRise_375147",
    "title": "PlanetRise_375147",
    "link_img": "https://live.staticflickr.com/65535/50040267697_172726cc07_o.jpg",
    "id_image": "PlanetRise_375147",
    "count_view": 0
  },
  {
    "link_thumb": "https://live.staticflickr.com/65535/50039818501_17bc9a3f4a_n.jpg",
    "id_album": "-1610342324",
    "description": "Nebula_609711",
    "title": "Nebula_609711",
    "link_img": "https://live.staticflickr.com/65535/50039818501_cc69b4faa5_o.jpg",
    "id_image": "Nebula_609711",
    "count_view": 0
  },
  {
    "link_thumb": "https://live.staticflickr.com/65535/50040526978_624843fd30_n.jpg",
    "id_album": "-1863373220",
    "description": "StarWars_107423",
    "title": "StarWars_107423",
    "link_img": "https://live.staticflickr.com/65535/50040526978_6786180b30_o.jpg",
    "id_image": "StarWars_107423",
    "count_view": 0
  },
  {
    "link_thumb": "https://live.staticflickr.com/65535/50041209511_161614f5da_n.jpg",
    "id_album": "-1863373220",
    "description": "StarWars_669716",
    "title": "StarWars_669716",
    "link_img": "https://live.staticflickr.com/65535/50041209511_c6265262e4_o.jpg",
    "id_image": "StarWars_669716",
    "count_view": 0
  },
  {
    "link_thumb": "https://live.staticflickr.com/65535/50040388711_57a3bbc126_n.jpg",
    "id_album": "779690680",
    "description": "Robot_878416",
    "title": "Robot_878416",
    "link_img": "https://live.staticflickr.com/65535/50040388711_3650cf58c8_o.jpg",
    "id_image": "Robot_878416",
    "count_view": 0
  },
  {
    "link_thumb": "https://live.staticflickr.com/65535/50040301541_106e35beaa_n.jpg",
    "id_album": "779690680",
    "description": "Robot_396916",
    "title": "Robot_396916",
    "link_img": "https://live.staticflickr.com/65535/50040301541_d09ef59efe_o.jpg",
    "id_image": "Robot_396916",
    "count_view": 0
  },
  {
    "link_thumb": "https://live.staticflickr.com/65535/50039594553_d8996e1eff_n.jpg",
    "id_album": "-1102314093",
    "description": "Planets_924505",
    "title": "Planets_924505",
    "link_img": "https://live.staticflickr.com/65535/50039594553_647da04600_o.jpg",
    "id_image": "Planets_924505",
    "count_view": 0
  },
  {
    "link_thumb": "https://live.staticflickr.com/65535/50039734816_a1fe96429c_n.jpg",
    "id_album": "-1388385651",
    "description": "MilkyWay_592441",
    "title": "MilkyWay_592441",
    "link_img": "https://live.staticflickr.com/65535/50039734816_d3986cb655_o.jpg",
    "id_image": "MilkyWay_592441",
    "count_view": 0
  },
  {
    "link_thumb": "https://live.staticflickr.com/65535/50039538571_4edf4fc523_n.jpg",
    "id_album": "894679094",
    "description": "Collision_286795",
    "title": "Collision_286795",
    "link_img": "https://live.staticflickr.com/65535/50039538571_a1bd482b33_o.jpg",
    "id_image": "Collision_286795",
    "count_view": 0
  },
  {
    "link_thumb": "https://live.staticflickr.com/65535/50039287176_19abcdd680_n.jpg",
    "id_album": "-419633230",
    "description": "Apocalyptic_716245",
    "title": "Apocalyptic_716245",
    "link_img": "https://live.staticflickr.com/65535/50039287176_15c40e686d_o.jpg",
    "id_image": "Apocalyptic_716245",
    "count_view": 0
  },
  {
    "link_thumb": "https://live.staticflickr.com/65535/50039430931_35061c9088_n.jpg",
    "id_album": "-1964113117",
    "description": "City_103363",
    "title": "City_103363",
    "link_img": "https://live.staticflickr.com/65535/50039430931_1fa9557b44_o.jpg",
    "id_image": "City_103363",
    "count_view": 0
  },
  {
    "link_thumb": "https://live.staticflickr.com/65535/50040100302_23c1a5f3d4_n.jpg",
    "id_album": "-1610342324",
    "description": "Nebula_786599",
    "title": "Nebula_786599",
    "link_img": "https://live.staticflickr.com/65535/50040100302_1fa8f0a5cb_o.jpg",
    "id_image": "Nebula_786599",
    "count_view": 0
  },
  {
    "link_thumb": "https://live.staticflickr.com/65535/50040445181_de04459a4c_n.jpg",
    "id_album": "779690680",
    "description": "Robot_957105",
    "title": "Robot_957105",
    "link_img": "https://live.staticflickr.com/65535/50040445181_fb3c38d535_o.jpg",
    "id_image": "Robot_957105",
    "count_view": 0
  },
  {
    "link_thumb": "https://live.staticflickr.com/65535/50040931743_df1bb59b12_n.jpg",
    "id_album": "-1261420436",
    "description": "Warrior_713593",
    "title": "Warrior_713593",
    "link_img": "https://live.staticflickr.com/65535/50040931743_b8c2903c06_o.jpg",
    "id_image": "Warrior_713593",
    "count_view": 0
  },
  {
    "link_thumb": "https://live.staticflickr.com/65535/50039807081_1fb4da4527_n.jpg",
    "id_album": "-1610342324",
    "description": "Nebula_548311",
    "title": "Nebula_548311",
    "link_img": "https://live.staticflickr.com/65535/50039807081_d28e460ffd_o.jpg",
    "id_image": "Nebula_548311",
    "count_view": 0
  },
  {
    "link_thumb": "https://live.staticflickr.com/65535/50041718477_98d2279614_n.jpg",
    "id_album": "-1261420436",
    "description": "Warrior_386973",
    "title": "Warrior_386973",
    "link_img": "https://live.staticflickr.com/65535/50041718477_9f3a1fc707_o.jpg",
    "id_image": "Warrior_386973",
    "count_view": 0
  },
  {
    "link_thumb": "https://live.staticflickr.com/65535/50040384416_b4bc991b06_n.jpg",
    "id_album": "779690680",
    "description": "Robot_874029",
    "title": "Robot_874029",
    "link_img": "https://live.staticflickr.com/65535/50040384416_4dbe12890e_o.jpg",
    "id_image": "Robot_874029",
    "count_view": 0
  },
  {
    "link_thumb": "https://live.staticflickr.com/65535/50040761967_7021796001_n.jpg",
    "id_album": "1613540653",
    "description": "Space_343744",
    "title": "Space_343744",
    "link_img": "https://live.staticflickr.com/65535/50040761967_bde2ca9c7f_o.jpg",
    "id_image": "Space_343744",
    "count_view": 0
  },
  {
    "link_thumb": "https://live.staticflickr.com/65535/50040039557_f2246bfa81_n.jpg",
    "id_album": "-1610342324",
    "description": "Nebula_249135",
    "title": "Nebula_249135",
    "link_img": "https://live.staticflickr.com/65535/50040039557_a292e7109e_o.jpg",
    "id_image": "Nebula_249135",
    "count_view": 0
  },
  {
    "link_thumb": "https://live.staticflickr.com/65535/50040728587_ee062071db_n.jpg",
    "id_album": "1613540653",
    "description": "Space_112721",
    "title": "Space_112721",
    "link_img": "https://live.staticflickr.com/65535/50040728587_dd0847f4e4_o.jpg",
    "id_image": "Space_112721",
    "count_view": 0
  },
  {
    "link_thumb": "https://live.staticflickr.com/65535/50040190716_aacfc1f5bb_n.jpg",
    "id_album": "-482547208",
    "description": "PostApocalyptic_147450",
    "title": "PostApocalyptic_147450",
    "link_img": "https://live.staticflickr.com/65535/50040190716_c40bed19fd_o.jpg",
    "id_image": "PostApocalyptic_147450",
    "count_view": 0
  },
  {
    "link_thumb": "https://live.staticflickr.com/65535/50039520583_8d25929891_n.jpg",
    "id_album": "-1102314093",
    "description": "Planets_274825",
    "title": "Planets_274825",
    "link_img": "https://live.staticflickr.com/65535/50039520583_7dd0e257e3_o.jpg",
    "id_image": "Planets_274825",
    "count_view": 0
  },
  {
    "link_thumb": "https://live.staticflickr.com/65535/50038747103_28d7bb27f9_n.jpg",
    "id_album": "523598895",
    "description": "Artistic_116288",
    "title": "Artistic_116288",
    "link_img": "https://live.staticflickr.com/65535/50038747103_3656f952f8_o.jpg",
    "id_image": "Artistic_116288",
    "count_view": 0
  },
  {
    "link_thumb": "https://live.staticflickr.com/65535/50040804372_0e55de244a_n.jpg",
    "id_album": "1613540653",
    "description": "Space_78373",
    "title": "Space_78373",
    "link_img": "https://live.staticflickr.com/65535/50040804372_5c38aa0f49_o.jpg",
    "id_image": "Space_78373",
    "count_view": 0
  },
  {
    "link_thumb": "https://live.staticflickr.com/65535/50039643182_287fdbc577_n.jpg",
    "id_album": "869545341",
    "description": "Astronaut_923969",
    "title": "Astronaut_923969",
    "link_img": "https://live.staticflickr.com/65535/50039643182_36169e3746_o.jpg",
    "id_image": "Astronaut_923969",
    "count_view": 0
  },
  {
    "link_thumb": "https://live.staticflickr.com/65535/50039498061_e2c7e34ff0_n.jpg",
    "id_album": "-1964113117",
    "description": "City_799221",
    "title": "City_799221",
    "link_img": "https://live.staticflickr.com/65535/50039498061_f626fdfb50_o.jpg",
    "id_image": "City_799221",
    "count_view": 0
  },
  {
    "link_thumb": "https://live.staticflickr.com/65535/50039012128_9d92b4ba4c_n.jpg",
    "id_album": "-1372247677",
    "description": "Cyberpunk_373917",
    "title": "Cyberpunk_373917",
    "link_img": "https://live.staticflickr.com/65535/50039012128_2fb372241c_o.jpg",
    "id_image": "Cyberpunk_373917",
    "count_view": 0
  },
  {
    "link_thumb": "https://live.staticflickr.com/65535/50039805502_27d3f0f491_n.jpg",
    "id_album": "894679094",
    "description": "Collision_72061",
    "title": "Collision_72061",
    "link_img": "https://live.staticflickr.com/65535/50039805502_18299093eb_o.jpg",
    "id_image": "Collision_72061",
    "count_view": 0
  },
  {
    "link_thumb": "https://live.staticflickr.com/65535/50039916292_241f56f9b9_n.jpg",
    "id_album": "1204249541",
    "description": "Galaxy_76255",
    "title": "Galaxy_76255",
    "link_img": "https://live.staticflickr.com/65535/50039916292_f1f35cd166_o.jpg",
    "id_image": "Galaxy_76255",
    "count_view": 0
  },
  {
    "link_thumb": "https://live.staticflickr.com/65535/50041838027_44f3f76b19_n.jpg",
    "id_album": "-1675918237",
    "description": "WomenWarrior_480237",
    "title": "WomenWarrior_480237",
    "link_img": "https://live.staticflickr.com/65535/50041838027_d7f8126285_o.jpg",
    "id_image": "WomenWarrior_480237",
    "count_view": 0
  },
  {
    "link_thumb": "https://live.staticflickr.com/65535/50040325577_b3cd823c64_n.jpg",
    "id_album": "-1102314093",
    "description": "Planets_230082",
    "title": "Planets_230082",
    "link_img": "https://live.staticflickr.com/65535/50040325577_09d41c5938_o.jpg",
    "id_image": "Planets_230082",
    "count_view": 0
  },
  {
    "link_thumb": "https://live.staticflickr.com/65535/50040048442_42684ec362_n.jpg",
    "id_album": "-1610342324",
    "description": "Nebula_302312",
    "title": "Nebula_302312",
    "link_img": "https://live.staticflickr.com/65535/50040048442_04ee74624a_o.jpg",
    "id_image": "Nebula_302312",
    "count_view": 0
  },
  {
    "link_thumb": "https://live.staticflickr.com/65535/50039472801_77208730d2_n.jpg",
    "id_album": "-1964113117",
    "description": "City_489400",
    "title": "City_489400",
    "link_img": "https://live.staticflickr.com/65535/50039472801_1695aa1174_o.jpg",
    "id_image": "City_489400",
    "count_view": 0
  },
  {
    "link_thumb": "https://live.staticflickr.com/65535/50040553947_5db6de7077_n.jpg",
    "id_album": "779690680",
    "description": "Robot_325642",
    "title": "Robot_325642",
    "link_img": "https://live.staticflickr.com/65535/50040553947_1058e8661a_o.jpg",
    "id_image": "Robot_325642",
    "count_view": 0
  },
  {
    "link_thumb": "https://live.staticflickr.com/65535/50039248726_17ab597e17_n.jpg",
    "id_album": "849020728",
    "description": "Alien_178710",
    "title": "Alien_178710",
    "link_img": "https://live.staticflickr.com/65535/50039248726_51fc613551_o.jpg",
    "id_image": "Alien_178710",
    "count_view": 0
  },
  {
    "link_thumb": "https://live.staticflickr.com/65535/50039285238_a2b5615b45_n.jpg",
    "id_album": "-1610342324",
    "description": "Nebula_772694",
    "title": "Nebula_772694",
    "link_img": "https://live.staticflickr.com/65535/50039285238_0d8c071f4a_o.jpg",
    "id_image": "Nebula_772694",
    "count_view": 0
  },
  {
    "link_thumb": "https://live.staticflickr.com/65535/50040388982_0e91d75b11_n.jpg",
    "id_album": "-1102314093",
    "description": "Planets_546966",
    "title": "Planets_546966",
    "link_img": "https://live.staticflickr.com/65535/50040388982_1d64cc3377_o.jpg",
    "id_image": "Planets_546966",
    "count_view": 0
  },
  {
    "link_thumb": "https://live.staticflickr.com/65535/50039892393_1d6b366433_n.jpg",
    "id_album": "779690680",
    "description": "Robot_959169",
    "title": "Robot_959169",
    "link_img": "https://live.staticflickr.com/65535/50039892393_69cd244856_o.jpg",
    "id_image": "Robot_959169",
    "count_view": 0
  },
  {
    "link_thumb": "https://live.staticflickr.com/65535/50039763901_438919447f_n.jpg",
    "id_album": "-1610342324",
    "description": "Nebula_169803",
    "title": "Nebula_169803",
    "link_img": "https://live.staticflickr.com/65535/50039763901_b03d7c685e_o.jpg",
    "id_image": "Nebula_169803",
    "count_view": 0
  },
  {
    "link_thumb": "https://live.staticflickr.com/65535/50039844862_f989440e91_n.jpg",
    "id_album": "829169633",
    "description": "Cyborg_240574",
    "title": "Cyborg_240574",
    "link_img": "https://live.staticflickr.com/65535/50039844862_9486c6daf8_o.jpg",
    "id_image": "Cyborg_240574",
    "count_view": 0
  },
  {
    "link_thumb": "https://live.staticflickr.com/65535/50040899208_50799e323c_n.jpg",
    "id_album": "-1261420436",
    "description": "Warrior_373915",
    "title": "Warrior_373915",
    "link_img": "https://live.staticflickr.com/65535/50040899208_3966f97b48_o.jpg",
    "id_image": "Warrior_373915",
    "count_view": 0
  },
  {
    "link_thumb": "https://live.staticflickr.com/65535/50039532931_52c99c26e8_n.jpg",
    "id_album": "-1964113117",
    "description": "City_990157",
    "title": "City_990157",
    "link_img": "https://live.staticflickr.com/65535/50039532931_24ae8fb7bd_o.jpg",
    "id_image": "City_990157",
    "count_view": 0
  },
  {
    "link_thumb": "https://live.staticflickr.com/65535/50039445301_2c2b38c486_n.jpg",
    "id_album": "-1964113117",
    "description": "City_208677",
    "title": "City_208677",
    "link_img": "https://live.staticflickr.com/65535/50039445301_150035a513_o.jpg",
    "id_image": "City_208677",
    "count_view": 0
  },
  {
    "link_thumb": "https://live.staticflickr.com/65535/50039273976_bf221613b4_n.jpg",
    "id_album": "849020728",
    "description": "Alien_730414",
    "title": "Alien_730414",
    "link_img": "https://live.staticflickr.com/65535/50039273976_cc404e9ab9_o.jpg",
    "id_image": "Alien_730414",
    "count_view": 0
  },
  {
    "link_thumb": "https://live.staticflickr.com/65535/50040678432_791f67d003_n.jpg",
    "id_album": "779690680",
    "description": "Robot_915582",
    "title": "Robot_915582",
    "link_img": "https://live.staticflickr.com/65535/50040678432_77d99501fd_o.jpg",
    "id_image": "Robot_915582",
    "count_view": 0
  },
  {
    "link_thumb": "https://live.staticflickr.com/65535/50039606456_e04a839e10_n.jpg",
    "id_album": "829169633",
    "description": "Cyborg_964102",
    "title": "Cyborg_964102",
    "link_img": "https://live.staticflickr.com/65535/50039606456_c8c59d4ff1_o.jpg",
    "id_image": "Cyborg_964102",
    "count_view": 0
  },
  {
    "link_thumb": "https://live.staticflickr.com/65535/50038906793_44291829a3_n.jpg",
    "id_album": "-1964113117",
    "description": "City_265068",
    "title": "City_265068",
    "link_img": "https://live.staticflickr.com/65535/50038906793_43b369d428_o.jpg",
    "id_image": "City_265068",
    "count_view": 0
  },
  {
    "link_thumb": "https://live.staticflickr.com/65535/50040113671_d537c478f9_n.jpg",
    "id_album": "-1102314093",
    "description": "Planets_426127",
    "title": "Planets_426127",
    "link_img": "https://live.staticflickr.com/65535/50040113671_d1cdd7fc6d_o.jpg",
    "id_image": "Planets_426127",
    "count_view": 0
  },
  {
    "link_thumb": "https://live.staticflickr.com/65535/50039497947_6116e7ddd0_n.jpg",
    "id_album": "-406145265",
    "description": "Aircraft_269232",
    "title": "Aircraft_269232",
    "link_img": "https://live.staticflickr.com/65535/50039497947_10750e8705_o.jpg",
    "id_image": "Aircraft_269232",
    "count_view": 0
  },
  {
    "link_thumb": "https://live.staticflickr.com/65535/50040782427_f030ec117f_n.jpg",
    "id_album": "1613540653",
    "description": "Space_62009",
    "title": "Space_62009",
    "link_img": "https://live.staticflickr.com/65535/50040782427_4dac6eeeda_o.jpg",
    "id_image": "Space_62009",
    "count_view": 0
  },
  {
    "link_thumb": "https://live.staticflickr.com/65535/50039375368_77e90053a8_n.jpg",
    "id_album": "395161030",
    "description": "Planet_287007",
    "title": "Planet_287007",
    "link_img": "https://live.staticflickr.com/65535/50039375368_1f0d52b35b_o.jpg",
    "id_image": "Planet_287007",
    "count_view": 0
  },
  {
    "link_thumb": "https://live.staticflickr.com/65535/50040067441_2929c7e767_n.jpg",
    "id_album": "-1102314093",
    "description": "Planets_25111",
    "title": "Planets_25111",
    "link_img": "https://live.staticflickr.com/65535/50040067441_6c39951352_o.jpg",
    "id_image": "Planets_25111",
    "count_view": 0
  },
  {
    "link_thumb": "https://live.staticflickr.com/65535/50039409266_9ee1190df3_n.jpg",
    "id_album": "1187037014",
    "description": "Battle_957796",
    "title": "Battle_957796",
    "link_img": "https://live.staticflickr.com/65535/50039409266_a576a93bf6_o.jpg",
    "id_image": "Battle_957796",
    "count_view": 0
  },
  {
    "link_thumb": "https://live.staticflickr.com/65535/50038863058_74f234ff1d_n.jpg",
    "id_album": "-1780971522",
    "description": "Biohazard_274059",
    "title": "Biohazard_274059",
    "link_img": "https://live.staticflickr.com/65535/50038863058_08c7c56404_o.jpg",
    "id_image": "Biohazard_274059",
    "count_view": 0
  },
  {
    "link_thumb": "https://live.staticflickr.com/65535/50039593737_dffe463bbf_n.jpg",
    "id_album": "523598895",
    "description": "Artistic_377581",
    "title": "Artistic_377581",
    "link_img": "https://live.staticflickr.com/65535/50039593737_ef29f4b582_o.jpg",
    "id_image": "Artistic_377581",
    "count_view": 0
  },
  {
    "link_thumb": "https://live.staticflickr.com/65535/50039506957_7881135a1e_n.jpg",
    "id_album": "849020728",
    "description": "Alien_120336",
    "title": "Alien_120336",
    "link_img": "https://live.staticflickr.com/65535/50039506957_4134d17aff_o.jpg",
    "id_image": "Alien_120336",
    "count_view": 0
  },
  {
    "link_thumb": "https://live.staticflickr.com/65535/50039889536_818c2935dd_n.jpg",
    "id_album": "-1862561193",
    "description": "Other_308642",
    "title": "Other_308642",
    "link_img": "https://live.staticflickr.com/65535/50039889536_5cb3ec9076_o.jpg",
    "id_image": "Other_308642",
    "count_view": 0
  },
  {
    "link_thumb": "https://live.staticflickr.com/65535/50039215313_3eba38ec0f_n.jpg",
    "id_album": "-1610342324",
    "description": "Nebula_179721",
    "title": "Nebula_179721",
    "link_img": "https://live.staticflickr.com/65535/50039215313_1bb7253b20_o.jpg",
    "id_image": "Nebula_179721",
    "count_view": 0
  },
  {
    "link_thumb": "https://live.staticflickr.com/65535/50038686793_28f6a10bdc_n.jpg",
    "id_album": "-406145265",
    "description": "Aircraft_145431",
    "title": "Aircraft_145431",
    "link_img": "https://live.staticflickr.com/65535/50038686793_6fdb989b73_o.jpg",
    "id_image": "Aircraft_145431",
    "count_view": 0
  },
  {
    "link_thumb": "https://live.staticflickr.com/65535/50039210763_25e791aed3_n.jpg",
    "id_album": "-1610342324",
    "description": "Nebula_1011241",
    "title": "Nebula_1011241",
    "link_img": "https://live.staticflickr.com/65535/50039210763_c24c5b0e18_o.jpg",
    "id_image": "Nebula_1011241",
    "count_view": 0
  },
  {
    "link_thumb": "https://live.staticflickr.com/65535/50041442301_9662d5c46c_n.jpg",
    "id_album": "-1261420436",
    "description": "Warrior_280873",
    "title": "Warrior_280873",
    "link_img": "https://live.staticflickr.com/65535/50041442301_7ff5191e93_o.jpg",
    "id_image": "Warrior_280873",
    "count_view": 0
  },
  {
    "link_thumb": "https://live.staticflickr.com/65535/50039880307_5eb75febf4_n.jpg",
    "id_album": "2104507156",
    "description": "Fantasy_176577",
    "title": "Fantasy_176577",
    "link_img": "https://live.staticflickr.com/65535/50039880307_884c509da7_o.jpg",
    "id_image": "Fantasy_176577",
    "count_view": 0
  },
  {
    "link_thumb": "https://live.staticflickr.com/65535/50039912838_cb5700be39_n.jpg",
    "id_album": "1613540653",
    "description": "Space_129295",
    "title": "Space_129295",
    "link_img": "https://live.staticflickr.com/65535/50039912838_0cfffb63fa_o.jpg",
    "id_image": "Space_129295",
    "count_view": 0
  },
  {
    "link_thumb": "https://live.staticflickr.com/65535/50040033432_c0ed04d06f_n.jpg",
    "id_album": "-1610342324",
    "description": "Nebula_208618",
    "title": "Nebula_208618",
    "link_img": "https://live.staticflickr.com/65535/50040033432_83a35d9377_o.jpg",
    "id_image": "Nebula_208618",
    "count_view": 0
  },
  {
    "link_thumb": "https://live.staticflickr.com/65535/50039950516_1bc6d034fd_n.jpg",
    "id_album": "395161030",
    "description": "Planet_461202",
    "title": "Planet_461202",
    "link_img": "https://live.staticflickr.com/65535/50039950516_4c124cc204_o.jpg",
    "id_image": "Planet_461202",
    "count_view": 0
  },
  {
    "link_thumb": "https://live.staticflickr.com/65535/50039831358_b329178d50_n.jpg",
    "id_album": "779690680",
    "description": "Robot_874028",
    "title": "Robot_874028",
    "link_img": "https://live.staticflickr.com/65535/50039831358_bed6b08a00_o.jpg",
    "id_image": "Robot_874028",
    "count_view": 0
  },
  {
    "link_thumb": "https://live.staticflickr.com/65535/50040058722_0357a6e4ee_n.jpg",
    "id_album": "-1610342324",
    "description": "Nebula_421987",
    "title": "Nebula_421987",
    "link_img": "https://live.staticflickr.com/65535/50040058722_9911cd4de8_o.jpg",
    "id_image": "Nebula_421987",
    "count_view": 0
  },
  {
    "link_thumb": "https://live.staticflickr.com/65535/50040112576_e4a02f7b84_n.jpg",
    "id_album": "-1102314093",
    "description": "Planets_419641",
    "title": "Planets_419641",
    "link_img": "https://live.staticflickr.com/65535/50040112576_87ee461c2f_o.jpg",
    "id_image": "Planets_419641",
    "count_view": 0
  },
  {
    "link_thumb": "https://live.staticflickr.com/65535/50039744212_299cfd8944_n.jpg",
    "id_album": "-1964113117",
    "description": "City_616579",
    "title": "City_616579",
    "link_img": "https://live.staticflickr.com/65535/50039744212_8caae0a7a8_o.jpg",
    "id_image": "City_616579",
    "count_view": 0
  },
  {
    "link_thumb": "https://live.staticflickr.com/65535/50040223852_3b6e9c7fd2_n.jpg",
    "id_album": "395161030",
    "description": "Planet_558454",
    "title": "Planet_558454",
    "link_img": "https://live.staticflickr.com/65535/50040223852_1ac1b80057_o.jpg",
    "id_image": "Planet_558454",
    "count_view": 0
  },
  {
    "link_thumb": "https://live.staticflickr.com/65535/50040263522_06a220168d_n.jpg",
    "id_album": "1443611160",
    "description": "PlanetRise_287016",
    "title": "PlanetRise_287016",
    "link_img": "https://live.staticflickr.com/65535/50040263522_23640c196b_o.jpg",
    "id_image": "PlanetRise_287016",
    "count_view": 0
  },
  {
    "link_thumb": "https://live.staticflickr.com/65535/50039111453_1a3b6db2bf_n.jpg",
    "id_album": "1402713104",
    "description": "Landscape_129183",
    "title": "Landscape_129183",
    "link_img": "https://live.staticflickr.com/65535/50039111453_1c9713a3ce_o.jpg",
    "id_image": "Landscape_129183",
    "count_view": 0
  },
  {
    "link_thumb": "https://live.staticflickr.com/65535/50038989638_c156c486c6_n.jpg",
    "id_album": "894679094",
    "description": "Collision_280041",
    "title": "Collision_280041",
    "link_img": "https://live.staticflickr.com/65535/50038989638_721b223bb4_o.jpg",
    "id_image": "Collision_280041",
    "count_view": 0
  },
  {
    "link_thumb": "https://live.staticflickr.com/65535/50039623611_283cc89fb9_n.jpg",
    "id_album": "1204249541",
    "description": "Galaxy_1006931",
    "title": "Galaxy_1006931",
    "link_img": "https://live.staticflickr.com/65535/50039623611_2e06dbaa88_o.jpg",
    "id_image": "Galaxy_1006931",
    "count_view": 0
  },
  {
    "link_thumb": "https://live.staticflickr.com/65535/50039860813_000586cf3b_n.jpg",
    "id_album": "779690680",
    "description": "Robot_917204",
    "title": "Robot_917204",
    "link_img": "https://live.staticflickr.com/65535/50039860813_2ea3692efa_o.jpg",
    "id_image": "Robot_917204",
    "count_view": 0
  },
  {
    "link_thumb": "https://live.staticflickr.com/65535/50040164682_9dca1140b1_n.jpg",
    "id_album": "395161030",
    "description": "Planet_1004882",
    "title": "Planet_1004882",
    "link_img": "https://live.staticflickr.com/65535/50040164682_ec080948b9_o.jpg",
    "id_image": "Planet_1004882",
    "count_view": 0
  },
  {
    "link_thumb": "https://live.staticflickr.com/65535/50041269821_07d29ffde5_n.jpg",
    "id_album": "-1587696329",
    "description": "Stars_458289",
    "title": "Stars_458289",
    "link_img": "https://live.staticflickr.com/65535/50041269821_45323dc392_o.jpg",
    "id_image": "Stars_458289",
    "count_view": 0
  },
  {
    "link_thumb": "https://live.staticflickr.com/65535/50040725792_13c1fcff0a_n.jpg",
    "id_album": "1613540653",
    "description": "Space_1008435",
    "title": "Space_1008435",
    "link_img": "https://live.staticflickr.com/65535/50040725792_a499983ce5_o.jpg",
    "id_image": "Space_1008435",
    "count_view": 0
  },
  {
    "link_thumb": "https://live.staticflickr.com/65535/50039954937_e5ded77b84_n.jpg",
    "id_album": "1402713104",
    "description": "Landscape_523833",
    "title": "Landscape_523833",
    "link_img": "https://live.staticflickr.com/65535/50039954937_c83acc8263_o.jpg",
    "id_image": "Landscape_523833",
    "count_view": 0
  },
  {
    "link_thumb": "https://live.staticflickr.com/65535/50040121692_be4e62fef4_n.jpg",
    "id_album": "-1610342324",
    "description": "Nebula_957879",
    "title": "Nebula_957879",
    "link_img": "https://live.staticflickr.com/65535/50040121692_c1ea33f56d_o.jpg",
    "id_image": "Nebula_957879",
    "count_view": 0
  },
  {
    "link_thumb": "https://live.staticflickr.com/65535/50039075903_8af718ea2c_n.jpg",
    "id_album": "1204249541",
    "description": "Galaxy_169667",
    "title": "Galaxy_169667",
    "link_img": "https://live.staticflickr.com/65535/50039075903_bd09acb6a8_o.jpg",
    "id_image": "Galaxy_169667",
    "count_view": 0
  },
  {
    "link_thumb": "https://live.staticflickr.com/65535/50039380941_efc7222aec_n.jpg",
    "id_album": "869545341",
    "description": "Astronaut_924285",
    "title": "Astronaut_924285",
    "link_img": "https://live.staticflickr.com/65535/50039380941_fbeb0bc960_o.jpg",
    "id_image": "Astronaut_924285",
    "count_view": 0
  },
  {
    "link_thumb": "https://live.staticflickr.com/65535/50040710741_9a5b9ea642_n.jpg",
    "id_album": "2130067313",
    "description": "Spaceship_532547",
    "title": "Spaceship_532547",
    "link_img": "https://live.staticflickr.com/65535/50040710741_a1ba32cc25_o.jpg",
    "id_image": "Spaceship_532547",
    "count_view": 0
  },
  {
    "link_thumb": "https://live.staticflickr.com/65535/50038723368_2c932f44cc_n.jpg",
    "id_album": "849020728",
    "description": "Alien_592249",
    "title": "Alien_592249",
    "link_img": "https://live.staticflickr.com/65535/50038723368_12485c47f3_o.jpg",
    "id_image": "Alien_592249",
    "count_view": 0
  },
  {
    "link_thumb": "https://live.staticflickr.com/65535/50039676362_fb5c375f64_n.jpg",
    "id_album": "-1780971522",
    "description": "Biohazard_342801",
    "title": "Biohazard_342801",
    "link_img": "https://live.staticflickr.com/65535/50039676362_745e1337ce_o.jpg",
    "id_image": "Biohazard_342801",
    "count_view": 0
  },
  {
    "link_thumb": "https://live.staticflickr.com/65535/50038929668_3d7cb27948_n.jpg",
    "id_album": "-1964113117",
    "description": "City_558457",
    "title": "City_558457",
    "link_img": "https://live.staticflickr.com/65535/50038929668_9fce85c600_o.jpg",
    "id_image": "City_558457",
    "count_view": 0
  },
  {
    "link_thumb": "https://live.staticflickr.com/65535/50039880378_8bbfcfbb7d_n.jpg",
    "id_album": "779690680",
    "description": "Robot_940953",
    "title": "Robot_940953",
    "link_img": "https://live.staticflickr.com/65535/50039880378_3f764b3171_o.jpg",
    "id_image": "Robot_940953",
    "count_view": 0
  },
  {
    "link_thumb": "https://live.staticflickr.com/65535/50038886143_3a47dd3760_n.jpg",
    "id_album": "-1964113117",
    "description": "City_145430",
    "title": "City_145430",
    "link_img": "https://live.staticflickr.com/65535/50038886143_47014d32b6_o.jpg",
    "id_image": "City_145430",
    "count_view": 0
  },
  {
    "link_thumb": "https://live.staticflickr.com/65535/50040416641_74d025139b_n.jpg",
    "id_album": "779690680",
    "description": "Robot_920332",
    "title": "Robot_920332",
    "link_img": "https://live.staticflickr.com/65535/50040416641_a41be9a945_o.jpg",
    "id_image": "Robot_920332",
    "count_view": 0
  },
  {
    "link_thumb": "https://live.staticflickr.com/65535/50039348046_713a389b43_n.jpg",
    "id_album": "869545341",
    "description": "Astronaut_1001790",
    "title": "Astronaut_1001790",
    "link_img": "https://live.staticflickr.com/65535/50039348046_abb0eccd71_o.jpg",
    "id_image": "Astronaut_1001790",
    "count_view": 0
  },
  {
    "link_thumb": "https://live.staticflickr.com/65535/50040390357_3e582b67b9_n.jpg",
    "id_album": "-1102314093",
    "description": "Planets_596027",
    "title": "Planets_596027",
    "link_img": "https://live.staticflickr.com/65535/50040390357_6fb11583df_o.jpg",
    "id_image": "Planets_596027",
    "count_view": 0
  },
  {
    "link_thumb": "https://live.staticflickr.com/65535/50039499892_e042354aec_n.jpg",
    "id_album": "-406145265",
    "description": "Aircraft_341261",
    "title": "Aircraft_341261",
    "link_img": "https://live.staticflickr.com/65535/50039499892_deb2b34c4c_o.jpg",
    "id_image": "Aircraft_341261",
    "count_view": 0
  },
  {
    "link_thumb": "https://live.staticflickr.com/65535/50039551007_400da181ac_n.jpg",
    "id_album": "-419633230",
    "description": "Apocalyptic_957443",
    "title": "Apocalyptic_957443",
    "link_img": "https://live.staticflickr.com/65535/50039551007_3d5f11a74a_o.jpg",
    "id_image": "Apocalyptic_957443",
    "count_view": 0
  },
  {
    "link_thumb": "https://live.staticflickr.com/65535/50040519217_5f0c467647_n.jpg",
    "id_album": "779690680",
    "description": "Robot_145931",
    "title": "Robot_145931",
    "link_img": "https://live.staticflickr.com/65535/50040519217_34831e1eab_o.jpg",
    "id_image": "Robot_145931",
    "count_view": 0
  },
  {
    "link_thumb": "https://live.staticflickr.com/65535/50038871283_70987feca7_n.jpg",
    "id_album": "-1780971522",
    "description": "Biohazard_633661",
    "title": "Biohazard_633661",
    "link_img": "https://live.staticflickr.com/65535/50038871283_ec1c6c97dd_o.jpg",
    "id_image": "Biohazard_633661",
    "count_view": 0
  },
  {
    "link_thumb": "https://live.staticflickr.com/65535/50040115831_3ffc6895e1_n.jpg",
    "id_album": "-1102314093",
    "description": "Planets_439169",
    "title": "Planets_439169",
    "link_img": "https://live.staticflickr.com/65535/50040115831_11b882951d_o.jpg",
    "id_image": "Planets_439169",
    "count_view": 0
  },
  {
    "link_thumb": "https://live.staticflickr.com/65535/50039607112_95b5a6d751_n.jpg",
    "id_album": "523598895",
    "description": "Artistic_857266",
    "title": "Artistic_857266",
    "link_img": "https://live.staticflickr.com/65535/50039607112_1b7fba34c7_o.jpg",
    "id_image": "Artistic_857266",
    "count_view": 0
  },
  {
    "link_thumb": "https://live.staticflickr.com/65535/50041382631_bc66cd7910_n.jpg",
    "id_album": "2020068132",
    "description": "Vehicle_269322",
    "title": "Vehicle_269322",
    "link_img": "https://live.staticflickr.com/65535/50041382631_3128c2a527_o.jpg",
    "id_image": "Vehicle_269322",
    "count_view": 0
  },
  {
    "link_thumb": "https://live.staticflickr.com/65535/50039730278_74eda11a41_n.jpg",
    "id_album": "779690680",
    "description": "Robot_291956",
    "title": "Robot_291956",
    "link_img": "https://live.staticflickr.com/65535/50039730278_4f854ed7fa_o.jpg",
    "id_image": "Robot_291956",
    "count_view": 0
  },
  {
    "link_thumb": "https://live.staticflickr.com/65535/50039295466_7bdfb4c4c4_n.jpg",
    "id_album": "523598895",
    "description": "Artistic_123759",
    "title": "Artistic_123759",
    "link_img": "https://live.staticflickr.com/65535/50039295466_54c4df2a56_o.jpg",
    "id_image": "Artistic_123759",
    "count_view": 0
  },
  {
    "link_thumb": "https://live.staticflickr.com/65535/50038702233_da630c7db1_n.jpg",
    "id_album": "849020728",
    "description": "Alien_179102",
    "title": "Alien_179102",
    "link_img": "https://live.staticflickr.com/65535/50038702233_96f47b9dbd_o.jpg",
    "id_image": "Alien_179102",
    "count_view": 0
  },
  {
    "link_thumb": "https://live.staticflickr.com/65535/50039859741_041770b567_n.jpg",
    "id_album": "-1862561193",
    "description": "Other_102563",
    "title": "Other_102563",
    "link_img": "https://live.staticflickr.com/65535/50039859741_219f454284_o.jpg",
    "id_image": "Other_102563",
    "count_view": 0
  },
  {
    "link_thumb": "https://live.staticflickr.com/65535/50039521637_61d851d851_n.jpg",
    "id_album": "849020728",
    "description": "Alien_304601",
    "title": "Alien_304601",
    "link_img": "https://live.staticflickr.com/65535/50039521637_8d07e84d2c_o.jpg",
    "id_image": "Alien_304601",
    "count_view": 0
  },
  {
    "link_thumb": "https://live.staticflickr.com/65535/50041814197_dcb751a83d_n.jpg",
    "id_album": "-1126835654",
    "description": "Women_928326",
    "title": "Women_928326",
    "link_img": "https://live.staticflickr.com/65535/50041814197_b21befe9b3_o.jpg",
    "id_image": "Women_928326",
    "count_view": 0
  },
  {
    "link_thumb": "https://live.staticflickr.com/65535/50041574461_699d2d5bfd_n.jpg",
    "id_album": "-1675918237",
    "description": "WomenWarrior_410152",
    "title": "WomenWarrior_410152",
    "link_img": "https://live.staticflickr.com/65535/50041574461_e442702eb4_o.jpg",
    "id_image": "WomenWarrior_410152",
    "count_view": 0
  },
  {
    "link_thumb": "https://live.staticflickr.com/65535/50039925416_1a4186db20_n.jpg",
    "id_album": "395161030",
    "description": "Planet_294959",
    "title": "Planet_294959",
    "link_img": "https://live.staticflickr.com/65535/50039925416_29ec6781ce_o.jpg",
    "id_image": "Planet_294959",
    "count_view": 0
  },
  {
    "link_thumb": "https://live.staticflickr.com/65535/50041191301_100cc3f929_n.jpg",
    "id_album": "-1863373220",
    "description": "StarWars_558938",
    "title": "StarWars_558938",
    "link_img": "https://live.staticflickr.com/65535/50041191301_d5d48918f5_o.jpg",
    "id_image": "StarWars_558938",
    "count_view": 0
  },
  {
    "link_thumb": "https://live.staticflickr.com/65535/50041383026_5e9057bb1e_n.jpg",
    "id_album": "2020068132",
    "description": "Vehicle_269848",
    "title": "Vehicle_269848",
    "link_img": "https://live.staticflickr.com/65535/50041383026_a2eb76c669_o.jpg",
    "id_image": "Vehicle_269848",
    "count_view": 0
  },
  {
    "link_thumb": "https://live.staticflickr.com/65535/50041035193_38318f7b53_n.jpg",
    "id_album": "-1675918237",
    "description": "WomenWarrior_867370",
    "title": "WomenWarrior_867370",
    "link_img": "https://live.staticflickr.com/65535/50041035193_e8508eeede_o.jpg",
    "id_image": "WomenWarrior_867370",
    "count_view": 0
  },
  {
    "link_thumb": "https://live.staticflickr.com/65535/50038974248_2205819762_n.jpg",
    "id_album": "-1964113117",
    "description": "City_925920",
    "title": "City_925920",
    "link_img": "https://live.staticflickr.com/65535/50038974248_fa08f5fb82_o.jpg",
    "id_image": "City_925920",
    "count_view": 0
  },
  {
    "link_thumb": "https://live.staticflickr.com/65535/50041629317_f5ae289678_n.jpg",
    "id_album": "-1177476763",
    "description": "Sunrise_464101",
    "title": "Sunrise_464101",
    "link_img": "https://live.staticflickr.com/65535/50041629317_4aac5c40f0_o.jpg",
    "id_image": "Sunrise_464101",
    "count_view": 0
  },
  {
    "link_thumb": "https://live.staticflickr.com/65535/50039114988_e17c782d9b_n.jpg",
    "id_album": "1402713104",
    "description": "Landscape_189233",
    "title": "Landscape_189233",
    "link_img": "https://live.staticflickr.com/65535/50039114988_61bf52bf4e_o.jpg",
    "id_image": "Landscape_189233",
    "count_view": 0
  },
  {
    "link_thumb": "https://live.staticflickr.com/65535/50039205048_42075e325c_n.jpg",
    "id_album": "416351698",
    "description": "Moon_226142",
    "title": "Moon_226142",
    "link_img": "https://live.staticflickr.com/65535/50039205048_dc0266d03c_o.jpg",
    "id_image": "Moon_226142",
    "count_view": 0
  },
  {
    "link_thumb": "https://live.staticflickr.com/65535/50039988213_0c1bb94def_n.jpg",
    "id_album": "1613540653",
    "description": "Space_822456",
    "title": "Space_822456",
    "link_img": "https://live.staticflickr.com/65535/50039988213_af63c25a55_o.jpg",
    "id_image": "Space_822456",
    "count_view": 0
  },
  {
    "link_thumb": "https://live.staticflickr.com/65535/50039361246_096a1e213e_n.jpg",
    "id_album": "869545341",
    "description": "Astronaut_653552",
    "title": "Astronaut_653552",
    "link_img": "https://live.staticflickr.com/65535/50039361246_624175233e_o.jpg",
    "id_image": "Astronaut_653552",
    "count_view": 0
  },
  {
    "link_thumb": "https://live.staticflickr.com/65535/50040079132_9157a4d09c_n.jpg",
    "id_album": "-1610342324",
    "description": "Nebula_594998",
    "title": "Nebula_594998",
    "link_img": "https://live.staticflickr.com/65535/50040079132_8598831e71_o.jpg",
    "id_image": "Nebula_594998",
    "count_view": 0
  },
  {
    "link_thumb": "https://live.staticflickr.com/65535/50039703068_b81521f01d_n.jpg",
    "id_album": "779690680",
    "description": "Robot_152156",
    "title": "Robot_152156",
    "link_img": "https://live.staticflickr.com/65535/50039703068_ba76896543_o.jpg",
    "id_image": "Robot_152156",
    "count_view": 0
  },
  {
    "link_thumb": "https://live.staticflickr.com/65535/50038692053_9058bba008_n.jpg",
    "id_album": "-406145265",
    "description": "Aircraft_391137",
    "title": "Aircraft_391137",
    "link_img": "https://live.staticflickr.com/65535/50038692053_7ae2bb814b_o.jpg",
    "id_image": "Aircraft_391137",
    "count_view": 0
  },
  {
    "link_thumb": "https://live.staticflickr.com/65535/50039863602_c534d4364f_n.jpg",
    "id_album": "829169633",
    "description": "Cyborg_725535",
    "title": "Cyborg_725535",
    "link_img": "https://live.staticflickr.com/65535/50039863602_e2685becef_o.jpg",
    "id_image": "Cyborg_725535",
    "count_view": 0
  },
  {
    "link_thumb": "https://live.staticflickr.com/65535/50041154141_fe68c417e0_n.jpg",
    "id_album": "-1863373220",
    "description": "StarWars_248869",
    "title": "StarWars_248869",
    "link_img": "https://live.staticflickr.com/65535/50041154141_997845326d_o.jpg",
    "id_image": "StarWars_248869",
    "count_view": 0
  },
  {
    "link_thumb": "https://live.staticflickr.com/65535/50039077088_6d7db12d15_n.jpg",
    "id_album": "1204249541",
    "description": "Galaxy_202391",
    "title": "Galaxy_202391",
    "link_img": "https://live.staticflickr.com/65535/50039077088_4492600740_o.jpg",
    "id_image": "Galaxy_202391",
    "count_view": 0
  },
  {
    "link_thumb": "https://live.staticflickr.com/65535/50039384698_be5257c054_n.jpg",
    "id_album": "395161030",
    "description": "Planet_349928",
    "title": "Planet_349928",
    "link_img": "https://live.staticflickr.com/65535/50039384698_dd0e1c9315_o.jpg",
    "id_image": "Planet_349928",
    "count_view": 0
  },
  {
    "link_thumb": "https://live.staticflickr.com/65535/50039962972_baf6afaa04_n.jpg",
    "id_album": "1402713104",
    "description": "Landscape_6777",
    "title": "Landscape_6777",
    "link_img": "https://live.staticflickr.com/65535/50039962972_d7e6744dac_o.jpg",
    "id_image": "Landscape_6777",
    "count_view": 0
  },
  {
    "link_thumb": "https://live.staticflickr.com/65535/50039758702_135ebdfed1_n.jpg",
    "id_album": "-1964113117",
    "description": "City_778962",
    "title": "City_778962",
    "link_img": "https://live.staticflickr.com/65535/50039758702_942179a674_o.jpg",
    "id_image": "City_778962",
    "count_view": 0
  },
  {
    "link_thumb": "https://live.staticflickr.com/65535/50039629922_73bf3b2918_n.jpg",
    "id_album": "869545341",
    "description": "Astronaut_801382",
    "title": "Astronaut_801382",
    "link_img": "https://live.staticflickr.com/65535/50039629922_83a3c844f7_o.jpg",
    "id_image": "Astronaut_801382",
    "count_view": 0
  },
  {
    "link_thumb": "https://live.staticflickr.com/65535/50039973491_9dfefd01f0_n.jpg",
    "id_album": "395161030",
    "description": "Planet_726983",
    "title": "Planet_726983",
    "link_img": "https://live.staticflickr.com/65535/50039973491_1189a69902_o.jpg",
    "id_image": "Planet_726983",
    "count_view": 0
  },
  {
    "link_thumb": "https://live.staticflickr.com/65535/50039312376_70ef216dd7_n.jpg",
    "id_album": "523598895",
    "description": "Artistic_206198",
    "title": "Artistic_206198",
    "link_img": "https://live.staticflickr.com/65535/50039312376_d767e4c2d5_o.jpg",
    "id_image": "Artistic_206198",
    "count_view": 0
  },
  {
    "link_thumb": "https://live.staticflickr.com/65535/50039625166_a8df5ea624_n.jpg",
    "id_album": "1204249541",
    "description": "Galaxy_165217",
    "title": "Galaxy_165217",
    "link_img": "https://live.staticflickr.com/65535/50039625166_20c71e67d0_o.jpg",
    "id_image": "Galaxy_165217",
    "count_view": 0
  },
  {
    "link_thumb": "https://live.staticflickr.com/65535/50040485351_fe071685bc_n.jpg",
    "id_album": "1613540653",
    "description": "Space_279996",
    "title": "Space_279996",
    "link_img": "https://live.staticflickr.com/65535/50040485351_17569a6980_o.jpg",
    "id_image": "Space_279996",
    "count_view": 0
  },
  {
    "link_thumb": "https://live.staticflickr.com/65535/50038988118_a06088e567_n.jpg",
    "id_album": "894679094",
    "description": "Collision_154805",
    "title": "Collision_154805",
    "link_img": "https://live.staticflickr.com/65535/50038988118_57e508dec9_o.jpg",
    "id_image": "Collision_154805",
    "count_view": 0
  },
  {
    "link_thumb": "https://live.staticflickr.com/65535/50039073328_d162f464ec_n.jpg",
    "id_album": "2104507156",
    "description": "Fantasy_855866",
    "title": "Fantasy_855866",
    "link_img": "https://live.staticflickr.com/65535/50039073328_3376e3563b_o.jpg",
    "id_image": "Fantasy_855866",
    "count_view": 0
  },
  {
    "link_thumb": "https://live.staticflickr.com/65535/50038856898_2c28f06a47_n.jpg",
    "id_album": "1187037014",
    "description": "Battle_629982",
    "title": "Battle_629982",
    "link_img": "https://live.staticflickr.com/65535/50038856898_dc51ff5c23_o.jpg",
    "id_image": "Battle_629982",
    "count_view": 0
  },
  {
    "link_thumb": "https://live.staticflickr.com/65535/50040118491_dfe25fff0c_n.jpg",
    "id_album": "-1102314093",
    "description": "Planets_459285",
    "title": "Planets_459285",
    "link_img": "https://live.staticflickr.com/65535/50040118491_0db3cf56f4_o.jpg",
    "id_image": "Planets_459285",
    "count_view": 0
  },
  {
    "link_thumb": "https://live.staticflickr.com/65535/50039480086_31e9629592_n.jpg",
    "id_album": "-1964113117",
    "description": "City_587290",
    "title": "City_587290",
    "link_img": "https://live.staticflickr.com/65535/50039480086_c1b58184fc_o.jpg",
    "id_image": "City_587290",
    "count_view": 0
  },
  {
    "link_thumb": "https://live.staticflickr.com/65535/50039098633_5606f04523_n.jpg",
    "id_album": "1204249541",
    "description": "Galaxy_606741",
    "title": "Galaxy_606741",
    "link_img": "https://live.staticflickr.com/65535/50039098633_3266e95d70_o.jpg",
    "id_image": "Galaxy_606741",
    "count_view": 0
  },
  {
    "link_thumb": "https://live.staticflickr.com/65535/50039249443_77f4c8ce0a_n.jpg",
    "id_album": "-1610342324",
    "description": "Nebula_44996",
    "title": "Nebula_44996",
    "link_img": "https://live.staticflickr.com/65535/50039249443_fe3dee12bb_o.jpg",
    "id_image": "Nebula_44996",
    "count_view": 0
  },
  {
    "link_thumb": "https://live.staticflickr.com/65535/50039091888_ff2996cf94_n.jpg",
    "id_album": "1204249541",
    "description": "Galaxy_542729",
    "title": "Galaxy_542729",
    "link_img": "https://live.staticflickr.com/65535/50039091888_fe3745b581_o.jpg",
    "id_image": "Galaxy_542729",
    "count_view": 0
  }
]