[
  {
    "link_thumb": "https://live.staticflickr.com/65535/50039721601_2c072325d4_n.jpg",
    "id_album": "1402713104",
    "description": "Landscape_911493",
    "title": "Landscape_911493",
    "link_img": "https://live.staticflickr.com/65535/50039721601_7b87aa289a_o.jpg",
    "id_image": "Landscape_911493",
    "count_view": 0
  },
  {
    "link_thumb": "https://live.staticflickr.com/65535/50038898673_b165cf8c4d_n.jpg",
    "id_album": "-1964113117",
    "description": "City_214563",
    "title": "City_214563",
    "link_img": "https://live.staticflickr.com/65535/50038898673_62ef458200_o.jpg",
    "id_image": "City_214563",
    "count_view": 0
  },
  {
    "link_thumb": "https://live.staticflickr.com/65535/50040474096_5d880af27a_n.jpg",
    "id_album": "1613540653",
    "description": "Space_180281",
    "title": "Space_180281",
    "link_img": "https://live.staticflickr.com/65535/50040474096_441681528a_o.jpg",
    "id_image": "Space_180281",
    "count_view": 0
  },
  {
    "link_thumb": "https://live.staticflickr.com/65535/50040670242_66e0a7aeb7_n.jpg",
    "id_album": "779690680",
    "description": "Robot_909550",
    "title": "Robot_909550",
    "link_img": "https://live.staticflickr.com/65535/50040670242_c7183a6df8_o.jpg",
    "id_image": "Robot_909550",
    "count_view": 0
  },
  {
    "link_thumb": "https://live.staticflickr.com/65535/50039677001_e3988b5c11_n.jpg",
    "id_album": "1402713104",
    "description": "Landscape_325811",
    "title": "Landscape_325811",
    "link_img": "https://live.staticflickr.com/65535/50039677001_e18dc63e8d_o.jpg",
    "id_image": "Landscape_325811",
    "count_view": 0
  },
  {
    "link_thumb": "https://live.staticflickr.com/65535/50039249443_77f4c8ce0a_n.jpg",
    "id_album": "-1610342324",
    "description": "Nebula_44996",
    "title": "Nebula_44996",
    "link_img": "https://live.staticflickr.com/65535/50039249443_fe3dee12bb_o.jpg",
    "id_image": "Nebula_44996",
    "count_view": 0
  },
  {
    "link_thumb": "https://live.staticflickr.com/65535/50041098336_2e5b454e15_n.jpg",
    "id_album": "-1863373220",
    "description": "StarWars_107621",
    "title": "StarWars_107621",
    "link_img": "https://live.staticflickr.com/65535/50041098336_2f49ba1fdf_o.jpg",
    "id_image": "StarWars_107621",
    "count_view": 0
  },
  {
    "link_thumb": "https://live.staticflickr.com/65535/50040755232_fd3b8a633d_n.jpg",
    "id_album": "1613540653",
    "description": "Space_312428",
    "title": "Space_312428",
    "link_img": "https://live.staticflickr.com/65535/50040755232_a5c91f0f6f_o.jpg",
    "id_image": "Space_312428",
    "count_view": 0
  },
  {
    "link_thumb": "https://live.staticflickr.com/65535/50040639777_79e7e64d5f_n.jpg",
    "id_album": "779690680",
    "description": "Robot_857295",
    "title": "Robot_857295",
    "link_img": "https://live.staticflickr.com/65535/50040639777_3700f3938b_o.jpg",
    "id_image": "Robot_857295",
    "count_view": 0
  },
  {
    "link_thumb": "https://live.staticflickr.com/65535/50040741263_d8646df342_n.jpg",
    "id_album": "1267121215",
    "description": "Steampunk_190409",
    "title": "Steampunk_190409",
    "link_img": "https://live.staticflickr.com/65535/50040741263_28ae8581ff_o.jpg",
    "id_image": "Steampunk_190409",
    "count_view": 0
  },
  {
    "link_thumb": "https://live.staticflickr.com/65535/50039461011_e01bf1c217_n.jpg",
    "id_album": "-1964113117",
    "description": "City_301681",
    "title": "City_301681",
    "link_img": "https://live.staticflickr.com/65535/50039461011_a64ced3f84_o.jpg",
    "id_image": "City_301681",
    "count_view": 0
  },
  {
    "link_thumb": "https://live.staticflickr.com/65535/50040714458_0d99f10ec3_n.jpg",
    "id_album": "-1587696329",
    "description": "Stars_438994",
    "title": "Stars_438994",
    "link_img": "https://live.staticflickr.com/65535/50040714458_7c5f042b8c_o.jpg",
    "id_image": "Stars_438994",
    "count_view": 0
  },
  {
    "link_thumb": "https://live.staticflickr.com/65535/50039833848_a9eb76e709_n.jpg",
    "id_album": "779690680",
    "description": "Robot_876312",
    "title": "Robot_876312",
    "link_img": "https://live.staticflickr.com/65535/50039833848_5ba1e2d400_o.jpg",
    "id_image": "Robot_876312",
    "count_view": 0
  },
  {
    "link_thumb": "https://live.staticflickr.com/65535/50040377422_af14ce8342_n.jpg",
    "id_album": "-1102314093",
    "description": "Planets_423189",
    "title": "Planets_423189",
    "link_img": "https://live.staticflickr.com/65535/50040377422_c14de53257_o.jpg",
    "id_image": "Planets_423189",
    "count_view": 0
  },
  {
    "link_thumb": "https://live.staticflickr.com/65535/50040477132_962f5826eb_n.jpg",
    "id_album": "-482547208",
    "description": "PostApocalyptic_529240",
    "title": "PostApocalyptic_529240",
    "link_img": "https://live.staticflickr.com/65535/50040477132_bc1726fc25_o.jpg",
    "id_image": "PostApocalyptic_529240",
    "count_view": 0
  },
  {
    "link_thumb": "https://live.staticflickr.com/65535/50039000268_e1008ea5eb_n.jpg",
    "id_album": "-437872736",
    "description": "Creature_280061",
    "title": "Creature_280061",
    "link_img": "https://live.staticflickr.com/65535/50039000268_eefa62a75f_o.jpg",
    "id_image": "Creature_280061",
    "count_view": 0
  },
  {
    "link_thumb": "https://live.staticflickr.com/65535/50040487401_be1903396e_n.jpg",
    "id_album": "1613540653",
    "description": "Space_286967",
    "title": "Space_286967",
    "link_img": "https://live.staticflickr.com/65535/50040487401_d9f2013240_o.jpg",
    "id_image": "Space_286967",
    "count_view": 0
  },
  {
    "link_thumb": "https://live.staticflickr.com/65535/50039215573_e4f6e2df4f_n.jpg",
    "id_album": "-1610342324",
    "description": "Nebula_179724",
    "title": "Nebula_179724",
    "link_img": "https://live.staticflickr.com/65535/50039215573_1bb7885b4e_o.jpg",
    "id_image": "Nebula_179724",
    "count_view": 0
  },
  {
    "link_thumb": "https://live.staticflickr.com/65535/50040742373_33519262c6_n.jpg",
    "id_album": "1267121215",
    "description": "Steampunk_190420",
    "title": "Steampunk_190420",
    "link_img": "https://live.staticflickr.com/65535/50040742373_bf849cc205_o.jpg",
    "id_image": "Steampunk_190420",
    "count_view": 0
  },
  {
    "link_thumb": "https://live.staticflickr.com/65535/50040421507_0f4aa313b1_n.jpg",
    "id_album": "376235057",
    "description": "Planetscape_287026",
    "title": "Planetscape_287026",
    "link_img": "https://live.staticflickr.com/65535/50040421507_0af4ede8b5_o.jpg",
    "id_image": "Planetscape_287026",
    "count_view": 0
  },
  {
    "link_thumb": "https://live.staticflickr.com/65535/50039255243_f208754cf2_n.jpg",
    "id_album": "-1610342324",
    "description": "Nebula_533653",
    "title": "Nebula_533653",
    "link_img": "https://live.staticflickr.com/65535/50039255243_319c0d9a3f_o.jpg",
    "id_image": "Nebula_533653",
    "count_view": 0
  },
  {
    "link_thumb": "https://live.staticflickr.com/65535/50039541202_2cb33c409d_n.jpg",
    "id_album": "-419633230",
    "description": "Apocalyptic_157349",
    "title": "Apocalyptic_157349",
    "link_img": "https://live.staticflickr.com/65535/50039541202_ccbf05586e_o.jpg",
    "id_image": "Apocalyptic_157349",
    "count_view": 0
  },
  {
    "link_thumb": "https://live.staticflickr.com/65535/50040054262_9a5098a8ab_n.jpg",
    "id_album": "-1610342324",
    "description": "Nebula_393982",
    "title": "Nebula_393982",
    "link_img": "https://live.staticflickr.com/65535/50040054262_c7e6552d98_o.jpg",
    "id_image": "Nebula_393982",
    "count_view": 0
  },
  {
    "link_thumb": "https://live.staticflickr.com/65535/50041591611_2d193a6fec_n.jpg",
    "id_album": "-1675918237",
    "description": "WomenWarrior_945455",
    "title": "WomenWarrior_945455",
    "link_img": "https://live.staticflickr.com/65535/50041591611_f4169798cf_o.jpg",
    "id_image": "WomenWarrior_945455",
    "count_view": 0
  },
  {
    "link_thumb": "https://live.staticflickr.com/65535/50039744968_66b4f38d46_n.jpg",
    "id_album": "779690680",
    "description": "Robot_375699",
    "title": "Robot_375699",
    "link_img": "https://live.staticflickr.com/65535/50039744968_b05895d3f0_o.jpg",
    "id_image": "Robot_375699",
    "count_view": 0
  },
  {
    "link_thumb": "https://live.staticflickr.com/65535/50039942826_30ac635686_n.jpg",
    "id_album": "395161030",
    "description": "Planet_379336",
    "title": "Planet_379336",
    "link_img": "https://live.staticflickr.com/65535/50039942826_c499f2f1e8_o.jpg",
    "id_image": "Planet_379336",
    "count_view": 0
  },
  {
    "link_thumb": "https://live.staticflickr.com/65535/50038840983_36dd88061e_n.jpg",
    "id_album": "869545341",
    "description": "Astronaut_979106",
    "title": "Astronaut_979106",
    "link_img": "https://live.staticflickr.com/65535/50038840983_5ff9f98903_o.jpg",
    "id_image": "Astronaut_979106",
    "count_view": 0
  },
  {
    "link_thumb": "https://live.staticflickr.com/65535/50040107722_d7e8c4ccfa_n.jpg",
    "id_album": "-1610342324",
    "description": "Nebula_84362",
    "title": "Nebula_84362",
    "link_img": "https://live.staticflickr.com/65535/50040107722_ca8c9fdff4_o.jpg",
    "id_image": "Nebula_84362",
    "count_view": 0
  },
  {
    "link_thumb": "https://live.staticflickr.com/65535/50039517117_d046b0f615_n.jpg",
    "id_album": "849020728",
    "description": "Alien_217350",
    "title": "Alien_217350",
    "link_img": "https://live.staticflickr.com/65535/50039517117_c5f40b4cd4_o.jpg",
    "id_image": "Alien_217350",
    "count_view": 0
  },
  {
    "link_thumb": "https://live.staticflickr.com/65535/50039618341_0a2a6751cb_n.jpg",
    "id_album": "2104507156",
    "description": "Fantasy_183608",
    "title": "Fantasy_183608",
    "link_img": "https://live.staticflickr.com/65535/50039618341_3fce3a1c85_o.jpg",
    "id_image": "Fantasy_183608",
    "count_view": 0
  },
  {
    "link_thumb": "https://live.staticflickr.com/65535/50041572327_7791a5c289_n.jpg",
    "id_album": "1267121215",
    "description": "Steampunk_264131",
    "title": "Steampunk_264131",
    "link_img": "https://live.staticflickr.com/65535/50041572327_b1f3491341_o.jpg",
    "id_image": "Steampunk_264131",
    "count_view": 0
  },
  {
    "link_thumb": "https://live.staticflickr.com/65535/50039782861_e874991a2d_n.jpg",
    "id_album": "-1610342324",
    "description": "Nebula_286825",
    "title": "Nebula_286825",
    "link_img": "https://live.staticflickr.com/65535/50039782861_22931596a8_o.jpg",
    "id_image": "Nebula_286825",
    "count_view": 0
  },
  {
    "link_thumb": "https://live.staticflickr.com/65535/50040189141_df7da28c3c_n.jpg",
    "id_album": "-482547208",
    "description": "PostApocalyptic_114180",
    "title": "PostApocalyptic_114180",
    "link_img": "https://live.staticflickr.com/65535/50040189141_7f874ff554_o.jpg",
    "id_image": "PostApocalyptic_114180",
    "count_view": 0
  },
  {
    "link_thumb": "https://live.staticflickr.com/65535/50040046007_778a4a84d4_n.jpg",
    "id_album": "-1610342324",
    "description": "Nebula_286778",
    "title": "Nebula_286778",
    "link_img": "https://live.staticflickr.com/65535/50040046007_dd894db021_o.jpg",
    "id_image": "Nebula_286778",
    "count_view": 0
  },
  {
    "link_thumb": "https://live.staticflickr.com/65535/50039660323_458b45eded_n.jpg",
    "id_album": "-482547208",
    "description": "PostApocalyptic_528310",
    "title": "PostApocalyptic_528310",
    "link_img": "https://live.staticflickr.com/65535/50039660323_e44d008937_o.jpg",
    "id_image": "PostApocalyptic_528310",
    "count_view": 0
  },
  {
    "link_thumb": "https://live.staticflickr.com/65535/50039872418_0d8ba9acfc_n.jpg",
    "id_album": "779690680",
    "description": "Robot_928646",
    "title": "Robot_928646",
    "link_img": "https://live.staticflickr.com/65535/50039872418_9ce78ff09e_o.jpg",
    "id_image": "Robot_928646",
    "count_view": 0
  },
  {
    "link_thumb": "https://live.staticflickr.com/65535/50038848608_794d42000a_n.jpg",
    "id_album": "1187037014",
    "description": "Battle_223994",
    "title": "Battle_223994",
    "link_img": "https://live.staticflickr.com/65535/50038848608_46343f75cd_o.jpg",
    "id_image": "Battle_223994",
    "count_view": 0
  },
  {
    "link_thumb": "https://live.staticflickr.com/65535/50040333782_6941eea99d_n.jpg",
    "id_album": "-1102314093",
    "description": "Planets_274644",
    "title": "Planets_274644",
    "link_img": "https://live.staticflickr.com/65535/50040333782_d84d83c1cf_o.jpg",
    "id_image": "Planets_274644",
    "count_view": 0
  },
  {
    "link_thumb": "https://live.staticflickr.com/65535/50040780583_91e1cf5629_n.jpg",
    "id_album": "1267121215",
    "description": "Steampunk_913612",
    "title": "Steampunk_913612",
    "link_img": "https://live.staticflickr.com/65535/50040780583_c6b9ea018a_o.jpg",
    "id_image": "Steampunk_913612",
    "count_view": 0
  },
  {
    "link_thumb": "https://live.staticflickr.com/65535/50039102288_f3dd5ae90d_n.jpg",
    "id_album": "1204249541",
    "description": "Galaxy_719905",
    "title": "Galaxy_719905",
    "link_img": "https://live.staticflickr.com/65535/50039102288_84954f2fb1_o.jpg",
    "id_image": "Galaxy_719905",
    "count_view": 0
  },
  {
    "link_thumb": "https://live.staticflickr.com/65535/50039895287_d398bf1d5d_n.jpg",
    "id_album": "1204249541",
    "description": "Galaxy_400007",
    "title": "Galaxy_400007",
    "link_img": "https://live.staticflickr.com/65535/50039895287_b9f22211a4_o.jpg",
    "id_image": "Galaxy_400007",
    "count_view": 0
  },
  {
    "link_thumb": "https://live.staticflickr.com/65535/50039674967_7851c147a2_n.jpg",
    "id_album": "-1780971522",
    "description": "Biohazard_306971",
    "title": "Biohazard_306971",
    "link_img": "https://live.staticflickr.com/65535/50039674967_ba69541ed3_o.jpg",
    "id_image": "Biohazard_306971",
    "count_view": 0
  },
  {
    "link_thumb": "https://live.staticflickr.com/65535/50040265906_aeee3252f2_n.jpg",
    "id_album": "779690680",
    "description": "Robot_217185",
    "title": "Robot_217185",
    "link_img": "https://live.staticflickr.com/65535/50040265906_740b924553_o.jpg",
    "id_image": "Robot_217185",
    "count_view": 0
  },
  {
    "link_thumb": "https://live.staticflickr.com/65535/50039266463_e1bd6e2755_n.jpg",
    "id_album": "-1610342324",
    "description": "Nebula_594626",
    "title": "Nebula_594626",
    "link_img": "https://live.staticflickr.com/65535/50039266463_8cc435596e_o.jpg",
    "id_image": "Nebula_594626",
    "count_view": 0
  },
  {
    "link_thumb": "https://live.staticflickr.com/65535/50039599081_2e59e6555d_n.jpg",
    "id_album": "829169633",
    "description": "Cyborg_602370",
    "title": "Cyborg_602370",
    "link_img": "https://live.staticflickr.com/65535/50039599081_638da6e538_o.jpg",
    "id_image": "Cyborg_602370",
    "count_view": 0
  },
  {
    "link_thumb": "https://live.staticflickr.com/65535/50040044176_a3a75d7fdf_n.jpg",
    "id_album": "-1102314093",
    "description": "Planets_103603",
    "title": "Planets_103603",
    "link_img": "https://live.staticflickr.com/65535/50040044176_e1af77faf9_o.jpg",
    "id_image": "Planets_103603",
    "count_view": 0
  },
  {
    "link_thumb": "https://live.staticflickr.com/65535/50039674377_aa2ff7c368_n.jpg",
    "id_album": "-1780971522",
    "description": "Biohazard_2968",
    "title": "Biohazard_2968",
    "link_img": "https://live.staticflickr.com/65535/50039674377_c325675a47_o.jpg",
    "id_image": "Biohazard_2968",
    "count_view": 0
  },
  {
    "link_thumb": "https://live.staticflickr.com/65535/50041465211_c438715155_n.jpg",
    "id_album": "-1261420436",
    "description": "Warrior_500636",
    "title": "Warrior_500636",
    "link_img": "https://live.staticflickr.com/65535/50041465211_33c271bb29_o.jpg",
    "id_image": "Warrior_500636",
    "count_view": 0
  },
  {
    "link_thumb": "https://live.staticflickr.com/65535/50040552632_30dc767c27_n.jpg",
    "id_album": "779690680",
    "description": "Robot_321391",
    "title": "Robot_321391",
    "link_img": "https://live.staticflickr.com/65535/50040552632_2d567cf782_o.jpg",
    "id_image": "Robot_321391",
    "count_view": 0
  },
  {
    "link_thumb": "https://live.staticflickr.com/65535/50039254488_bb77b37caa_n.jpg",
    "id_album": "-1610342324",
    "description": "Nebula_525905",
    "title": "Nebula_525905",
    "link_img": "https://live.staticflickr.com/65535/50039254488_152bc0b05e_o.jpg",
    "id_image": "Nebula_525905",
    "count_view": 0
  },
  {
    "link_thumb": "https://live.staticflickr.com/65535/50039004368_3443e4f1b0_n.jpg",
    "id_album": "-437872736",
    "description": "Creature_333013",
    "title": "Creature_333013",
    "link_img": "https://live.staticflickr.com/65535/50039004368_2072294283_o.jpg",
    "id_image": "Creature_333013",
    "count_view": 0
  },
  {
    "link_thumb": "https://live.staticflickr.com/65535/50041608012_6bddc4d90e_n.jpg",
    "id_album": "-221671103",
    "description": "Sun_293355",
    "title": "Sun_293355",
    "link_img": "https://live.staticflickr.com/65535/50041608012_7be9ca2f33_o.jpg",
    "id_image": "Sun_293355",
    "count_view": 0
  },
  {
    "link_thumb": "https://live.staticflickr.com/65535/50040049682_31107fa995_n.jpg",
    "id_album": "-1610342324",
    "description": "Nebula_311770",
    "title": "Nebula_311770",
    "link_img": "https://live.staticflickr.com/65535/50040049682_c46fdecf1f_o.jpg",
    "id_image": "Nebula_311770",
    "count_view": 0
  },
  {
    "link_thumb": "https://live.staticflickr.com/65535/50039911708_2c6b736e59_n.jpg",
    "id_album": "1613540653",
    "description": "Space_121813",
    "title": "Space_121813",
    "link_img": "https://live.staticflickr.com/65535/50039911708_63b6103252_o.jpg",
    "id_image": "Space_121813",
    "count_view": 0
  },
  {
    "link_thumb": "https://live.staticflickr.com/65535/50041309121_602b0246e0_n.jpg",
    "id_album": "1267121215",
    "description": "Steampunk_258451",
    "title": "Steampunk_258451",
    "link_img": "https://live.staticflickr.com/65535/50041309121_48e6e2c6b6_o.jpg",
    "id_image": "Steampunk_258451",
    "count_view": 0
  },
  {
    "link_thumb": "https://live.staticflickr.com/65535/50040499882_8167e192f7_n.jpg",
    "id_album": "-482547208",
    "description": "PostApocalyptic_969641",
    "title": "PostApocalyptic_969641",
    "link_img": "https://live.staticflickr.com/65535/50040499882_cc639842b6_o.jpg",
    "id_image": "PostApocalyptic_969641",
    "count_view": 0
  },
  {
    "link_thumb": "https://live.staticflickr.com/65535/50039669196_c3b5fda5eb_n.jpg",
    "id_album": "1402713104",
    "description": "Landscape_281452",
    "title": "Landscape_281452",
    "link_img": "https://live.staticflickr.com/65535/50039669196_b6edef9653_o.jpg",
    "id_image": "Landscape_281452",
    "count_view": 0
  },
  {
    "link_thumb": "https://live.staticflickr.com/65535/50039679096_a84298d51a_n.jpg",
    "id_album": "1402713104",
    "description": "Landscape_335794",
    "title": "Landscape_335794",
    "link_img": "https://live.staticflickr.com/65535/50039679096_1037051916_o.jpg",
    "id_image": "Landscape_335794",
    "count_view": 0
  },
  {
    "link_thumb": "https://live.staticflickr.com/65535/50040805137_367b5238df_n.jpg",
    "id_album": "1613540653",
    "description": "Space_79500",
    "title": "Space_79500",
    "link_img": "https://live.staticflickr.com/65535/50040805137_c9463e66bb_o.jpg",
    "id_image": "Space_79500",
    "count_view": 0
  },
  {
    "link_thumb": "https://live.staticflickr.com/65535/50040981027_c141330611_n.jpg",
    "id_album": "2130067313",
    "description": "Spaceship_559786",
    "title": "Spaceship_559786",
    "link_img": "https://live.staticflickr.com/65535/50040981027_5301c13489_o.jpg",
    "id_image": "Spaceship_559786",
    "count_view": 0
  },
  {
    "link_thumb": "https://live.staticflickr.com/65535/50039508566_356204ceb5_n.jpg",
    "id_album": "-1964113117",
    "description": "City_869607",
    "title": "City_869607",
    "link_img": "https://live.staticflickr.com/65535/50039508566_7fff4f6010_o.jpg",
    "id_image": "City_869607",
    "count_view": 0
  },
  {
    "link_thumb": "https://live.staticflickr.com/65535/50039380568_0764078c39_n.jpg",
    "id_album": "395161030",
    "description": "Planet_330317",
    "title": "Planet_330317",
    "link_img": "https://live.staticflickr.com/65535/50039380568_cb40dd214f_o.jpg",
    "id_image": "Planet_330317",
    "count_view": 0
  },
  {
    "link_thumb": "https://live.staticflickr.com/65535/50038767768_2cd6176e17_n.jpg",
    "id_album": "523598895",
    "description": "Artistic_218245",
    "title": "Artistic_218245",
    "link_img": "https://live.staticflickr.com/65535/50038767768_88ca3d5f31_o.jpg",
    "id_image": "Artistic_218245",
    "count_view": 0
  },
  {
    "link_thumb": "https://live.staticflickr.com/65535/50040639912_ab67f845cc_n.jpg",
    "id_album": "779690680",
    "description": "Robot_857296",
    "title": "Robot_857296",
    "link_img": "https://live.staticflickr.com/65535/50040639912_f96b8c2797_o.jpg",
    "id_image": "Robot_857296",
    "count_view": 0
  },
  {
    "link_thumb": "https://live.staticflickr.com/65535/50040819776_43789c86fe_n.jpg",
    "id_album": "-1449720967",
    "description": "StarTrek_279989",
    "title": "StarTrek_279989",
    "link_img": "https://live.staticflickr.com/65535/50040819776_a4112354de_o.jpg",
    "id_image": "StarTrek_279989",
    "count_view": 0
  },
  {
    "link_thumb": "https://live.staticflickr.com/65535/50039383321_925f5ec24a_n.jpg",
    "id_album": "869545341",
    "description": "Astronaut_950863",
    "title": "Astronaut_950863",
    "link_img": "https://live.staticflickr.com/65535/50039383321_d03b4ed0cd_o.jpg",
    "id_image": "Astronaut_950863",
    "count_view": 0
  },
  {
    "link_thumb": "https://live.staticflickr.com/65535/50040513947_ed3370f8e9_n.jpg",
    "id_album": "779690680",
    "description": "Robot_102097",
    "title": "Robot_102097",
    "link_img": "https://live.staticflickr.com/65535/50040513947_5c66c2fa1b_o.jpg",
    "id_image": "Robot_102097",
    "count_view": 0
  },
  {
    "link_thumb": "https://live.staticflickr.com/65535/50039892317_c3bfd4ffa4_n.jpg",
    "id_album": "1204249541",
    "description": "Galaxy_286761",
    "title": "Galaxy_286761",
    "link_img": "https://live.staticflickr.com/65535/50039892317_6277409baa_o.jpg",
    "id_image": "Galaxy_286761",
    "count_view": 0
  },
  {
    "link_thumb": "https://live.staticflickr.com/65535/50038853688_f6ff7ee335_n.jpg",
    "id_album": "1187037014",
    "description": "Battle_371409",
    "title": "Battle_371409",
    "link_img": "https://live.staticflickr.com/65535/50038853688_c8fa623a39_o.jpg",
    "id_image": "Battle_371409",
    "count_view": 0
  },
  {
    "link_thumb": "https://live.staticflickr.com/65535/50039419181_7a225039e8_n.jpg",
    "id_album": "-1780971522",
    "description": "Biohazard_577358",
    "title": "Biohazard_577358",
    "link_img": "https://live.staticflickr.com/65535/50039419181_de17edbd4d_o.jpg",
    "id_image": "Biohazard_577358",
    "count_view": 0
  },
  {
    "link_thumb": "https://live.staticflickr.com/65535/50039974507_6661617699_n.jpg",
    "id_album": "1402713104",
    "description": "Landscape_85247",
    "title": "Landscape_85247",
    "link_img": "https://live.staticflickr.com/65535/50039974507_1c2995c0a5_o.jpg",
    "id_image": "Landscape_85247",
    "count_view": 0
  },
  {
    "link_thumb": "https://live.staticflickr.com/65535/50039641791_d9e9820471_n.jpg",
    "id_album": "1204249541",
    "description": "Galaxy_549909",
    "title": "Galaxy_549909",
    "link_img": "https://live.staticflickr.com/65535/50039641791_75d20a4246_o.jpg",
    "id_image": "Galaxy_549909",
    "count_view": 0
  },
  {
    "link_thumb": "https://live.staticflickr.com/65535/50040297451_a4358d555b_n.jpg",
    "id_album": "779690680",
    "description": "Robot_373439",
    "title": "Robot_373439",
    "link_img": "https://live.staticflickr.com/65535/50040297451_e5c8147826_o.jpg",
    "id_image": "Robot_373439",
    "count_view": 0
  },
  {
    "link_thumb": "https://live.staticflickr.com/65535/50039380213_5d8f26085a_n.jpg",
    "id_album": "395161030",
    "description": "Planet_328265",
    "title": "Planet_328265",
    "link_img": "https://live.staticflickr.com/65535/50039380213_dc16cf043d_o.jpg",
    "id_image": "Planet_328265",
    "count_view": 0
  },
  {
    "link_thumb": "https://live.staticflickr.com/65535/50040690883_fd87e579f6_n.jpg",
    "id_album": "-1863373220",
    "description": "StarWars_944019",
    "title": "StarWars_944019",
    "link_img": "https://live.staticflickr.com/65535/50040690883_9962ea3159_o.jpg",
    "id_image": "StarWars_944019",
    "count_view": 0
  },
  {
    "link_thumb": "https://live.staticflickr.com/65535/50039293823_dc167aa41d_n.jpg",
    "id_album": "-1610342324",
    "description": "Nebula_84045",
    "title": "Nebula_84045",
    "link_img": "https://live.staticflickr.com/65535/50039293823_ff1d9b3707_o.jpg",
    "id_image": "Nebula_84045",
    "count_view": 0
  },
  {
    "link_thumb": "https://live.staticflickr.com/65535/50038702333_9a381608ef_n.jpg",
    "id_album": "849020728",
    "description": "Alien_179188",
    "title": "Alien_179188",
    "link_img": "https://live.staticflickr.com/65535/50038702333_6e06fe2c56_o.jpg",
    "id_image": "Alien_179188",
    "count_view": 0
  },
  {
    "link_thumb": "https://live.staticflickr.com/65535/50040030977_8a31a7ced4_n.jpg",
    "id_album": "-1610342324",
    "description": "Nebula_19652",
    "title": "Nebula_19652",
    "link_img": "https://live.staticflickr.com/65535/50040030977_2db422affe_o.jpg",
    "id_image": "Nebula_19652",
    "count_view": 0
  },
  {
    "link_thumb": "https://live.staticflickr.com/65535/50039445673_75fceb6f98_n.jpg",
    "id_album": "1443611160",
    "description": "PlanetRise_121807",
    "title": "PlanetRise_121807",
    "link_img": "https://live.staticflickr.com/65535/50039445673_29ebf4d547_o.jpg",
    "id_image": "PlanetRise_121807",
    "count_view": 0
  },
  {
    "link_thumb": "https://live.staticflickr.com/65535/50039880833_ded03bafe1_n.jpg",
    "id_album": "779690680",
    "description": "Robot_940956",
    "title": "Robot_940956",
    "link_img": "https://live.staticflickr.com/65535/50039880833_b157c8cb8a_o.jpg",
    "id_image": "Robot_940956",
    "count_view": 0
  },
  {
    "link_thumb": "https://live.staticflickr.com/65535/50039613841_1092ac979d_n.jpg",
    "id_album": "651930207",
    "description": "Explosion_995433",
    "title": "Explosion_995433",
    "link_img": "https://live.staticflickr.com/65535/50039613841_f23ea79c1c_o.jpg",
    "id_image": "Explosion_995433",
    "count_view": 0
  },
  {
    "link_thumb": "https://live.staticflickr.com/65535/50039243956_3a0cb4613d_n.jpg",
    "id_album": "849020728",
    "description": "Alien_108415",
    "title": "Alien_108415",
    "link_img": "https://live.staticflickr.com/65535/50039243956_27320d18bb_o.jpg",
    "id_image": "Alien_108415",
    "count_view": 0
  },
  {
    "link_thumb": "https://live.staticflickr.com/65535/50039532406_c5a6c41bdd_n.jpg",
    "id_album": "-1964113117",
    "description": "City_984558",
    "title": "City_984558",
    "link_img": "https://live.staticflickr.com/65535/50039532406_fa1d7b9e8a_o.jpg",
    "id_image": "City_984558",
    "count_view": 0
  },
  {
    "link_thumb": "https://live.staticflickr.com/65535/50040247682_ca11c7de8f_n.jpg",
    "id_album": "395161030",
    "description": "Planet_926468",
    "title": "Planet_926468",
    "link_img": "https://live.staticflickr.com/65535/50040247682_08395c9580_o.jpg",
    "id_image": "Planet_926468",
    "count_view": 0
  },
  {
    "link_thumb": "https://live.staticflickr.com/65535/50038766653_06cac5a4e7_n.jpg",
    "id_album": "523598895",
    "description": "Artistic_211323",
    "title": "Artistic_211323",
    "link_img": "https://live.staticflickr.com/65535/50038766653_802c237498_o.jpg",
    "id_image": "Artistic_211323",
    "count_view": 0
  },
  {
    "link_thumb": "https://live.staticflickr.com/65535/50038766553_64c40596e8_n.jpg",
    "id_album": "523598895",
    "description": "Artistic_211262",
    "title": "Artistic_211262",
    "link_img": "https://live.staticflickr.com/65535/50038766553_3aeb323b78_o.jpg",
    "id_image": "Artistic_211262",
    "count_view": 0
  },
  {
    "link_thumb": "https://live.staticflickr.com/65535/50041586351_af1511a18c_n.jpg",
    "id_album": "-1675918237",
    "description": "WomenWarrior_688403",
    "title": "WomenWarrior_688403",
    "link_img": "https://live.staticflickr.com/65535/50041586351_d8c1208163_o.jpg",
    "id_image": "WomenWarrior_688403",
    "count_view": 0
  },
  {
    "link_thumb": "https://live.staticflickr.com/65535/50039905851_2dce4efd1e_n.jpg",
    "id_album": "395161030",
    "description": "Planet_152730",
    "title": "Planet_152730",
    "link_img": "https://live.staticflickr.com/65535/50039905851_f6a42f9f6b_o.jpg",
    "id_image": "Planet_152730",
    "count_view": 0
  },
  {
    "link_thumb": "https://live.staticflickr.com/65535/50039658381_d620995a69_n.jpg",
    "id_album": "1402713104",
    "description": "Landscape_1008538",
    "title": "Landscape_1008538",
    "link_img": "https://live.staticflickr.com/65535/50039658381_edb23b8838_o.jpg",
    "id_image": "Landscape_1008538",
    "count_view": 0
  },
  {
    "link_thumb": "https://live.staticflickr.com/65535/50040929168_4febe23135_n.jpg",
    "id_album": "-1261420436",
    "description": "Warrior_678949",
    "title": "Warrior_678949",
    "link_img": "https://live.staticflickr.com/65535/50040929168_2f97d8cb3e_o.jpg",
    "id_image": "Warrior_678949",
    "count_view": 0
  },
  {
    "link_thumb": "https://live.staticflickr.com/65535/50039633391_938be46f30_n.jpg",
    "id_album": "1204249541",
    "description": "Galaxy_422151",
    "title": "Galaxy_422151",
    "link_img": "https://live.staticflickr.com/65535/50039633391_17f33fd81c_o.jpg",
    "id_image": "Galaxy_422151",
    "count_view": 0
  },
  {
    "link_thumb": "https://live.staticflickr.com/65535/50041255121_7b2f542006_n.jpg",
    "id_album": "-1863373220",
    "description": "StarWars_999109",
    "title": "StarWars_999109",
    "link_img": "https://live.staticflickr.com/65535/50041255121_a82f84a6fe_o.jpg",
    "id_image": "StarWars_999109",
    "count_view": 0
  },
  {
    "link_thumb": "https://live.staticflickr.com/65535/50040627751_1606c3d360_n.jpg",
    "id_album": "2130067313",
    "description": "Spaceship_286775",
    "title": "Spaceship_286775",
    "link_img": "https://live.staticflickr.com/65535/50040627751_b08d5770e7_o.jpg",
    "id_image": "Spaceship_286775",
    "count_view": 0
  },
  {
    "link_thumb": "https://live.staticflickr.com/65535/50039183448_bd47fd7b79_n.jpg",
    "id_album": "-1388385651",
    "description": "MilkyWay_550926",
    "title": "MilkyWay_550926",
    "link_img": "https://live.staticflickr.com/65535/50039183448_4bc8ed835e_o.jpg",
    "id_image": "MilkyWay_550926",
    "count_view": 0
  },
  {
    "link_thumb": "https://live.staticflickr.com/65535/50039615642_d5ac5c6670_n.jpg",
    "id_album": "869545341",
    "description": "Astronaut_321913",
    "title": "Astronaut_321913",
    "link_img": "https://live.staticflickr.com/65535/50039615642_eac7869c79_o.jpg",
    "id_image": "Astronaut_321913",
    "count_view": 0
  },
  {
    "link_thumb": "https://live.staticflickr.com/65535/50041019553_51ce4bb70d_n.jpg",
    "id_album": "-1675918237",
    "description": "WomenWarrior_394400",
    "title": "WomenWarrior_394400",
    "link_img": "https://live.staticflickr.com/65535/50041019553_bbc9cfc0e3_o.jpg",
    "id_image": "WomenWarrior_394400",
    "count_view": 0
  },
  {
    "link_thumb": "https://live.staticflickr.com/65535/50039639051_47a4c4e0e7_n.jpg",
    "id_album": "1204249541",
    "description": "Galaxy_523674",
    "title": "Galaxy_523674",
    "link_img": "https://live.staticflickr.com/65535/50039639051_0bec7529f8_o.jpg",
    "id_image": "Galaxy_523674",
    "count_view": 0
  },
  {
    "link_thumb": "https://live.staticflickr.com/65535/50040778892_7790616608_n.jpg",
    "id_album": "1613540653",
    "description": "Space_568756",
    "title": "Space_568756",
    "link_img": "https://live.staticflickr.com/65535/50040778892_87805699ce_o.jpg",
    "id_image": "Space_568756",
    "count_view": 0
  },
  {
    "link_thumb": "https://live.staticflickr.com/65535/50040478181_bfbdaf7c5b_n.jpg",
    "id_album": "1613540653",
    "description": "Space_197035",
    "title": "Space_197035",
    "link_img": "https://live.staticflickr.com/65535/50040478181_d55838c718_o.jpg",
    "id_image": "Space_197035",
    "count_view": 0
  },
  {
    "link_thumb": "https://live.staticflickr.com/65535/50040061682_57eeed42ef_n.jpg",
    "id_album": "-1610342324",
    "description": "Nebula_441069",
    "title": "Nebula_441069",
    "link_img": "https://live.staticflickr.com/65535/50040061682_f61573f9c9_o.jpg",
    "id_image": "Nebula_441069",
    "count_view": 0
  },
  {
    "link_thumb": "https://live.staticflickr.com/65535/50039819147_f7cd26e7ba_n.jpg",
    "id_album": "-437872736",
    "description": "Creature_503794",
    "title": "Creature_503794",
    "link_img": "https://live.staticflickr.com/65535/50039819147_72d4193f70_o.jpg",
    "id_image": "Creature_503794",
    "count_view": 0
  },
  {
    "link_thumb": "https://live.staticflickr.com/65535/50040033542_b1fa33ed44_n.jpg",
    "id_album": "-1610342324",
    "description": "Nebula_210500",
    "title": "Nebula_210500",
    "link_img": "https://live.staticflickr.com/65535/50040033542_c012560e1d_o.jpg",
    "id_image": "Nebula_210500",
    "count_view": 0
  },
  {
    "link_thumb": "https://live.staticflickr.com/65535/50041612757_f7e2d01b80_n.jpg",
    "id_album": "-221671103",
    "description": "Sun_523523",
    "title": "Sun_523523",
    "link_img": "https://live.staticflickr.com/65535/50041612757_24858ba6f1_o.jpg",
    "id_image": "Sun_523523",
    "count_view": 0
  },
  {
    "link_thumb": "https://live.staticflickr.com/65535/50039879283_fa3ebb8bb9_n.jpg",
    "id_album": "779690680",
    "description": "Robot_937810",
    "title": "Robot_937810",
    "link_img": "https://live.staticflickr.com/65535/50039879283_7ecfd142d9_o.jpg",
    "id_image": "Robot_937810",
    "count_view": 0
  },
  {
    "link_thumb": "https://live.staticflickr.com/65535/50039572413_0c3297aa80_n.jpg",
    "id_album": "-1102314093",
    "description": "Planets_533830",
    "title": "Planets_533830",
    "link_img": "https://live.staticflickr.com/65535/50039572413_1b99664f2d_o.jpg",
    "id_image": "Planets_533830",
    "count_view": 0
  },
  {
    "link_thumb": "https://live.staticflickr.com/65535/50041591052_b11fe5ccf5_n.jpg",
    "id_album": "1267121215",
    "description": "Steampunk_762015",
    "title": "Steampunk_762015",
    "link_img": "https://live.staticflickr.com/65535/50041591052_5c25b4e5bf_o.jpg",
    "id_image": "Steampunk_762015",
    "count_view": 0
  },
  {
    "link_thumb": "https://live.staticflickr.com/65535/50039922501_1521de8191_n.jpg",
    "id_album": "395161030",
    "description": "Planet_286824",
    "title": "Planet_286824",
    "link_img": "https://live.staticflickr.com/65535/50039922501_72f4dcbb3c_o.jpg",
    "id_image": "Planet_286824",
    "count_view": 0
  },
  {
    "link_thumb": "https://live.staticflickr.com/65535/50040075756_1150f098d3_n.jpg",
    "id_album": "-1102314093",
    "description": "Planets_286826",
    "title": "Planets_286826",
    "link_img": "https://live.staticflickr.com/65535/50040075756_a575035bff_o.jpg",
    "id_image": "Planets_286826",
    "count_view": 0
  },
  {
    "link_thumb": "https://live.staticflickr.com/65535/50039950992_1464f5eee6_n.jpg",
    "id_album": "1402713104",
    "description": "Landscape_413241",
    "title": "Landscape_413241",
    "link_img": "https://live.staticflickr.com/65535/50039950992_69e39dcc4e_o.jpg",
    "id_image": "Landscape_413241",
    "count_view": 0
  },
  {
    "link_thumb": "https://live.staticflickr.com/65535/50039781711_524cb7fbc0_n.jpg",
    "id_album": "-1610342324",
    "description": "Nebula_285823",
    "title": "Nebula_285823",
    "link_img": "https://live.staticflickr.com/65535/50039781711_bd4b972aa3_o.jpg",
    "id_image": "Nebula_285823",
    "count_view": 0
  },
  {
    "link_thumb": "https://live.staticflickr.com/65535/50040629871_c53cc33fa1_n.jpg",
    "id_album": "2130067313",
    "description": "Spaceship_291859",
    "title": "Spaceship_291859",
    "link_img": "https://live.staticflickr.com/65535/50040629871_b43c11f774_o.jpg",
    "id_image": "Spaceship_291859",
    "count_view": 0
  },
  {
    "link_thumb": "https://live.staticflickr.com/65535/50039357811_24ac0eac84_n.jpg",
    "id_album": "869545341",
    "description": "Astronaut_565172",
    "title": "Astronaut_565172",
    "link_img": "https://live.staticflickr.com/65535/50039357811_049dcdd072_o.jpg",
    "id_image": "Astronaut_565172",
    "count_view": 0
  },
  {
    "link_thumb": "https://live.staticflickr.com/65535/50041381302_728e3edbce_n.jpg",
    "id_album": "-1863373220",
    "description": "StarWars_107769",
    "title": "StarWars_107769",
    "link_img": "https://live.staticflickr.com/65535/50041381302_be1802073c_o.jpg",
    "id_image": "StarWars_107769",
    "count_view": 0
  },
  {
    "link_thumb": "https://live.staticflickr.com/65535/50040532661_f77d812c8f_n.jpg",
    "id_album": "1613540653",
    "description": "Space_70937",
    "title": "Space_70937",
    "link_img": "https://live.staticflickr.com/65535/50040532661_1a1a217ba1_o.jpg",
    "id_image": "Space_70937",
    "count_view": 0
  },
  {
    "link_thumb": "https://live.staticflickr.com/65535/50040024472_9b06c7544c_n.jpg",
    "id_album": "-1610342324",
    "description": "Nebula_104078",
    "title": "Nebula_104078",
    "link_img": "https://live.staticflickr.com/65535/50040024472_89cc183962_o.jpg",
    "id_image": "Nebula_104078",
    "count_view": 0
  },
  {
    "link_thumb": "https://live.staticflickr.com/65535/50039829477_25f147e123_n.jpg",
    "id_album": "-1372247677",
    "description": "Cyberpunk_931367",
    "title": "Cyberpunk_931367",
    "link_img": "https://live.staticflickr.com/65535/50039829477_02aa12d727_o.jpg",
    "id_image": "Cyberpunk_931367",
    "count_view": 0
  },
  {
    "link_thumb": "https://live.staticflickr.com/65535/50039759181_ba490e2ebe_n.jpg",
    "id_album": "416351698",
    "description": "Moon_938354",
    "title": "Moon_938354",
    "link_img": "https://live.staticflickr.com/65535/50039759181_8bbdc3f4f1_o.jpg",
    "id_image": "Moon_938354",
    "count_view": 0
  },
  {
    "link_thumb": "https://live.staticflickr.com/65535/50039755482_92035f070a_n.jpg",
    "id_album": "-1964113117",
    "description": "City_725221",
    "title": "City_725221",
    "link_img": "https://live.staticflickr.com/65535/50039755482_0d4f29361c_o.jpg",
    "id_image": "City_725221",
    "count_view": 0
  },
  {
    "link_thumb": "https://live.staticflickr.com/65535/50040326512_f8f5122b4f_n.jpg",
    "id_album": "-1102314093",
    "description": "Planets_235523",
    "title": "Planets_235523",
    "link_img": "https://live.staticflickr.com/65535/50040326512_637bc2a3df_o.jpg",
    "id_image": "Planets_235523",
    "count_view": 0
  },
  {
    "link_thumb": "https://live.staticflickr.com/65535/50040808303_0740cb786a_n.jpg",
    "id_album": "-1177476763",
    "description": "Sunrise_372793",
    "title": "Sunrise_372793",
    "link_img": "https://live.staticflickr.com/65535/50040808303_df11ca71c3_o.jpg",
    "id_image": "Sunrise_372793",
    "count_view": 0
  },
  {
    "link_thumb": "https://live.staticflickr.com/65535/50039805502_27d3f0f491_n.jpg",
    "id_album": "894679094",
    "description": "Collision_72061",
    "title": "Collision_72061",
    "link_img": "https://live.staticflickr.com/65535/50039805502_18299093eb_o.jpg",
    "id_image": "Collision_72061",
    "count_view": 0
  },
  {
    "link_thumb": "https://live.staticflickr.com/65535/50041545407_c0b8ee00a6_n.jpg",
    "id_album": "-1587696329",
    "description": "Stars_805197",
    "title": "Stars_805197",
    "link_img": "https://live.staticflickr.com/65535/50041545407_a8a36a22e5_o.jpg",
    "id_image": "Stars_805197",
    "count_view": 0
  },
  {
    "link_thumb": "https://live.staticflickr.com/65535/50039951151_78fca4527a_n.jpg",
    "id_album": "395161030",
    "description": "Planet_464558",
    "title": "Planet_464558",
    "link_img": "https://live.staticflickr.com/65535/50039951151_2273781326_o.jpg",
    "id_image": "Planet_464558",
    "count_view": 0
  },
  {
    "link_thumb": "https://live.staticflickr.com/65535/50039662092_f640483f96_n.jpg",
    "id_album": "1187037014",
    "description": "Battle_275553",
    "title": "Battle_275553",
    "link_img": "https://live.staticflickr.com/65535/50039662092_06e683d791_o.jpg",
    "id_image": "Battle_275553",
    "count_view": 0
  },
  {
    "link_thumb": "https://live.staticflickr.com/65535/50040405056_03e2a945b6_n.jpg",
    "id_album": "779690680",
    "description": "Robot_907942",
    "title": "Robot_907942",
    "link_img": "https://live.staticflickr.com/65535/50040405056_9b7591b133_o.jpg",
    "id_image": "Robot_907942",
    "count_view": 0
  },
  {
    "link_thumb": "https://live.staticflickr.com/65535/50039692663_9b978aa57d_n.jpg",
    "id_album": "-839602625",
    "description": "Predator_499118",
    "title": "Predator_499118",
    "link_img": "https://live.staticflickr.com/65535/50039692663_12bc2e21f7_o.jpg",
    "id_image": "Predator_499118",
    "count_view": 0
  },
  {
    "link_thumb": "https://live.staticflickr.com/65535/50039089038_d34e041463_n.jpg",
    "id_album": "1204249541",
    "description": "Galaxy_503796",
    "title": "Galaxy_503796",
    "link_img": "https://live.staticflickr.com/65535/50039089038_268c691e7f_o.jpg",
    "id_image": "Galaxy_503796",
    "count_view": 0
  },
  {
    "link_thumb": "https://live.staticflickr.com/65535/50041325101_ac8d31aedb_n.jpg",
    "id_album": "1267121215",
    "description": "Steampunk_655447",
    "title": "Steampunk_655447",
    "link_img": "https://live.staticflickr.com/65535/50041325101_fbe50a6bb3_o.jpg",
    "id_image": "Steampunk_655447",
    "count_view": 0
  },
  {
    "link_thumb": "https://live.staticflickr.com/65535/50039791717_660238144a_n.jpg",
    "id_album": "-1964113117",
    "description": "City_974386",
    "title": "City_974386",
    "link_img": "https://live.staticflickr.com/65535/50039791717_875711ba2b_o.jpg",
    "id_image": "City_974386",
    "count_view": 0
  },
  {
    "link_thumb": "https://live.staticflickr.com/65535/50039376218_db17358580_n.jpg",
    "id_album": "395161030",
    "description": "Planet_287061",
    "title": "Planet_287061",
    "link_img": "https://live.staticflickr.com/65535/50039376218_1ba7b6eb58_o.jpg",
    "id_image": "Planet_287061",
    "count_view": 0
  },
  {
    "link_thumb": "https://live.staticflickr.com/65535/50040773673_d32ac410b8_n.jpg",
    "id_album": "1267121215",
    "description": "Steampunk_713739",
    "title": "Steampunk_713739",
    "link_img": "https://live.staticflickr.com/65535/50040773673_da0cb6a34a_o.jpg",
    "id_image": "Steampunk_713739",
    "count_view": 0
  },
  {
    "link_thumb": "https://live.staticflickr.com/65535/50039885123_acd2480b65_n.jpg",
    "id_album": "779690680",
    "description": "Robot_944760",
    "title": "Robot_944760",
    "link_img": "https://live.staticflickr.com/65535/50039885123_8a17f70c9e_o.jpg",
    "id_image": "Robot_944760",
    "count_view": 0
  },
  {
    "link_thumb": "https://live.staticflickr.com/65535/50039723868_dd4d7f61e0_n.jpg",
    "id_album": "779690680",
    "description": "Robot_262877",
    "title": "Robot_262877",
    "link_img": "https://live.staticflickr.com/65535/50039723868_46e35aca96_o.jpg",
    "id_image": "Robot_262877",
    "count_view": 0
  },
  {
    "link_thumb": "https://live.staticflickr.com/65535/50040067441_2929c7e767_n.jpg",
    "id_album": "-1102314093",
    "description": "Planets_25111",
    "title": "Planets_25111",
    "link_img": "https://live.staticflickr.com/65535/50040067441_6c39951352_o.jpg",
    "id_image": "Planets_25111",
    "count_view": 0
  },
  {
    "link_thumb": "https://live.staticflickr.com/65535/50039800037_37fdd21a9d_n.jpg",
    "id_album": "894679094",
    "description": "Collision_286791",
    "title": "Collision_286791",
    "link_img": "https://live.staticflickr.com/65535/50039800037_5d8c62b31a_o.jpg",
    "id_image": "Collision_286791",
    "count_view": 0
  },
  {
    "link_thumb": "https://live.staticflickr.com/65535/50039654676_8927c9f1e6_n.jpg",
    "id_album": "1204249541",
    "description": "Galaxy_868969",
    "title": "Galaxy_868969",
    "link_img": "https://live.staticflickr.com/65535/50039654676_bb99960356_o.jpg",
    "id_image": "Galaxy_868969",
    "count_view": 0
  },
  {
    "link_thumb": "https://live.staticflickr.com/65535/50039019683_9f54f65e3b_n.jpg",
    "id_album": "-1372247677",
    "description": "Cyberpunk_949757",
    "title": "Cyberpunk_949757",
    "link_img": "https://live.staticflickr.com/65535/50039019683_3a6c6d9446_o.jpg",
    "id_image": "Cyberpunk_949757",
    "count_view": 0
  },
  {
    "link_thumb": "https://live.staticflickr.com/65535/50038897253_811bae18b1_n.jpg",
    "id_album": "-1964113117",
    "description": "City_213494",
    "title": "City_213494",
    "link_img": "https://live.staticflickr.com/65535/50038897253_8ca54efdb3_o.jpg",
    "id_image": "City_213494",
    "count_view": 0
  },
  {
    "link_thumb": "https://live.staticflickr.com/65535/50040060111_8495163a39_n.jpg",
    "id_album": "-1102314093",
    "description": "Planets_216382",
    "title": "Planets_216382",
    "link_img": "https://live.staticflickr.com/65535/50040060111_d9d032cf20_o.jpg",
    "id_image": "Planets_216382",
    "count_view": 0
  },
  {
    "link_thumb": "https://live.staticflickr.com/65535/50040438656_79b2e3dce4_n.jpg",
    "id_album": "779690680",
    "description": "Robot_944754",
    "title": "Robot_944754",
    "link_img": "https://live.staticflickr.com/65535/50040438656_a009da3bbd_o.jpg",
    "id_image": "Robot_944754",
    "count_view": 0
  },
  {
    "link_thumb": "https://live.staticflickr.com/65535/50038935458_d3373e21cd_n.jpg",
    "id_album": "-1964113117",
    "description": "City_649507",
    "title": "City_649507",
    "link_img": "https://live.staticflickr.com/65535/50038935458_8709d041ea_o.jpg",
    "id_image": "City_649507",
    "count_view": 0
  },
  {
    "link_thumb": "https://live.staticflickr.com/65535/50039212798_9c3e7f4245_n.jpg",
    "id_album": "-1610342324",
    "description": "Nebula_113267",
    "title": "Nebula_113267",
    "link_img": "https://live.staticflickr.com/65535/50039212798_7dc049dc04_o.jpg",
    "id_image": "Nebula_113267",
    "count_view": 0
  },
  {
    "link_thumb": "https://live.staticflickr.com/65535/50039499222_0315695752_n.jpg",
    "id_album": "-406145265",
    "description": "Aircraft_327273",
    "title": "Aircraft_327273",
    "link_img": "https://live.staticflickr.com/65535/50039499222_1027bece3f_o.jpg",
    "id_image": "Aircraft_327273",
    "count_view": 0
  },
  {
    "link_thumb": "https://live.staticflickr.com/65535/50040300303_987bc0fdbc_n.jpg",
    "id_album": "-1449720967",
    "description": "StarTrek_339027",
    "title": "StarTrek_339027",
    "link_img": "https://live.staticflickr.com/65535/50040300303_0cd6d92d04_o.jpg",
    "id_image": "StarTrek_339027",
    "count_view": 0
  },
  {
    "link_thumb": "https://live.staticflickr.com/65535/50039923072_c3cb090a65_n.jpg",
    "id_album": "1402713104",
    "description": "Landscape_117129",
    "title": "Landscape_117129",
    "link_img": "https://live.staticflickr.com/65535/50039923072_8a10242ce7_o.jpg",
    "id_image": "Landscape_117129",
    "count_view": 0
  },
  {
    "link_thumb": "https://live.staticflickr.com/65535/50038900308_502e7e5aa5_n.jpg",
    "id_album": "-1964113117",
    "description": "City_220203",
    "title": "City_220203",
    "link_img": "https://live.staticflickr.com/65535/50038900308_367e43586b_o.jpg",
    "id_image": "City_220203",
    "count_view": 0
  },
  {
    "link_thumb": "https://live.staticflickr.com/65535/50038727493_5af9d06ca1_n.jpg",
    "id_album": "849020728",
    "description": "Alien_864723",
    "title": "Alien_864723",
    "link_img": "https://live.staticflickr.com/65535/50038727493_f0976ddcbc_o.jpg",
    "id_image": "Alien_864723",
    "count_view": 0
  },
  {
    "link_thumb": "https://live.staticflickr.com/65535/50040282971_1f4e7127c5_n.jpg",
    "id_album": "779690680",
    "description": "Robot_292396",
    "title": "Robot_292396",
    "link_img": "https://live.staticflickr.com/65535/50040282971_e878097de8_o.jpg",
    "id_image": "Robot_292396",
    "count_view": 0
  },
  {
    "link_thumb": "https://live.staticflickr.com/65535/50039639247_b1ce798ce0_n.jpg",
    "id_album": "869545341",
    "description": "Astronaut_899272",
    "title": "Astronaut_899272",
    "link_img": "https://live.staticflickr.com/65535/50039639247_1f9f1942e2_o.jpg",
    "id_image": "Astronaut_899272",
    "count_view": 0
  },
  {
    "link_thumb": "https://live.staticflickr.com/65535/50039738322_bddb3b5f15_n.jpg",
    "id_album": "-1964113117",
    "description": "City_528294",
    "title": "City_528294",
    "link_img": "https://live.staticflickr.com/65535/50039738322_67e536853b_o.jpg",
    "id_image": "City_528294",
    "count_view": 0
  },
  {
    "link_thumb": "https://live.staticflickr.com/65535/50039257273_585ecc3012_n.jpg",
    "id_album": "-1610342324",
    "description": "Nebula_548005",
    "title": "Nebula_548005",
    "link_img": "https://live.staticflickr.com/65535/50039257273_39d11deea9_o.jpg",
    "id_image": "Nebula_548005",
    "count_view": 0
  },
  {
    "link_thumb": "https://live.staticflickr.com/65535/50039499067_68c9594ef5_n.jpg",
    "id_album": "-406145265",
    "description": "Aircraft_327270",
    "title": "Aircraft_327270",
    "link_img": "https://live.staticflickr.com/65535/50039499067_33da993d2f_o.jpg",
    "id_image": "Aircraft_327270",
    "count_view": 0
  },
  {
    "link_thumb": "https://live.staticflickr.com/65535/50038924648_b2d243f09c_n.jpg",
    "id_album": "-1964113117",
    "description": "City_492503",
    "title": "City_492503",
    "link_img": "https://live.staticflickr.com/65535/50038924648_ef3067f492_o.jpg",
    "id_image": "City_492503",
    "count_view": 0
  },
  {
    "link_thumb": "https://live.staticflickr.com/65535/50041741777_c9bd4f5fb6_n.jpg",
    "id_album": "-1261420436",
    "description": "Warrior_608178",
    "title": "Warrior_608178",
    "link_img": "https://live.staticflickr.com/65535/50041741777_a29d584382_o.jpg",
    "id_image": "Warrior_608178",
    "count_view": 0
  },
  {
    "link_thumb": "https://live.staticflickr.com/65535/50041257241_4247cfe1ca_n.jpg",
    "id_album": "-1587696329",
    "description": "Stars_173368",
    "title": "Stars_173368",
    "link_img": "https://live.staticflickr.com/65535/50041257241_fe13e4bef0_o.jpg",
    "id_image": "Stars_173368",
    "count_view": 0
  },
  {
    "link_thumb": "https://live.staticflickr.com/65535/50039495962_3ed909d434_n.jpg",
    "id_album": "-406145265",
    "description": "Aircraft_112473",
    "title": "Aircraft_112473",
    "link_img": "https://live.staticflickr.com/65535/50039495962_f531135e71_o.jpg",
    "id_image": "Aircraft_112473",
    "count_view": 0
  },
  {
    "link_thumb": "https://live.staticflickr.com/65535/50039778103_5e8c9be036_n.jpg",
    "id_album": "779690680",
    "description": "Robot_530263",
    "title": "Robot_530263",
    "link_img": "https://live.staticflickr.com/65535/50039778103_b5399058bf_o.jpg",
    "id_image": "Robot_530263",
    "count_view": 0
  },
  {
    "link_thumb": "https://live.staticflickr.com/65535/50040087647_a8efe44b4a_n.jpg",
    "id_album": "-1610342324",
    "description": "Nebula_703542",
    "title": "Nebula_703542",
    "link_img": "https://live.staticflickr.com/65535/50040087647_b775c88f05_o.jpg",
    "id_image": "Nebula_703542",
    "count_view": 0
  },
  {
    "link_thumb": "https://live.staticflickr.com/65535/50040269811_b7ac7e641c_n.jpg",
    "id_album": "779690680",
    "description": "Robot_243405",
    "title": "Robot_243405",
    "link_img": "https://live.staticflickr.com/65535/50040269811_077746b597_o.jpg",
    "id_image": "Robot_243405",
    "count_view": 0
  },
  {
    "link_thumb": "https://live.staticflickr.com/65535/50040688062_7d3993c58a_n.jpg",
    "id_album": "779690680",
    "description": "Robot_928584",
    "title": "Robot_928584",
    "link_img": "https://live.staticflickr.com/65535/50040688062_75ae354d5e_o.jpg",
    "id_image": "Robot_928584",
    "count_view": 0
  },
  {
    "link_thumb": "https://live.staticflickr.com/65535/50040027672_54944249fb_n.jpg",
    "id_album": "-1610342324",
    "description": "Nebula_171930",
    "title": "Nebula_171930",
    "link_img": "https://live.staticflickr.com/65535/50040027672_27ed10c88f_o.jpg",
    "id_image": "Nebula_171930",
    "count_view": 0
  },
  {
    "link_thumb": "https://live.staticflickr.com/65535/50039891742_53aa0fa11a_n.jpg",
    "id_album": "1204249541",
    "description": "Galaxy_280753",
    "title": "Galaxy_280753",
    "link_img": "https://live.staticflickr.com/65535/50039891742_e4b2b3727d_o.jpg",
    "id_image": "Galaxy_280753",
    "count_view": 0
  },
  {
    "link_thumb": "https://live.staticflickr.com/65535/50040697188_2defc81c95_n.jpg",
    "id_album": "-1863373220",
    "description": "StarWars_981663",
    "title": "StarWars_981663",
    "link_img": "https://live.staticflickr.com/65535/50040697188_7117af20a6_o.jpg",
    "id_image": "StarWars_981663",
    "count_view": 0
  },
  {
    "link_thumb": "https://live.staticflickr.com/65535/50039651632_f012d80a13_n.jpg",
    "id_album": "869545341",
    "description": "Astronaut_977917",
    "title": "Astronaut_977917",
    "link_img": "https://live.staticflickr.com/65535/50039651632_0c0b3727ec_o.jpg",
    "id_image": "Astronaut_977917",
    "count_view": 0
  },
  {
    "link_thumb": "https://live.staticflickr.com/65535/50040235916_06d389a247_n.jpg",
    "id_album": "-482547208",
    "description": "PostApocalyptic_972164",
    "title": "PostApocalyptic_972164",
    "link_img": "https://live.staticflickr.com/65535/50040235916_632e06bc57_o.jpg",
    "id_image": "PostApocalyptic_972164",
    "count_view": 0
  },
  {
    "link_thumb": "https://live.staticflickr.com/65535/50040517567_93b0356ae2_n.jpg",
    "id_album": "779690680",
    "description": "Robot_116309",
    "title": "Robot_116309",
    "link_img": "https://live.staticflickr.com/65535/50040517567_0816b977a4_o.jpg",
    "id_image": "Robot_116309",
    "count_view": 0
  },
  {
    "link_thumb": "https://live.staticflickr.com/65535/50040029092_990fbf5388_n.jpg",
    "id_album": "-1610342324",
    "description": "Nebula_179729",
    "title": "Nebula_179729",
    "link_img": "https://live.staticflickr.com/65535/50040029092_171dd71840_o.jpg",
    "id_image": "Nebula_179729",
    "count_view": 0
  },
  {
    "link_thumb": "https://live.staticflickr.com/65535/50040094156_d59ea2a67e_n.jpg",
    "id_album": "-1102314093",
    "description": "Planets_353213",
    "title": "Planets_353213",
    "link_img": "https://live.staticflickr.com/65535/50040094156_9f06366b15_o.jpg",
    "id_image": "Planets_353213",
    "count_view": 0
  },
  {
    "link_thumb": "https://live.staticflickr.com/65535/50039848721_4e3737dacf_n.jpg",
    "id_album": "-1610342324",
    "description": "Nebula_881101",
    "title": "Nebula_881101",
    "link_img": "https://live.staticflickr.com/65535/50039848721_ddf6e00d96_o.jpg",
    "id_image": "Nebula_881101",
    "count_view": 0
  },
  {
    "link_thumb": "https://live.staticflickr.com/65535/50038681068_4227c26570_n.jpg",
    "id_album": "280884763",
    "description": "Abstract_229063",
    "title": "Abstract_229063",
    "link_img": "https://live.staticflickr.com/65535/50038681068_4141d04e60_o.jpg",
    "id_image": "Abstract_229063",
    "count_view": 0
  },
  {
    "link_thumb": "https://live.staticflickr.com/65535/50040162756_b4730129cd_n.jpg",
    "id_album": "376235057",
    "description": "Planetscape_350751",
    "title": "Planetscape_350751",
    "link_img": "https://live.staticflickr.com/65535/50040162756_1def2662b0_o.jpg",
    "id_image": "Planetscape_350751",
    "count_view": 0
  },
  {
    "link_thumb": "https://live.staticflickr.com/65535/50040477481_0f64201905_n.jpg",
    "id_album": "1613540653",
    "description": "Space_193",
    "title": "Space_193",
    "link_img": "https://live.staticflickr.com/65535/50040477481_5162ab3ddf_o.jpg",
    "id_image": "Space_193",
    "count_view": 0
  },
  {
    "link_thumb": "https://live.staticflickr.com/65535/50039511598_cb80b055ee_n.jpg",
    "id_album": "-1102314093",
    "description": "Planets_221961",
    "title": "Planets_221961",
    "link_img": "https://live.staticflickr.com/65535/50039511598_b7bb8b3c80_o.jpg",
    "id_image": "Planets_221961",
    "count_view": 0
  },
  {
    "link_thumb": "https://live.staticflickr.com/65535/50040513677_3d95247660_n.jpg",
    "id_album": "779690680",
    "description": "Robot_1010868",
    "title": "Robot_1010868",
    "link_img": "https://live.staticflickr.com/65535/50040513677_0984748e1a_o.jpg",
    "id_image": "Robot_1010868",
    "count_view": 0
  },
  {
    "link_thumb": "https://live.staticflickr.com/65535/50039351403_72481bbb3c_n.jpg",
    "id_album": "395161030",
    "description": "Planet_1004885",
    "title": "Planet_1004885",
    "link_img": "https://live.staticflickr.com/65535/50039351403_9f6e816b25_o.jpg",
    "id_image": "Planet_1004885",
    "count_view": 0
  },
  {
    "link_thumb": "https://live.staticflickr.com/65535/50039287128_d5e4f3bb44_n.jpg",
    "id_album": "-1610342324",
    "description": "Nebula_785842",
    "title": "Nebula_785842",
    "link_img": "https://live.staticflickr.com/65535/50039287128_83cb6bf809_o.jpg",
    "id_image": "Nebula_785842",
    "count_view": 0
  },
  {
    "link_thumb": "https://live.staticflickr.com/65535/50038994348_8b720a29f6_n.jpg",
    "id_album": "894679094",
    "description": "Collision_677704",
    "title": "Collision_677704",
    "link_img": "https://live.staticflickr.com/65535/50038994348_e8ef029a18_o.jpg",
    "id_image": "Collision_677704",
    "count_view": 0
  },
  {
    "link_thumb": "https://live.staticflickr.com/65535/50039667763_c3ba9fa86f_n.jpg",
    "id_album": "-482547208",
    "description": "PostApocalyptic_709113",
    "title": "PostApocalyptic_709113",
    "link_img": "https://live.staticflickr.com/65535/50039667763_0172c9c9e2_o.jpg",
    "id_image": "PostApocalyptic_709113",
    "count_view": 0
  },
  {
    "link_thumb": "https://live.staticflickr.com/65535/50039959196_19724fcec3_n.jpg",
    "id_album": "395161030",
    "description": "Planet_555279",
    "title": "Planet_555279",
    "link_img": "https://live.staticflickr.com/65535/50039959196_1ab9881f87_o.jpg",
    "id_image": "Planet_555279",
    "count_view": 0
  },
  {
    "link_thumb": "https://live.staticflickr.com/65535/50040245756_d1bf416b2d_n.jpg",
    "id_album": "-839602625",
    "description": "Predator_578299",
    "title": "Predator_578299",
    "link_img": "https://live.staticflickr.com/65535/50040245756_bb68f73bc3_o.jpg",
    "id_image": "Predator_578299",
    "count_view": 0
  },
  {
    "link_thumb": "https://live.staticflickr.com/65535/50041503767_e195265922_n.jpg",
    "id_album": "-1863373220",
    "description": "StarWars_913639",
    "title": "StarWars_913639",
    "link_img": "https://live.staticflickr.com/65535/50041503767_8a27f0e63f_o.jpg",
    "id_image": "StarWars_913639",
    "count_view": 0
  },
  {
    "link_thumb": "https://live.staticflickr.com/65535/50039667151_e6867c8fe6_n.jpg",
    "id_album": "1402713104",
    "description": "Landscape_259810",
    "title": "Landscape_259810",
    "link_img": "https://live.staticflickr.com/65535/50039667151_1fd2cf7ae0_o.jpg",
    "id_image": "Landscape_259810",
    "count_view": 0
  },
  {
    "link_thumb": "https://live.staticflickr.com/65535/50039769011_015201195a_n.jpg",
    "id_album": "-1610342324",
    "description": "Nebula_205884",
    "title": "Nebula_205884",
    "link_img": "https://live.staticflickr.com/65535/50039769011_fce77faeaf_o.jpg",
    "id_image": "Nebula_205884",
    "count_view": 0
  },
  {
    "link_thumb": "https://live.staticflickr.com/65535/50040929603_07e9fe271f_n.jpg",
    "id_album": "-1261420436",
    "description": "Warrior_690930",
    "title": "Warrior_690930",
    "link_img": "https://live.staticflickr.com/65535/50040929603_682b732da5_o.jpg",
    "id_image": "Warrior_690930",
    "count_view": 0
  },
  {
    "link_thumb": "https://live.staticflickr.com/65535/50039520951_a3c4536b62_n.jpg",
    "id_album": "-1964113117",
    "description": "City_918482",
    "title": "City_918482",
    "link_img": "https://live.staticflickr.com/65535/50039520951_40ceecabab_o.jpg",
    "id_image": "City_918482",
    "count_view": 0
  },
  {
    "link_thumb": "https://live.staticflickr.com/65535/50041582861_d816785948_n.jpg",
    "id_album": "-1675918237",
    "description": "WomenWarrior_594687",
    "title": "WomenWarrior_594687",
    "link_img": "https://live.staticflickr.com/65535/50041582861_96ea516c04_o.jpg",
    "id_image": "WomenWarrior_594687",
    "count_view": 0
  },
  {
    "link_thumb": "https://live.staticflickr.com/65535/50039759782_85a85e8165_n.jpg",
    "id_album": "-1964113117",
    "description": "City_793615",
    "title": "City_793615",
    "link_img": "https://live.staticflickr.com/65535/50039759782_3b535ab60a_o.jpg",
    "id_image": "City_793615",
    "count_view": 0
  },
  {
    "link_thumb": "https://live.staticflickr.com/65535/50040468462_23c99167b3_n.jpg",
    "id_album": "-482547208",
    "description": "PostApocalyptic_283684",
    "title": "PostApocalyptic_283684",
    "link_img": "https://live.staticflickr.com/65535/50040468462_38b748e0bf_o.jpg",
    "id_image": "PostApocalyptic_283684",
    "count_view": 0
  },
  {
    "link_thumb": "https://live.staticflickr.com/65535/50039837012_0f36c881c1_n.jpg",
    "id_album": "829169633",
    "description": "Cyborg_1010639",
    "title": "Cyborg_1010639",
    "link_img": "https://live.staticflickr.com/65535/50039837012_8ff93eba29_o.jpg",
    "id_image": "Cyborg_1010639",
    "count_view": 0
  },
  {
    "link_thumb": "https://live.staticflickr.com/65535/50040528392_8c028f533e_n.jpg",
    "id_album": "779690680",
    "description": "Robot_202139",
    "title": "Robot_202139",
    "link_img": "https://live.staticflickr.com/65535/50040528392_15e89fba6a_o.jpg",
    "id_image": "Robot_202139",
    "count_view": 0
  },
  {
    "link_thumb": "https://live.staticflickr.com/65535/50039067178_40641f1b50_n.jpg",
    "id_album": "2104507156",
    "description": "Fantasy_168925",
    "title": "Fantasy_168925",
    "link_img": "https://live.staticflickr.com/65535/50039067178_b3fd364f14_o.jpg",
    "id_image": "Fantasy_168925",
    "count_view": 0
  },
  {
    "link_thumb": "https://live.staticflickr.com/65535/50039772998_64e2eaa24c_n.jpg",
    "id_album": "779690680",
    "description": "Robot_497238",
    "title": "Robot_497238",
    "link_img": "https://live.staticflickr.com/65535/50039772998_ff1b156713_o.jpg",
    "id_image": "Robot_497238",
    "count_view": 0
  },
  {
    "link_thumb": "https://live.staticflickr.com/65535/50040019892_c2ef3ddbaf_n.jpg",
    "id_album": "416351698",
    "description": "Moon_422190",
    "title": "Moon_422190",
    "link_img": "https://live.staticflickr.com/65535/50040019892_da7cfe3333_o.jpg",
    "id_image": "Moon_422190",
    "count_view": 0
  },
  {
    "link_thumb": "https://live.staticflickr.com/65535/50040906633_665cb7d8f8_n.jpg",
    "id_album": "-1261420436",
    "description": "Warrior_426470",
    "title": "Warrior_426470",
    "link_img": "https://live.staticflickr.com/65535/50040906633_6c024b8064_o.jpg",
    "id_image": "Warrior_426470",
    "count_view": 0
  },
  {
    "link_thumb": "https://live.staticflickr.com/65535/50041446046_3f04f449db_n.jpg",
    "id_album": "-1261420436",
    "description": "Warrior_313857",
    "title": "Warrior_313857",
    "link_img": "https://live.staticflickr.com/65535/50041446046_9312e351db_o.jpg",
    "id_image": "Warrior_313857",
    "count_view": 0
  },
  {
    "link_thumb": "https://live.staticflickr.com/65535/50040899313_0ff4d5ce62_n.jpg",
    "id_album": "-1261420436",
    "description": "Warrior_374946",
    "title": "Warrior_374946",
    "link_img": "https://live.staticflickr.com/65535/50040899313_6d0689c3ca_o.jpg",
    "id_image": "Warrior_374946",
    "count_view": 0
  },
  {
    "link_thumb": "https://live.staticflickr.com/65535/50038827993_9f5bea2caa_n.jpg",
    "id_album": "869545341",
    "description": "Astronaut_888313",
    "title": "Astronaut_888313",
    "link_img": "https://live.staticflickr.com/65535/50038827993_6145767e51_o.jpg",
    "id_image": "Astronaut_888313",
    "count_view": 0
  },
  {
    "link_thumb": "https://live.staticflickr.com/65535/50040682502_63b9193612_n.jpg",
    "id_album": "779690680",
    "description": "Robot_922855",
    "title": "Robot_922855",
    "link_img": "https://live.staticflickr.com/65535/50040682502_45ecf0230f_o.jpg",
    "id_image": "Robot_922855",
    "count_view": 0
  },
  {
    "link_thumb": "https://live.staticflickr.com/65535/50041563741_5b21c625f9_n.jpg",
    "id_album": "-1675918237",
    "description": "WomenWarrior_283334",
    "title": "WomenWarrior_283334",
    "link_img": "https://live.staticflickr.com/65535/50041563741_5a8b211ee1_o.jpg",
    "id_image": "WomenWarrior_283334",
    "count_view": 0
  },
  {
    "link_thumb": "https://live.staticflickr.com/65535/50039542121_5bed5f426f_n.jpg",
    "id_album": "894679094",
    "description": "Collision_652645",
    "title": "Collision_652645",
    "link_img": "https://live.staticflickr.com/65535/50039542121_5cc724df30_o.jpg",
    "id_image": "Collision_652645",
    "count_view": 0
  },
  {
    "link_thumb": "https://live.staticflickr.com/65535/50041554092_27c3cd6730_n.jpg",
    "id_album": "1267121215",
    "description": "Steampunk_184480",
    "title": "Steampunk_184480",
    "link_img": "https://live.staticflickr.com/65535/50041554092_1f9d033136_o.jpg",
    "id_image": "Steampunk_184480",
    "count_view": 0
  },
  {
    "link_thumb": "https://live.staticflickr.com/65535/50039914352_bef13ed891_n.jpg",
    "id_album": "1204249541",
    "description": "Galaxy_689589",
    "title": "Galaxy_689589",
    "link_img": "https://live.staticflickr.com/65535/50039914352_90c1e634d5_o.jpg",
    "id_image": "Galaxy_689589",
    "count_view": 0
  },
  {
    "link_thumb": "https://live.staticflickr.com/65535/50039739407_c6aaa83ccf_n.jpg",
    "id_album": "-1964113117",
    "description": "City_546232",
    "title": "City_546232",
    "link_img": "https://live.staticflickr.com/65535/50039739407_fdd3fce766_o.jpg",
    "id_image": "City_546232",
    "count_view": 0
  },
  {
    "link_thumb": "https://live.staticflickr.com/65535/50038810163_4fed36046e_n.jpg",
    "id_album": "869545341",
    "description": "Astronaut_565707",
    "title": "Astronaut_565707",
    "link_img": "https://live.staticflickr.com/65535/50038810163_446a8e2ddd_o.jpg",
    "id_image": "Astronaut_565707",
    "count_view": 0
  },
  {
    "link_thumb": "https://live.staticflickr.com/65535/50040299966_0a77a3091b_n.jpg",
    "id_album": "779690680",
    "description": "Robot_390499",
    "title": "Robot_390499",
    "link_img": "https://live.staticflickr.com/65535/50040299966_688ba03aee_o.jpg",
    "id_image": "Robot_390499",
    "count_view": 0
  },
  {
    "link_thumb": "https://live.staticflickr.com/65535/50039431076_5031fda00a_n.jpg",
    "id_album": "-1964113117",
    "description": "City_103430",
    "title": "City_103430",
    "link_img": "https://live.staticflickr.com/65535/50039431076_5cf036a562_o.jpg",
    "id_image": "City_103430",
    "count_view": 0
  },
  {
    "link_thumb": "https://live.staticflickr.com/65535/50039059733_6a549704db_n.jpg",
    "id_album": "651930207",
    "description": "Explosion_325892",
    "title": "Explosion_325892",
    "link_img": "https://live.staticflickr.com/65535/50039059733_3e74f47e09_o.jpg",
    "id_image": "Explosion_325892",
    "count_view": 0
  },
  {
    "link_thumb": "https://live.staticflickr.com/65535/50038963063_308171d183_n.jpg",
    "id_album": "-1964113117",
    "description": "City_878302",
    "title": "City_878302",
    "link_img": "https://live.staticflickr.com/65535/50038963063_9f00e507d5_o.jpg",
    "id_image": "City_878302",
    "count_view": 0
  },
  {
    "link_thumb": "https://live.staticflickr.com/65535/50039384698_be5257c054_n.jpg",
    "id_album": "395161030",
    "description": "Planet_349928",
    "title": "Planet_349928",
    "link_img": "https://live.staticflickr.com/65535/50039384698_dd0e1c9315_o.jpg",
    "id_image": "Planet_349928",
    "count_view": 0
  },
  {
    "link_thumb": "https://live.staticflickr.com/65535/50040509771_a78a1a99fd_n.jpg",
    "id_album": "1613540653",
    "description": "Space_505515",
    "title": "Space_505515",
    "link_img": "https://live.staticflickr.com/65535/50040509771_3c88f45a57_o.jpg",
    "id_image": "Space_505515",
    "count_view": 0
  },
  {
    "link_thumb": "https://live.staticflickr.com/65535/50039778011_54e3b11dc3_n.jpg",
    "id_album": "-1610342324",
    "description": "Nebula_25553",
    "title": "Nebula_25553",
    "link_img": "https://live.staticflickr.com/65535/50039778011_cd041e0962_o.jpg",
    "id_image": "Nebula_25553",
    "count_view": 0
  },
  {
    "link_thumb": "https://live.staticflickr.com/65535/50040043132_1dd01fdfa3_n.jpg",
    "id_album": "-1610342324",
    "description": "Nebula_265686",
    "title": "Nebula_265686",
    "link_img": "https://live.staticflickr.com/65535/50040043132_553fc7b2ae_o.jpg",
    "id_image": "Nebula_265686",
    "count_view": 0
  },
  {
    "link_thumb": "https://live.staticflickr.com/65535/50039209253_4a7a82f895_n.jpg",
    "id_album": "416351698",
    "description": "Moon_864936",
    "title": "Moon_864936",
    "link_img": "https://live.staticflickr.com/65535/50039209253_5f45f5260f_o.jpg",
    "id_image": "Moon_864936",
    "count_view": 0
  },
  {
    "link_thumb": "https://live.staticflickr.com/65535/50039496802_9b1632990d_n.jpg",
    "id_album": "-406145265",
    "description": "Aircraft_237854",
    "title": "Aircraft_237854",
    "link_img": "https://live.staticflickr.com/65535/50039496802_27a9911b25_o.jpg",
    "id_image": "Aircraft_237854",
    "count_view": 0
  },
  {
    "link_thumb": "https://live.staticflickr.com/65535/50039850426_5069967e07_n.jpg",
    "id_album": "-1610342324",
    "description": "Nebula_89358",
    "title": "Nebula_89358",
    "link_img": "https://live.staticflickr.com/65535/50039850426_4663a3c03b_o.jpg",
    "id_image": "Nebula_89358",
    "count_view": 0
  },
  {
    "link_thumb": "https://live.staticflickr.com/65535/50040944158_dafbbffd74_n.jpg",
    "id_album": "-1261420436",
    "description": "Warrior_979752",
    "title": "Warrior_979752",
    "link_img": "https://live.staticflickr.com/65535/50040944158_78dcf3d3ca_o.jpg",
    "id_image": "Warrior_979752",
    "count_view": 0
  },
  {
    "link_thumb": "https://live.staticflickr.com/65535/50040034042_5e8a2e72a3_n.jpg",
    "id_album": "-1610342324",
    "description": "Nebula_214557",
    "title": "Nebula_214557",
    "link_img": "https://live.staticflickr.com/65535/50040034042_a101ce50ee_o.jpg",
    "id_image": "Nebula_214557",
    "count_view": 0
  },
  {
    "link_thumb": "https://live.staticflickr.com/65535/50039959193_1f5227949d_n.jpg",
    "id_album": "1613540653",
    "description": "Space_566803",
    "title": "Space_566803",
    "link_img": "https://live.staticflickr.com/65535/50039959193_1c538d4e53_o.jpg",
    "id_image": "Space_566803",
    "count_view": 0
  },
  {
    "link_thumb": "https://live.staticflickr.com/65535/50039261276_41f15e10bd_n.jpg",
    "id_album": "849020728",
    "description": "Alien_347653",
    "title": "Alien_347653",
    "link_img": "https://live.staticflickr.com/65535/50039261276_f5a17d9d75_o.jpg",
    "id_image": "Alien_347653",
    "count_view": 0
  },
  {
    "link_thumb": "https://live.staticflickr.com/65535/50041024292_5d4fc61797_n.jpg",
    "id_album": "2130067313",
    "description": "Spaceship_881548",
    "title": "Spaceship_881548",
    "link_img": "https://live.staticflickr.com/65535/50041024292_373e201236_o.jpg",
    "id_image": "Spaceship_881548",
    "count_view": 0
  },
  {
    "link_thumb": "https://live.staticflickr.com/65535/50039843911_6922ea63d4_n.jpg",
    "id_album": "-1610342324",
    "description": "Nebula_84616",
    "title": "Nebula_84616",
    "link_img": "https://live.staticflickr.com/65535/50039843911_60fbac3ab0_o.jpg",
    "id_image": "Nebula_84616",
    "count_view": 0
  },
  {
    "link_thumb": "https://live.staticflickr.com/65535/50039692042_2238c9fdcb_n.jpg",
    "id_album": "406431601",
    "description": "Building_992551",
    "title": "Building_992551",
    "link_img": "https://live.staticflickr.com/65535/50039692042_d99f3f2cc4_o.jpg",
    "id_image": "Building_992551",
    "count_view": 0
  },
  {
    "link_thumb": "https://live.staticflickr.com/65535/50039312818_ecf4d05d58_n.jpg",
    "id_album": "-1862561193",
    "description": "Other_179190",
    "title": "Other_179190",
    "link_img": "https://live.staticflickr.com/65535/50039312818_87e0f5b2e0_o.jpg",
    "id_image": "Other_179190",
    "count_view": 0
  },
  {
    "link_thumb": "https://live.staticflickr.com/65535/50041263421_118371238b_n.jpg",
    "id_album": "-1587696329",
    "description": "Stars_346525",
    "title": "Stars_346525",
    "link_img": "https://live.staticflickr.com/65535/50041263421_c2cd6e7fb7_o.jpg",
    "id_image": "Stars_346525",
    "count_view": 0
  },
  {
    "link_thumb": "https://live.staticflickr.com/65535/50040752627_cb29271ba3_n.jpg",
    "id_album": "1613540653",
    "description": "Space_286996",
    "title": "Space_286996",
    "link_img": "https://live.staticflickr.com/65535/50040752627_8fc35aefd0_o.jpg",
    "id_image": "Space_286996",
    "count_view": 0
  },
  {
    "link_thumb": "https://live.staticflickr.com/65535/50039004508_ea7821afd2_n.jpg",
    "id_album": "-437872736",
    "description": "Creature_333367",
    "title": "Creature_333367",
    "link_img": "https://live.staticflickr.com/65535/50039004508_4210796a9f_o.jpg",
    "id_image": "Creature_333367",
    "count_view": 0
  },
  {
    "link_thumb": "https://live.staticflickr.com/65535/50040464491_1ae9736992_n.jpg",
    "id_album": "1613540653",
    "description": "Space_113986",
    "title": "Space_113986",
    "link_img": "https://live.staticflickr.com/65535/50040464491_dd8d6066f8_o.jpg",
    "id_image": "Space_113986",
    "count_view": 0
  },
  {
    "link_thumb": "https://live.staticflickr.com/65535/50039857481_261a332755_n.jpg",
    "id_album": "-1610342324",
    "description": "Nebula_957371",
    "title": "Nebula_957371",
    "link_img": "https://live.staticflickr.com/65535/50039857481_eb7baaf2d5_o.jpg",
    "id_image": "Nebula_957371",
    "count_view": 0
  },
  {
    "link_thumb": "https://live.staticflickr.com/65535/50039647438_fc7f3a1f02_n.jpg",
    "id_album": "-482547208",
    "description": "PostApocalyptic_239848",
    "title": "PostApocalyptic_239848",
    "link_img": "https://live.staticflickr.com/65535/50039647438_817d5f98aa_o.jpg",
    "id_image": "PostApocalyptic_239848",
    "count_view": 0
  },
  {
    "link_thumb": "https://live.staticflickr.com/65535/50039973138_84683b71a8_n.jpg",
    "id_album": "1613540653",
    "description": "Space_694407",
    "title": "Space_694407",
    "link_img": "https://live.staticflickr.com/65535/50039973138_d8b38fdded_o.jpg",
    "id_image": "Space_694407",
    "count_view": 0
  },
  {
    "link_thumb": "https://live.staticflickr.com/65535/50041153906_9006c0eaf3_n.jpg",
    "id_album": "-1863373220",
    "description": "StarWars_246181",
    "title": "StarWars_246181",
    "link_img": "https://live.staticflickr.com/65535/50041153906_ab6b9a5dbb_o.jpg",
    "id_image": "StarWars_246181",
    "count_view": 0
  },
  {
    "link_thumb": "https://live.staticflickr.com/65535/50039132288_cf74ef1a78_n.jpg",
    "id_album": "1402713104",
    "description": "Landscape_351024",
    "title": "Landscape_351024",
    "link_img": "https://live.staticflickr.com/65535/50039132288_ca44187ea8_o.jpg",
    "id_image": "Landscape_351024",
    "count_view": 0
  },
  {
    "link_thumb": "https://live.staticflickr.com/65535/50039799487_ed67133297_n.jpg",
    "id_album": "894679094",
    "description": "Collision_233934",
    "title": "Collision_233934",
    "link_img": "https://live.staticflickr.com/65535/50039799487_ecc17690b2_o.jpg",
    "id_image": "Collision_233934",
    "count_view": 0
  },
  {
    "link_thumb": "https://live.staticflickr.com/65535/50040671552_fc32a4d7ae_n.jpg",
    "id_album": "779690680",
    "description": "Robot_910945",
    "title": "Robot_910945",
    "link_img": "https://live.staticflickr.com/65535/50040671552_c78188c8d7_o.jpg",
    "id_image": "Robot_910945",
    "count_view": 0
  },
  {
    "link_thumb": "https://live.staticflickr.com/65535/50039003053_99b1076cd4_n.jpg",
    "id_album": "-437872736",
    "description": "Creature_321344",
    "title": "Creature_321344",
    "link_img": "https://live.staticflickr.com/65535/50039003053_f18664a921_o.jpg",
    "id_image": "Creature_321344",
    "count_view": 0
  },
  {
    "link_thumb": "https://live.staticflickr.com/65535/50039992632_90c4441156_n.jpg",
    "id_album": "1402713104",
    "description": "Landscape_979174",
    "title": "Landscape_979174",
    "link_img": "https://live.staticflickr.com/65535/50039992632_a47e47ba91_o.jpg",
    "id_image": "Landscape_979174",
    "count_view": 0
  },
  {
    "link_thumb": "https://live.staticflickr.com/65535/50040395091_f865f50c00_n.jpg",
    "id_album": "779690680",
    "description": "Robot_887980",
    "title": "Robot_887980",
    "link_img": "https://live.staticflickr.com/65535/50040395091_5458e30cea_o.jpg",
    "id_image": "Robot_887980",
    "count_view": 0
  },
  {
    "link_thumb": "https://live.staticflickr.com/65535/50039661526_f2f08a4e81_n.jpg",
    "id_album": "1402713104",
    "description": "Landscape_163727",
    "title": "Landscape_163727",
    "link_img": "https://live.staticflickr.com/65535/50039661526_8f50f206e1_o.jpg",
    "id_image": "Landscape_163727",
    "count_view": 0
  },
  {
    "link_thumb": "https://live.staticflickr.com/65535/50039578642_8ffe44b1af_n.jpg",
    "id_album": "523598895",
    "description": "Artistic_221032",
    "title": "Artistic_221032",
    "link_img": "https://live.staticflickr.com/65535/50039578642_3f4fe0a470_o.jpg",
    "id_image": "Artistic_221032",
    "count_view": 0
  },
  {
    "link_thumb": "https://live.staticflickr.com/65535/50041602067_eeef81d6ca_n.jpg",
    "id_album": "-221671103",
    "description": "Sun_181705",
    "title": "Sun_181705",
    "link_img": "https://live.staticflickr.com/65535/50041602067_c77100d24b_o.jpg",
    "id_image": "Sun_181705",
    "count_view": 0
  },
  {
    "link_thumb": "https://live.staticflickr.com/65535/50039894847_27fed53a9d_n.jpg",
    "id_album": "1204249541",
    "description": "Galaxy_382553",
    "title": "Galaxy_382553",
    "link_img": "https://live.staticflickr.com/65535/50039894847_3febf18752_o.jpg",
    "id_image": "Galaxy_382553",
    "count_view": 0
  },
  {
    "link_thumb": "https://live.staticflickr.com/65535/50039670126_cef0d1bf80_n.jpg",
    "id_album": "1402713104",
    "description": "Landscape_283646",
    "title": "Landscape_283646",
    "link_img": "https://live.staticflickr.com/65535/50039670126_c1c1803d0a_o.jpg",
    "id_image": "Landscape_283646",
    "count_view": 0
  },
  {
    "link_thumb": "https://live.staticflickr.com/65535/50039393711_2dd33d9949_n.jpg",
    "id_album": "1187037014",
    "description": "Battle_150242",
    "title": "Battle_150242",
    "link_img": "https://live.staticflickr.com/65535/50039393711_7ba36c2e6b_o.jpg",
    "id_image": "Battle_150242",
    "count_view": 0
  },
  {
    "link_thumb": "https://live.staticflickr.com/65535/50040760957_6304788c9a_n.jpg",
    "id_album": "1613540653",
    "description": "Space_335428",
    "title": "Space_335428",
    "link_img": "https://live.staticflickr.com/65535/50040760957_bd1ba9a476_o.jpg",
    "id_image": "Space_335428",
    "count_view": 0
  },
  {
    "link_thumb": "https://live.staticflickr.com/65535/50039291546_17e05e5747_n.jpg",
    "id_album": "523598895",
    "description": "Artistic_104388",
    "title": "Artistic_104388",
    "link_img": "https://live.staticflickr.com/65535/50039291546_a048058784_o.jpg",
    "id_image": "Artistic_104388",
    "count_view": 0
  },
  {
    "link_thumb": "https://live.staticflickr.com/65535/50041442527_f81dff17bc_n.jpg",
    "id_album": "-1863373220",
    "description": "StarWars_429294",
    "title": "StarWars_429294",
    "link_img": "https://live.staticflickr.com/65535/50041442527_7d034c47a5_o.jpg",
    "id_image": "StarWars_429294",
    "count_view": 0
  },
  {
    "link_thumb": "https://live.staticflickr.com/65535/50039570768_a00ccf5ddd_n.jpg",
    "id_album": "-1102314093",
    "description": "Planets_529580",
    "title": "Planets_529580",
    "link_img": "https://live.staticflickr.com/65535/50039570768_b7e9404e0b_o.jpg",
    "id_image": "Planets_529580",
    "count_view": 0
  },
  {
    "link_thumb": "https://live.staticflickr.com/65535/50040815532_e28700d44e_n.jpg",
    "id_album": "1613540653",
    "description": "Space_914140",
    "title": "Space_914140",
    "link_img": "https://live.staticflickr.com/65535/50040815532_c457b72733_o.jpg",
    "id_image": "Space_914140",
    "count_view": 0
  },
  {
    "link_thumb": "https://live.staticflickr.com/65535/50040550632_2355f54f09_n.jpg",
    "id_album": "779690680",
    "description": "Robot_310255",
    "title": "Robot_310255",
    "link_img": "https://live.staticflickr.com/65535/50040550632_c4f95d66f4_o.jpg",
    "id_image": "Robot_310255",
    "count_view": 0
  },
  {
    "link_thumb": "https://live.staticflickr.com/65535/50038936328_245e5cdde7_n.jpg",
    "id_album": "-1964113117",
    "description": "City_665742",
    "title": "City_665742",
    "link_img": "https://live.staticflickr.com/65535/50038936328_90db83e5d3_o.jpg",
    "id_image": "City_665742",
    "count_view": 0
  },
  {
    "link_thumb": "https://live.staticflickr.com/65535/50039785822_d9dddc7a4c_n.jpg",
    "id_album": "-1964113117",
    "description": "City_936233",
    "title": "City_936233",
    "link_img": "https://live.staticflickr.com/65535/50039785822_797b176c20_o.jpg",
    "id_image": "City_936233",
    "count_view": 0
  },
  {
    "link_thumb": "https://live.staticflickr.com/65535/50039997752_3510230570_n.jpg",
    "id_album": "-1388385651",
    "description": "MilkyWay_560780",
    "title": "MilkyWay_560780",
    "link_img": "https://live.staticflickr.com/65535/50039997752_558646d62d_o.jpg",
    "id_image": "MilkyWay_560780",
    "count_view": 0
  },
  {
    "link_thumb": "https://live.staticflickr.com/65535/50039658641_9fe4db5a60_n.jpg",
    "id_album": "1402713104",
    "description": "Landscape_106830",
    "title": "Landscape_106830",
    "link_img": "https://live.staticflickr.com/65535/50039658641_03c40d528b_o.jpg",
    "id_image": "Landscape_106830",
    "count_view": 0
  },
  {
    "link_thumb": "https://live.staticflickr.com/65535/50039668851_6525914227_n.jpg",
    "id_album": "1402713104",
    "description": "Landscape_279664",
    "title": "Landscape_279664",
    "link_img": "https://live.staticflickr.com/65535/50039668851_772d764613_o.jpg",
    "id_image": "Landscape_279664",
    "count_view": 0
  },
  {
    "link_thumb": "https://live.staticflickr.com/65535/50040895318_8aac556493_n.jpg",
    "id_album": "-1261420436",
    "description": "Warrior_332537",
    "title": "Warrior_332537",
    "link_img": "https://live.staticflickr.com/65535/50040895318_a597742155_o.jpg",
    "id_image": "Warrior_332537",
    "count_view": 0
  },
  {
    "link_thumb": "https://live.staticflickr.com/65535/50040033681_76bc6008dc_n.jpg",
    "id_album": "814701616",
    "description": "PlanetaryRing_419630",
    "title": "PlanetaryRing_419630",
    "link_img": "https://live.staticflickr.com/65535/50040033681_097eb6d3dd_o.jpg",
    "id_image": "PlanetaryRing_419630",
    "count_view": 0
  },
  {
    "link_thumb": "https://live.staticflickr.com/65535/50038735448_2bd9f94662_n.jpg",
    "id_album": "-419633230",
    "description": "Apocalyptic_321186",
    "title": "Apocalyptic_321186",
    "link_img": "https://live.staticflickr.com/65535/50038735448_711c95ba53_o.jpg",
    "id_image": "Apocalyptic_321186",
    "count_view": 0
  },
  {
    "link_thumb": "https://live.staticflickr.com/65535/50039737176_83a85bdae1_n.jpg",
    "id_album": "-1388385651",
    "description": "MilkyWay_649639",
    "title": "MilkyWay_649639",
    "link_img": "https://live.staticflickr.com/65535/50039737176_f5f50ac319_o.jpg",
    "id_image": "MilkyWay_649639",
    "count_view": 0
  },
  {
    "link_thumb": "https://live.staticflickr.com/65535/50040496262_2d4ccbba2a_n.jpg",
    "id_album": "-482547208",
    "description": "PostApocalyptic_926850",
    "title": "PostApocalyptic_926850",
    "link_img": "https://live.staticflickr.com/65535/50040496262_29bced16cc_o.jpg",
    "id_image": "PostApocalyptic_926850",
    "count_view": 0
  },
  {
    "link_thumb": "https://live.staticflickr.com/65535/50040023112_3e4705693c_n.jpg",
    "id_album": "-1610342324",
    "description": "Nebula_1000994",
    "title": "Nebula_1000994",
    "link_img": "https://live.staticflickr.com/65535/50040023112_0b6dcfaaaf_o.jpg",
    "id_image": "Nebula_1000994",
    "count_view": 0
  },
  {
    "link_thumb": "https://live.staticflickr.com/65535/50039345548_75ac3c9d58_n.jpg",
    "id_album": "1896531081",
    "description": "People_398599",
    "title": "People_398599",
    "link_img": "https://live.staticflickr.com/65535/50039345548_81c8d46eb6_o.jpg",
    "id_image": "People_398599",
    "count_view": 0
  },
  {
    "link_thumb": "https://live.staticflickr.com/65535/50039377681_a847bdf211_n.jpg",
    "id_album": "869545341",
    "description": "Astronaut_914142",
    "title": "Astronaut_914142",
    "link_img": "https://live.staticflickr.com/65535/50039377681_977b4b17cc_o.jpg",
    "id_image": "Astronaut_914142",
    "count_view": 0
  },
  {
    "link_thumb": "https://live.staticflickr.com/65535/50040452782_994e81c8e9_n.jpg",
    "id_album": "-482547208",
    "description": "PostApocalyptic_103217",
    "title": "PostApocalyptic_103217",
    "link_img": "https://live.staticflickr.com/65535/50040452782_8110d7a0e9_o.jpg",
    "id_image": "PostApocalyptic_103217",
    "count_view": 0
  },
  {
    "link_thumb": "https://live.staticflickr.com/65535/50040143207_f42365c300_n.jpg",
    "id_album": "-1862561193",
    "description": "Other_233383",
    "title": "Other_233383",
    "link_img": "https://live.staticflickr.com/65535/50040143207_c0108d6a07_o.jpg",
    "id_image": "Other_233383",
    "count_view": 0
  },
  {
    "link_thumb": "https://live.staticflickr.com/65535/50041458342_d93641a522_n.jpg",
    "id_album": "-1863373220",
    "description": "StarWars_584605",
    "title": "StarWars_584605",
    "link_img": "https://live.staticflickr.com/65535/50041458342_57d3676311_o.jpg",
    "id_image": "StarWars_584605",
    "count_view": 0
  },
  {
    "link_thumb": "https://live.staticflickr.com/65535/50039976116_2a45246872_n.jpg",
    "id_album": "395161030",
    "description": "Planet_777594",
    "title": "Planet_777594",
    "link_img": "https://live.staticflickr.com/65535/50039976116_b54b007112_o.jpg",
    "id_image": "Planet_777594",
    "count_view": 0
  },
  {
    "link_thumb": "https://live.staticflickr.com/65535/50039246603_8f6d61e51b_n.jpg",
    "id_album": "-1610342324",
    "description": "Nebula_430797",
    "title": "Nebula_430797",
    "link_img": "https://live.staticflickr.com/65535/50039246603_a31ed7ff76_o.jpg",
    "id_image": "Nebula_430797",
    "count_view": 0
  },
  {
    "link_thumb": "https://live.staticflickr.com/65535/50040616113_4eb7c4ee0a_n.jpg",
    "id_album": "-1863373220",
    "description": "StarWars_344859",
    "title": "StarWars_344859",
    "link_img": "https://live.staticflickr.com/65535/50040616113_01ff22cc2e_o.jpg",
    "id_image": "StarWars_344859",
    "count_view": 0
  },
  {
    "link_thumb": "https://live.staticflickr.com/65535/50038699178_11ec2631bc_n.jpg",
    "id_album": "849020728",
    "description": "Alien_152631",
    "title": "Alien_152631",
    "link_img": "https://live.staticflickr.com/65535/50038699178_a8eedc5aa9_o.jpg",
    "id_image": "Alien_152631",
    "count_view": 0
  },
  {
    "link_thumb": "https://live.staticflickr.com/65535/50040028847_944c02c000_n.jpg",
    "id_album": "-1610342324",
    "description": "Nebula_179727",
    "title": "Nebula_179727",
    "link_img": "https://live.staticflickr.com/65535/50040028847_aa200bdf1f_o.jpg",
    "id_image": "Nebula_179727",
    "count_view": 0
  },
  {
    "link_thumb": "https://live.staticflickr.com/65535/50040048727_17c67e404c_n.jpg",
    "id_album": "-1610342324",
    "description": "Nebula_304916",
    "title": "Nebula_304916",
    "link_img": "https://live.staticflickr.com/65535/50040048727_64423cc30a_o.jpg",
    "id_image": "Nebula_304916",
    "count_view": 0
  },
  {
    "link_thumb": "https://live.staticflickr.com/65535/50039012128_9d92b4ba4c_n.jpg",
    "id_album": "-1372247677",
    "description": "Cyberpunk_373917",
    "title": "Cyberpunk_373917",
    "link_img": "https://live.staticflickr.com/65535/50039012128_2fb372241c_o.jpg",
    "id_image": "Cyberpunk_373917",
    "count_view": 0
  },
  {
    "link_thumb": "https://live.staticflickr.com/65535/50039549957_7dbc76ba19_n.jpg",
    "id_album": "-419633230",
    "description": "Apocalyptic_938299",
    "title": "Apocalyptic_938299",
    "link_img": "https://live.staticflickr.com/65535/50039549957_8a3488035a_o.jpg",
    "id_image": "Apocalyptic_938299",
    "count_view": 0
  },
  {
    "link_thumb": "https://live.staticflickr.com/65535/50039274921_da0c310953_n.jpg",
    "id_album": "849020728",
    "description": "Alien_852647",
    "title": "Alien_852647",
    "link_img": "https://live.staticflickr.com/65535/50039274921_3260221177_o.jpg",
    "id_image": "Alien_852647",
    "count_view": 0
  },
  {
    "link_thumb": "https://live.staticflickr.com/65535/50041008188_ab34ee4e23_n.jpg",
    "id_album": "-1675918237",
    "description": "WomenWarrior_243739",
    "title": "WomenWarrior_243739",
    "link_img": "https://live.staticflickr.com/65535/50041008188_4928a1188a_o.jpg",
    "id_image": "WomenWarrior_243739",
    "count_view": 0
  },
  {
    "link_thumb": "https://live.staticflickr.com/65535/50039400546_e518557c87_n.jpg",
    "id_album": "1187037014",
    "description": "Battle_310267",
    "title": "Battle_310267",
    "link_img": "https://live.staticflickr.com/65535/50039400546_5f6d30c53f_o.jpg",
    "id_image": "Battle_310267",
    "count_view": 0
  },
  {
    "link_thumb": "https://live.staticflickr.com/65535/50039733941_47c389e95c_n.jpg",
    "id_album": "-1388385651",
    "description": "MilkyWay_555696",
    "title": "MilkyWay_555696",
    "link_img": "https://live.staticflickr.com/65535/50039733941_eb09d7329b_o.jpg",
    "id_image": "MilkyWay_555696",
    "count_view": 0
  },
  {
    "link_thumb": "https://live.staticflickr.com/65535/50039558777_09589b9c2d_n.jpg",
    "id_album": "523598895",
    "description": "Artistic_151780",
    "title": "Artistic_151780",
    "link_img": "https://live.staticflickr.com/65535/50039558777_88aa948e62_o.jpg",
    "id_image": "Artistic_151780",
    "count_view": 0
  },
  {
    "link_thumb": "https://live.staticflickr.com/65535/50040303146_73d8b37b50_n.jpg",
    "id_album": "779690680",
    "description": "Robot_404327",
    "title": "Robot_404327",
    "link_img": "https://live.staticflickr.com/65535/50040303146_10130a4844_o.jpg",
    "id_image": "Robot_404327",
    "count_view": 0
  },
  {
    "link_thumb": "https://live.staticflickr.com/65535/50040818002_27c4297d0f_n.jpg",
    "id_album": "1613540653",
    "description": "Space_952752",
    "title": "Space_952752",
    "link_img": "https://live.staticflickr.com/65535/50040818002_0caa214d18_o.jpg",
    "id_image": "Space_952752",
    "count_view": 0
  },
  {
    "link_thumb": "https://live.staticflickr.com/65535/50041378411_dd03b3f40b_n.jpg",
    "id_album": "2020068132",
    "description": "Vehicle_222318",
    "title": "Vehicle_222318",
    "link_img": "https://live.staticflickr.com/65535/50041378411_b7d9f10faa_o.jpg",
    "id_image": "Vehicle_222318",
    "count_view": 0
  },
  {
    "link_thumb": "https://live.staticflickr.com/65535/50039418846_027f0ede4d_n.jpg",
    "id_album": "-1780971522",
    "description": "Biohazard_577355",
    "title": "Biohazard_577355",
    "link_img": "https://live.staticflickr.com/65535/50039418846_70e4483469_o.jpg",
    "id_image": "Biohazard_577355",
    "count_view": 0
  },
  {
    "link_thumb": "https://live.staticflickr.com/65535/50039988213_0c1bb94def_n.jpg",
    "id_album": "1613540653",
    "description": "Space_822456",
    "title": "Space_822456",
    "link_img": "https://live.staticflickr.com/65535/50039988213_af63c25a55_o.jpg",
    "id_image": "Space_822456",
    "count_view": 0
  },
  {
    "link_thumb": "https://live.staticflickr.com/65535/50039783126_463b67acf4_n.jpg",
    "id_album": "-1610342324",
    "description": "Nebula_287053",
    "title": "Nebula_287053",
    "link_img": "https://live.staticflickr.com/65535/50039783126_d25c499006_o.jpg",
    "id_image": "Nebula_287053",
    "count_view": 0
  },
  {
    "link_thumb": "https://live.staticflickr.com/65535/50040699711_1de5a12315_n.jpg",
    "id_album": "2130067313",
    "description": "Spaceship_453315",
    "title": "Spaceship_453315",
    "link_img": "https://live.staticflickr.com/65535/50040699711_0c731fd76c_o.jpg",
    "id_image": "Spaceship_453315",
    "count_view": 0
  },
  {
    "link_thumb": "https://live.staticflickr.com/65535/50039508957_f96da37753_n.jpg",
    "id_album": "849020728",
    "description": "Alien_153648",
    "title": "Alien_153648",
    "link_img": "https://live.staticflickr.com/65535/50039508957_7bf360812b_o.jpg",
    "id_image": "Alien_153648",
    "count_view": 0
  },
  {
    "link_thumb": "https://live.staticflickr.com/65535/50040356092_501eec8bf6_n.jpg",
    "id_album": "-1102314093",
    "description": "Planets_350803",
    "title": "Planets_350803",
    "link_img": "https://live.staticflickr.com/65535/50040356092_7f4da54dca_o.jpg",
    "id_image": "Planets_350803",
    "count_view": 0
  },
  {
    "link_thumb": "https://live.staticflickr.com/65535/50040609072_4335143572_n.jpg",
    "id_album": "779690680",
    "description": "Robot_616406",
    "title": "Robot_616406",
    "link_img": "https://live.staticflickr.com/65535/50040609072_d5aeda4327_o.jpg",
    "id_image": "Robot_616406",
    "count_view": 0
  },
  {
    "link_thumb": "https://live.staticflickr.com/65535/50039680311_7eaba57d38_n.jpg",
    "id_album": "1402713104",
    "description": "Landscape_346825",
    "title": "Landscape_346825",
    "link_img": "https://live.staticflickr.com/65535/50039680311_2f40783bd6_o.jpg",
    "id_image": "Landscape_346825",
    "count_view": 0
  },
  {
    "link_thumb": "https://live.staticflickr.com/65535/50039696522_3ce8eaec65_n.jpg",
    "id_album": "-1964113117",
    "description": "City_123749",
    "title": "City_123749",
    "link_img": "https://live.staticflickr.com/65535/50039696522_d837aa0fde_o.jpg",
    "id_image": "City_123749",
    "count_view": 0
  },
  {
    "link_thumb": "https://live.staticflickr.com/65535/50040655868_d067904ecd_n.jpg",
    "id_album": "-1863373220",
    "description": "StarWars_669714",
    "title": "StarWars_669714",
    "link_img": "https://live.staticflickr.com/65535/50040655868_4b1e2f1b66_o.jpg",
    "id_image": "StarWars_669714",
    "count_view": 0
  },
  {
    "link_thumb": "https://live.staticflickr.com/65535/50040434281_7300398eda_n.jpg",
    "id_album": "779690680",
    "description": "Robot_937814",
    "title": "Robot_937814",
    "link_img": "https://live.staticflickr.com/65535/50040434281_1994ef38d8_o.jpg",
    "id_image": "Robot_937814",
    "count_view": 0
  },
  {
    "link_thumb": "https://live.staticflickr.com/65535/50039885988_64343aa07e_n.jpg",
    "id_album": "779690680",
    "description": "Robot_949786",
    "title": "Robot_949786",
    "link_img": "https://live.staticflickr.com/65535/50039885988_76b6ddaa08_o.jpg",
    "id_image": "Robot_949786",
    "count_view": 0
  },
  {
    "link_thumb": "https://live.staticflickr.com/65535/50040754266_b644378dd9_n.jpg",
    "id_album": "2130067313",
    "description": "Spaceship_852660",
    "title": "Spaceship_852660",
    "link_img": "https://live.staticflickr.com/65535/50040754266_7d8425b104_o.jpg",
    "id_image": "Spaceship_852660",
    "count_view": 0
  },
  {
    "link_thumb": "https://live.staticflickr.com/65535/50041844932_fab888606c_n.jpg",
    "id_album": "-1675918237",
    "description": "WomenWarrior_600019",
    "title": "WomenWarrior_600019",
    "link_img": "https://live.staticflickr.com/65535/50041844932_40d5eefa69_o.jpg",
    "id_image": "WomenWarrior_600019",
    "count_view": 0
  },
  {
    "link_thumb": "https://live.staticflickr.com/65535/50040016792_48bcf7e5e6_n.jpg",
    "id_album": "416351698",
    "description": "Moon_10445",
    "title": "Moon_10445",
    "link_img": "https://live.staticflickr.com/65535/50040016792_38e4fbb4df_o.jpg",
    "id_image": "Moon_10445",
    "count_view": 0
  },
  {
    "link_thumb": "https://live.staticflickr.com/65535/50040113671_d537c478f9_n.jpg",
    "id_album": "-1102314093",
    "description": "Planets_426127",
    "title": "Planets_426127",
    "link_img": "https://live.staticflickr.com/65535/50040113671_d1cdd7fc6d_o.jpg",
    "id_image": "Planets_426127",
    "count_view": 0
  },
  {
    "link_thumb": "https://live.staticflickr.com/65535/50039148938_baf4a72767_n.jpg",
    "id_album": "1402713104",
    "description": "Landscape_662791",
    "title": "Landscape_662791",
    "link_img": "https://live.staticflickr.com/65535/50039148938_70f2509b67_o.jpg",
    "id_image": "Landscape_662791",
    "count_view": 0
  },
  {
    "link_thumb": "https://live.staticflickr.com/65535/50041590736_53dda177ab_n.jpg",
    "id_album": "-1675918237",
    "description": "WomenWarrior_921645",
    "title": "WomenWarrior_921645",
    "link_img": "https://live.staticflickr.com/65535/50041590736_bd3d8c0e1f_o.jpg",
    "id_image": "WomenWarrior_921645",
    "count_view": 0
  },
  {
    "link_thumb": "https://live.staticflickr.com/65535/50039756271_a5e5c887d2_n.jpg",
    "id_album": "416351698",
    "description": "Moon_437354",
    "title": "Moon_437354",
    "link_img": "https://live.staticflickr.com/65535/50039756271_0e62d4b99c_o.jpg",
    "id_image": "Moon_437354",
    "count_view": 0
  }
]