[
  {
    "link_thumb": "https://live.staticflickr.com/65535/50040103067_ed379f3380_n.jpg",
    "id_album": "-1610342324",
    "description": "Nebula_807540",
    "title": "Nebula_807540",
    "link_img": "https://live.staticflickr.com/65535/50040103067_b69c61c1f4_o.jpg",
    "id_image": "Nebula_807540",
    "count_view": 0
  },
  {
    "link_thumb": "https://live.staticflickr.com/65535/50040171481_6e7637862e_n.jpg",
    "id_album": "376235057",
    "description": "Planetscape_390160",
    "title": "Planetscape_390160",
    "link_img": "https://live.staticflickr.com/65535/50040171481_b2f2dfdbd8_o.jpg",
    "id_image": "Planetscape_390160",
    "count_view": 0
  },
  {
    "link_thumb": "https://live.staticflickr.com/65535/50039668867_278a3233e3_n.jpg",
    "id_album": "1187037014",
    "description": "Battle_687274",
    "title": "Battle_687274",
    "link_img": "https://live.staticflickr.com/65535/50039668867_ef7a2d62f5_o.jpg",
    "id_image": "Battle_687274",
    "count_view": 0
  },
  {
    "link_thumb": "https://live.staticflickr.com/65535/50040669847_6eb96290a9_n.jpg",
    "id_album": "779690680",
    "description": "Robot_907943",
    "title": "Robot_907943",
    "link_img": "https://live.staticflickr.com/65535/50040669847_de7b7392fc_o.jpg",
    "id_image": "Robot_907943",
    "count_view": 0
  },
  {
    "link_thumb": "https://live.staticflickr.com/65535/50039077973_ea23f8e747_n.jpg",
    "id_album": "1204249541",
    "description": "Galaxy_223111",
    "title": "Galaxy_223111",
    "link_img": "https://live.staticflickr.com/65535/50039077973_9f2642f458_o.jpg",
    "id_image": "Galaxy_223111",
    "count_view": 0
  },
  {
    "link_thumb": "https://live.staticflickr.com/65535/50039289276_d89e85ff48_n.jpg",
    "id_album": "-419633230",
    "description": "Apocalyptic_957447",
    "title": "Apocalyptic_957447",
    "link_img": "https://live.staticflickr.com/65535/50039289276_cbb2c91cf5_o.jpg",
    "id_image": "Apocalyptic_957447",
    "count_view": 0
  },
  {
    "link_thumb": "https://live.staticflickr.com/65535/50040366851_9a280aa993_n.jpg",
    "id_album": "779690680",
    "description": "Robot_792331",
    "title": "Robot_792331",
    "link_img": "https://live.staticflickr.com/65535/50040366851_d47b027bcc_o.jpg",
    "id_image": "Robot_792331",
    "count_view": 0
  },
  {
    "link_thumb": "https://live.staticflickr.com/65535/50039728247_a0063dca36_n.jpg",
    "id_album": "-1964113117",
    "description": "City_364427",
    "title": "City_364427",
    "link_img": "https://live.staticflickr.com/65535/50039728247_f89753f6a7_o.jpg",
    "id_image": "City_364427",
    "count_view": 0
  },
  {
    "link_thumb": "https://live.staticflickr.com/65535/50041585921_c9bc3acef7_n.jpg",
    "id_album": "-1675918237",
    "description": "WomenWarrior_631691",
    "title": "WomenWarrior_631691",
    "link_img": "https://live.staticflickr.com/65535/50041585921_ffb6a81ecc_o.jpg",
    "id_image": "WomenWarrior_631691",
    "count_view": 0
  },
  {
    "link_thumb": "https://live.staticflickr.com/65535/50039125068_0ea5fe407e_n.jpg",
    "id_album": "1402713104",
    "description": "Landscape_310678",
    "title": "Landscape_310678",
    "link_img": "https://live.staticflickr.com/65535/50039125068_33b5f347a1_o.jpg",
    "id_image": "Landscape_310678",
    "count_view": 0
  },
  {
    "link_thumb": "https://live.staticflickr.com/65535/50039569682_12971dbe36_n.jpg",
    "id_album": "523598895",
    "description": "Artistic_187833",
    "title": "Artistic_187833",
    "link_img": "https://live.staticflickr.com/65535/50039569682_107c0ca2c9_o.jpg",
    "id_image": "Artistic_187833",
    "count_view": 0
  },
  {
    "link_thumb": "https://live.staticflickr.com/65535/50040695528_32e8dc5c01_n.jpg",
    "id_album": "-1863373220",
    "description": "StarWars_980532",
    "title": "StarWars_980532",
    "link_img": "https://live.staticflickr.com/65535/50040695528_f344620172_o.jpg",
    "id_image": "StarWars_980532",
    "count_view": 0
  },
  {
    "link_thumb": "https://live.staticflickr.com/65535/50039406298_cf4d8aa9b2_n.jpg",
    "id_album": "395161030",
    "description": "Planet_511413",
    "title": "Planet_511413",
    "link_img": "https://live.staticflickr.com/65535/50039406298_57196a2def_o.jpg",
    "id_image": "Planet_511413",
    "count_view": 0
  },
  {
    "link_thumb": "https://live.staticflickr.com/65535/50040739347_f9bd62e2ce_n.jpg",
    "id_album": "1613540653",
    "description": "Space_183976",
    "title": "Space_183976",
    "link_img": "https://live.staticflickr.com/65535/50040739347_ea399de8de_o.jpg",
    "id_image": "Space_183976",
    "count_view": 0
  },
  {
    "link_thumb": "https://live.staticflickr.com/65535/50041251121_371f8c98e0_n.jpg",
    "id_album": "-1863373220",
    "description": "StarWars_983265",
    "title": "StarWars_983265",
    "link_img": "https://live.staticflickr.com/65535/50041251121_aa0aefc096_o.jpg",
    "id_image": "StarWars_983265",
    "count_view": 0
  },
  {
    "link_thumb": "https://live.staticflickr.com/65535/50039204128_c8cb2db35a_n.jpg",
    "id_album": "416351698",
    "description": "Moon_115680",
    "title": "Moon_115680",
    "link_img": "https://live.staticflickr.com/65535/50039204128_13e536417f_o.jpg",
    "id_image": "Moon_115680",
    "count_view": 0
  },
  {
    "link_thumb": "https://live.staticflickr.com/65535/50041036338_dda9bffca3_n.jpg",
    "id_album": "-1675918237",
    "description": "WomenWarrior_909988",
    "title": "WomenWarrior_909988",
    "link_img": "https://live.staticflickr.com/65535/50041036338_5fd0e6eed0_o.jpg",
    "id_image": "WomenWarrior_909988",
    "count_view": 0
  },
  {
    "link_thumb": "https://live.staticflickr.com/65535/50039702318_4ebcd9ca59_n.jpg",
    "id_album": "779690680",
    "description": "Robot_147397",
    "title": "Robot_147397",
    "link_img": "https://live.staticflickr.com/65535/50039702318_c3f45407de_o.jpg",
    "id_image": "Robot_147397",
    "count_view": 0
  },
  {
    "link_thumb": "https://live.staticflickr.com/65535/50040176602_263716400b_n.jpg",
    "id_album": "395161030",
    "description": "Planet_182569",
    "title": "Planet_182569",
    "link_img": "https://live.staticflickr.com/65535/50040176602_27322675b3_o.jpg",
    "id_image": "Planet_182569",
    "count_view": 0
  },
  {
    "link_thumb": "https://live.staticflickr.com/65535/50040530022_137929244a_n.jpg",
    "id_album": "779690680",
    "description": "Robot_215032",
    "title": "Robot_215032",
    "link_img": "https://live.staticflickr.com/65535/50040530022_4df1cac402_o.jpg",
    "id_image": "Robot_215032",
    "count_view": 0
  },
  {
    "link_thumb": "https://live.staticflickr.com/65535/50039545642_f679f8fd0c_n.jpg",
    "id_album": "-419633230",
    "description": "Apocalyptic_395490",
    "title": "Apocalyptic_395490",
    "link_img": "https://live.staticflickr.com/65535/50039545642_bfac258277_o.jpg",
    "id_image": "Apocalyptic_395490",
    "count_view": 0
  },
  {
    "link_thumb": "https://live.staticflickr.com/65535/50040105516_1fb5a107ff_n.jpg",
    "id_album": "-1102314093",
    "description": "Planets_393901",
    "title": "Planets_393901",
    "link_img": "https://live.staticflickr.com/65535/50040105516_193a6732ee_o.jpg",
    "id_image": "Planets_393901",
    "count_view": 0
  },
  {
    "link_thumb": "https://live.staticflickr.com/65535/50039755923_36c5f3e412_n.jpg",
    "id_album": "779690680",
    "description": "Robot_445890",
    "title": "Robot_445890",
    "link_img": "https://live.staticflickr.com/65535/50039755923_af9be5aea0_o.jpg",
    "id_image": "Robot_445890",
    "count_view": 0
  },
  {
    "link_thumb": "https://live.staticflickr.com/65535/50039292011_edf6c5a396_n.jpg",
    "id_album": "523598895",
    "description": "Artistic_106016",
    "title": "Artistic_106016",
    "link_img": "https://live.staticflickr.com/65535/50039292011_947437645f_o.jpg",
    "id_image": "Artistic_106016",
    "count_view": 0
  },
  {
    "link_thumb": "https://live.staticflickr.com/65535/50039792663_393d140357_n.jpg",
    "id_album": "779690680",
    "description": "Robot_616673",
    "title": "Robot_616673",
    "link_img": "https://live.staticflickr.com/65535/50039792663_687689fb38_o.jpg",
    "id_image": "Robot_616673",
    "count_view": 0
  },
  {
    "link_thumb": "https://live.staticflickr.com/65535/50039800037_37fdd21a9d_n.jpg",
    "id_album": "894679094",
    "description": "Collision_286791",
    "title": "Collision_286791",
    "link_img": "https://live.staticflickr.com/65535/50039800037_5d8c62b31a_o.jpg",
    "id_image": "Collision_286791",
    "count_view": 0
  },
  {
    "link_thumb": "https://live.staticflickr.com/65535/50040159271_b1f27ca3c1_n.jpg",
    "id_album": "376235057",
    "description": "Planetscape_317956",
    "title": "Planetscape_317956",
    "link_img": "https://live.staticflickr.com/65535/50040159271_0482498a54_o.jpg",
    "id_image": "Planetscape_317956",
    "count_view": 0
  },
  {
    "link_thumb": "https://live.staticflickr.com/65535/50041206966_9d06676b2e_n.jpg",
    "id_album": "-1863373220",
    "description": "StarWars_662920",
    "title": "StarWars_662920",
    "link_img": "https://live.staticflickr.com/65535/50041206966_162206a8d3_o.jpg",
    "id_image": "StarWars_662920",
    "count_view": 0
  },
  {
    "link_thumb": "https://live.staticflickr.com/65535/50040510142_8b46392e08_n.jpg",
    "id_album": "-839602625",
    "description": "Predator_599866",
    "title": "Predator_599866",
    "link_img": "https://live.staticflickr.com/65535/50040510142_ff45d0b257_o.jpg",
    "id_image": "Predator_599866",
    "count_view": 0
  },
  {
    "link_thumb": "https://live.staticflickr.com/65535/50040085927_d654532440_n.jpg",
    "id_album": "-1610342324",
    "description": "Nebula_689583",
    "title": "Nebula_689583",
    "link_img": "https://live.staticflickr.com/65535/50040085927_271894aa9f_o.jpg",
    "id_image": "Nebula_689583",
    "count_view": 0
  },
  {
    "link_thumb": "https://live.staticflickr.com/65535/50039423746_97509086a6_n.jpg",
    "id_album": "406431601",
    "description": "Building_804048",
    "title": "Building_804048",
    "link_img": "https://live.staticflickr.com/65535/50039423746_7cf2deb51f_o.jpg",
    "id_image": "Building_804048",
    "count_view": 0
  },
  {
    "link_thumb": "https://live.staticflickr.com/65535/50040135701_46bafa5edd_n.jpg",
    "id_album": "-1102314093",
    "description": "Planets_786785",
    "title": "Planets_786785",
    "link_img": "https://live.staticflickr.com/65535/50040135701_442f527d34_o.jpg",
    "id_image": "Planets_786785",
    "count_view": 0
  },
  {
    "link_thumb": "https://live.staticflickr.com/65535/50041715037_b7b2dfd156_n.jpg",
    "id_album": "-1261420436",
    "description": "Warrior_364228",
    "title": "Warrior_364228",
    "link_img": "https://live.staticflickr.com/65535/50041715037_1e1a573a07_o.jpg",
    "id_image": "Warrior_364228",
    "count_view": 0
  },
  {
    "link_thumb": "https://live.staticflickr.com/65535/50039755482_92035f070a_n.jpg",
    "id_album": "-1964113117",
    "description": "City_725221",
    "title": "City_725221",
    "link_img": "https://live.staticflickr.com/65535/50039755482_0d4f29361c_o.jpg",
    "id_image": "City_725221",
    "count_view": 0
  },
  {
    "link_thumb": "https://live.staticflickr.com/65535/50039364271_629c2c0a5a_n.jpg",
    "id_album": "869545341",
    "description": "Astronaut_712150",
    "title": "Astronaut_712150",
    "link_img": "https://live.staticflickr.com/65535/50039364271_48bff2895a_o.jpg",
    "id_image": "Astronaut_712150",
    "count_view": 0
  },
  {
    "link_thumb": "https://live.staticflickr.com/65535/50039083763_86e4851efa_n.jpg",
    "id_album": "1204249541",
    "description": "Galaxy_421600",
    "title": "Galaxy_421600",
    "link_img": "https://live.staticflickr.com/65535/50039083763_3d38f06d0a_o.jpg",
    "id_image": "Galaxy_421600",
    "count_view": 0
  },
  {
    "link_thumb": "https://live.staticflickr.com/65535/50039539687_ddc55c7817_n.jpg",
    "id_album": "849020728",
    "description": "Alien_941433",
    "title": "Alien_941433",
    "link_img": "https://live.staticflickr.com/65535/50039539687_86cacf4b57_o.jpg",
    "id_image": "Alien_941433",
    "count_view": 0
  },
  {
    "link_thumb": "https://live.staticflickr.com/65535/50039691817_1af984796d_n.jpg",
    "id_album": "406431601",
    "description": "Building_980250",
    "title": "Building_980250",
    "link_img": "https://live.staticflickr.com/65535/50039691817_dbec10657d_o.jpg",
    "id_image": "Building_980250",
    "count_view": 0
  },
  {
    "link_thumb": "https://live.staticflickr.com/65535/50041594317_139af41c33_n.jpg",
    "id_album": "1267121215",
    "description": "Steampunk_852656",
    "title": "Steampunk_852656",
    "link_img": "https://live.staticflickr.com/65535/50041594317_56728458a8_o.jpg",
    "id_image": "Steampunk_852656",
    "count_view": 0
  },
  {
    "link_thumb": "https://live.staticflickr.com/65535/50039884928_98c57e91df_n.jpg",
    "id_album": "779690680",
    "description": "Robot_944759",
    "title": "Robot_944759",
    "link_img": "https://live.staticflickr.com/65535/50039884928_15f846d98a_o.jpg",
    "id_image": "Robot_944759",
    "count_view": 0
  },
  {
    "link_thumb": "https://live.staticflickr.com/65535/50039583612_8bc93bf265_n.jpg",
    "id_album": "523598895",
    "description": "Artistic_236615",
    "title": "Artistic_236615",
    "link_img": "https://live.staticflickr.com/65535/50039583612_c20bcb0960_o.jpg",
    "id_image": "Artistic_236615",
    "count_view": 0
  },
  {
    "link_thumb": "https://live.staticflickr.com/65535/50039840406_727d68ef95_n.jpg",
    "id_album": "-1610342324",
    "description": "Nebula_821463",
    "title": "Nebula_821463",
    "link_img": "https://live.staticflickr.com/65535/50039840406_975d7700bb_o.jpg",
    "id_image": "Nebula_821463",
    "count_view": 0
  },
  {
    "link_thumb": "https://live.staticflickr.com/65535/50041032898_2c636975da_n.jpg",
    "id_album": "-1675918237",
    "description": "WomenWarrior_688639",
    "title": "WomenWarrior_688639",
    "link_img": "https://live.staticflickr.com/65535/50041032898_cd030bd629_o.jpg",
    "id_image": "WomenWarrior_688639",
    "count_view": 0
  },
  {
    "link_thumb": "https://live.staticflickr.com/65535/50040787308_701b50564a_n.jpg",
    "id_album": "-221671103",
    "description": "Sun_223222",
    "title": "Sun_223222",
    "link_img": "https://live.staticflickr.com/65535/50040787308_8e93af61dd_o.jpg",
    "id_image": "Sun_223222",
    "count_view": 0
  },
  {
    "link_thumb": "https://live.staticflickr.com/65535/50039702517_a5b9b3953f_n.jpg",
    "id_album": "-1964113117",
    "description": "City_183034",
    "title": "City_183034",
    "link_img": "https://live.staticflickr.com/65535/50039702517_8a50b54fdf_o.jpg",
    "id_image": "City_183034",
    "count_view": 0
  },
  {
    "link_thumb": "https://live.staticflickr.com/65535/50040677152_79e54f8036_n.jpg",
    "id_album": "779690680",
    "description": "Robot_915574",
    "title": "Robot_915574",
    "link_img": "https://live.staticflickr.com/65535/50040677152_f620336a3f_o.jpg",
    "id_image": "Robot_915574",
    "count_view": 0
  },
  {
    "link_thumb": "https://live.staticflickr.com/65535/50039659017_143e3feec8_n.jpg",
    "id_album": "1187037014",
    "description": "Battle_221914",
    "title": "Battle_221914",
    "link_img": "https://live.staticflickr.com/65535/50039659017_98ab5f27d2_o.jpg",
    "id_image": "Battle_221914",
    "count_view": 0
  },
  {
    "link_thumb": "https://live.staticflickr.com/65535/50041589121_82a8b8178b_n.jpg",
    "id_album": "-1675918237",
    "description": "WomenWarrior_870420",
    "title": "WomenWarrior_870420",
    "link_img": "https://live.staticflickr.com/65535/50041589121_cb9dc558ae_o.jpg",
    "id_image": "WomenWarrior_870420",
    "count_view": 0
  },
  {
    "link_thumb": "https://live.staticflickr.com/65535/50039642711_f9f29f6884_n.jpg",
    "id_album": "1204249541",
    "description": "Galaxy_555688",
    "title": "Galaxy_555688",
    "link_img": "https://live.staticflickr.com/65535/50039642711_6ccda1932f_o.jpg",
    "id_image": "Galaxy_555688",
    "count_view": 0
  },
  {
    "link_thumb": "https://live.staticflickr.com/65535/50039223973_ff682b100f_n.jpg",
    "id_album": "-1610342324",
    "description": "Nebula_226013",
    "title": "Nebula_226013",
    "link_img": "https://live.staticflickr.com/65535/50039223973_9e6fe1866a_o.jpg",
    "id_image": "Nebula_226013",
    "count_view": 0
  },
  {
    "link_thumb": "https://live.staticflickr.com/65535/50041289031_4454a1235f_n.jpg",
    "id_album": "1267121215",
    "description": "Steampunk_157861",
    "title": "Steampunk_157861",
    "link_img": "https://live.staticflickr.com/65535/50041289031_023ded701d_o.jpg",
    "id_image": "Steampunk_157861",
    "count_view": 0
  },
  {
    "link_thumb": "https://live.staticflickr.com/65535/50038920473_8f8f0715cc_n.jpg",
    "id_album": "-1964113117",
    "description": "City_403207",
    "title": "City_403207",
    "link_img": "https://live.staticflickr.com/65535/50038920473_f73d9c1f9c_o.jpg",
    "id_image": "City_403207",
    "count_view": 0
  },
  {
    "link_thumb": "https://live.staticflickr.com/65535/50040516756_7daacdbf08_n.jpg",
    "id_album": "1613540653",
    "description": "Space_588412",
    "title": "Space_588412",
    "link_img": "https://live.staticflickr.com/65535/50040516756_b19ba21fab_o.jpg",
    "id_image": "Space_588412",
    "count_view": 0
  },
  {
    "link_thumb": "https://live.staticflickr.com/65535/50038992273_332bfc418f_n.jpg",
    "id_album": "894679094",
    "description": "Collision_373127",
    "title": "Collision_373127",
    "link_img": "https://live.staticflickr.com/65535/50038992273_1298b0406c_o.jpg",
    "id_image": "Collision_373127",
    "count_view": 0
  },
  {
    "link_thumb": "https://live.staticflickr.com/65535/50039798932_91ff3814ba_n.jpg",
    "id_album": "894679094",
    "description": "Collision_214953",
    "title": "Collision_214953",
    "link_img": "https://live.staticflickr.com/65535/50039798932_cf2b9a101b_o.jpg",
    "id_image": "Collision_214953",
    "count_view": 0
  },
  {
    "link_thumb": "https://live.staticflickr.com/65535/50040674467_4b97d5fb52_n.jpg",
    "id_album": "779690680",
    "description": "Robot_913018",
    "title": "Robot_913018",
    "link_img": "https://live.staticflickr.com/65535/50040674467_bba9b163a0_o.jpg",
    "id_image": "Robot_913018",
    "count_view": 0
  },
  {
    "link_thumb": "https://live.staticflickr.com/65535/50040129961_6f6f32658e_n.jpg",
    "id_album": "-1102314093",
    "description": "Planets_714854",
    "title": "Planets_714854",
    "link_img": "https://live.staticflickr.com/65535/50040129961_7b8e0ebc58_o.jpg",
    "id_image": "Planets_714854",
    "count_view": 0
  },
  {
    "link_thumb": "https://live.staticflickr.com/65535/50038855628_7aeda00024_n.jpg",
    "id_album": "1187037014",
    "description": "Battle_585062",
    "title": "Battle_585062",
    "link_img": "https://live.staticflickr.com/65535/50038855628_7d071cc005_o.jpg",
    "id_image": "Battle_585062",
    "count_view": 0
  },
  {
    "link_thumb": "https://live.staticflickr.com/65535/50041521887_87b3a99770_n.jpg",
    "id_album": "-1587696329",
    "description": "Stars_192660",
    "title": "Stars_192660",
    "link_img": "https://live.staticflickr.com/65535/50041521887_92274e4066_o.jpg",
    "id_image": "Stars_192660",
    "count_view": 0
  },
  {
    "link_thumb": "https://live.staticflickr.com/65535/50041427246_f3ecd8dfef_n.jpg",
    "id_album": "2020068132",
    "description": "Vehicle_979673",
    "title": "Vehicle_979673",
    "link_img": "https://live.staticflickr.com/65535/50041427246_1eba495f16_o.jpg",
    "id_image": "Vehicle_979673",
    "count_view": 0
  },
  {
    "link_thumb": "https://live.staticflickr.com/65535/50040042111_19b90b28a9_n.jpg",
    "id_album": "814701616",
    "description": "PlanetaryRing_717756",
    "title": "PlanetaryRing_717756",
    "link_img": "https://live.staticflickr.com/65535/50040042111_a7f8d5312d_o.jpg",
    "id_image": "PlanetaryRing_717756",
    "count_view": 0
  },
  {
    "link_thumb": "https://live.staticflickr.com/65535/50038725523_2868fcd058_n.jpg",
    "id_album": "849020728",
    "description": "Alien_697088",
    "title": "Alien_697088",
    "link_img": "https://live.staticflickr.com/65535/50038725523_c50633c96c_o.jpg",
    "id_image": "Alien_697088",
    "count_view": 0
  },
  {
    "link_thumb": "https://live.staticflickr.com/65535/50038767988_280f8ac4dc_n.jpg",
    "id_album": "523598895",
    "description": "Artistic_218934",
    "title": "Artistic_218934",
    "link_img": "https://live.staticflickr.com/65535/50038767988_0e6ea7f4f9_o.jpg",
    "id_image": "Artistic_218934",
    "count_view": 0
  },
  {
    "link_thumb": "https://live.staticflickr.com/65535/50040545942_3605156c07_n.jpg",
    "id_album": "779690680",
    "description": "Robot_286162",
    "title": "Robot_286162",
    "link_img": "https://live.staticflickr.com/65535/50040545942_08dc1401f4_o.jpg",
    "id_image": "Robot_286162",
    "count_view": 0
  },
  {
    "link_thumb": "https://live.staticflickr.com/65535/50041378411_dd03b3f40b_n.jpg",
    "id_album": "2020068132",
    "description": "Vehicle_222318",
    "title": "Vehicle_222318",
    "link_img": "https://live.staticflickr.com/65535/50041378411_b7d9f10faa_o.jpg",
    "id_image": "Vehicle_222318",
    "count_view": 0
  },
  {
    "link_thumb": "https://live.staticflickr.com/65535/50040710678_bfde51f35a_n.jpg",
    "id_album": "-1587696329",
    "description": "Stars_397547",
    "title": "Stars_397547",
    "link_img": "https://live.staticflickr.com/65535/50040710678_3e1a2e2bdf_o.jpg",
    "id_image": "Stars_397547",
    "count_view": 0
  },
  {
    "link_thumb": "https://live.staticflickr.com/65535/50039909386_a4d7df414d_n.jpg",
    "id_album": "395161030",
    "description": "Planet_174641",
    "title": "Planet_174641",
    "link_img": "https://live.staticflickr.com/65535/50039909386_660a925afc_o.jpg",
    "id_image": "Planet_174641",
    "count_view": 0
  },
  {
    "link_thumb": "https://live.staticflickr.com/65535/50041245706_12f7858be4_n.jpg",
    "id_album": "-1863373220",
    "description": "StarWars_965772",
    "title": "StarWars_965772",
    "link_img": "https://live.staticflickr.com/65535/50041245706_c6d299dc19_o.jpg",
    "id_image": "StarWars_965772",
    "count_view": 0
  },
  {
    "link_thumb": "https://live.staticflickr.com/65535/50040297142_9e01573dd4_n.jpg",
    "id_album": "814701616",
    "description": "PlanetaryRing_422019",
    "title": "PlanetaryRing_422019",
    "link_img": "https://live.staticflickr.com/65535/50040297142_b4da518017_o.jpg",
    "id_image": "PlanetaryRing_422019",
    "count_view": 0
  },
  {
    "link_thumb": "https://live.staticflickr.com/65535/50039312196_3dfb1382bc_n.jpg",
    "id_album": "523598895",
    "description": "Artistic_206027",
    "title": "Artistic_206027",
    "link_img": "https://live.staticflickr.com/65535/50039312196_3fa1df6574_o.jpg",
    "id_image": "Artistic_206027",
    "count_view": 0
  },
  {
    "link_thumb": "https://live.staticflickr.com/65535/50039799487_ed67133297_n.jpg",
    "id_album": "894679094",
    "description": "Collision_233934",
    "title": "Collision_233934",
    "link_img": "https://live.staticflickr.com/65535/50039799487_ecc17690b2_o.jpg",
    "id_image": "Collision_233934",
    "count_view": 0
  },
  {
    "link_thumb": "https://live.staticflickr.com/65535/50040372547_93e902a3a6_n.jpg",
    "id_album": "-1102314093",
    "description": "Planets_408838",
    "title": "Planets_408838",
    "link_img": "https://live.staticflickr.com/65535/50040372547_ef7d3427ba_o.jpg",
    "id_image": "Planets_408838",
    "count_view": 0
  },
  {
    "link_thumb": "https://live.staticflickr.com/65535/50039410741_ac1ed2892f_n.jpg",
    "id_album": "-1780971522",
    "description": "Biohazard_131884",
    "title": "Biohazard_131884",
    "link_img": "https://live.staticflickr.com/65535/50039410741_2304bfa255_o.jpg",
    "id_image": "Biohazard_131884",
    "count_view": 0
  },
  {
    "link_thumb": "https://live.staticflickr.com/65535/50039239576_7cbbb365f1_n.jpg",
    "id_album": "-406145265",
    "description": "Aircraft_391126",
    "title": "Aircraft_391126",
    "link_img": "https://live.staticflickr.com/65535/50039239576_090bbcfac6_o.jpg",
    "id_image": "Aircraft_391126",
    "count_view": 0
  },
  {
    "link_thumb": "https://live.staticflickr.com/65535/50039924582_0e28a68e33_n.jpg",
    "id_album": "1402713104",
    "description": "Landscape_152739",
    "title": "Landscape_152739",
    "link_img": "https://live.staticflickr.com/65535/50039924582_3af0a767a6_o.jpg",
    "id_image": "Landscape_152739",
    "count_view": 0
  },
  {
    "link_thumb": "https://live.staticflickr.com/65535/50039323811_b21a2cdb0d_n.jpg",
    "id_album": "523598895",
    "description": "Artistic_245921",
    "title": "Artistic_245921",
    "link_img": "https://live.staticflickr.com/65535/50039323811_326c4a57e2_o.jpg",
    "id_image": "Artistic_245921",
    "count_view": 0
  },
  {
    "link_thumb": "https://live.staticflickr.com/65535/50039789162_349724e90c_n.jpg",
    "id_album": "-1964113117",
    "description": "City_957074",
    "title": "City_957074",
    "link_img": "https://live.staticflickr.com/65535/50039789162_19a98d2e62_o.jpg",
    "id_image": "City_957074",
    "count_view": 0
  },
  {
    "link_thumb": "https://live.staticflickr.com/65535/50040054262_9a5098a8ab_n.jpg",
    "id_album": "-1610342324",
    "description": "Nebula_393982",
    "title": "Nebula_393982",
    "link_img": "https://live.staticflickr.com/65535/50040054262_c7e6552d98_o.jpg",
    "id_image": "Nebula_393982",
    "count_view": 0
  },
  {
    "link_thumb": "https://live.staticflickr.com/65535/50039132288_cf74ef1a78_n.jpg",
    "id_album": "1402713104",
    "description": "Landscape_351024",
    "title": "Landscape_351024",
    "link_img": "https://live.staticflickr.com/65535/50039132288_ca44187ea8_o.jpg",
    "id_image": "Landscape_351024",
    "count_view": 0
  },
  {
    "link_thumb": "https://live.staticflickr.com/65535/50039278016_320aa9542e_n.jpg",
    "id_album": "849020728",
    "description": "Alien_973309",
    "title": "Alien_973309",
    "link_img": "https://live.staticflickr.com/65535/50039278016_475d65b56d_o.jpg",
    "id_image": "Alien_973309",
    "count_view": 0
  },
  {
    "link_thumb": "https://live.staticflickr.com/65535/50040057617_c1c34d0aaf_n.jpg",
    "id_album": "-1610342324",
    "description": "Nebula_414621",
    "title": "Nebula_414621",
    "link_img": "https://live.staticflickr.com/65535/50040057617_9024850e5a_o.jpg",
    "id_image": "Nebula_414621",
    "count_view": 0
  },
  {
    "link_thumb": "https://live.staticflickr.com/65535/50039315118_03a21f57f1_n.jpg",
    "id_album": "-1862561193",
    "description": "Other_216440",
    "title": "Other_216440",
    "link_img": "https://live.staticflickr.com/65535/50039315118_b8b2efa627_o.jpg",
    "id_image": "Other_216440",
    "count_view": 0
  },
  {
    "link_thumb": "https://live.staticflickr.com/65535/50039893707_27a10ce67b_n.jpg",
    "id_album": "1204249541",
    "description": "Galaxy_324687",
    "title": "Galaxy_324687",
    "link_img": "https://live.staticflickr.com/65535/50039893707_d8bc3a3072_o.jpg",
    "id_image": "Galaxy_324687",
    "count_view": 0
  },
  {
    "link_thumb": "https://live.staticflickr.com/65535/50040390571_09254441b8_n.jpg",
    "id_album": "779690680",
    "description": "Robot_881754",
    "title": "Robot_881754",
    "link_img": "https://live.staticflickr.com/65535/50040390571_cf607076ae_o.jpg",
    "id_image": "Robot_881754",
    "count_view": 0
  },
  {
    "link_thumb": "https://live.staticflickr.com/65535/50039206558_d1c680c7f7_n.jpg",
    "id_album": "416351698",
    "description": "Moon_394823",
    "title": "Moon_394823",
    "link_img": "https://live.staticflickr.com/65535/50039206558_8382a06289_o.jpg",
    "id_image": "Moon_394823",
    "count_view": 0
  },
  {
    "link_thumb": "https://live.staticflickr.com/65535/50041216921_ab714b756f_n.jpg",
    "id_album": "-1863373220",
    "description": "StarWars_699576",
    "title": "StarWars_699576",
    "link_img": "https://live.staticflickr.com/65535/50041216921_20982b2721_o.jpg",
    "id_image": "StarWars_699576",
    "count_view": 0
  },
  {
    "link_thumb": "https://live.staticflickr.com/65535/50039183803_4b66855098_n.jpg",
    "id_album": "-1388385651",
    "description": "MilkyWay_555449",
    "title": "MilkyWay_555449",
    "link_img": "https://live.staticflickr.com/65535/50039183803_26df7aec03_o.jpg",
    "id_image": "MilkyWay_555449",
    "count_view": 0
  },
  {
    "link_thumb": "https://live.staticflickr.com/65535/50040806793_3f6ffc8704_n.jpg",
    "id_album": "-1177476763",
    "description": "Sunrise_350440",
    "title": "Sunrise_350440",
    "link_img": "https://live.staticflickr.com/65535/50040806793_39368c7dbd_o.jpg",
    "id_image": "Sunrise_350440",
    "count_view": 0
  },
  {
    "link_thumb": "https://live.staticflickr.com/65535/50040724576_eed21e059e_n.jpg",
    "id_album": "2130067313",
    "description": "Spaceship_613078",
    "title": "Spaceship_613078",
    "link_img": "https://live.staticflickr.com/65535/50040724576_a657c1b767_o.jpg",
    "id_image": "Spaceship_613078",
    "count_view": 0
  },
  {
    "link_thumb": "https://live.staticflickr.com/65535/50038680363_d9c1c49189_n.jpg",
    "id_album": "280884763",
    "description": "Abstract_220864",
    "title": "Abstract_220864",
    "link_img": "https://live.staticflickr.com/65535/50038680363_c3e8af3b64_o.jpg",
    "id_image": "Abstract_220864",
    "count_view": 0
  },
  {
    "link_thumb": "https://live.staticflickr.com/65535/50040055147_edc9332bfd_n.jpg",
    "id_album": "-1610342324",
    "description": "Nebula_397249",
    "title": "Nebula_397249",
    "link_img": "https://live.staticflickr.com/65535/50040055147_223ab811e6_o.jpg",
    "id_image": "Nebula_397249",
    "count_view": 0
  },
  {
    "link_thumb": "https://live.staticflickr.com/65535/50040060111_8495163a39_n.jpg",
    "id_album": "-1102314093",
    "description": "Planets_216382",
    "title": "Planets_216382",
    "link_img": "https://live.staticflickr.com/65535/50040060111_d9d032cf20_o.jpg",
    "id_image": "Planets_216382",
    "count_view": 0
  },
  {
    "link_thumb": "https://live.staticflickr.com/65535/50039703168_05333d16ba_n.jpg",
    "id_album": "779690680",
    "description": "Robot_153445",
    "title": "Robot_153445",
    "link_img": "https://live.staticflickr.com/65535/50039703168_1a309fcf98_o.jpg",
    "id_image": "Robot_153445",
    "count_view": 0
  },
  {
    "link_thumb": "https://live.staticflickr.com/65535/50039781271_a6a87ebd94_n.jpg",
    "id_album": "-1610342324",
    "description": "Nebula_284522",
    "title": "Nebula_284522",
    "link_img": "https://live.staticflickr.com/65535/50039781271_dfc7131b43_o.jpg",
    "id_image": "Nebula_284522",
    "count_view": 0
  },
  {
    "link_thumb": "https://live.staticflickr.com/65535/50041381302_728e3edbce_n.jpg",
    "id_album": "-1863373220",
    "description": "StarWars_107769",
    "title": "StarWars_107769",
    "link_img": "https://live.staticflickr.com/65535/50041381302_be1802073c_o.jpg",
    "id_image": "StarWars_107769",
    "count_view": 0
  },
  {
    "link_thumb": "https://live.staticflickr.com/65535/50040266296_f4c7288674_n.jpg",
    "id_album": "779690680",
    "description": "Robot_219077",
    "title": "Robot_219077",
    "link_img": "https://live.staticflickr.com/65535/50040266296_b3d3a26b1c_o.jpg",
    "id_image": "Robot_219077",
    "count_view": 0
  },
  {
    "link_thumb": "https://live.staticflickr.com/65535/50038789233_be6b99409b_n.jpg",
    "id_album": "523598895",
    "description": "Artistic_469028",
    "title": "Artistic_469028",
    "link_img": "https://live.staticflickr.com/65535/50038789233_e96d2e232f_o.jpg",
    "id_image": "Artistic_469028",
    "count_view": 0
  },
  {
    "link_thumb": "https://live.staticflickr.com/65535/50040257717_45f6601cae_n.jpg",
    "id_album": "395161030",
    "description": "Planet_996487",
    "title": "Planet_996487",
    "link_img": "https://live.staticflickr.com/65535/50040257717_2038a61716_o.jpg",
    "id_image": "Planet_996487",
    "count_view": 0
  },
  {
    "link_thumb": "https://live.staticflickr.com/65535/50039113903_b28984a6d1_n.jpg",
    "id_album": "1402713104",
    "description": "Landscape_177517",
    "title": "Landscape_177517",
    "link_img": "https://live.staticflickr.com/65535/50039113903_8948a56882_o.jpg",
    "id_image": "Landscape_177517",
    "count_view": 0
  },
  {
    "link_thumb": "https://live.staticflickr.com/65535/50041577487_cdfe68b1ae_n.jpg",
    "id_album": "1267121215",
    "description": "Steampunk_347702",
    "title": "Steampunk_347702",
    "link_img": "https://live.staticflickr.com/65535/50041577487_0904988030_o.jpg",
    "id_image": "Steampunk_347702",
    "count_view": 0
  },
  {
    "link_thumb": "https://live.staticflickr.com/65535/50041841827_b36a4050fa_n.jpg",
    "id_album": "-1675918237",
    "description": "WomenWarrior_554347",
    "title": "WomenWarrior_554347",
    "link_img": "https://live.staticflickr.com/65535/50041841827_44cd6870a1_o.jpg",
    "id_image": "WomenWarrior_554347",
    "count_view": 0
  },
  {
    "link_thumb": "https://live.staticflickr.com/65535/50039303811_cdac9eb026_n.jpg",
    "id_album": "523598895",
    "description": "Artistic_174223",
    "title": "Artistic_174223",
    "link_img": "https://live.staticflickr.com/65535/50039303811_294df40208_o.jpg",
    "id_image": "Artistic_174223",
    "count_view": 0
  },
  {
    "link_thumb": "https://live.staticflickr.com/65535/50039060398_fab95df1b7_n.jpg",
    "id_album": "651930207",
    "description": "Explosion_353616",
    "title": "Explosion_353616",
    "link_img": "https://live.staticflickr.com/65535/50039060398_e2897d0cac_o.jpg",
    "id_image": "Explosion_353616",
    "count_view": 0
  },
  {
    "link_thumb": "https://live.staticflickr.com/65535/50039987128_c29d1bf364_n.jpg",
    "id_album": "1613540653",
    "description": "Space_805177",
    "title": "Space_805177",
    "link_img": "https://live.staticflickr.com/65535/50039987128_2a5829c13a_o.jpg",
    "id_image": "Space_805177",
    "count_view": 0
  },
  {
    "link_thumb": "https://live.staticflickr.com/65535/50041750302_8f0485a27d_n.jpg",
    "id_album": "-1261420436",
    "description": "Warrior_787254",
    "title": "Warrior_787254",
    "link_img": "https://live.staticflickr.com/65535/50041750302_f845bcde86_o.jpg",
    "id_image": "Warrior_787254",
    "count_view": 0
  },
  {
    "link_thumb": "https://live.staticflickr.com/65535/50040374156_6309c60c08_n.jpg",
    "id_album": "779690680",
    "description": "Robot_857286",
    "title": "Robot_857286",
    "link_img": "https://live.staticflickr.com/65535/50040374156_5ef8f6b476_o.jpg",
    "id_image": "Robot_857286",
    "count_view": 0
  },
  {
    "link_thumb": "https://live.staticflickr.com/65535/50038900478_17de58b3dd_n.jpg",
    "id_album": "-1964113117",
    "description": "City_220572",
    "title": "City_220572",
    "link_img": "https://live.staticflickr.com/65535/50038900478_c510b96934_o.jpg",
    "id_image": "City_220572",
    "count_view": 0
  },
  {
    "link_thumb": "https://live.staticflickr.com/65535/50039914642_ea6201651a_n.jpg",
    "id_album": "1204249541",
    "description": "Galaxy_689592",
    "title": "Galaxy_689592",
    "link_img": "https://live.staticflickr.com/65535/50039914642_0dac39960e_o.jpg",
    "id_image": "Galaxy_689592",
    "count_view": 0
  },
  {
    "link_thumb": "https://live.staticflickr.com/65535/50039884673_fe7041f763_n.jpg",
    "id_album": "779690680",
    "description": "Robot_944758",
    "title": "Robot_944758",
    "link_img": "https://live.staticflickr.com/65535/50039884673_4bda8aba29_o.jpg",
    "id_image": "Robot_944758",
    "count_view": 0
  },
  {
    "link_thumb": "https://live.staticflickr.com/65535/50039744212_299cfd8944_n.jpg",
    "id_album": "-1964113117",
    "description": "City_616579",
    "title": "City_616579",
    "link_img": "https://live.staticflickr.com/65535/50039744212_8caae0a7a8_o.jpg",
    "id_image": "City_616579",
    "count_view": 0
  },
  {
    "link_thumb": "https://live.staticflickr.com/65535/50040187356_0aa9aea747_n.jpg",
    "id_album": "-482547208",
    "description": "PostApocalyptic_1001692",
    "title": "PostApocalyptic_1001692",
    "link_img": "https://live.staticflickr.com/65535/50040187356_8a3483b44c_o.jpg",
    "id_image": "PostApocalyptic_1001692",
    "count_view": 0
  },
  {
    "link_thumb": "https://live.staticflickr.com/65535/50039926388_8691cddc82_n.jpg",
    "id_album": "1613540653",
    "description": "Space_223704",
    "title": "Space_223704",
    "link_img": "https://live.staticflickr.com/65535/50039926388_f88e5ef8a5_o.jpg",
    "id_image": "Space_223704",
    "count_view": 0
  },
  {
    "link_thumb": "https://live.staticflickr.com/65535/50040434446_2fe392da32_n.jpg",
    "id_album": "779690680",
    "description": "Robot_937815",
    "title": "Robot_937815",
    "link_img": "https://live.staticflickr.com/65535/50040434446_4ef6e68723_o.jpg",
    "id_image": "Robot_937815",
    "count_view": 0
  },
  {
    "link_thumb": "https://live.staticflickr.com/65535/50039947966_dd42e58a49_n.jpg",
    "id_album": "395161030",
    "description": "Planet_422157",
    "title": "Planet_422157",
    "link_img": "https://live.staticflickr.com/65535/50039947966_aa53daac30_o.jpg",
    "id_image": "Planet_422157",
    "count_view": 0
  },
  {
    "link_thumb": "https://live.staticflickr.com/65535/50039692672_bf57dbaf6a_n.jpg",
    "id_album": "-1964113117",
    "description": "City_1005747",
    "title": "City_1005747",
    "link_img": "https://live.staticflickr.com/65535/50039692672_6db98fe4f9_o.jpg",
    "id_image": "City_1005747",
    "count_view": 0
  },
  {
    "link_thumb": "https://live.staticflickr.com/65535/50039882507_92176d490f_n.jpg",
    "id_album": "2104507156",
    "description": "Fantasy_200405",
    "title": "Fantasy_200405",
    "link_img": "https://live.staticflickr.com/65535/50039882507_db38cf739b_o.jpg",
    "id_image": "Fantasy_200405",
    "count_view": 0
  },
  {
    "link_thumb": "https://live.staticflickr.com/65535/50039625166_a8df5ea624_n.jpg",
    "id_album": "1204249541",
    "description": "Galaxy_165217",
    "title": "Galaxy_165217",
    "link_img": "https://live.staticflickr.com/65535/50039625166_20c71e67d0_o.jpg",
    "id_image": "Galaxy_165217",
    "count_view": 0
  },
  {
    "link_thumb": "https://live.staticflickr.com/65535/50040438816_81b360e571_n.jpg",
    "id_album": "779690680",
    "description": "Robot_944755",
    "title": "Robot_944755",
    "link_img": "https://live.staticflickr.com/65535/50040438816_5d04e78999_o.jpg",
    "id_image": "Robot_944755",
    "count_view": 0
  },
  {
    "link_thumb": "https://live.staticflickr.com/65535/50039082588_37f557ddf0_n.jpg",
    "id_album": "1204249541",
    "description": "Galaxy_369509",
    "title": "Galaxy_369509",
    "link_img": "https://live.staticflickr.com/65535/50039082588_2786c73b7e_o.jpg",
    "id_image": "Galaxy_369509",
    "count_view": 0
  },
  {
    "link_thumb": "https://live.staticflickr.com/65535/50039840393_362ab7f104_n.jpg",
    "id_album": "779690680",
    "description": "Robot_884818",
    "title": "Robot_884818",
    "link_img": "https://live.staticflickr.com/65535/50039840393_0c266092de_o.jpg",
    "id_image": "Robot_884818",
    "count_view": 0
  },
  {
    "link_thumb": "https://live.staticflickr.com/65535/50039674377_aa2ff7c368_n.jpg",
    "id_album": "-1780971522",
    "description": "Biohazard_2968",
    "title": "Biohazard_2968",
    "link_img": "https://live.staticflickr.com/65535/50039674377_c325675a47_o.jpg",
    "id_image": "Biohazard_2968",
    "count_view": 0
  },
  {
    "link_thumb": "https://live.staticflickr.com/65535/50041337091_2a6f885b09_n.jpg",
    "id_album": "1267121215",
    "description": "Steampunk_992541",
    "title": "Steampunk_992541",
    "link_img": "https://live.staticflickr.com/65535/50041337091_645e07d002_o.jpg",
    "id_image": "Steampunk_992541",
    "count_view": 0
  },
  {
    "link_thumb": "https://live.staticflickr.com/65535/50040549621_3f5035986c_n.jpg",
    "id_album": "1613540653",
    "description": "Space_882497",
    "title": "Space_882497",
    "link_img": "https://live.staticflickr.com/65535/50040549621_79ff5d853c_o.jpg",
    "id_image": "Space_882497",
    "count_view": 0
  },
  {
    "link_thumb": "https://live.staticflickr.com/65535/50041719902_cbb29a169e_n.jpg",
    "id_album": "-1261420436",
    "description": "Warrior_393645",
    "title": "Warrior_393645",
    "link_img": "https://live.staticflickr.com/65535/50041719902_78a94b522a_o.jpg",
    "id_image": "Warrior_393645",
    "count_view": 0
  },
  {
    "link_thumb": "https://live.staticflickr.com/65535/50040517371_57f6ec1a72_n.jpg",
    "id_album": "1613540653",
    "description": "Space_608291",
    "title": "Space_608291",
    "link_img": "https://live.staticflickr.com/65535/50040517371_ef16e7cba1_o.jpg",
    "id_image": "Space_608291",
    "count_view": 0
  },
  {
    "link_thumb": "https://live.staticflickr.com/65535/50040058722_0357a6e4ee_n.jpg",
    "id_album": "-1610342324",
    "description": "Nebula_421987",
    "title": "Nebula_421987",
    "link_img": "https://live.staticflickr.com/65535/50040058722_9911cd4de8_o.jpg",
    "id_image": "Nebula_421987",
    "count_view": 0
  },
  {
    "link_thumb": "https://live.staticflickr.com/65535/50039691091_0268d9a0ea_n.jpg",
    "id_album": "1402713104",
    "description": "Landscape_517927",
    "title": "Landscape_517927",
    "link_img": "https://live.staticflickr.com/65535/50039691091_e622bcac59_o.jpg",
    "id_image": "Landscape_517927",
    "count_view": 0
  },
  {
    "link_thumb": "https://live.staticflickr.com/65535/50039205778_22a5a0db2d_n.jpg",
    "id_album": "416351698",
    "description": "Moon_264721",
    "title": "Moon_264721",
    "link_img": "https://live.staticflickr.com/65535/50039205778_6be7e019cc_o.jpg",
    "id_image": "Moon_264721",
    "count_view": 0
  },
  {
    "link_thumb": "https://live.staticflickr.com/65535/50039689782_974d113fb8_n.jpg",
    "id_album": "406431601",
    "description": "Building_925921",
    "title": "Building_925921",
    "link_img": "https://live.staticflickr.com/65535/50039689782_5beb4a41eb_o.jpg",
    "id_image": "Building_925921",
    "count_view": 0
  },
  {
    "link_thumb": "https://live.staticflickr.com/65535/50040001488_915e2a8f0c_n.jpg",
    "id_album": "1613540653",
    "description": "Space_982964",
    "title": "Space_982964",
    "link_img": "https://live.staticflickr.com/65535/50040001488_483cf2549e_o.jpg",
    "id_image": "Space_982964",
    "count_view": 0
  },
  {
    "link_thumb": "https://live.staticflickr.com/65535/50039197643_d0a5805492_n.jpg",
    "id_album": "-1388385651",
    "description": "MilkyWay_750352",
    "title": "MilkyWay_750352",
    "link_img": "https://live.staticflickr.com/65535/50039197643_e5d527b5ae_o.jpg",
    "id_image": "MilkyWay_750352",
    "count_view": 0
  },
  {
    "link_thumb": "https://live.staticflickr.com/65535/50039597113_53e3d488e8_n.jpg",
    "id_album": "-1102314093",
    "description": "Planets_957334",
    "title": "Planets_957334",
    "link_img": "https://live.staticflickr.com/65535/50039597113_97e63c58b2_o.jpg",
    "id_image": "Planets_957334",
    "count_view": 0
  },
  {
    "link_thumb": "https://live.staticflickr.com/65535/50040776776_b328e02d00_n.jpg",
    "id_album": "2130067313",
    "description": "Spaceship_972168",
    "title": "Spaceship_972168",
    "link_img": "https://live.staticflickr.com/65535/50040776776_eba15d9d76_o.jpg",
    "id_image": "Spaceship_972168",
    "count_view": 0
  },
  {
    "link_thumb": "https://live.staticflickr.com/65535/50039792406_1753eaf9c6_n.jpg",
    "id_album": "-1610342324",
    "description": "Nebula_397986",
    "title": "Nebula_397986",
    "link_img": "https://live.staticflickr.com/65535/50039792406_4a1b0eccc8_o.jpg",
    "id_image": "Nebula_397986",
    "count_view": 0
  },
  {
    "link_thumb": "https://live.staticflickr.com/65535/50039114543_e81c97f685_n.jpg",
    "id_album": "1402713104",
    "description": "Landscape_185585",
    "title": "Landscape_185585",
    "link_img": "https://live.staticflickr.com/65535/50039114543_e386ce0de8_o.jpg",
    "id_image": "Landscape_185585",
    "count_view": 0
  },
  {
    "link_thumb": "https://live.staticflickr.com/65535/50039779547_3e004bce36_n.jpg",
    "id_album": "-1964113117",
    "description": "City_906131",
    "title": "City_906131",
    "link_img": "https://live.staticflickr.com/65535/50039779547_c2e3bbaf2b_o.jpg",
    "id_image": "City_906131",
    "count_view": 0
  },
  {
    "link_thumb": "https://live.staticflickr.com/65535/50039288151_f54dd88532_n.jpg",
    "id_album": "-419633230",
    "description": "Apocalyptic_891188",
    "title": "Apocalyptic_891188",
    "link_img": "https://live.staticflickr.com/65535/50039288151_bd5f9f7861_o.jpg",
    "id_image": "Apocalyptic_891188",
    "count_view": 0
  },
  {
    "link_thumb": "https://live.staticflickr.com/65535/50038948688_a0d795b177_n.jpg",
    "id_album": "-1964113117",
    "description": "City_784095",
    "title": "City_784095",
    "link_img": "https://live.staticflickr.com/65535/50038948688_1b10df14a3_o.jpg",
    "id_image": "City_784095",
    "count_view": 0
  },
  {
    "link_thumb": "https://live.staticflickr.com/65535/50039087083_5911ec77a5_n.jpg",
    "id_album": "1204249541",
    "description": "Galaxy_450494",
    "title": "Galaxy_450494",
    "link_img": "https://live.staticflickr.com/65535/50039087083_b25c7d31f3_o.jpg",
    "id_image": "Galaxy_450494",
    "count_view": 0
  },
  {
    "link_thumb": "https://live.staticflickr.com/65535/50040310352_1ece5b0606_n.jpg",
    "id_album": "-1102314093",
    "description": "Planets_113084",
    "title": "Planets_113084",
    "link_img": "https://live.staticflickr.com/65535/50040310352_eaaba6d627_o.jpg",
    "id_image": "Planets_113084",
    "count_view": 0
  },
  {
    "link_thumb": "https://live.staticflickr.com/65535/50039582048_f3f4fe5375_n.jpg",
    "id_album": "-1102314093",
    "description": "Planets_75642",
    "title": "Planets_75642",
    "link_img": "https://live.staticflickr.com/65535/50039582048_9a9eb641c9_o.jpg",
    "id_image": "Planets_75642",
    "count_view": 0
  },
  {
    "link_thumb": "https://live.staticflickr.com/65535/50039134218_976f6fe9cc_n.jpg",
    "id_album": "1402713104",
    "description": "Landscape_371300",
    "title": "Landscape_371300",
    "link_img": "https://live.staticflickr.com/65535/50039134218_5a4a2af4d4_o.jpg",
    "id_image": "Landscape_371300",
    "count_view": 0
  },
  {
    "link_thumb": "https://live.staticflickr.com/65535/50039516293_9c8bdce52e_n.jpg",
    "id_album": "-1102314093",
    "description": "Planets_249556",
    "title": "Planets_249556",
    "link_img": "https://live.staticflickr.com/65535/50039516293_8cc7866bdd_o.jpg",
    "id_image": "Planets_249556",
    "count_view": 0
  },
  {
    "link_thumb": "https://live.staticflickr.com/65535/50040041517_7f20f9be60_n.jpg",
    "id_album": "-1610342324",
    "description": "Nebula_25552",
    "title": "Nebula_25552",
    "link_img": "https://live.staticflickr.com/65535/50040041517_c05b7da29a_o.jpg",
    "id_image": "Nebula_25552",
    "count_view": 0
  },
  {
    "link_thumb": "https://live.staticflickr.com/65535/50040908828_cd1e67c9c6_n.jpg",
    "id_album": "-1261420436",
    "description": "Warrior_476174",
    "title": "Warrior_476174",
    "link_img": "https://live.staticflickr.com/65535/50040908828_5016715080_o.jpg",
    "id_image": "Warrior_476174",
    "count_view": 0
  },
  {
    "link_thumb": "https://live.staticflickr.com/65535/50039550201_aa0fdc5bec_n.jpg",
    "id_album": "-437872736",
    "description": "Creature_312151",
    "title": "Creature_312151",
    "link_img": "https://live.staticflickr.com/65535/50039550201_c9fede1478_o.jpg",
    "id_image": "Creature_312151",
    "count_view": 0
  },
  {
    "link_thumb": "https://live.staticflickr.com/65535/50039282186_b3957cb1ac_n.jpg",
    "id_album": "-419633230",
    "description": "Apocalyptic_30257",
    "title": "Apocalyptic_30257",
    "link_img": "https://live.staticflickr.com/65535/50039282186_df8408378d_o.jpg",
    "id_image": "Apocalyptic_30257",
    "count_view": 0
  },
  {
    "link_thumb": "https://live.staticflickr.com/65535/50040708088_f74e41e4c7_n.jpg",
    "id_album": "-1587696329",
    "description": "Stars_291490",
    "title": "Stars_291490",
    "link_img": "https://live.staticflickr.com/65535/50040708088_f8caf08022_o.jpg",
    "id_image": "Stars_291490",
    "count_view": 0
  },
  {
    "link_thumb": "https://live.staticflickr.com/65535/50040258808_bfd440e3fe_n.jpg",
    "id_album": "-1449720967",
    "description": "StarTrek_258592",
    "title": "StarTrek_258592",
    "link_img": "https://live.staticflickr.com/65535/50040258808_27e0db1efd_o.jpg",
    "id_image": "StarTrek_258592",
    "count_view": 0
  },
  {
    "link_thumb": "https://live.staticflickr.com/65535/50039844862_f989440e91_n.jpg",
    "id_album": "829169633",
    "description": "Cyborg_240574",
    "title": "Cyborg_240574",
    "link_img": "https://live.staticflickr.com/65535/50039844862_9486c6daf8_o.jpg",
    "id_image": "Cyborg_240574",
    "count_view": 0
  },
  {
    "link_thumb": "https://live.staticflickr.com/65535/50039818881_f3a8c3d09e_n.jpg",
    "id_album": "-1610342324",
    "description": "Nebula_635944",
    "title": "Nebula_635944",
    "link_img": "https://live.staticflickr.com/65535/50039818881_b6aa025bce_o.jpg",
    "id_image": "Nebula_635944",
    "count_view": 0
  },
  {
    "link_thumb": "https://live.staticflickr.com/65535/50039150033_1383d000c1_n.jpg",
    "id_album": "1402713104",
    "description": "Landscape_676675",
    "title": "Landscape_676675",
    "link_img": "https://live.staticflickr.com/65535/50039150033_5faaaa5140_o.jpg",
    "id_image": "Landscape_676675",
    "count_view": 0
  },
  {
    "link_thumb": "https://live.staticflickr.com/65535/50039012128_9d92b4ba4c_n.jpg",
    "id_album": "-1372247677",
    "description": "Cyberpunk_373917",
    "title": "Cyberpunk_373917",
    "link_img": "https://live.staticflickr.com/65535/50039012128_2fb372241c_o.jpg",
    "id_image": "Cyberpunk_373917",
    "count_view": 0
  },
  {
    "link_thumb": "https://live.staticflickr.com/65535/50041175706_7b0e7e1819_n.jpg",
    "id_album": "-1863373220",
    "description": "StarWars_394105",
    "title": "StarWars_394105",
    "link_img": "https://live.staticflickr.com/65535/50041175706_b15d388913_o.jpg",
    "id_image": "StarWars_394105",
    "count_view": 0
  },
  {
    "link_thumb": "https://live.staticflickr.com/65535/50039404106_102959b8f9_n.jpg",
    "id_album": "1187037014",
    "description": "Battle_602070",
    "title": "Battle_602070",
    "link_img": "https://live.staticflickr.com/65535/50039404106_14c51a5dd0_o.jpg",
    "id_image": "Battle_602070",
    "count_view": 0
  },
  {
    "link_thumb": "https://live.staticflickr.com/65535/50039631446_4bb723d955_n.jpg",
    "id_album": "1204249541",
    "description": "Galaxy_337200",
    "title": "Galaxy_337200",
    "link_img": "https://live.staticflickr.com/65535/50039631446_8462c1aafb_o.jpg",
    "id_image": "Galaxy_337200",
    "count_view": 0
  },
  {
    "link_thumb": "https://live.staticflickr.com/65535/50040377422_af14ce8342_n.jpg",
    "id_album": "-1102314093",
    "description": "Planets_423189",
    "title": "Planets_423189",
    "link_img": "https://live.staticflickr.com/65535/50040377422_c14de53257_o.jpg",
    "id_image": "Planets_423189",
    "count_view": 0
  },
  {
    "link_thumb": "https://live.staticflickr.com/65535/50039699812_a360930b74_n.jpg",
    "id_album": "-1964113117",
    "description": "City_156371",
    "title": "City_156371",
    "link_img": "https://live.staticflickr.com/65535/50039699812_04627277bc_o.jpg",
    "id_image": "City_156371",
    "count_view": 0
  },
  {
    "link_thumb": "https://live.staticflickr.com/65535/50038772593_382ecebfee_n.jpg",
    "id_album": "523598895",
    "description": "Artistic_233260",
    "title": "Artistic_233260",
    "link_img": "https://live.staticflickr.com/65535/50038772593_a9f7f1991e_o.jpg",
    "id_image": "Artistic_233260",
    "count_view": 0
  },
  {
    "link_thumb": "https://live.staticflickr.com/65535/50039777261_57d6f83b9c_n.jpg",
    "id_album": "-1610342324",
    "description": "Nebula_2533",
    "title": "Nebula_2533",
    "link_img": "https://live.staticflickr.com/65535/50039777261_1496f6f89a_o.jpg",
    "id_image": "Nebula_2533",
    "count_view": 0
  },
  {
    "link_thumb": "https://live.staticflickr.com/65535/50040735463_6fff73ff05_n.jpg",
    "id_album": "1267121215",
    "description": "Steampunk_170997",
    "title": "Steampunk_170997",
    "link_img": "https://live.staticflickr.com/65535/50040735463_e7a1007976_o.jpg",
    "id_image": "Steampunk_170997",
    "count_view": 0
  },
  {
    "link_thumb": "https://live.staticflickr.com/65535/50041477042_f628429dd4_n.jpg",
    "id_album": "-1863373220",
    "description": "StarWars_671995",
    "title": "StarWars_671995",
    "link_img": "https://live.staticflickr.com/65535/50041477042_d7d01526c2_o.jpg",
    "id_image": "StarWars_671995",
    "count_view": 0
  },
  {
    "link_thumb": "https://live.staticflickr.com/65535/50040534327_86e49cbb1e_n.jpg",
    "id_album": "779690680",
    "description": "Robot_243468",
    "title": "Robot_243468",
    "link_img": "https://live.staticflickr.com/65535/50040534327_4232b5dd20_o.jpg",
    "id_image": "Robot_243468",
    "count_view": 0
  },
  {
    "link_thumb": "https://live.staticflickr.com/65535/50039910811_ac258729c4_n.jpg",
    "id_album": "395161030",
    "description": "Planet_178915",
    "title": "Planet_178915",
    "link_img": "https://live.staticflickr.com/65535/50039910811_a3f42cf87d_o.jpg",
    "id_image": "Planet_178915",
    "count_view": 0
  },
  {
    "link_thumb": "https://live.staticflickr.com/65535/50038871963_54039a5527_n.jpg",
    "id_album": "406431601",
    "description": "Building_209401",
    "title": "Building_209401",
    "link_img": "https://live.staticflickr.com/65535/50038871963_b62fbc703b_o.jpg",
    "id_image": "Building_209401",
    "count_view": 0
  },
  {
    "link_thumb": "https://live.staticflickr.com/65535/50039477236_0189ea0b06_n.jpg",
    "id_album": "-1964113117",
    "description": "City_546961",
    "title": "City_546961",
    "link_img": "https://live.staticflickr.com/65535/50039477236_87559844fb_o.jpg",
    "id_image": "City_546961",
    "count_view": 0
  },
  {
    "link_thumb": "https://live.staticflickr.com/65535/50039511598_cb80b055ee_n.jpg",
    "id_album": "-1102314093",
    "description": "Planets_221961",
    "title": "Planets_221961",
    "link_img": "https://live.staticflickr.com/65535/50039511598_b7bb8b3c80_o.jpg",
    "id_image": "Planets_221961",
    "count_view": 0
  },
  {
    "link_thumb": "https://live.staticflickr.com/65535/50040214598_617ac4158d_n.jpg",
    "id_album": "2130067313",
    "description": "Spaceship_955754",
    "title": "Spaceship_955754",
    "link_img": "https://live.staticflickr.com/65535/50040214598_15d3e882b2_o.jpg",
    "id_image": "Spaceship_955754",
    "count_view": 0
  },
  {
    "link_thumb": "https://live.staticflickr.com/65535/50041509027_9d3e55fc83_n.jpg",
    "id_album": "-1863373220",
    "description": "StarWars_969634",
    "title": "StarWars_969634",
    "link_img": "https://live.staticflickr.com/65535/50041509027_a8b123f895_o.jpg",
    "id_image": "StarWars_969634",
    "count_view": 0
  },
  {
    "link_thumb": "https://live.staticflickr.com/65535/50040111467_1e9c7e3b87_n.jpg",
    "id_album": "-1610342324",
    "description": "Nebula_874817",
    "title": "Nebula_874817",
    "link_img": "https://live.staticflickr.com/65535/50040111467_f499bef8db_o.jpg",
    "id_image": "Nebula_874817",
    "count_view": 0
  },
  {
    "link_thumb": "https://live.staticflickr.com/65535/50040054172_2f710a952d_n.jpg",
    "id_album": "-1610342324",
    "description": "Nebula_393967",
    "title": "Nebula_393967",
    "link_img": "https://live.staticflickr.com/65535/50040054172_e34285e16d_o.jpg",
    "id_image": "Nebula_393967",
    "count_view": 0
  },
  {
    "link_thumb": "https://live.staticflickr.com/65535/50039234943_33fa8467de_n.jpg",
    "id_album": "-1610342324",
    "description": "Nebula_294608",
    "title": "Nebula_294608",
    "link_img": "https://live.staticflickr.com/65535/50039234943_1e28efd86d_o.jpg",
    "id_image": "Nebula_294608",
    "count_view": 0
  },
  {
    "link_thumb": "https://live.staticflickr.com/65535/50040057867_91e2cd3e56_n.jpg",
    "id_album": "-1610342324",
    "description": "Nebula_415323",
    "title": "Nebula_415323",
    "link_img": "https://live.staticflickr.com/65535/50040057867_1b9cc99204_o.jpg",
    "id_image": "Nebula_415323",
    "count_view": 0
  },
  {
    "link_thumb": "https://live.staticflickr.com/65535/50040677492_44ee7341fa_n.jpg",
    "id_album": "779690680",
    "description": "Robot_915576",
    "title": "Robot_915576",
    "link_img": "https://live.staticflickr.com/65535/50040677492_c129791c11_o.jpg",
    "id_image": "Robot_915576",
    "count_view": 0
  },
  {
    "link_thumb": "https://live.staticflickr.com/65535/50038930628_18a352b553_n.jpg",
    "id_album": "-1964113117",
    "description": "City_567071",
    "title": "City_567071",
    "link_img": "https://live.staticflickr.com/65535/50038930628_4dbc05c10d_o.jpg",
    "id_image": "City_567071",
    "count_view": 0
  },
  {
    "link_thumb": "https://live.staticflickr.com/65535/50041591801_dfec466b6f_n.jpg",
    "id_album": "-1675918237",
    "description": "WomenWarrior_946028",
    "title": "WomenWarrior_946028",
    "link_img": "https://live.staticflickr.com/65535/50041591801_19aa6a3c70_o.jpg",
    "id_image": "WomenWarrior_946028",
    "count_view": 0
  },
  {
    "link_thumb": "https://live.staticflickr.com/65535/50040221111_0d1e0d96e1_n.jpg",
    "id_album": "-482547208",
    "description": "PostApocalyptic_712786",
    "title": "PostApocalyptic_712786",
    "link_img": "https://live.staticflickr.com/65535/50040221111_01fa49c2b3_o.jpg",
    "id_image": "PostApocalyptic_712786",
    "count_view": 0
  },
  {
    "link_thumb": "https://live.staticflickr.com/65535/50040024702_c8ca15cb2b_n.jpg",
    "id_album": "-1610342324",
    "description": "Nebula_104930",
    "title": "Nebula_104930",
    "link_img": "https://live.staticflickr.com/65535/50040024702_550befb9aa_o.jpg",
    "id_image": "Nebula_104930",
    "count_view": 0
  },
  {
    "link_thumb": "https://live.staticflickr.com/65535/50039283386_52a9e867dc_n.jpg",
    "id_album": "-419633230",
    "description": "Apocalyptic_333573",
    "title": "Apocalyptic_333573",
    "link_img": "https://live.staticflickr.com/65535/50039283386_f761325d64_o.jpg",
    "id_image": "Apocalyptic_333573",
    "count_view": 0
  },
  {
    "link_thumb": "https://live.staticflickr.com/65535/50039766366_e91984c447_n.jpg",
    "id_album": "-1610342324",
    "description": "Nebula_182338",
    "title": "Nebula_182338",
    "link_img": "https://live.staticflickr.com/65535/50039766366_b6abb640a1_o.jpg",
    "id_image": "Nebula_182338",
    "count_view": 0
  },
  {
    "link_thumb": "https://live.staticflickr.com/65535/50041560802_3bb2dff9f7_n.jpg",
    "id_album": "1267121215",
    "description": "Steampunk_191453",
    "title": "Steampunk_191453",
    "link_img": "https://live.staticflickr.com/65535/50041560802_b24a4d44b4_o.jpg",
    "id_image": "Steampunk_191453",
    "count_view": 0
  },
  {
    "link_thumb": "https://live.staticflickr.com/65535/50040010911_f00e8b8701_n.jpg",
    "id_album": "1443611160",
    "description": "PlanetRise_696212",
    "title": "PlanetRise_696212",
    "link_img": "https://live.staticflickr.com/65535/50040010911_72953e9660_o.jpg",
    "id_image": "PlanetRise_696212",
    "count_view": 0
  },
  {
    "link_thumb": "https://live.staticflickr.com/65535/50038747338_06160ef0c9_n.jpg",
    "id_album": "523598895",
    "description": "Artistic_117138",
    "title": "Artistic_117138",
    "link_img": "https://live.staticflickr.com/65535/50038747338_45748feee7_o.jpg",
    "id_image": "Artistic_117138",
    "count_view": 0
  },
  {
    "link_thumb": "https://live.staticflickr.com/65535/50039316241_d6fce596cf_n.jpg",
    "id_album": "523598895",
    "description": "Artistic_220358",
    "title": "Artistic_220358",
    "link_img": "https://live.staticflickr.com/65535/50039316241_c78fd99072_o.jpg",
    "id_image": "Artistic_220358",
    "count_view": 0
  },
  {
    "link_thumb": "https://live.staticflickr.com/65535/50039702006_12ebfce245_n.jpg",
    "id_album": "1402713104",
    "description": "Landscape_733542",
    "title": "Landscape_733542",
    "link_img": "https://live.staticflickr.com/65535/50039702006_7c058b18a3_o.jpg",
    "id_image": "Landscape_733542",
    "count_view": 0
  },
  {
    "link_thumb": "https://live.staticflickr.com/65535/50040664352_808e15eeaa_n.jpg",
    "id_album": "779690680",
    "description": "Robot_900265",
    "title": "Robot_900265",
    "link_img": "https://live.staticflickr.com/65535/50040664352_81e6238eb9_o.jpg",
    "id_image": "Robot_900265",
    "count_view": 0
  },
  {
    "link_thumb": "https://live.staticflickr.com/65535/50040227822_f4bef014f4_n.jpg",
    "id_album": "395161030",
    "description": "Planet_559154",
    "title": "Planet_559154",
    "link_img": "https://live.staticflickr.com/65535/50040227822_2e47cdec46_o.jpg",
    "id_image": "Planet_559154",
    "count_view": 0
  },
  {
    "link_thumb": "https://live.staticflickr.com/65535/50041513202_bd3ba83950_n.jpg",
    "id_album": "-1863373220",
    "description": "StarWars_980562",
    "title": "StarWars_980562",
    "link_img": "https://live.staticflickr.com/65535/50041513202_48cc296dcf_o.jpg",
    "id_image": "StarWars_980562",
    "count_view": 0
  },
  {
    "link_thumb": "https://live.staticflickr.com/65535/50041512782_45828daa1b_n.jpg",
    "id_album": "-1863373220",
    "description": "StarWars_980539",
    "title": "StarWars_980539",
    "link_img": "https://live.staticflickr.com/65535/50041512782_2ae75f170f_o.jpg",
    "id_image": "StarWars_980539",
    "count_view": 0
  },
  {
    "link_thumb": "https://live.staticflickr.com/65535/50040749421_e6e1063271_n.jpg",
    "id_album": "2130067313",
    "description": "Spaceship_79157",
    "title": "Spaceship_79157",
    "link_img": "https://live.staticflickr.com/65535/50040749421_74631aabd4_o.jpg",
    "id_image": "Spaceship_79157",
    "count_view": 0
  },
  {
    "link_thumb": "https://live.staticflickr.com/65535/50041488226_d42793aa2f_n.jpg",
    "id_album": "-1261420436",
    "description": "Warrior_82405",
    "title": "Warrior_82405",
    "link_img": "https://live.staticflickr.com/65535/50041488226_306cf68125_o.jpg",
    "id_image": "Warrior_82405",
    "count_view": 0
  },
  {
    "link_thumb": "https://live.staticflickr.com/65535/50039256968_c69ba70e40_n.jpg",
    "id_album": "-1610342324",
    "description": "Nebula_546083",
    "title": "Nebula_546083",
    "link_img": "https://live.staticflickr.com/65535/50039256968_714f141a92_o.jpg",
    "id_image": "Nebula_546083",
    "count_view": 0
  },
  {
    "link_thumb": "https://live.staticflickr.com/65535/50040968477_11d83b244a_n.jpg",
    "id_album": "2130067313",
    "description": "Spaceship_502865",
    "title": "Spaceship_502865",
    "link_img": "https://live.staticflickr.com/65535/50040968477_b7447512ee_o.jpg",
    "id_image": "Spaceship_502865",
    "count_view": 0
  },
  {
    "link_thumb": "https://live.staticflickr.com/65535/50040365636_2259fed20a_n.jpg",
    "id_album": "779690680",
    "description": "Robot_772252",
    "title": "Robot_772252",
    "link_img": "https://live.staticflickr.com/65535/50040365636_d199944642_o.jpg",
    "id_image": "Robot_772252",
    "count_view": 0
  },
  {
    "link_thumb": "https://live.staticflickr.com/65535/50039495962_3ed909d434_n.jpg",
    "id_album": "-406145265",
    "description": "Aircraft_112473",
    "title": "Aircraft_112473",
    "link_img": "https://live.staticflickr.com/65535/50039495962_f531135e71_o.jpg",
    "id_image": "Aircraft_112473",
    "count_view": 0
  },
  {
    "link_thumb": "https://live.staticflickr.com/65535/50039411896_e5e13509a1_n.jpg",
    "id_album": "-1780971522",
    "description": "Biohazard_300091",
    "title": "Biohazard_300091",
    "link_img": "https://live.staticflickr.com/65535/50039411896_c3d62e307d_o.jpg",
    "id_image": "Biohazard_300091",
    "count_view": 0
  },
  {
    "link_thumb": "https://live.staticflickr.com/65535/50040986127_6069e41008_n.jpg",
    "id_album": "2130067313",
    "description": "Spaceship_605717",
    "title": "Spaceship_605717",
    "link_img": "https://live.staticflickr.com/65535/50040986127_f1a94e2962_o.jpg",
    "id_image": "Spaceship_605717",
    "count_view": 0
  },
  {
    "link_thumb": "https://live.staticflickr.com/65535/50040215592_701921c097_n.jpg",
    "id_album": "395161030",
    "description": "Planet_463339",
    "title": "Planet_463339",
    "link_img": "https://live.staticflickr.com/65535/50040215592_1d2a23b3c3_o.jpg",
    "id_image": "Planet_463339",
    "count_view": 0
  },
  {
    "link_thumb": "https://live.staticflickr.com/65535/50039963001_39e6a4c9d7_n.jpg",
    "id_album": "395161030",
    "description": "Planet_559146",
    "title": "Planet_559146",
    "link_img": "https://live.staticflickr.com/65535/50039963001_90f54857e2_o.jpg",
    "id_image": "Planet_559146",
    "count_view": 0
  },
  {
    "link_thumb": "https://live.staticflickr.com/65535/50038833083_7075b24b1b_n.jpg",
    "id_album": "869545341",
    "description": "Astronaut_924286",
    "title": "Astronaut_924286",
    "link_img": "https://live.staticflickr.com/65535/50038833083_ff52a1ba88_o.jpg",
    "id_image": "Astronaut_924286",
    "count_view": 0
  },
  {
    "link_thumb": "https://live.staticflickr.com/65535/50039633968_1cb0fd48e0_n.jpg",
    "id_album": "376235057",
    "description": "Planetscape_957476",
    "title": "Planetscape_957476",
    "link_img": "https://live.staticflickr.com/65535/50039633968_c4563680c7_o.jpg",
    "id_image": "Planetscape_957476",
    "count_view": 0
  },
  {
    "link_thumb": "https://live.staticflickr.com/65535/50040802121_34cc083a44_n.jpg",
    "id_album": "-1449720967",
    "description": "StarTrek_186206",
    "title": "StarTrek_186206",
    "link_img": "https://live.staticflickr.com/65535/50040802121_d05002a5fb_o.jpg",
    "id_image": "StarTrek_186206",
    "count_view": 0
  },
  {
    "link_thumb": "https://live.staticflickr.com/65535/50040263522_06a220168d_n.jpg",
    "id_album": "1443611160",
    "description": "PlanetRise_287016",
    "title": "PlanetRise_287016",
    "link_img": "https://live.staticflickr.com/65535/50040263522_23640c196b_o.jpg",
    "id_image": "PlanetRise_287016",
    "count_view": 0
  },
  {
    "link_thumb": "https://live.staticflickr.com/65535/50040680277_d6a7581ab1_n.jpg",
    "id_album": "779690680",
    "description": "Robot_918800",
    "title": "Robot_918800",
    "link_img": "https://live.staticflickr.com/65535/50040680277_5e9144c39d_o.jpg",
    "id_image": "Robot_918800",
    "count_view": 0
  },
  {
    "link_thumb": "https://live.staticflickr.com/65535/50039375571_dc324bf557_n.jpg",
    "id_album": "869545341",
    "description": "Astronaut_884352",
    "title": "Astronaut_884352",
    "link_img": "https://live.staticflickr.com/65535/50039375571_247f626198_o.jpg",
    "id_image": "Astronaut_884352",
    "count_view": 0
  },
  {
    "link_thumb": "https://live.staticflickr.com/65535/50039908518_83af7ff6da_n.jpg",
    "id_album": "1613540653",
    "description": "Space_110332",
    "title": "Space_110332",
    "link_img": "https://live.staticflickr.com/65535/50039908518_45e9e28a8a_o.jpg",
    "id_image": "Space_110332",
    "count_view": 0
  },
  {
    "link_thumb": "https://live.staticflickr.com/65535/50040433231_5bc9d860b0_n.jpg",
    "id_album": "779690680",
    "description": "Robot_936228",
    "title": "Robot_936228",
    "link_img": "https://live.staticflickr.com/65535/50040433231_d2b0590345_o.jpg",
    "id_image": "Robot_936228",
    "count_view": 0
  },
  {
    "link_thumb": "https://live.staticflickr.com/65535/50039532296_7a9f90bbb0_n.jpg",
    "id_album": "-1964113117",
    "description": "City_983864",
    "title": "City_983864",
    "link_img": "https://live.staticflickr.com/65535/50039532296_54fe6d37e1_o.jpg",
    "id_image": "City_983864",
    "count_view": 0
  },
  {
    "link_thumb": "https://live.staticflickr.com/65535/50038902518_74790f21f5_n.jpg",
    "id_album": "-1964113117",
    "description": "City_234063",
    "title": "City_234063",
    "link_img": "https://live.staticflickr.com/65535/50038902518_1001058761_o.jpg",
    "id_image": "City_234063",
    "count_view": 0
  },
  {
    "link_thumb": "https://live.staticflickr.com/65535/50039789986_539f6e0629_n.jpg",
    "id_album": "-1610342324",
    "description": "Nebula_393940",
    "title": "Nebula_393940",
    "link_img": "https://live.staticflickr.com/65535/50039789986_4301ffbcce_o.jpg",
    "id_image": "Nebula_393940",
    "count_view": 0
  },
  {
    "link_thumb": "https://live.staticflickr.com/65535/50038987518_2a665c4755_n.jpg",
    "id_album": "894679094",
    "description": "Collision_13253",
    "title": "Collision_13253",
    "link_img": "https://live.staticflickr.com/65535/50038987518_3f981130ae_o.jpg",
    "id_image": "Collision_13253",
    "count_view": 0
  },
  {
    "link_thumb": "https://live.staticflickr.com/65535/50039487013_30b421a501_n.jpg",
    "id_album": "814701616",
    "description": "PlanetaryRing_533959",
    "title": "PlanetaryRing_533959",
    "link_img": "https://live.staticflickr.com/65535/50039487013_64b42a06fe_o.jpg",
    "id_image": "PlanetaryRing_533959",
    "count_view": 0
  },
  {
    "link_thumb": "https://live.staticflickr.com/65535/50039520803_a5a519d5d5_n.jpg",
    "id_album": "-1102314093",
    "description": "Planets_279986",
    "title": "Planets_279986",
    "link_img": "https://live.staticflickr.com/65535/50039520803_cac85b53ee_o.jpg",
    "id_image": "Planets_279986",
    "count_view": 0
  },
  {
    "link_thumb": "https://live.staticflickr.com/65535/50039816037_1d8f43812e_n.jpg",
    "id_album": "-437872736",
    "description": "Creature_373426",
    "title": "Creature_373426",
    "link_img": "https://live.staticflickr.com/65535/50039816037_9c38aff3a4_o.jpg",
    "id_image": "Creature_373426",
    "count_view": 0
  },
  {
    "link_thumb": "https://live.staticflickr.com/65535/50041035703_fa80d66784_n.jpg",
    "id_album": "-1675918237",
    "description": "WomenWarrior_882597",
    "title": "WomenWarrior_882597",
    "link_img": "https://live.staticflickr.com/65535/50041035703_5d286c510d_o.jpg",
    "id_image": "WomenWarrior_882597",
    "count_view": 0
  },
  {
    "link_thumb": "https://live.staticflickr.com/65535/50040461132_758b5eeaaf_n.jpg",
    "id_album": "-482547208",
    "description": "PostApocalyptic_217638",
    "title": "PostApocalyptic_217638",
    "link_img": "https://live.staticflickr.com/65535/50040461132_2a7a7a7450_o.jpg",
    "id_image": "PostApocalyptic_217638",
    "count_view": 0
  },
  {
    "link_thumb": "https://live.staticflickr.com/65535/50039789022_985ec29e20_n.jpg",
    "id_album": "-1964113117",
    "description": "City_956725",
    "title": "City_956725",
    "link_img": "https://live.staticflickr.com/65535/50039789022_dd6a5919e4_o.jpg",
    "id_image": "City_956725",
    "count_view": 0
  },
  {
    "link_thumb": "https://live.staticflickr.com/65535/50040201657_346430a541_n.jpg",
    "id_album": "395161030",
    "description": "Planet_363682",
    "title": "Planet_363682",
    "link_img": "https://live.staticflickr.com/65535/50040201657_b2ccbe537b_o.jpg",
    "id_image": "Planet_363682",
    "count_view": 0
  },
  {
    "link_thumb": "https://live.staticflickr.com/65535/50039823257_de18b22c2f_n.jpg",
    "id_album": "-1372247677",
    "description": "Cyberpunk_712781",
    "title": "Cyberpunk_712781",
    "link_img": "https://live.staticflickr.com/65535/50039823257_7505ee927a_o.jpg",
    "id_image": "Cyberpunk_712781",
    "count_view": 0
  },
  {
    "link_thumb": "https://live.staticflickr.com/65535/50040350256_074030d6b9_n.jpg",
    "id_album": "779690680",
    "description": "Robot_649069",
    "title": "Robot_649069",
    "link_img": "https://live.staticflickr.com/65535/50040350256_b45a17d75d_o.jpg",
    "id_image": "Robot_649069",
    "count_view": 0
  },
  {
    "link_thumb": "https://live.staticflickr.com/65535/50041420051_3649753a66_n.jpg",
    "id_album": "2020068132",
    "description": "Vehicle_927370",
    "title": "Vehicle_927370",
    "link_img": "https://live.staticflickr.com/65535/50041420051_77eb4a50dd_o.jpg",
    "id_image": "Vehicle_927370",
    "count_view": 0
  },
  {
    "link_thumb": "https://live.staticflickr.com/65535/50039806627_06c8cc8050_n.jpg",
    "id_album": "894679094",
    "description": "Collision_934138",
    "title": "Collision_934138",
    "link_img": "https://live.staticflickr.com/65535/50039806627_61213fd6f1_o.jpg",
    "id_image": "Collision_934138",
    "count_view": 0
  },
  {
    "link_thumb": "https://live.staticflickr.com/65535/50039605713_3555504d21_n.jpg",
    "id_album": "376235057",
    "description": "Planetscape_286969",
    "title": "Planetscape_286969",
    "link_img": "https://live.staticflickr.com/65535/50039605713_32ee492fa5_o.jpg",
    "id_image": "Planetscape_286969",
    "count_view": 0
  },
  {
    "link_thumb": "https://live.staticflickr.com/65535/50039113208_9c3fa00833_n.jpg",
    "id_album": "1402713104",
    "description": "Landscape_172001",
    "title": "Landscape_172001",
    "link_img": "https://live.staticflickr.com/65535/50039113208_e728b50cfb_o.jpg",
    "id_image": "Landscape_172001",
    "count_view": 0
  },
  {
    "link_thumb": "https://live.staticflickr.com/65535/50040064552_44ecf40d85_n.jpg",
    "id_album": "-1610342324",
    "description": "Nebula_500766",
    "title": "Nebula_500766",
    "link_img": "https://live.staticflickr.com/65535/50040064552_c1f1c28989_o.jpg",
    "id_image": "Nebula_500766",
    "count_view": 0
  },
  {
    "link_thumb": "https://live.staticflickr.com/65535/50039182418_6784a2a8e4_n.jpg",
    "id_album": "-1388385651",
    "description": "MilkyWay_482715",
    "title": "MilkyWay_482715",
    "link_img": "https://live.staticflickr.com/65535/50039182418_43b6a3103f_o.jpg",
    "id_image": "MilkyWay_482715",
    "count_view": 0
  },
  {
    "link_thumb": "https://live.staticflickr.com/65535/50041269941_85be96446f_n.jpg",
    "id_album": "-1587696329",
    "description": "Stars_458515",
    "title": "Stars_458515",
    "link_img": "https://live.staticflickr.com/65535/50041269941_2f98341c9d_o.jpg",
    "id_image": "Stars_458515",
    "count_view": 0
  },
  {
    "link_thumb": "https://live.staticflickr.com/65535/50040550401_a256e568cc_n.jpg",
    "id_album": "1613540653",
    "description": "Space_910213",
    "title": "Space_910213",
    "link_img": "https://live.staticflickr.com/65535/50040550401_a5e1c3613a_o.jpg",
    "id_image": "Space_910213",
    "count_view": 0
  },
  {
    "link_thumb": "https://live.staticflickr.com/65535/50040905618_f7d94c13fb_n.jpg",
    "id_album": "-1261420436",
    "description": "Warrior_412737",
    "title": "Warrior_412737",
    "link_img": "https://live.staticflickr.com/65535/50040905618_9d26b37d3e_o.jpg",
    "id_image": "Warrior_412737",
    "count_view": 0
  },
  {
    "link_thumb": "https://live.staticflickr.com/65535/50039283586_23092eff4e_n.jpg",
    "id_album": "-419633230",
    "description": "Apocalyptic_340438",
    "title": "Apocalyptic_340438",
    "link_img": "https://live.staticflickr.com/65535/50039283586_9f31e4ee3e_o.jpg",
    "id_image": "Apocalyptic_340438",
    "count_view": 0
  },
  {
    "link_thumb": "https://live.staticflickr.com/65535/50040442831_57368eaf1f_n.jpg",
    "id_album": "779690680",
    "description": "Robot_949798",
    "title": "Robot_949798",
    "link_img": "https://live.staticflickr.com/65535/50040442831_1ce6a73244_o.jpg",
    "id_image": "Robot_949798",
    "count_view": 0
  },
  {
    "link_thumb": "https://live.staticflickr.com/65535/50039635746_eafc1c1558_n.jpg",
    "id_album": "1204249541",
    "description": "Galaxy_441064",
    "title": "Galaxy_441064",
    "link_img": "https://live.staticflickr.com/65535/50039635746_c28c226a6a_o.jpg",
    "id_image": "Galaxy_441064",
    "count_view": 0
  },
  {
    "link_thumb": "https://live.staticflickr.com/65535/50040290611_16bcd724d2_n.jpg",
    "id_album": "779690680",
    "description": "Robot_328255",
    "title": "Robot_328255",
    "link_img": "https://live.staticflickr.com/65535/50040290611_45e3fc58a2_o.jpg",
    "id_image": "Robot_328255",
    "count_view": 0
  },
  {
    "link_thumb": "https://live.staticflickr.com/65535/50039848777_92e937cfd5_n.jpg",
    "id_album": "829169633",
    "description": "Cyborg_310019",
    "title": "Cyborg_310019",
    "link_img": "https://live.staticflickr.com/65535/50039848777_49ef274bd7_o.jpg",
    "id_image": "Cyborg_310019",
    "count_view": 0
  },
  {
    "link_thumb": "https://live.staticflickr.com/65535/50040704528_87ef3956c6_n.jpg",
    "id_album": "-1587696329",
    "description": "Stars_179585",
    "title": "Stars_179585",
    "link_img": "https://live.staticflickr.com/65535/50040704528_3b8eb5147a_o.jpg",
    "id_image": "Stars_179585",
    "count_view": 0
  },
  {
    "link_thumb": "https://live.staticflickr.com/65535/50041368422_607bc09ee5_n.jpg",
    "id_album": "779690680",
    "description": "Robot_994832",
    "title": "Robot_994832",
    "link_img": "https://live.staticflickr.com/65535/50041368422_8990297b5f_o.jpg",
    "id_image": "Robot_994832",
    "count_view": 0
  },
  {
    "link_thumb": "https://live.staticflickr.com/65535/50040960723_0b72e6a1dc_n.jpg",
    "id_album": "-1126835654",
    "description": "Women_266750",
    "title": "Women_266750",
    "link_img": "https://live.staticflickr.com/65535/50040960723_9275aa6170_o.jpg",
    "id_image": "Women_266750",
    "count_view": 0
  },
  {
    "link_thumb": "https://live.staticflickr.com/65535/50038991223_4a56f57b51_n.jpg",
    "id_album": "894679094",
    "description": "Collision_331411",
    "title": "Collision_331411",
    "link_img": "https://live.staticflickr.com/65535/50038991223_7be9854142_o.jpg",
    "id_image": "Collision_331411",
    "count_view": 0
  },
  {
    "link_thumb": "https://live.staticflickr.com/65535/50041248896_17916a875b_n.jpg",
    "id_album": "-1863373220",
    "description": "StarWars_980527",
    "title": "StarWars_980527",
    "link_img": "https://live.staticflickr.com/65535/50041248896_c05969512f_o.jpg",
    "id_image": "StarWars_980527",
    "count_view": 0
  },
  {
    "link_thumb": "https://live.staticflickr.com/65535/50039112148_80cb5b0719_n.jpg",
    "id_album": "1402713104",
    "description": "Landscape_152636",
    "title": "Landscape_152636",
    "link_img": "https://live.staticflickr.com/65535/50039112148_a4d04ba7a8_o.jpg",
    "id_image": "Landscape_152636",
    "count_view": 0
  },
  {
    "link_thumb": "https://live.staticflickr.com/65535/50038746058_9c6b474123_n.jpg",
    "id_album": "523598895",
    "description": "Artistic_115150",
    "title": "Artistic_115150",
    "link_img": "https://live.staticflickr.com/65535/50038746058_3209216a41_o.jpg",
    "id_image": "Artistic_115150",
    "count_view": 0
  },
  {
    "link_thumb": "https://live.staticflickr.com/65535/50040325762_3801f352c0_n.jpg",
    "id_album": "-1102314093",
    "description": "Planets_232246",
    "title": "Planets_232246",
    "link_img": "https://live.staticflickr.com/65535/50040325762_0549766cf6_o.jpg",
    "id_image": "Planets_232246",
    "count_view": 0
  },
  {
    "link_thumb": "https://live.staticflickr.com/65535/50039490492_9ca622def0_n.jpg",
    "id_album": "280884763",
    "description": "Abstract_229060",
    "title": "Abstract_229060",
    "link_img": "https://live.staticflickr.com/65535/50039490492_dc71ae5c00_o.jpg",
    "id_image": "Abstract_229060",
    "count_view": 0
  },
  {
    "link_thumb": "https://live.staticflickr.com/65535/50039893642_34837cf893_n.jpg",
    "id_album": "1204249541",
    "description": "Galaxy_324635",
    "title": "Galaxy_324635",
    "link_img": "https://live.staticflickr.com/65535/50039893642_0d48fa95d8_o.jpg",
    "id_image": "Galaxy_324635",
    "count_view": 0
  },
  {
    "link_thumb": "https://live.staticflickr.com/65535/50041273386_0eb82f4cd4_n.jpg",
    "id_album": "-1587696329",
    "description": "Stars_528241",
    "title": "Stars_528241",
    "link_img": "https://live.staticflickr.com/65535/50041273386_9118a7c6fe_o.jpg",
    "id_image": "Stars_528241",
    "count_view": 0
  },
  {
    "link_thumb": "https://live.staticflickr.com/65535/50039879588_d370901dae_n.jpg",
    "id_album": "779690680",
    "description": "Robot_937812",
    "title": "Robot_937812",
    "link_img": "https://live.staticflickr.com/65535/50039879588_5b17ba7e15_o.jpg",
    "id_image": "Robot_937812",
    "count_view": 0
  },
  {
    "link_thumb": "https://live.staticflickr.com/65535/50041577356_d0a2a63b26_n.jpg",
    "id_album": "-1675918237",
    "description": "WomenWarrior_509477",
    "title": "WomenWarrior_509477",
    "link_img": "https://live.staticflickr.com/65535/50041577356_36a5a5af3a_o.jpg",
    "id_image": "WomenWarrior_509477",
    "count_view": 0
  },
  {
    "link_thumb": "https://live.staticflickr.com/65535/50039551007_400da181ac_n.jpg",
    "id_album": "-419633230",
    "description": "Apocalyptic_957443",
    "title": "Apocalyptic_957443",
    "link_img": "https://live.staticflickr.com/65535/50039551007_3d5f11a74a_o.jpg",
    "id_image": "Apocalyptic_957443",
    "count_view": 0
  },
  {
    "link_thumb": "https://live.staticflickr.com/65535/50041153906_9006c0eaf3_n.jpg",
    "id_album": "-1863373220",
    "description": "StarWars_246181",
    "title": "StarWars_246181",
    "link_img": "https://live.staticflickr.com/65535/50041153906_ab6b9a5dbb_o.jpg",
    "id_image": "StarWars_246181",
    "count_view": 0
  },
  {
    "link_thumb": "https://live.staticflickr.com/65535/50039098633_5606f04523_n.jpg",
    "id_album": "1204249541",
    "description": "Galaxy_606741",
    "title": "Galaxy_606741",
    "link_img": "https://live.staticflickr.com/65535/50039098633_3266e95d70_o.jpg",
    "id_image": "Galaxy_606741",
    "count_view": 0
  },
  {
    "link_thumb": "https://live.staticflickr.com/65535/50039853527_ae9a1f888f_n.jpg",
    "id_album": "829169633",
    "description": "Cyborg_488054",
    "title": "Cyborg_488054",
    "link_img": "https://live.staticflickr.com/65535/50039853527_b2c571966e_o.jpg",
    "id_image": "Cyborg_488054",
    "count_view": 0
  },
  {
    "link_thumb": "https://live.staticflickr.com/65535/50039753392_cfa22c99d5_n.jpg",
    "id_album": "-1964113117",
    "description": "City_711140",
    "title": "City_711140",
    "link_img": "https://live.staticflickr.com/65535/50039753392_ac64f0a9dd_o.jpg",
    "id_image": "City_711140",
    "count_view": 0
  },
  {
    "link_thumb": "https://live.staticflickr.com/65535/50039424466_99f845e182_n.jpg",
    "id_album": "406431601",
    "description": "Building_867735",
    "title": "Building_867735",
    "link_img": "https://live.staticflickr.com/65535/50039424466_902f774290_o.jpg",
    "id_image": "Building_867735",
    "count_view": 0
  },
  {
    "link_thumb": "https://live.staticflickr.com/65535/50039652166_3a416defcf_n.jpg",
    "id_album": "1204249541",
    "description": "Galaxy_738626",
    "title": "Galaxy_738626",
    "link_img": "https://live.staticflickr.com/65535/50039652166_59cdcb0607_o.jpg",
    "id_image": "Galaxy_738626",
    "count_view": 0
  },
  {
    "link_thumb": "https://live.staticflickr.com/65535/50039869468_714a4c991d_n.jpg",
    "id_album": "779690680",
    "description": "Robot_928581",
    "title": "Robot_928581",
    "link_img": "https://live.staticflickr.com/65535/50039869468_351aaf21a9_o.jpg",
    "id_image": "Robot_928581",
    "count_view": 0
  },
  {
    "link_thumb": "https://live.staticflickr.com/65535/50041163786_66e1580bd1_n.jpg",
    "id_album": "-1863373220",
    "description": "StarWars_313672",
    "title": "StarWars_313672",
    "link_img": "https://live.staticflickr.com/65535/50041163786_b0b74a6614_o.jpg",
    "id_image": "StarWars_313672",
    "count_view": 0
  },
  {
    "link_thumb": "https://live.staticflickr.com/65535/50040243432_e16fd171ff_n.jpg",
    "id_album": "395161030",
    "description": "Planet_860675",
    "title": "Planet_860675",
    "link_img": "https://live.staticflickr.com/65535/50040243432_d0414c45df_o.jpg",
    "id_image": "Planet_860675",
    "count_view": 0
  },
  {
    "link_thumb": "https://live.staticflickr.com/65535/50040063481_a79749ee49_n.jpg",
    "id_album": "-1102314093",
    "description": "Planets_234863",
    "title": "Planets_234863",
    "link_img": "https://live.staticflickr.com/65535/50040063481_a384937cef_o.jpg",
    "id_image": "Planets_234863",
    "count_view": 0
  },
  {
    "link_thumb": "https://live.staticflickr.com/65535/50039010773_f5450cb403_n.jpg",
    "id_album": "-437872736",
    "description": "Creature_881685",
    "title": "Creature_881685",
    "link_img": "https://live.staticflickr.com/65535/50039010773_0d120dcbd3_o.jpg",
    "id_image": "Creature_881685",
    "count_view": 0
  },
  {
    "link_thumb": "https://live.staticflickr.com/65535/50039252231_528ba0524b_n.jpg",
    "id_album": "849020728",
    "description": "Alien_197560",
    "title": "Alien_197560",
    "link_img": "https://live.staticflickr.com/65535/50039252231_2dcdacacd6_o.jpg",
    "id_image": "Alien_197560",
    "count_view": 0
  },
  {
    "link_thumb": "https://live.staticflickr.com/65535/50039619103_7a955c31b4_n.jpg",
    "id_album": "376235057",
    "description": "Planetscape_382443",
    "title": "Planetscape_382443",
    "link_img": "https://live.staticflickr.com/65535/50039619103_038a6b3a31_o.jpg",
    "id_image": "Planetscape_382443",
    "count_view": 0
  },
  {
    "link_thumb": "https://live.staticflickr.com/65535/50039809217_d9a69a488b_n.jpg",
    "id_album": "-437872736",
    "description": "Creature_240104",
    "title": "Creature_240104",
    "link_img": "https://live.staticflickr.com/65535/50039809217_dd198565ed_o.jpg",
    "id_image": "Creature_240104",
    "count_view": 0
  },
  {
    "link_thumb": "https://live.staticflickr.com/65535/50039352843_52494b4a59_n.jpg",
    "id_album": "395161030",
    "description": "Planet_1010650",
    "title": "Planet_1010650",
    "link_img": "https://live.staticflickr.com/65535/50039352843_fa78a6de02_o.jpg",
    "id_image": "Planet_1010650",
    "count_view": 0
  },
  {
    "link_thumb": "https://live.staticflickr.com/65535/50039790117_1720ee81b3_n.jpg",
    "id_album": "-1964113117",
    "description": "City_962040",
    "title": "City_962040",
    "link_img": "https://live.staticflickr.com/65535/50039790117_b7efa71103_o.jpg",
    "id_image": "City_962040",
    "count_view": 0
  },
  {
    "link_thumb": "https://live.staticflickr.com/65535/50040061682_57eeed42ef_n.jpg",
    "id_album": "-1610342324",
    "description": "Nebula_441069",
    "title": "Nebula_441069",
    "link_img": "https://live.staticflickr.com/65535/50040061682_f61573f9c9_o.jpg",
    "id_image": "Nebula_441069",
    "count_view": 0
  },
  {
    "link_thumb": "https://live.staticflickr.com/65535/50040562717_13a48edb0f_n.jpg",
    "id_album": "779690680",
    "description": "Robot_379829",
    "title": "Robot_379829",
    "link_img": "https://live.staticflickr.com/65535/50040562717_ef2b2db8d1_o.jpg",
    "id_image": "Robot_379829",
    "count_view": 0
  },
  {
    "link_thumb": "https://live.staticflickr.com/65535/50041585721_bee46edfde_n.jpg",
    "id_album": "-1675918237",
    "description": "WomenWarrior_629985",
    "title": "WomenWarrior_629985",
    "link_img": "https://live.staticflickr.com/65535/50041585721_425c449f0b_o.jpg",
    "id_image": "WomenWarrior_629985",
    "count_view": 0
  },
  {
    "link_thumb": "https://live.staticflickr.com/65535/50040742373_33519262c6_n.jpg",
    "id_album": "1267121215",
    "description": "Steampunk_190420",
    "title": "Steampunk_190420",
    "link_img": "https://live.staticflickr.com/65535/50040742373_bf849cc205_o.jpg",
    "id_image": "Steampunk_190420",
    "count_view": 0
  },
  {
    "link_thumb": "https://live.staticflickr.com/65535/50039989128_57442d4d20_n.jpg",
    "id_album": "1613540653",
    "description": "Space_822471",
    "title": "Space_822471",
    "link_img": "https://live.staticflickr.com/65535/50039989128_5b33a5b0be_o.jpg",
    "id_image": "Space_822471",
    "count_view": 0
  },
  {
    "link_thumb": "https://live.staticflickr.com/65535/50040528351_0307e85bf1_n.jpg",
    "id_album": "1613540653",
    "description": "Space_694447",
    "title": "Space_694447",
    "link_img": "https://live.staticflickr.com/65535/50040528351_8266d2c22c_o.jpg",
    "id_image": "Space_694447",
    "count_view": 0
  },
  {
    "link_thumb": "https://live.staticflickr.com/65535/50038769383_1c6692d5ac_n.jpg",
    "id_album": "523598895",
    "description": "Artistic_221528",
    "title": "Artistic_221528",
    "link_img": "https://live.staticflickr.com/65535/50038769383_924873195a_o.jpg",
    "id_image": "Artistic_221528",
    "count_view": 0
  },
  {
    "link_thumb": "https://live.staticflickr.com/65535/50040039557_f2246bfa81_n.jpg",
    "id_album": "-1610342324",
    "description": "Nebula_249135",
    "title": "Nebula_249135",
    "link_img": "https://live.staticflickr.com/65535/50040039557_a292e7109e_o.jpg",
    "id_image": "Nebula_249135",
    "count_view": 0
  },
  {
    "link_thumb": "https://live.staticflickr.com/65535/50038940953_5f28c3c1e4_n.jpg",
    "id_album": "-1964113117",
    "description": "City_697301",
    "title": "City_697301",
    "link_img": "https://live.staticflickr.com/65535/50038940953_f3aa29361f_o.jpg",
    "id_image": "City_697301",
    "count_view": 0
  },
  {
    "link_thumb": "https://live.staticflickr.com/65535/50039428126_dca4d8d37e_n.jpg",
    "id_album": "406431601",
    "description": "Building_955748",
    "title": "Building_955748",
    "link_img": "https://live.staticflickr.com/65535/50039428126_37fc53c439_o.jpg",
    "id_image": "Building_955748",
    "count_view": 0
  },
  {
    "link_thumb": "https://live.staticflickr.com/65535/50040556351_14a6b22076_n.jpg",
    "id_album": "-1532370292",
    "description": "SpaceStation_1007078",
    "title": "SpaceStation_1007078",
    "link_img": "https://live.staticflickr.com/65535/50040556351_241aec1500_o.jpg",
    "id_image": "SpaceStation_1007078",
    "count_view": 0
  },
  {
    "link_thumb": "https://live.staticflickr.com/65535/50038744878_2bd7fe8e1b_n.jpg",
    "id_album": "523598895",
    "description": "Artistic_106343",
    "title": "Artistic_106343",
    "link_img": "https://live.staticflickr.com/65535/50038744878_1fffff8fd7_o.jpg",
    "id_image": "Artistic_106343",
    "count_view": 0
  },
  {
    "link_thumb": "https://live.staticflickr.com/65535/50039266463_e1bd6e2755_n.jpg",
    "id_album": "-1610342324",
    "description": "Nebula_594626",
    "title": "Nebula_594626",
    "link_img": "https://live.staticflickr.com/65535/50039266463_8cc435596e_o.jpg",
    "id_image": "Nebula_594626",
    "count_view": 0
  },
  {
    "link_thumb": "https://live.staticflickr.com/65535/50040040542_1941e0d5b4_n.jpg",
    "id_album": "-1610342324",
    "description": "Nebula_252923",
    "title": "Nebula_252923",
    "link_img": "https://live.staticflickr.com/65535/50040040542_c29cf00e15_o.jpg",
    "id_image": "Nebula_252923",
    "count_view": 0
  },
  {
    "link_thumb": "https://live.staticflickr.com/65535/50039733126_9a03c2ea99_n.jpg",
    "id_album": "-1388385651",
    "description": "MilkyWay_555673",
    "title": "MilkyWay_555673",
    "link_img": "https://live.staticflickr.com/65535/50039733126_f60241675a_o.jpg",
    "id_image": "MilkyWay_555673",
    "count_view": 0
  },
  {
    "link_thumb": "https://live.staticflickr.com/65535/50040852462_9216c8208b_n.jpg",
    "id_album": "2130067313",
    "description": "Spaceship_179006",
    "title": "Spaceship_179006",
    "link_img": "https://live.staticflickr.com/65535/50040852462_d1b810da87_o.jpg",
    "id_image": "Spaceship_179006",
    "count_view": 0
  },
  {
    "link_thumb": "https://live.staticflickr.com/65535/50039774087_6f2d66117d_n.jpg",
    "id_album": "-1964113117",
    "description": "City_883152",
    "title": "City_883152",
    "link_img": "https://live.staticflickr.com/65535/50039774087_7c905d4156_o.jpg",
    "id_image": "City_883152",
    "count_view": 0
  },
  {
    "link_thumb": "https://live.staticflickr.com/65535/50040743628_fefefee7d3_n.jpg",
    "id_album": "1267121215",
    "description": "Steampunk_199575",
    "title": "Steampunk_199575",
    "link_img": "https://live.staticflickr.com/65535/50040743628_3fb4bcb757_o.jpg",
    "id_image": "Steampunk_199575",
    "count_view": 0
  },
  {
    "link_thumb": "https://live.staticflickr.com/65535/50039943083_fc14ee64b9_n.jpg",
    "id_album": "1613540653",
    "description": "Space_347115",
    "title": "Space_347115",
    "link_img": "https://live.staticflickr.com/65535/50039943083_3d9a20ac48_o.jpg",
    "id_image": "Space_347115",
    "count_view": 0
  },
  {
    "link_thumb": "https://live.staticflickr.com/65535/50038793033_d390b04faa_n.jpg",
    "id_album": "523598895",
    "description": "Artistic_656921",
    "title": "Artistic_656921",
    "link_img": "https://live.staticflickr.com/65535/50038793033_98129bceec_o.jpg",
    "id_image": "Artistic_656921",
    "count_view": 0
  },
  {
    "link_thumb": "https://live.staticflickr.com/65535/50039781262_ab243fa03b_n.jpg",
    "id_album": "-1964113117",
    "description": "City_910936",
    "title": "City_910936",
    "link_img": "https://live.staticflickr.com/65535/50039781262_2d62bda94d_o.jpg",
    "id_image": "City_910936",
    "count_view": 0
  },
  {
    "link_thumb": "https://live.staticflickr.com/65535/50038862473_af7469c83a_n.jpg",
    "id_album": "-1780971522",
    "description": "Biohazard_1099",
    "title": "Biohazard_1099",
    "link_img": "https://live.staticflickr.com/65535/50038862473_2f8cdc35af_o.jpg",
    "id_image": "Biohazard_1099",
    "count_view": 0
  },
  {
    "link_thumb": "https://live.staticflickr.com/65535/50039159053_b339d649f2_n.jpg",
    "id_album": "1402713104",
    "description": "Landscape_80660",
    "title": "Landscape_80660",
    "link_img": "https://live.staticflickr.com/65535/50039159053_3302981f3f_o.jpg",
    "id_image": "Landscape_80660",
    "count_view": 0
  },
  {
    "link_thumb": "https://live.staticflickr.com/65535/50041551082_8929b0d3e0_n.jpg",
    "id_album": "1267121215",
    "description": "Steampunk_145200",
    "title": "Steampunk_145200",
    "link_img": "https://live.staticflickr.com/65535/50041551082_d139e56977_o.jpg",
    "id_image": "Steampunk_145200",
    "count_view": 0
  },
  {
    "link_thumb": "https://live.staticflickr.com/65535/50039683812_7bc7f86f91_n.jpg",
    "id_album": "406431601",
    "description": "Building_298622",
    "title": "Building_298622",
    "link_img": "https://live.staticflickr.com/65535/50039683812_765f758cbf_o.jpg",
    "id_image": "Building_298622",
    "count_view": 0
  },
  {
    "link_thumb": "https://live.staticflickr.com/65535/50039092848_f99cb4982e_n.jpg",
    "id_album": "1204249541",
    "description": "Galaxy_549912",
    "title": "Galaxy_549912",
    "link_img": "https://live.staticflickr.com/65535/50039092848_15749f4339_o.jpg",
    "id_image": "Galaxy_549912",
    "count_view": 0
  },
  {
    "link_thumb": "https://live.staticflickr.com/65535/50039075903_8af718ea2c_n.jpg",
    "id_album": "1204249541",
    "description": "Galaxy_169667",
    "title": "Galaxy_169667",
    "link_img": "https://live.staticflickr.com/65535/50039075903_bd09acb6a8_o.jpg",
    "id_image": "Galaxy_169667",
    "count_view": 0
  },
  {
    "link_thumb": "https://live.staticflickr.com/65535/50040388982_0e91d75b11_n.jpg",
    "id_album": "-1102314093",
    "description": "Planets_546966",
    "title": "Planets_546966",
    "link_img": "https://live.staticflickr.com/65535/50040388982_1d64cc3377_o.jpg",
    "id_image": "Planets_546966",
    "count_view": 0
  },
  {
    "link_thumb": "https://live.staticflickr.com/65535/50039285238_a2b5615b45_n.jpg",
    "id_album": "-1610342324",
    "description": "Nebula_772694",
    "title": "Nebula_772694",
    "link_img": "https://live.staticflickr.com/65535/50039285238_0d8c071f4a_o.jpg",
    "id_image": "Nebula_772694",
    "count_view": 0
  },
  {
    "link_thumb": "https://live.staticflickr.com/65535/50039689447_05e58c3ced_n.jpg",
    "id_album": "406431601",
    "description": "Building_918215",
    "title": "Building_918215",
    "link_img": "https://live.staticflickr.com/65535/50039689447_bd608cdf1b_o.jpg",
    "id_image": "Building_918215",
    "count_view": 0
  },
  {
    "link_thumb": "https://live.staticflickr.com/65535/50039809611_843324bb07_n.jpg",
    "id_album": "-1610342324",
    "description": "Nebula_555941",
    "title": "Nebula_555941",
    "link_img": "https://live.staticflickr.com/65535/50039809611_a391ed91d2_o.jpg",
    "id_image": "Nebula_555941",
    "count_view": 0
  },
  {
    "link_thumb": "https://live.staticflickr.com/65535/50039372793_78dd178761_n.jpg",
    "id_album": "395161030",
    "description": "Planet_282797",
    "title": "Planet_282797",
    "link_img": "https://live.staticflickr.com/65535/50039372793_1f8fd63ab4_o.jpg",
    "id_image": "Planet_282797",
    "count_view": 0
  },
  {
    "link_thumb": "https://live.staticflickr.com/65535/50038786063_0d6727158c_n.jpg",
    "id_album": "523598895",
    "description": "Artistic_401760",
    "title": "Artistic_401760",
    "link_img": "https://live.staticflickr.com/65535/50038786063_905765e937_o.jpg",
    "id_image": "Artistic_401760",
    "count_view": 0
  },
  {
    "link_thumb": "https://live.staticflickr.com/65535/50040158467_7932484ac2_n.jpg",
    "id_album": "1896531081",
    "description": "People_305750",
    "title": "People_305750",
    "link_img": "https://live.staticflickr.com/65535/50040158467_6033d55eae_o.jpg",
    "id_image": "People_305750",
    "count_view": 0
  },
  {
    "link_thumb": "https://live.staticflickr.com/65535/50039395206_2948d9cc40_n.jpg",
    "id_album": "1187037014",
    "description": "Battle_173806",
    "title": "Battle_173806",
    "link_img": "https://live.staticflickr.com/65535/50039395206_f65349ac5a_o.jpg",
    "id_image": "Battle_173806",
    "count_view": 0
  },
  {
    "link_thumb": "https://live.staticflickr.com/65535/50040699522_ba23f77d12_n.jpg",
    "id_album": "779690680",
    "description": "Robot_940955",
    "title": "Robot_940955",
    "link_img": "https://live.staticflickr.com/65535/50040699522_1c5f8fda55_o.jpg",
    "id_image": "Robot_940955",
    "count_view": 0
  }
]