[
  {
    "link_thumb": "https://live.staticflickr.com/65535/50039533847_50b512d823_n.jpg",
    "id_album": "849020728",
    "description": "Alien_601517",
    "title": "Alien_601517",
    "link_img": "https://live.staticflickr.com/65535/50039533847_5773e9b983_o.jpg",
    "id_image": "Alien_601517",
    "count_view": 0
  },
  {
    "link_thumb": "https://live.staticflickr.com/65535/50039799116_4be67d2167_n.jpg",
    "id_album": "-1610342324",
    "description": "Nebula_459202",
    "title": "Nebula_459202",
    "link_img": "https://live.staticflickr.com/65535/50039799116_e2d71a15eb_o.jpg",
    "id_image": "Nebula_459202",
    "count_view": 0
  },
  {
    "link_thumb": "https://live.staticflickr.com/65535/50039540402_94e11433f0_n.jpg",
    "id_album": "849020728",
    "description": "Alien_988499",
    "title": "Alien_988499",
    "link_img": "https://live.staticflickr.com/65535/50039540402_48ec219847_o.jpg",
    "id_image": "Alien_988499",
    "count_view": 0
  },
  {
    "link_thumb": "https://live.staticflickr.com/65535/50040019892_c2ef3ddbaf_n.jpg",
    "id_album": "416351698",
    "description": "Moon_422190",
    "title": "Moon_422190",
    "link_img": "https://live.staticflickr.com/65535/50040019892_da7cfe3333_o.jpg",
    "id_image": "Moon_422190",
    "count_view": 0
  },
  {
    "link_thumb": "https://live.staticflickr.com/65535/50040696983_9b9af3fb93_n.jpg",
    "id_album": "-1863373220",
    "description": "StarWars_981654",
    "title": "StarWars_981654",
    "link_img": "https://live.staticflickr.com/65535/50040696983_d0dd48e93b_o.jpg",
    "id_image": "StarWars_981654",
    "count_view": 0
  },
  {
    "link_thumb": "https://live.staticflickr.com/65535/50041200126_fdcbec67ea_n.jpg",
    "id_album": "-1863373220",
    "description": "StarWars_606867",
    "title": "StarWars_606867",
    "link_img": "https://live.staticflickr.com/65535/50041200126_baa65ac544_o.jpg",
    "id_image": "StarWars_606867",
    "count_view": 0
  },
  {
    "link_thumb": "https://live.staticflickr.com/65535/50039739407_c6aaa83ccf_n.jpg",
    "id_album": "-1964113117",
    "description": "City_546232",
    "title": "City_546232",
    "link_img": "https://live.staticflickr.com/65535/50039739407_fdd3fce766_o.jpg",
    "id_image": "City_546232",
    "count_view": 0
  },
  {
    "link_thumb": "https://live.staticflickr.com/65535/50040297296_fcee85bda0_n.jpg",
    "id_album": "779690680",
    "description": "Robot_372399",
    "title": "Robot_372399",
    "link_img": "https://live.staticflickr.com/65535/50040297296_7b642ddd1e_o.jpg",
    "id_image": "Robot_372399",
    "count_view": 0
  },
  {
    "link_thumb": "https://live.staticflickr.com/65535/50039356153_dfa450ee03_n.jpg",
    "id_album": "395161030",
    "description": "Planet_15036",
    "title": "Planet_15036",
    "link_img": "https://live.staticflickr.com/65535/50039356153_4373fe60de_o.jpg",
    "id_image": "Planet_15036",
    "count_view": 0
  },
  {
    "link_thumb": "https://live.staticflickr.com/65535/50041218681_8e7295e89e_n.jpg",
    "id_album": "-1863373220",
    "description": "StarWars_714561",
    "title": "StarWars_714561",
    "link_img": "https://live.staticflickr.com/65535/50041218681_2131b43da0_o.jpg",
    "id_image": "StarWars_714561",
    "count_view": 0
  },
  {
    "link_thumb": "https://live.staticflickr.com/65535/50039379811_7166e533ea_n.jpg",
    "id_album": "869545341",
    "description": "Astronaut_923967",
    "title": "Astronaut_923967",
    "link_img": "https://live.staticflickr.com/65535/50039379811_2f0739036a_o.jpg",
    "id_image": "Astronaut_923967",
    "count_view": 0
  },
  {
    "link_thumb": "https://live.staticflickr.com/65535/50039353208_d35a3f83fc_n.jpg",
    "id_album": "395161030",
    "description": "Planet_102670",
    "title": "Planet_102670",
    "link_img": "https://live.staticflickr.com/65535/50039353208_14c18580ab_o.jpg",
    "id_image": "Planet_102670",
    "count_view": 0
  },
  {
    "link_thumb": "https://live.staticflickr.com/65535/50039236171_05b3cb10f5_n.jpg",
    "id_album": "-406145265",
    "description": "Aircraft_269816",
    "title": "Aircraft_269816",
    "link_img": "https://live.staticflickr.com/65535/50039236171_0265b8cafc_o.jpg",
    "id_image": "Aircraft_269816",
    "count_view": 0
  },
  {
    "link_thumb": "https://live.staticflickr.com/65535/50039516991_0f5df00873_n.jpg",
    "id_album": "-1964113117",
    "description": "City_905169",
    "title": "City_905169",
    "link_img": "https://live.staticflickr.com/65535/50039516991_0b78d59abd_o.jpg",
    "id_image": "City_905169",
    "count_view": 0
  },
  {
    "link_thumb": "https://live.staticflickr.com/65535/50039428286_d69994a728_n.jpg",
    "id_album": "406431601",
    "description": "Building_956281",
    "title": "Building_956281",
    "link_img": "https://live.staticflickr.com/65535/50039428286_d255cd2f1a_o.jpg",
    "id_image": "Building_956281",
    "count_view": 0
  },
  {
    "link_thumb": "https://live.staticflickr.com/65535/50040642153_65ec884920_n.jpg",
    "id_album": "-1863373220",
    "description": "StarWars_584671",
    "title": "StarWars_584671",
    "link_img": "https://live.staticflickr.com/65535/50040642153_80f2d91cc8_o.jpg",
    "id_image": "StarWars_584671",
    "count_view": 0
  },
  {
    "link_thumb": "https://live.staticflickr.com/65535/50040496896_84fc42b6bd_n.jpg",
    "id_album": "1613540653",
    "description": "Space_336006",
    "title": "Space_336006",
    "link_img": "https://live.staticflickr.com/65535/50040496896_be76a0552a_o.jpg",
    "id_image": "Space_336006",
    "count_view": 0
  },
  {
    "link_thumb": "https://live.staticflickr.com/65535/50039604208_04a3ec8ff5_n.jpg",
    "id_album": "376235057",
    "description": "Planetscape_280012",
    "title": "Planetscape_280012",
    "link_img": "https://live.staticflickr.com/65535/50039604208_0d4789ca3e_o.jpg",
    "id_image": "Planetscape_280012",
    "count_view": 0
  },
  {
    "link_thumb": "https://live.staticflickr.com/65535/50038930958_0d396f7342_n.jpg",
    "id_album": "-1964113117",
    "description": "City_569779",
    "title": "City_569779",
    "link_img": "https://live.staticflickr.com/65535/50038930958_10de40a189_o.jpg",
    "id_image": "City_569779",
    "count_view": 0
  },
  {
    "link_thumb": "https://live.staticflickr.com/65535/50041788117_605ac920b8_n.jpg",
    "id_album": "-1126835654",
    "description": "Women_350154",
    "title": "Women_350154",
    "link_img": "https://live.staticflickr.com/65535/50041788117_617b52c05a_o.jpg",
    "id_image": "Women_350154",
    "count_view": 0
  },
  {
    "link_thumb": "https://live.staticflickr.com/65535/50040472522_bd75eccb72_n.jpg",
    "id_album": "-482547208",
    "description": "PostApocalyptic_349008",
    "title": "PostApocalyptic_349008",
    "link_img": "https://live.staticflickr.com/65535/50040472522_b3c71bfa9a_o.jpg",
    "id_image": "PostApocalyptic_349008",
    "count_view": 0
  },
  {
    "link_thumb": "https://live.staticflickr.com/65535/50039330381_9ba5c61937_n.jpg",
    "id_album": "523598895",
    "description": "Artistic_344215",
    "title": "Artistic_344215",
    "link_img": "https://live.staticflickr.com/65535/50039330381_e8f07f7382_o.jpg",
    "id_image": "Artistic_344215",
    "count_view": 0
  },
  {
    "link_thumb": "https://live.staticflickr.com/65535/50040464086_a3dbfe1644_n.jpg",
    "id_album": "1613540653",
    "description": "Space_113280",
    "title": "Space_113280",
    "link_img": "https://live.staticflickr.com/65535/50040464086_d3ede598d7_o.jpg",
    "id_image": "Space_113280",
    "count_view": 0
  },
  {
    "link_thumb": "https://live.staticflickr.com/65535/50039342901_59f3d55cfd_n.jpg",
    "id_album": "523598895",
    "description": "Artistic_712822",
    "title": "Artistic_712822",
    "link_img": "https://live.staticflickr.com/65535/50039342901_1b87507f30_o.jpg",
    "id_image": "Artistic_712822",
    "count_view": 0
  },
  {
    "link_thumb": "https://live.staticflickr.com/65535/50040510907_8104260768_n.jpg",
    "id_album": "-839602625",
    "description": "Predator_868745",
    "title": "Predator_868745",
    "link_img": "https://live.staticflickr.com/65535/50040510907_ae0d601297_o.jpg",
    "id_image": "Predator_868745",
    "count_view": 0
  },
  {
    "link_thumb": "https://live.staticflickr.com/65535/50040148671_7f6a74cd77_n.jpg",
    "id_album": "-1102314093",
    "description": "Planets_957396",
    "title": "Planets_957396",
    "link_img": "https://live.staticflickr.com/65535/50040148671_3feb3b2926_o.jpg",
    "id_image": "Planets_957396",
    "count_view": 0
  },
  {
    "link_thumb": "https://live.staticflickr.com/65535/50039624488_49b12f31ef_n.jpg",
    "id_album": "376235057",
    "description": "Planetscape_529573",
    "title": "Planetscape_529573",
    "link_img": "https://live.staticflickr.com/65535/50039624488_28c27b2856_o.jpg",
    "id_image": "Planetscape_529573",
    "count_view": 0
  },
  {
    "link_thumb": "https://live.staticflickr.com/65535/50041209601_b78121e156_n.jpg",
    "id_album": "-1863373220",
    "description": "StarWars_669719",
    "title": "StarWars_669719",
    "link_img": "https://live.staticflickr.com/65535/50041209601_c1c9acf99f_o.jpg",
    "id_image": "StarWars_669719",
    "count_view": 0
  },
  {
    "link_thumb": "https://live.staticflickr.com/65535/50040636288_a2b4c83ffa_n.jpg",
    "id_album": "-1863373220",
    "description": "StarWars_517138",
    "title": "StarWars_517138",
    "link_img": "https://live.staticflickr.com/65535/50040636288_10b35d50c4_o.jpg",
    "id_image": "StarWars_517138",
    "count_view": 0
  },
  {
    "link_thumb": "https://live.staticflickr.com/65535/50039519212_8f8e392cb4_n.jpg",
    "id_album": "849020728",
    "description": "Alien_268482",
    "title": "Alien_268482",
    "link_img": "https://live.staticflickr.com/65535/50039519212_d522dd27ca_o.jpg",
    "id_image": "Alien_268482",
    "count_view": 0
  },
  {
    "link_thumb": "https://live.staticflickr.com/65535/50039502432_bda6dfd791_n.jpg",
    "id_album": "-406145265",
    "description": "Aircraft_405087",
    "title": "Aircraft_405087",
    "link_img": "https://live.staticflickr.com/65535/50039502432_6131cef8fb_o.jpg",
    "id_image": "Aircraft_405087",
    "count_view": 0
  },
  {
    "link_thumb": "https://live.staticflickr.com/65535/50039190868_2355a81eb0_n.jpg",
    "id_album": "-1388385651",
    "description": "MilkyWay_687245",
    "title": "MilkyWay_687245",
    "link_img": "https://live.staticflickr.com/65535/50039190868_01fe78c341_o.jpg",
    "id_image": "MilkyWay_687245",
    "count_view": 0
  },
  {
    "link_thumb": "https://live.staticflickr.com/65535/50039982847_e61ddaaba2_n.jpg",
    "id_album": "1402713104",
    "description": "Landscape_888573",
    "title": "Landscape_888573",
    "link_img": "https://live.staticflickr.com/65535/50039982847_3b6fc24e78_o.jpg",
    "id_image": "Landscape_888573",
    "count_view": 0
  },
  {
    "link_thumb": "https://live.staticflickr.com/65535/50039589892_381af01845_n.jpg",
    "id_album": "523598895",
    "description": "Artistic_312013",
    "title": "Artistic_312013",
    "link_img": "https://live.staticflickr.com/65535/50039589892_3686a310d3_o.jpg",
    "id_image": "Artistic_312013",
    "count_view": 0
  },
  {
    "link_thumb": "https://live.staticflickr.com/65535/50039350968_95fbe45329_n.jpg",
    "id_album": "395161030",
    "description": "Planet_1003035",
    "title": "Planet_1003035",
    "link_img": "https://live.staticflickr.com/65535/50039350968_064a32d958_o.jpg",
    "id_image": "Planet_1003035",
    "count_view": 0
  },
  {
    "link_thumb": "https://live.staticflickr.com/65535/50040561461_aa2a10c7ae_n.jpg",
    "id_album": "-1532370292",
    "description": "SpaceStation_669418",
    "title": "SpaceStation_669418",
    "link_img": "https://live.staticflickr.com/65535/50040561461_4d68259b2e_o.jpg",
    "id_image": "SpaceStation_669418",
    "count_view": 0
  },
  {
    "link_thumb": "https://live.staticflickr.com/65535/50039885898_c092ae6404_n.jpg",
    "id_album": "779690680",
    "description": "Robot_949785",
    "title": "Robot_949785",
    "link_img": "https://live.staticflickr.com/65535/50039885898_81553d13c8_o.jpg",
    "id_image": "Robot_949785",
    "count_view": 0
  },
  {
    "link_thumb": "https://live.staticflickr.com/65535/50039273071_f3b244598e_n.jpg",
    "id_album": "849020728",
    "description": "Alien_666704",
    "title": "Alien_666704",
    "link_img": "https://live.staticflickr.com/65535/50039273071_3e2f750b5e_o.jpg",
    "id_image": "Alien_666704",
    "count_view": 0
  },
  {
    "link_thumb": "https://live.staticflickr.com/65535/50039268551_0ae227fa27_n.jpg",
    "id_album": "849020728",
    "description": "Alien_517024",
    "title": "Alien_517024",
    "link_img": "https://live.staticflickr.com/65535/50039268551_c377cac25f_o.jpg",
    "id_image": "Alien_517024",
    "count_view": 0
  },
  {
    "link_thumb": "https://live.staticflickr.com/65535/50040190716_aacfc1f5bb_n.jpg",
    "id_album": "-482547208",
    "description": "PostApocalyptic_147450",
    "title": "PostApocalyptic_147450",
    "link_img": "https://live.staticflickr.com/65535/50040190716_c40bed19fd_o.jpg",
    "id_image": "PostApocalyptic_147450",
    "count_view": 0
  },
  {
    "link_thumb": "https://live.staticflickr.com/65535/50040245391_629f756284_n.jpg",
    "id_album": "-839602625",
    "description": "Predator_551711",
    "title": "Predator_551711",
    "link_img": "https://live.staticflickr.com/65535/50040245391_56e3614f12_o.jpg",
    "id_image": "Predator_551711",
    "count_view": 0
  },
  {
    "link_thumb": "https://live.staticflickr.com/65535/50040989917_4cf97342fe_n.jpg",
    "id_album": "2130067313",
    "description": "Spaceship_618003",
    "title": "Spaceship_618003",
    "link_img": "https://live.staticflickr.com/65535/50040989917_7225c2f8fe_o.jpg",
    "id_image": "Spaceship_618003",
    "count_view": 0
  },
  {
    "link_thumb": "https://live.staticflickr.com/65535/50039516732_b85e06fdee_n.jpg",
    "id_album": "849020728",
    "description": "Alien_213653",
    "title": "Alien_213653",
    "link_img": "https://live.staticflickr.com/65535/50039516732_07513ccacb_o.jpg",
    "id_image": "Alien_213653",
    "count_view": 0
  },
  {
    "link_thumb": "https://live.staticflickr.com/65535/50040115386_f63a693e41_n.jpg",
    "id_album": "-1102314093",
    "description": "Planets_436890",
    "title": "Planets_436890",
    "link_img": "https://live.staticflickr.com/65535/50040115386_bb2d8554ea_o.jpg",
    "id_image": "Planets_436890",
    "count_view": 0
  },
  {
    "link_thumb": "https://live.staticflickr.com/65535/50039597113_53e3d488e8_n.jpg",
    "id_album": "-1102314093",
    "description": "Planets_957334",
    "title": "Planets_957334",
    "link_img": "https://live.staticflickr.com/65535/50039597113_97e63c58b2_o.jpg",
    "id_image": "Planets_957334",
    "count_view": 0
  },
  {
    "link_thumb": "https://live.staticflickr.com/65535/50041370331_13b8714ddc_n.jpg",
    "id_album": "-1177476763",
    "description": "Sunrise_86181",
    "title": "Sunrise_86181",
    "link_img": "https://live.staticflickr.com/65535/50041370331_aae858e23e_o.jpg",
    "id_image": "Sunrise_86181",
    "count_view": 0
  },
  {
    "link_thumb": "https://live.staticflickr.com/65535/50040458721_707137c235_n.jpg",
    "id_album": "779690680",
    "description": "Robot_995952",
    "title": "Robot_995952",
    "link_img": "https://live.staticflickr.com/65535/50040458721_f4f7413ab5_o.jpg",
    "id_image": "Robot_995952",
    "count_view": 0
  },
  {
    "link_thumb": "https://live.staticflickr.com/65535/50039905922_0e2698a0c4_n.jpg",
    "id_album": "1204249541",
    "description": "Galaxy_555689",
    "title": "Galaxy_555689",
    "link_img": "https://live.staticflickr.com/65535/50039905922_e0ba21bb8d_o.jpg",
    "id_image": "Galaxy_555689",
    "count_view": 0
  },
  {
    "link_thumb": "https://live.staticflickr.com/65535/50040465761_4b56e85575_n.jpg",
    "id_album": "1613540653",
    "description": "Space_118033",
    "title": "Space_118033",
    "link_img": "https://live.staticflickr.com/65535/50040465761_7b0a8449da_o.jpg",
    "id_image": "Space_118033",
    "count_view": 0
  },
  {
    "link_thumb": "https://live.staticflickr.com/65535/50039616002_8cd0cd2cdf_n.jpg",
    "id_album": "869545341",
    "description": "Astronaut_344894",
    "title": "Astronaut_344894",
    "link_img": "https://live.staticflickr.com/65535/50039616002_49444b0671_o.jpg",
    "id_image": "Astronaut_344894",
    "count_view": 0
  },
  {
    "link_thumb": "https://live.staticflickr.com/65535/50041594317_139af41c33_n.jpg",
    "id_album": "1267121215",
    "description": "Steampunk_852656",
    "title": "Steampunk_852656",
    "link_img": "https://live.staticflickr.com/65535/50041594317_56728458a8_o.jpg",
    "id_image": "Steampunk_852656",
    "count_view": 0
  },
  {
    "link_thumb": "https://live.staticflickr.com/65535/50039163738_a609013566_n.jpg",
    "id_album": "1402713104",
    "description": "Landscape_864098",
    "title": "Landscape_864098",
    "link_img": "https://live.staticflickr.com/65535/50039163738_11f1a72378_o.jpg",
    "id_image": "Landscape_864098",
    "count_view": 0
  },
  {
    "link_thumb": "https://live.staticflickr.com/65535/50038941428_1faa528998_n.jpg",
    "id_album": "-1964113117",
    "description": "City_701622",
    "title": "City_701622",
    "link_img": "https://live.staticflickr.com/65535/50038941428_cc4afa5e1f_o.jpg",
    "id_image": "City_701622",
    "count_view": 0
  },
  {
    "link_thumb": "https://live.staticflickr.com/65535/50040975572_c3133cb669_n.jpg",
    "id_album": "2130067313",
    "description": "Spaceship_533750",
    "title": "Spaceship_533750",
    "link_img": "https://live.staticflickr.com/65535/50040975572_49432cf740_o.jpg",
    "id_image": "Spaceship_533750",
    "count_view": 0
  },
  {
    "link_thumb": "https://live.staticflickr.com/65535/50039789616_2402f552e0_n.jpg",
    "id_album": "-1610342324",
    "description": "Nebula_390795",
    "title": "Nebula_390795",
    "link_img": "https://live.staticflickr.com/65535/50039789616_78af2489e0_o.jpg",
    "id_image": "Nebula_390795",
    "count_view": 0
  },
  {
    "link_thumb": "https://live.staticflickr.com/65535/50039538408_44ebcb12d8_n.jpg",
    "id_album": "-1102314093",
    "description": "Planets_344840",
    "title": "Planets_344840",
    "link_img": "https://live.staticflickr.com/65535/50039538408_6e6eace4a0_o.jpg",
    "id_image": "Planets_344840",
    "count_view": 0
  },
  {
    "link_thumb": "https://live.staticflickr.com/65535/50039171583_34aacbe682_n.jpg",
    "id_album": "1402713104",
    "description": "Landscape_906139",
    "title": "Landscape_906139",
    "link_img": "https://live.staticflickr.com/65535/50039171583_4c3a6c9d69_o.jpg",
    "id_image": "Landscape_906139",
    "count_view": 0
  },
  {
    "link_thumb": "https://live.staticflickr.com/65535/50040532661_f77d812c8f_n.jpg",
    "id_album": "1613540653",
    "description": "Space_70937",
    "title": "Space_70937",
    "link_img": "https://live.staticflickr.com/65535/50040532661_1a1a217ba1_o.jpg",
    "id_image": "Space_70937",
    "count_view": 0
  },
  {
    "link_thumb": "https://live.staticflickr.com/65535/50038892783_4a13ee3552_n.jpg",
    "id_album": "-1964113117",
    "description": "City_198938",
    "title": "City_198938",
    "link_img": "https://live.staticflickr.com/65535/50038892783_91a2b7a98e_o.jpg",
    "id_image": "City_198938",
    "count_view": 0
  },
  {
    "link_thumb": "https://live.staticflickr.com/65535/50040290611_16bcd724d2_n.jpg",
    "id_album": "779690680",
    "description": "Robot_328255",
    "title": "Robot_328255",
    "link_img": "https://live.staticflickr.com/65535/50040290611_45e3fc58a2_o.jpg",
    "id_image": "Robot_328255",
    "count_view": 0
  },
  {
    "link_thumb": "https://live.staticflickr.com/65535/50039613442_4245b6949a_n.jpg",
    "id_album": "869545341",
    "description": "Astronaut_235060",
    "title": "Astronaut_235060",
    "link_img": "https://live.staticflickr.com/65535/50039613442_f4f9e9021e_o.jpg",
    "id_image": "Astronaut_235060",
    "count_view": 0
  },
  {
    "link_thumb": "https://live.staticflickr.com/65535/50039658363_f8ec6339e9_n.jpg",
    "id_album": "-482547208",
    "description": "PostApocalyptic_424402",
    "title": "PostApocalyptic_424402",
    "link_img": "https://live.staticflickr.com/65535/50039658363_4e368b56f6_o.jpg",
    "id_image": "PostApocalyptic_424402",
    "count_view": 0
  },
  {
    "link_thumb": "https://live.staticflickr.com/65535/50039851523_712b030e2e_n.jpg",
    "id_album": "779690680",
    "description": "Robot_907941",
    "title": "Robot_907941",
    "link_img": "https://live.staticflickr.com/65535/50039851523_ca7ba091f2_o.jpg",
    "id_image": "Robot_907941",
    "count_view": 0
  },
  {
    "link_thumb": "https://live.staticflickr.com/65535/50039600648_e429bea63e_n.jpg",
    "id_album": "-1102314093",
    "description": "Planets_957534",
    "title": "Planets_957534",
    "link_img": "https://live.staticflickr.com/65535/50039600648_f3aacfb1d0_o.jpg",
    "id_image": "Planets_957534",
    "count_view": 0
  },
  {
    "link_thumb": "https://live.staticflickr.com/65535/50039776831_172eb78c7d_n.jpg",
    "id_album": "-1610342324",
    "description": "Nebula_2526",
    "title": "Nebula_2526",
    "link_img": "https://live.staticflickr.com/65535/50039776831_b6e89b926d_o.jpg",
    "id_image": "Nebula_2526",
    "count_view": 0
  },
  {
    "link_thumb": "https://live.staticflickr.com/65535/50039108303_89f33f385a_n.jpg",
    "id_album": "1204249541",
    "description": "Galaxy_984395",
    "title": "Galaxy_984395",
    "link_img": "https://live.staticflickr.com/65535/50039108303_e338379a11_o.jpg",
    "id_image": "Galaxy_984395",
    "count_view": 0
  },
  {
    "link_thumb": "https://live.staticflickr.com/65535/50039606183_cda5d2b2dc_n.jpg",
    "id_album": "376235057",
    "description": "Planetscape_286985",
    "title": "Planetscape_286985",
    "link_img": "https://live.staticflickr.com/65535/50039606183_44d6e38c20_o.jpg",
    "id_image": "Planetscape_286985",
    "count_view": 0
  },
  {
    "link_thumb": "https://live.staticflickr.com/65535/50039281336_85b973835b_n.jpg",
    "id_album": "-419633230",
    "description": "Apocalyptic_285801",
    "title": "Apocalyptic_285801",
    "link_img": "https://live.staticflickr.com/65535/50039281336_5e396acd33_o.jpg",
    "id_image": "Apocalyptic_285801",
    "count_view": 0
  },
  {
    "link_thumb": "https://live.staticflickr.com/65535/50040513677_3d95247660_n.jpg",
    "id_album": "779690680",
    "description": "Robot_1010868",
    "title": "Robot_1010868",
    "link_img": "https://live.staticflickr.com/65535/50040513677_0984748e1a_o.jpg",
    "id_image": "Robot_1010868",
    "count_view": 0
  },
  {
    "link_thumb": "https://live.staticflickr.com/65535/50038947833_1094422e5e_n.jpg",
    "id_album": "-1964113117",
    "description": "City_778694",
    "title": "City_778694",
    "link_img": "https://live.staticflickr.com/65535/50038947833_e07af4082c_o.jpg",
    "id_image": "City_778694",
    "count_view": 0
  },
  {
    "link_thumb": "https://live.staticflickr.com/65535/50039996866_66fcc9034b_n.jpg",
    "id_album": "1443611160",
    "description": "PlanetRise_159971",
    "title": "PlanetRise_159971",
    "link_img": "https://live.staticflickr.com/65535/50039996866_c98198d41b_o.jpg",
    "id_image": "PlanetRise_159971",
    "count_view": 0
  },
  {
    "link_thumb": "https://live.staticflickr.com/65535/50040960723_0b72e6a1dc_n.jpg",
    "id_album": "-1126835654",
    "description": "Women_266750",
    "title": "Women_266750",
    "link_img": "https://live.staticflickr.com/65535/50040960723_9275aa6170_o.jpg",
    "id_image": "Women_266750",
    "count_view": 0
  },
  {
    "link_thumb": "https://live.staticflickr.com/65535/50039073203_8fb920ac07_n.jpg",
    "id_album": "2104507156",
    "description": "Fantasy_848977",
    "title": "Fantasy_848977",
    "link_img": "https://live.staticflickr.com/65535/50039073203_6d52c23114_o.jpg",
    "id_image": "Fantasy_848977",
    "count_view": 0
  },
  {
    "link_thumb": "https://live.staticflickr.com/65535/50039968552_65d9ccd157_n.jpg",
    "id_album": "1402713104",
    "description": "Landscape_776212",
    "title": "Landscape_776212",
    "link_img": "https://live.staticflickr.com/65535/50039968552_2df388bae2_o.jpg",
    "id_image": "Landscape_776212",
    "count_view": 0
  },
  {
    "link_thumb": "https://live.staticflickr.com/65535/50038809273_e0356d2078_n.jpg",
    "id_album": "869545341",
    "description": "Astronaut_556061",
    "title": "Astronaut_556061",
    "link_img": "https://live.staticflickr.com/65535/50038809273_a79f4f303f_o.jpg",
    "id_image": "Astronaut_556061",
    "count_view": 0
  },
  {
    "link_thumb": "https://live.staticflickr.com/65535/50039223973_ff682b100f_n.jpg",
    "id_album": "-1610342324",
    "description": "Nebula_226013",
    "title": "Nebula_226013",
    "link_img": "https://live.staticflickr.com/65535/50039223973_9e6fe1866a_o.jpg",
    "id_image": "Nebula_226013",
    "count_view": 0
  },
  {
    "link_thumb": "https://live.staticflickr.com/65535/50041606537_410772ded2_n.jpg",
    "id_album": "-221671103",
    "description": "Sun_262200",
    "title": "Sun_262200",
    "link_img": "https://live.staticflickr.com/65535/50041606537_edacb97a8f_o.jpg",
    "id_image": "Sun_262200",
    "count_view": 0
  },
  {
    "link_thumb": "https://live.staticflickr.com/65535/50039859591_d73c635c3b_n.jpg",
    "id_album": "-1610342324",
    "description": "Nebula_999366",
    "title": "Nebula_999366",
    "link_img": "https://live.staticflickr.com/65535/50039859591_da4b8bdeb4_o.jpg",
    "id_image": "Nebula_999366",
    "count_view": 0
  },
  {
    "link_thumb": "https://live.staticflickr.com/65535/50040289811_3e033a6f52_n.jpg",
    "id_album": "779690680",
    "description": "Robot_325652",
    "title": "Robot_325652",
    "link_img": "https://live.staticflickr.com/65535/50040289811_5b522cb06b_o.jpg",
    "id_image": "Robot_325652",
    "count_view": 0
  },
  {
    "link_thumb": "https://live.staticflickr.com/65535/50039432101_a0c98daed4_n.jpg",
    "id_album": "-1964113117",
    "description": "City_106212",
    "title": "City_106212",
    "link_img": "https://live.staticflickr.com/65535/50039432101_1aceaf61d7_o.jpg",
    "id_image": "City_106212",
    "count_view": 0
  },
  {
    "link_thumb": "https://live.staticflickr.com/65535/50039896548_4714021e95_n.jpg",
    "id_album": "779690680",
    "description": "Robot_972182",
    "title": "Robot_972182",
    "link_img": "https://live.staticflickr.com/65535/50039896548_3395e89afc_o.jpg",
    "id_image": "Robot_972182",
    "count_view": 0
  },
  {
    "link_thumb": "https://live.staticflickr.com/65535/50039884501_909ce1def7_n.jpg",
    "id_album": "-1862561193",
    "description": "Other_283954",
    "title": "Other_283954",
    "link_img": "https://live.staticflickr.com/65535/50039884501_382d09f75b_o.jpg",
    "id_image": "Other_283954",
    "count_view": 0
  },
  {
    "link_thumb": "https://live.staticflickr.com/65535/50039850153_f573116baf_n.jpg",
    "id_album": "779690680",
    "description": "Robot_906349",
    "title": "Robot_906349",
    "link_img": "https://live.staticflickr.com/65535/50039850153_c8e11b61da_o.jpg",
    "id_image": "Robot_906349",
    "count_view": 0
  },
  {
    "link_thumb": "https://live.staticflickr.com/65535/50040462941_95242c621b_n.jpg",
    "id_album": "1613540653",
    "description": "Space_109273",
    "title": "Space_109273",
    "link_img": "https://live.staticflickr.com/65535/50040462941_fcb1e53440_o.jpg",
    "id_image": "Space_109273",
    "count_view": 0
  },
  {
    "link_thumb": "https://live.staticflickr.com/65535/50038773458_4cefce4386_n.jpg",
    "id_album": "523598895",
    "description": "Artistic_235986",
    "title": "Artistic_235986",
    "link_img": "https://live.staticflickr.com/65535/50038773458_360708f9c9_o.jpg",
    "id_image": "Artistic_235986",
    "count_view": 0
  },
  {
    "link_thumb": "https://live.staticflickr.com/65535/50039410741_ac1ed2892f_n.jpg",
    "id_album": "-1780971522",
    "description": "Biohazard_131884",
    "title": "Biohazard_131884",
    "link_img": "https://live.staticflickr.com/65535/50039410741_2304bfa255_o.jpg",
    "id_image": "Biohazard_131884",
    "count_view": 0
  },
  {
    "link_thumb": "https://live.staticflickr.com/65535/50040802718_7bec3661a1_n.jpg",
    "id_album": "-1177476763",
    "description": "Sunrise_171464",
    "title": "Sunrise_171464",
    "link_img": "https://live.staticflickr.com/65535/50040802718_737de71b02_o.jpg",
    "id_image": "Sunrise_171464",
    "count_view": 0
  },
  {
    "link_thumb": "https://live.staticflickr.com/65535/50039962972_baf6afaa04_n.jpg",
    "id_album": "1402713104",
    "description": "Landscape_6777",
    "title": "Landscape_6777",
    "link_img": "https://live.staticflickr.com/65535/50039962972_d7e6744dac_o.jpg",
    "id_image": "Landscape_6777",
    "count_view": 0
  },
  {
    "link_thumb": "https://live.staticflickr.com/65535/50039468766_85e8f321b4_n.jpg",
    "id_album": "-1964113117",
    "description": "City_397137",
    "title": "City_397137",
    "link_img": "https://live.staticflickr.com/65535/50039468766_24422fdf45_o.jpg",
    "id_image": "City_397137",
    "count_view": 0
  },
  {
    "link_thumb": "https://live.staticflickr.com/65535/50041725282_54fc8eec43_n.jpg",
    "id_album": "-1261420436",
    "description": "Warrior_446493",
    "title": "Warrior_446493",
    "link_img": "https://live.staticflickr.com/65535/50041725282_7a8e6954c4_o.jpg",
    "id_image": "Warrior_446493",
    "count_view": 0
  },
  {
    "link_thumb": "https://live.staticflickr.com/65535/50040620508_c3df962082_n.jpg",
    "id_album": "-1863373220",
    "description": "StarWars_384054",
    "title": "StarWars_384054",
    "link_img": "https://live.staticflickr.com/65535/50040620508_1b2e922892_o.jpg",
    "id_image": "StarWars_384054",
    "count_view": 0
  },
  {
    "link_thumb": "https://live.staticflickr.com/65535/50039747612_1d8f2eb968_n.jpg",
    "id_album": "-1964113117",
    "description": "City_671368",
    "title": "City_671368",
    "link_img": "https://live.staticflickr.com/65535/50039747612_8a3372d712_o.jpg",
    "id_image": "City_671368",
    "count_view": 0
  },
  {
    "link_thumb": "https://live.staticflickr.com/65535/50039682231_56a202d870_n.jpg",
    "id_album": "1402713104",
    "description": "Landscape_363625",
    "title": "Landscape_363625",
    "link_img": "https://live.staticflickr.com/65535/50039682231_ffac8aaf69_o.jpg",
    "id_image": "Landscape_363625",
    "count_view": 0
  },
  {
    "link_thumb": "https://live.staticflickr.com/65535/50039143343_a256e1b61d_n.jpg",
    "id_album": "1402713104",
    "description": "Landscape_532402",
    "title": "Landscape_532402",
    "link_img": "https://live.staticflickr.com/65535/50039143343_a16f96d433_o.jpg",
    "id_image": "Landscape_532402",
    "count_view": 0
  },
  {
    "link_thumb": "https://live.staticflickr.com/65535/50040734627_ef99d0d673_n.jpg",
    "id_album": "1613540653",
    "description": "Space_152721",
    "title": "Space_152721",
    "link_img": "https://live.staticflickr.com/65535/50040734627_b86f5c4655_o.jpg",
    "id_image": "Space_152721",
    "count_view": 0
  },
  {
    "link_thumb": "https://live.staticflickr.com/65535/50039900597_77ef833d80_n.jpg",
    "id_album": "1204249541",
    "description": "Galaxy_485802",
    "title": "Galaxy_485802",
    "link_img": "https://live.staticflickr.com/65535/50039900597_68bb6aa4cd_o.jpg",
    "id_image": "Galaxy_485802",
    "count_view": 0
  },
  {
    "link_thumb": "https://live.staticflickr.com/65535/50041035193_38318f7b53_n.jpg",
    "id_album": "-1675918237",
    "description": "WomenWarrior_867370",
    "title": "WomenWarrior_867370",
    "link_img": "https://live.staticflickr.com/65535/50041035193_e8508eeede_o.jpg",
    "id_image": "WomenWarrior_867370",
    "count_view": 0
  },
  {
    "link_thumb": "https://live.staticflickr.com/65535/50038878188_c2018b6b0e_n.jpg",
    "id_album": "406431601",
    "description": "Building_920202",
    "title": "Building_920202",
    "link_img": "https://live.staticflickr.com/65535/50038878188_92ca5767f7_o.jpg",
    "id_image": "Building_920202",
    "count_view": 0
  },
  {
    "link_thumb": "https://live.staticflickr.com/65535/50041550656_aa4cb95652_n.jpg",
    "id_album": "-1126835654",
    "description": "Women_911000",
    "title": "Women_911000",
    "link_img": "https://live.staticflickr.com/65535/50041550656_251482dd1f_o.jpg",
    "id_image": "Women_911000",
    "count_view": 0
  },
  {
    "link_thumb": "https://live.staticflickr.com/65535/50039930203_c046d76a1b_n.jpg",
    "id_album": "1613540653",
    "description": "Space_279978",
    "title": "Space_279978",
    "link_img": "https://live.staticflickr.com/65535/50039930203_057aa5a8a0_o.jpg",
    "id_image": "Space_279978",
    "count_view": 0
  },
  {
    "link_thumb": "https://live.staticflickr.com/65535/50039770096_6ff4c493e0_n.jpg",
    "id_album": "-1610342324",
    "description": "Nebula_210639",
    "title": "Nebula_210639",
    "link_img": "https://live.staticflickr.com/65535/50039770096_4dd15730c7_o.jpg",
    "id_image": "Nebula_210639",
    "count_view": 0
  },
  {
    "link_thumb": "https://live.staticflickr.com/65535/50040009792_5266c9b18d_n.jpg",
    "id_album": "-1388385651",
    "description": "MilkyWay_740492",
    "title": "MilkyWay_740492",
    "link_img": "https://live.staticflickr.com/65535/50040009792_88e655f688_o.jpg",
    "id_image": "MilkyWay_740492",
    "count_view": 0
  },
  {
    "link_thumb": "https://live.staticflickr.com/65535/50039499926_d54132086e_n.jpg",
    "id_album": "-1964113117",
    "description": "City_83514",
    "title": "City_83514",
    "link_img": "https://live.staticflickr.com/65535/50039499926_ea5b0669c2_o.jpg",
    "id_image": "City_83514",
    "count_view": 0
  },
  {
    "link_thumb": "https://live.staticflickr.com/65535/50039839628_42f9381d6b_n.jpg",
    "id_album": "779690680",
    "description": "Robot_884808",
    "title": "Robot_884808",
    "link_img": "https://live.staticflickr.com/65535/50039839628_ecac9bda29_o.jpg",
    "id_image": "Robot_884808",
    "count_view": 0
  },
  {
    "link_thumb": "https://live.staticflickr.com/65535/50039989128_57442d4d20_n.jpg",
    "id_album": "1613540653",
    "description": "Space_822471",
    "title": "Space_822471",
    "link_img": "https://live.staticflickr.com/65535/50039989128_5b33a5b0be_o.jpg",
    "id_image": "Space_822471",
    "count_view": 0
  },
  {
    "link_thumb": "https://live.staticflickr.com/65535/50039277881_6e1d38fd10_n.jpg",
    "id_album": "849020728",
    "description": "Alien_955776",
    "title": "Alien_955776",
    "link_img": "https://live.staticflickr.com/65535/50039277881_5f57cf37fe_o.jpg",
    "id_image": "Alien_955776",
    "count_view": 0
  },
  {
    "link_thumb": "https://live.staticflickr.com/65535/50039778161_bfc97faafd_n.jpg",
    "id_album": "-1610342324",
    "description": "Nebula_259385",
    "title": "Nebula_259385",
    "link_img": "https://live.staticflickr.com/65535/50039778161_44676341f0_o.jpg",
    "id_image": "Nebula_259385",
    "count_view": 0
  },
  {
    "link_thumb": "https://live.staticflickr.com/65535/50038808373_30247e35a9_n.jpg",
    "id_album": "869545341",
    "description": "Astronaut_533958",
    "title": "Astronaut_533958",
    "link_img": "https://live.staticflickr.com/65535/50038808373_719828bfc0_o.jpg",
    "id_image": "Astronaut_533958",
    "count_view": 0
  },
  {
    "link_thumb": "https://live.staticflickr.com/65535/50038879218_6473c0ab85_n.jpg",
    "id_album": "406431601",
    "description": "Building_949774",
    "title": "Building_949774",
    "link_img": "https://live.staticflickr.com/65535/50038879218_72f108f799_o.jpg",
    "id_image": "Building_949774",
    "count_view": 0
  },
  {
    "link_thumb": "https://live.staticflickr.com/65535/50040445577_41a17e16db_n.jpg",
    "id_album": "376235057",
    "description": "Planetscape_778700",
    "title": "Planetscape_778700",
    "link_img": "https://live.staticflickr.com/65535/50040445577_a8f9ac3462_o.jpg",
    "id_image": "Planetscape_778700",
    "count_view": 0
  },
  {
    "link_thumb": "https://live.staticflickr.com/65535/50039505486_417670b1cf_n.jpg",
    "id_album": "-1964113117",
    "description": "City_862704",
    "title": "City_862704",
    "link_img": "https://live.staticflickr.com/65535/50039505486_9ca3973435_o.jpg",
    "id_image": "City_862704",
    "count_view": 0
  },
  {
    "link_thumb": "https://live.staticflickr.com/65535/50040453317_c91a88cb6c_n.jpg",
    "id_album": "-482547208",
    "description": "PostApocalyptic_112258",
    "title": "PostApocalyptic_112258",
    "link_img": "https://live.staticflickr.com/65535/50040453317_587d1fc75b_o.jpg",
    "id_image": "PostApocalyptic_112258",
    "count_view": 0
  },
  {
    "link_thumb": "https://live.staticflickr.com/65535/50040065972_f682277b1f_n.jpg",
    "id_album": "-1610342324",
    "description": "Nebula_502979",
    "title": "Nebula_502979",
    "link_img": "https://live.staticflickr.com/65535/50040065972_78cc57015f_o.jpg",
    "id_image": "Nebula_502979",
    "count_view": 0
  },
  {
    "link_thumb": "https://live.staticflickr.com/65535/50039188413_44f658698c_n.jpg",
    "id_album": "-1388385651",
    "description": "MilkyWay_670536",
    "title": "MilkyWay_670536",
    "link_img": "https://live.staticflickr.com/65535/50039188413_f6d585c4e9_o.jpg",
    "id_image": "MilkyWay_670536",
    "count_view": 0
  },
  {
    "link_thumb": "https://live.staticflickr.com/65535/50040102517_6c3ca35308_n.jpg",
    "id_album": "-1610342324",
    "description": "Nebula_805185",
    "title": "Nebula_805185",
    "link_img": "https://live.staticflickr.com/65535/50040102517_1414b01bc4_o.jpg",
    "id_image": "Nebula_805185",
    "count_view": 0
  },
  {
    "link_thumb": "https://live.staticflickr.com/65535/50039351748_e229d0d649_n.jpg",
    "id_album": "395161030",
    "description": "Planet_1005774",
    "title": "Planet_1005774",
    "link_img": "https://live.staticflickr.com/65535/50039351748_322371f792_o.jpg",
    "id_image": "Planet_1005774",
    "count_view": 0
  },
  {
    "link_thumb": "https://live.staticflickr.com/65535/50039504597_020a21d5f3_n.jpg",
    "id_album": "-406145265",
    "description": "Aircraft_955661",
    "title": "Aircraft_955661",
    "link_img": "https://live.staticflickr.com/65535/50039504597_7de6acf814_o.jpg",
    "id_image": "Aircraft_955661",
    "count_view": 0
  },
  {
    "link_thumb": "https://live.staticflickr.com/65535/50040706148_73ae3064af_n.jpg",
    "id_album": "-1587696329",
    "description": "Stars_216544",
    "title": "Stars_216544",
    "link_img": "https://live.staticflickr.com/65535/50040706148_fcaa84ffa5_o.jpg",
    "id_image": "Stars_216544",
    "count_view": 0
  },
  {
    "link_thumb": "https://live.staticflickr.com/65535/50039871837_abc9f25e9a_n.jpg",
    "id_album": "651930207",
    "description": "Explosion_329790",
    "title": "Explosion_329790",
    "link_img": "https://live.staticflickr.com/65535/50039871837_cd3cf47d00_o.jpg",
    "id_image": "Explosion_329790",
    "count_view": 0
  },
  {
    "link_thumb": "https://live.staticflickr.com/65535/50041512482_8a7c819d2b_n.jpg",
    "id_album": "-1863373220",
    "description": "StarWars_980533",
    "title": "StarWars_980533",
    "link_img": "https://live.staticflickr.com/65535/50041512482_f038c8f5b7_o.jpg",
    "id_image": "StarWars_980533",
    "count_view": 0
  },
  {
    "link_thumb": "https://live.staticflickr.com/65535/50040846273_4d3319749f_n.jpg",
    "id_album": "2020068132",
    "description": "Vehicle_427318",
    "title": "Vehicle_427318",
    "link_img": "https://live.staticflickr.com/65535/50040846273_4ddc264315_o.jpg",
    "id_image": "Vehicle_427318",
    "count_view": 0
  },
  {
    "link_thumb": "https://live.staticflickr.com/65535/50039751563_23fdd8bc5e_n.jpg",
    "id_album": "779690680",
    "description": "Robot_409697",
    "title": "Robot_409697",
    "link_img": "https://live.staticflickr.com/65535/50039751563_e294763da8_o.jpg",
    "id_image": "Robot_409697",
    "count_view": 0
  },
  {
    "link_thumb": "https://live.staticflickr.com/65535/50041039827_a2e5e79f76_n.jpg",
    "id_album": "2130067313",
    "description": "Spaceship_972123",
    "title": "Spaceship_972123",
    "link_img": "https://live.staticflickr.com/65535/50041039827_6a08f6fe1b_o.jpg",
    "id_image": "Spaceship_972123",
    "count_view": 0
  },
  {
    "link_thumb": "https://live.staticflickr.com/65535/50041469441_d2bdd42cc6_n.jpg",
    "id_album": "-1261420436",
    "description": "Warrior_551686",
    "title": "Warrior_551686",
    "link_img": "https://live.staticflickr.com/65535/50041469441_f8cece0a9d_o.jpg",
    "id_image": "Warrior_551686",
    "count_view": 0
  },
  {
    "link_thumb": "https://live.staticflickr.com/65535/50038868178_056266e835_n.jpg",
    "id_album": "-1780971522",
    "description": "Biohazard_566062",
    "title": "Biohazard_566062",
    "link_img": "https://live.staticflickr.com/65535/50038868178_59e96c3e1c_o.jpg",
    "id_image": "Biohazard_566062",
    "count_view": 0
  },
  {
    "link_thumb": "https://live.staticflickr.com/65535/50040931958_4c505aa176_n.jpg",
    "id_album": "-1261420436",
    "description": "Warrior_715711",
    "title": "Warrior_715711",
    "link_img": "https://live.staticflickr.com/65535/50040931958_d760ece0e9_o.jpg",
    "id_image": "Warrior_715711",
    "count_view": 0
  },
  {
    "link_thumb": "https://live.staticflickr.com/65535/50038912633_5e98916c79_n.jpg",
    "id_album": "-1964113117",
    "description": "City_304670",
    "title": "City_304670",
    "link_img": "https://live.staticflickr.com/65535/50038912633_4a3d9e20e8_o.jpg",
    "id_image": "City_304670",
    "count_view": 0
  },
  {
    "link_thumb": "https://live.staticflickr.com/65535/50040258551_0d4cf8991d_n.jpg",
    "id_album": "779690680",
    "description": "Robot_180627",
    "title": "Robot_180627",
    "link_img": "https://live.staticflickr.com/65535/50040258551_6b892b676f_o.jpg",
    "id_image": "Robot_180627",
    "count_view": 0
  },
  {
    "link_thumb": "https://live.staticflickr.com/65535/50040155861_71f994293a_n.jpg",
    "id_album": "376235057",
    "description": "Planetscape_286797",
    "title": "Planetscape_286797",
    "link_img": "https://live.staticflickr.com/65535/50040155861_006fae08e1_o.jpg",
    "id_image": "Planetscape_286797",
    "count_view": 0
  },
  {
    "link_thumb": "https://live.staticflickr.com/65535/50039953261_9e3d244447_n.jpg",
    "id_album": "395161030",
    "description": "Planet_50085",
    "title": "Planet_50085",
    "link_img": "https://live.staticflickr.com/65535/50039953261_46edb3a80d_o.jpg",
    "id_image": "Planet_50085",
    "count_view": 0
  },
  {
    "link_thumb": "https://live.staticflickr.com/65535/50040638362_31351a3378_n.jpg",
    "id_album": "779690680",
    "description": "Robot_857285",
    "title": "Robot_857285",
    "link_img": "https://live.staticflickr.com/65535/50040638362_3503092af9_o.jpg",
    "id_image": "Robot_857285",
    "count_view": 0
  },
  {
    "link_thumb": "https://live.staticflickr.com/65535/50041331981_9e815b08f8_n.jpg",
    "id_album": "1267121215",
    "description": "Steampunk_858543",
    "title": "Steampunk_858543",
    "link_img": "https://live.staticflickr.com/65535/50041331981_e818b6d85b_o.jpg",
    "id_image": "Steampunk_858543",
    "count_view": 0
  },
  {
    "link_thumb": "https://live.staticflickr.com/65535/50040454211_847f2114c8_n.jpg",
    "id_album": "779690680",
    "description": "Robot_990152",
    "title": "Robot_990152",
    "link_img": "https://live.staticflickr.com/65535/50040454211_a22ff56103_o.jpg",
    "id_image": "Robot_990152",
    "count_view": 0
  },
  {
    "link_thumb": "https://live.staticflickr.com/65535/50039960677_2f119de046_n.jpg",
    "id_album": "1402713104",
    "description": "Landscape_641974",
    "title": "Landscape_641974",
    "link_img": "https://live.staticflickr.com/65535/50039960677_6cff6fc8d8_o.jpg",
    "id_image": "Landscape_641974",
    "count_view": 0
  },
  {
    "link_thumb": "https://live.staticflickr.com/65535/50039524761_1144662c94_n.jpg",
    "id_album": "-1964113117",
    "description": "City_942082",
    "title": "City_942082",
    "link_img": "https://live.staticflickr.com/65535/50039524761_5660ed6f56_o.jpg",
    "id_image": "City_942082",
    "count_view": 0
  },
  {
    "link_thumb": "https://live.staticflickr.com/65535/50039918263_8b74ba6504_n.jpg",
    "id_album": "1613540653",
    "description": "Space_177927",
    "title": "Space_177927",
    "link_img": "https://live.staticflickr.com/65535/50039918263_be3e2f2fb0_o.jpg",
    "id_image": "Space_177927",
    "count_view": 0
  },
  {
    "link_thumb": "https://live.staticflickr.com/65535/50039229671_d90c60133b_n.jpg",
    "id_album": "280884763",
    "description": "Abstract_324581",
    "title": "Abstract_324581",
    "link_img": "https://live.staticflickr.com/65535/50039229671_720e128555_o.jpg",
    "id_image": "Abstract_324581",
    "count_view": 0
  },
  {
    "link_thumb": "https://live.staticflickr.com/65535/50040655997_737e3286e7_n.jpg",
    "id_album": "779690680",
    "description": "Robot_883159",
    "title": "Robot_883159",
    "link_img": "https://live.staticflickr.com/65535/50040655997_6f73399a42_o.jpg",
    "id_image": "Robot_883159",
    "count_view": 0
  },
  {
    "link_thumb": "https://live.staticflickr.com/65535/50038718143_a93aced6ed_n.jpg",
    "id_album": "849020728",
    "description": "Alien_464335",
    "title": "Alien_464335",
    "link_img": "https://live.staticflickr.com/65535/50038718143_47643e613b_o.jpg",
    "id_image": "Alien_464335",
    "count_view": 0
  },
  {
    "link_thumb": "https://live.staticflickr.com/65535/50041622647_3d911b35d2_n.jpg",
    "id_album": "-1177476763",
    "description": "Sunrise_324435",
    "title": "Sunrise_324435",
    "link_img": "https://live.staticflickr.com/65535/50041622647_a3e83a4598_o.jpg",
    "id_image": "Sunrise_324435",
    "count_view": 0
  },
  {
    "link_thumb": "https://live.staticflickr.com/65535/50039965086_de9272243d_n.jpg",
    "id_album": "395161030",
    "description": "Planet_573212",
    "title": "Planet_573212",
    "link_img": "https://live.staticflickr.com/65535/50039965086_38217af4c0_o.jpg",
    "id_image": "Planet_573212",
    "count_view": 0
  },
  {
    "link_thumb": "https://live.staticflickr.com/65535/50040184888_2e3b3371bb_n.jpg",
    "id_album": "2130067313",
    "description": "Spaceship_700686",
    "title": "Spaceship_700686",
    "link_img": "https://live.staticflickr.com/65535/50040184888_9b57ccbd51_o.jpg",
    "id_image": "Spaceship_700686",
    "count_view": 0
  },
  {
    "link_thumb": "https://live.staticflickr.com/65535/50039413286_dca54f1d05_n.jpg",
    "id_album": "-1780971522",
    "description": "Biohazard_333211",
    "title": "Biohazard_333211",
    "link_img": "https://live.staticflickr.com/65535/50039413286_0f4d694e63_o.jpg",
    "id_image": "Biohazard_333211",
    "count_view": 0
  },
  {
    "link_thumb": "https://live.staticflickr.com/65535/50039988213_0c1bb94def_n.jpg",
    "id_album": "1613540653",
    "description": "Space_822456",
    "title": "Space_822456",
    "link_img": "https://live.staticflickr.com/65535/50039988213_af63c25a55_o.jpg",
    "id_image": "Space_822456",
    "count_view": 0
  },
  {
    "link_thumb": "https://live.staticflickr.com/65535/50039902732_a29157ac93_n.jpg",
    "id_album": "1204249541",
    "description": "Galaxy_529455",
    "title": "Galaxy_529455",
    "link_img": "https://live.staticflickr.com/65535/50039902732_21b73e2afe_o.jpg",
    "id_image": "Galaxy_529455",
    "count_view": 0
  },
  {
    "link_thumb": "https://live.staticflickr.com/65535/50039689167_53645053d3_n.jpg",
    "id_album": "406431601",
    "description": "Building_912993",
    "title": "Building_912993",
    "link_img": "https://live.staticflickr.com/65535/50039689167_81c882ab1c_o.jpg",
    "id_image": "Building_912993",
    "count_view": 0
  },
  {
    "link_thumb": "https://live.staticflickr.com/65535/50039218748_7083f63e31_n.jpg",
    "id_album": "-1610342324",
    "description": "Nebula_202551",
    "title": "Nebula_202551",
    "link_img": "https://live.staticflickr.com/65535/50039218748_5e3193d18e_o.jpg",
    "id_image": "Nebula_202551",
    "count_view": 0
  },
  {
    "link_thumb": "https://live.staticflickr.com/65535/50040476091_070d951d74_n.jpg",
    "id_album": "1613540653",
    "description": "Space_188882",
    "title": "Space_188882",
    "link_img": "https://live.staticflickr.com/65535/50040476091_d41fd1c8cd_o.jpg",
    "id_image": "Space_188882",
    "count_view": 0
  },
  {
    "link_thumb": "https://live.staticflickr.com/65535/50040325237_26a1067750_n.jpg",
    "id_album": "-1102314093",
    "description": "Planets_22375",
    "title": "Planets_22375",
    "link_img": "https://live.staticflickr.com/65535/50040325237_4fe4a29c54_o.jpg",
    "id_image": "Planets_22375",
    "count_view": 0
  },
  {
    "link_thumb": "https://live.staticflickr.com/65535/50040055147_edc9332bfd_n.jpg",
    "id_album": "-1610342324",
    "description": "Nebula_397249",
    "title": "Nebula_397249",
    "link_img": "https://live.staticflickr.com/65535/50040055147_223ab811e6_o.jpg",
    "id_image": "Nebula_397249",
    "count_view": 0
  },
  {
    "link_thumb": "https://live.staticflickr.com/65535/50038858448_d37aab7c2c_n.jpg",
    "id_album": "1187037014",
    "description": "Battle_697549",
    "title": "Battle_697549",
    "link_img": "https://live.staticflickr.com/65535/50038858448_abd3b6c281_o.jpg",
    "id_image": "Battle_697549",
    "count_view": 0
  },
  {
    "link_thumb": "https://live.staticflickr.com/65535/50039954252_caa49a2c36_n.jpg",
    "id_album": "1402713104",
    "description": "Landscape_495942",
    "title": "Landscape_495942",
    "link_img": "https://live.staticflickr.com/65535/50039954252_564c6f395d_o.jpg",
    "id_image": "Landscape_495942",
    "count_view": 0
  },
  {
    "link_thumb": "https://live.staticflickr.com/65535/50039628668_9112ebe46d_n.jpg",
    "id_album": "376235057",
    "description": "Planetscape_694465",
    "title": "Planetscape_694465",
    "link_img": "https://live.staticflickr.com/65535/50039628668_57b7ea11db_o.jpg",
    "id_image": "Planetscape_694465",
    "count_view": 0
  },
  {
    "link_thumb": "https://live.staticflickr.com/65535/50039387471_f69b3bf492_n.jpg",
    "id_album": "869545341",
    "description": "Astronaut_969795",
    "title": "Astronaut_969795",
    "link_img": "https://live.staticflickr.com/65535/50039387471_f1234048e0_o.jpg",
    "id_image": "Astronaut_969795",
    "count_view": 0
  },
  {
    "link_thumb": "https://live.staticflickr.com/65535/50039250181_66e483f09a_n.jpg",
    "id_album": "849020728",
    "description": "Alien_181504",
    "title": "Alien_181504",
    "link_img": "https://live.staticflickr.com/65535/50039250181_d1c59bd2bd_o.jpg",
    "id_image": "Alien_181504",
    "count_view": 0
  },
  {
    "link_thumb": "https://live.staticflickr.com/65535/50041649147_3bef187dfa_n.jpg",
    "id_album": "2020068132",
    "description": "Vehicle_313375",
    "title": "Vehicle_313375",
    "link_img": "https://live.staticflickr.com/65535/50041649147_dfda84b47a_o.jpg",
    "id_image": "Vehicle_313375",
    "count_view": 0
  },
  {
    "link_thumb": "https://live.staticflickr.com/65535/50039761456_39c3995bde_n.jpg",
    "id_album": "-1610342324",
    "description": "Nebula_108341",
    "title": "Nebula_108341",
    "link_img": "https://live.staticflickr.com/65535/50039761456_804f1e5735_o.jpg",
    "id_image": "Nebula_108341",
    "count_view": 0
  },
  {
    "link_thumb": "https://live.staticflickr.com/65535/50038895223_30abec8f0d_n.jpg",
    "id_album": "-1964113117",
    "description": "City_206125",
    "title": "City_206125",
    "link_img": "https://live.staticflickr.com/65535/50038895223_037e147f21_o.jpg",
    "id_image": "City_206125",
    "count_view": 0
  },
  {
    "link_thumb": "https://live.staticflickr.com/65535/50039850331_971de89383_n.jpg",
    "id_album": "-1610342324",
    "description": "Nebula_893250",
    "title": "Nebula_893250",
    "link_img": "https://live.staticflickr.com/65535/50039850331_d37f454d35_o.jpg",
    "id_image": "Nebula_893250",
    "count_view": 0
  },
  {
    "link_thumb": "https://live.staticflickr.com/65535/50041228796_0601d2535c_n.jpg",
    "id_album": "-1863373220",
    "description": "StarWars_831236",
    "title": "StarWars_831236",
    "link_img": "https://live.staticflickr.com/65535/50041228796_d4ab5b0a6a_o.jpg",
    "id_image": "StarWars_831236",
    "count_view": 0
  },
  {
    "link_thumb": "https://live.staticflickr.com/65535/50039764786_20d3a20b89_n.jpg",
    "id_album": "-1610342324",
    "description": "Nebula_175986",
    "title": "Nebula_175986",
    "link_img": "https://live.staticflickr.com/65535/50039764786_be662b4df9_o.jpg",
    "id_image": "Nebula_175986",
    "count_view": 0
  },
  {
    "link_thumb": "https://live.staticflickr.com/65535/50039573927_c880ea8136_n.jpg",
    "id_album": "523598895",
    "description": "Artistic_205968",
    "title": "Artistic_205968",
    "link_img": "https://live.staticflickr.com/65535/50039573927_207891e34e_o.jpg",
    "id_image": "Artistic_205968",
    "count_view": 0
  },
  {
    "link_thumb": "https://live.staticflickr.com/65535/50039515686_b9261d340d_n.jpg",
    "id_album": "-1964113117",
    "description": "City_898623",
    "title": "City_898623",
    "link_img": "https://live.staticflickr.com/65535/50039515686_dbfaaef92b_o.jpg",
    "id_image": "City_898623",
    "count_view": 0
  },
  {
    "link_thumb": "https://live.staticflickr.com/65535/50039774951_b1cd3a0c28_n.jpg",
    "id_album": "-1610342324",
    "description": "Nebula_242651",
    "title": "Nebula_242651",
    "link_img": "https://live.staticflickr.com/65535/50039774951_7913d0af32_o.jpg",
    "id_image": "Nebula_242651",
    "count_view": 0
  },
  {
    "link_thumb": "https://live.staticflickr.com/65535/50040068822_21f2fbeefb_n.jpg",
    "id_album": "-1610342324",
    "description": "Nebula_533835",
    "title": "Nebula_533835",
    "link_img": "https://live.staticflickr.com/65535/50040068822_87d6d935be_o.jpg",
    "id_image": "Nebula_533835",
    "count_view": 0
  },
  {
    "link_thumb": "https://live.staticflickr.com/65535/50040477132_962f5826eb_n.jpg",
    "id_album": "-482547208",
    "description": "PostApocalyptic_529240",
    "title": "PostApocalyptic_529240",
    "link_img": "https://live.staticflickr.com/65535/50040477132_bc1726fc25_o.jpg",
    "id_image": "PostApocalyptic_529240",
    "count_view": 0
  },
  {
    "link_thumb": "https://live.staticflickr.com/65535/50039850246_b8404210aa_n.jpg",
    "id_album": "-1610342324",
    "description": "Nebula_891193",
    "title": "Nebula_891193",
    "link_img": "https://live.staticflickr.com/65535/50039850246_b42f41ebeb_o.jpg",
    "id_image": "Nebula_891193",
    "count_view": 0
  },
  {
    "link_thumb": "https://live.staticflickr.com/65535/50040387842_9dcedae910_n.jpg",
    "id_album": "-1102314093",
    "description": "Planets_533844",
    "title": "Planets_533844",
    "link_img": "https://live.staticflickr.com/65535/50040387842_2d3284f8f9_o.jpg",
    "id_image": "Planets_533844",
    "count_view": 0
  },
  {
    "link_thumb": "https://live.staticflickr.com/65535/50040929168_4febe23135_n.jpg",
    "id_album": "-1261420436",
    "description": "Warrior_678949",
    "title": "Warrior_678949",
    "link_img": "https://live.staticflickr.com/65535/50040929168_2f97d8cb3e_o.jpg",
    "id_image": "Warrior_678949",
    "count_view": 0
  },
  {
    "link_thumb": "https://live.staticflickr.com/65535/50040521667_6dd3eb221b_n.jpg",
    "id_album": "779690680",
    "description": "Robot_167503",
    "title": "Robot_167503",
    "link_img": "https://live.staticflickr.com/65535/50040521667_1ddbbdcde6_o.jpg",
    "id_image": "Robot_167503",
    "count_view": 0
  },
  {
    "link_thumb": "https://live.staticflickr.com/65535/50039301588_339187b4e5_n.jpg",
    "id_album": "-1610342324",
    "description": "Nebula_909713",
    "title": "Nebula_909713",
    "link_img": "https://live.staticflickr.com/65535/50039301588_165404b9f9_o.jpg",
    "id_image": "Nebula_909713",
    "count_view": 0
  },
  {
    "link_thumb": "https://live.staticflickr.com/65535/50040298541_78d692c97e_n.jpg",
    "id_album": "779690680",
    "description": "Robot_381710",
    "title": "Robot_381710",
    "link_img": "https://live.staticflickr.com/65535/50040298541_224a981dba_o.jpg",
    "id_image": "Robot_381710",
    "count_view": 0
  },
  {
    "link_thumb": "https://live.staticflickr.com/65535/50039097423_df5049442b_n.jpg",
    "id_album": "1204249541",
    "description": "Galaxy_596221",
    "title": "Galaxy_596221",
    "link_img": "https://live.staticflickr.com/65535/50039097423_45874695fb_o.jpg",
    "id_image": "Galaxy_596221",
    "count_view": 0
  },
  {
    "link_thumb": "https://live.staticflickr.com/65535/50039293086_4a155cc712_n.jpg",
    "id_album": "523598895",
    "description": "Artistic_113011",
    "title": "Artistic_113011",
    "link_img": "https://live.staticflickr.com/65535/50039293086_a865f3ca3c_o.jpg",
    "id_image": "Artistic_113011",
    "count_view": 0
  },
  {
    "link_thumb": "https://live.staticflickr.com/65535/50040400336_b2ee02a45e_n.jpg",
    "id_album": "779690680",
    "description": "Robot_901648",
    "title": "Robot_901648",
    "link_img": "https://live.staticflickr.com/65535/50040400336_fa8c8215d2_o.jpg",
    "id_image": "Robot_901648",
    "count_view": 0
  },
  {
    "link_thumb": "https://live.staticflickr.com/65535/50041469946_def0b55867_n.jpg",
    "id_album": "-1261420436",
    "description": "Warrior_551716",
    "title": "Warrior_551716",
    "link_img": "https://live.staticflickr.com/65535/50041469946_abae6e783c_o.jpg",
    "id_image": "Warrior_551716",
    "count_view": 0
  },
  {
    "link_thumb": "https://live.staticflickr.com/65535/50039742837_bc2949a4cc_n.jpg",
    "id_album": "-1964113117",
    "description": "City_599394",
    "title": "City_599394",
    "link_img": "https://live.staticflickr.com/65535/50039742837_032e33ba0a_o.jpg",
    "id_image": "City_599394",
    "count_view": 0
  },
  {
    "link_thumb": "https://live.staticflickr.com/65535/50039793786_02fc753f0f_n.jpg",
    "id_album": "-1610342324",
    "description": "Nebula_413600",
    "title": "Nebula_413600",
    "link_img": "https://live.staticflickr.com/65535/50039793786_989b2a2762_o.jpg",
    "id_image": "Nebula_413600",
    "count_view": 0
  },
  {
    "link_thumb": "https://live.staticflickr.com/65535/50039257933_f91264a16c_n.jpg",
    "id_album": "-1610342324",
    "description": "Nebula_550129",
    "title": "Nebula_550129",
    "link_img": "https://live.staticflickr.com/65535/50039257933_8a59b03464_o.jpg",
    "id_image": "Nebula_550129",
    "count_view": 0
  },
  {
    "link_thumb": "https://live.staticflickr.com/65535/50039750738_4df337c136_n.jpg",
    "id_album": "779690680",
    "description": "Robot_405081",
    "title": "Robot_405081",
    "link_img": "https://live.staticflickr.com/65535/50039750738_77ccc332fe_o.jpg",
    "id_image": "Robot_405081",
    "count_view": 0
  },
  {
    "link_thumb": "https://live.staticflickr.com/65535/50039848721_4e3737dacf_n.jpg",
    "id_album": "-1610342324",
    "description": "Nebula_881101",
    "title": "Nebula_881101",
    "link_img": "https://live.staticflickr.com/65535/50039848721_ddf6e00d96_o.jpg",
    "id_image": "Nebula_881101",
    "count_view": 0
  },
  {
    "link_thumb": "https://live.staticflickr.com/65535/50039533066_a6c5a99ba8_n.jpg",
    "id_album": "-1964113117",
    "description": "City_992548",
    "title": "City_992548",
    "link_img": "https://live.staticflickr.com/65535/50039533066_9663cbe5bd_o.jpg",
    "id_image": "City_992548",
    "count_view": 0
  },
  {
    "link_thumb": "https://live.staticflickr.com/65535/50041725187_f704358b2a_n.jpg",
    "id_album": "-1261420436",
    "description": "Warrior_446492",
    "title": "Warrior_446492",
    "link_img": "https://live.staticflickr.com/65535/50041725187_25c6f5b00a_o.jpg",
    "id_image": "Warrior_446492",
    "count_view": 0
  },
  {
    "link_thumb": "https://live.staticflickr.com/65535/50040433231_5bc9d860b0_n.jpg",
    "id_album": "779690680",
    "description": "Robot_936228",
    "title": "Robot_936228",
    "link_img": "https://live.staticflickr.com/65535/50040433231_d2b0590345_o.jpg",
    "id_image": "Robot_936228",
    "count_view": 0
  },
  {
    "link_thumb": "https://live.staticflickr.com/65535/50039842023_9fd3c7ded1_n.jpg",
    "id_album": "779690680",
    "description": "Robot_887979",
    "title": "Robot_887979",
    "link_img": "https://live.staticflickr.com/65535/50039842023_01efc1a9c3_o.jpg",
    "id_image": "Robot_887979",
    "count_view": 0
  },
  {
    "link_thumb": "https://live.staticflickr.com/65535/50038847928_7d385237e4_n.jpg",
    "id_album": "1187037014",
    "description": "Battle_189558",
    "title": "Battle_189558",
    "link_img": "https://live.staticflickr.com/65535/50038847928_43e3d95a89_o.jpg",
    "id_image": "Battle_189558",
    "count_view": 0
  },
  {
    "link_thumb": "https://live.staticflickr.com/65535/50041433671_aaab140aa1_n.jpg",
    "id_album": "-1261420436",
    "description": "Warrior_180932",
    "title": "Warrior_180932",
    "link_img": "https://live.staticflickr.com/65535/50041433671_8b6fd78516_o.jpg",
    "id_image": "Warrior_180932",
    "count_view": 0
  },
  {
    "link_thumb": "https://live.staticflickr.com/65535/50039834361_3f8ea82b2e_n.jpg",
    "id_album": "-1610342324",
    "description": "Nebula_772695",
    "title": "Nebula_772695",
    "link_img": "https://live.staticflickr.com/65535/50039834361_b2a6855abc_o.jpg",
    "id_image": "Nebula_772695",
    "count_view": 0
  },
  {
    "link_thumb": "https://live.staticflickr.com/65535/50039748038_ee3f397db8_n.jpg",
    "id_album": "779690680",
    "description": "Robot_393029",
    "title": "Robot_393029",
    "link_img": "https://live.staticflickr.com/65535/50039748038_e75a7fde6d_o.jpg",
    "id_image": "Robot_393029",
    "count_view": 0
  },
  {
    "link_thumb": "https://live.staticflickr.com/65535/50039557522_3653b81f1e_n.jpg",
    "id_album": "523598895",
    "description": "Artistic_149417",
    "title": "Artistic_149417",
    "link_img": "https://live.staticflickr.com/65535/50039557522_1fbb43ac81_o.jpg",
    "id_image": "Artistic_149417",
    "count_view": 0
  },
  {
    "link_thumb": "https://live.staticflickr.com/65535/50039545051_252dcfaf14_n.jpg",
    "id_album": "894679094",
    "description": "Collision_957418",
    "title": "Collision_957418",
    "link_img": "https://live.staticflickr.com/65535/50039545051_c222cb5c3a_o.jpg",
    "id_image": "Collision_957418",
    "count_view": 0
  },
  {
    "link_thumb": "https://live.staticflickr.com/65535/50039899687_00df7c69fa_n.jpg",
    "id_album": "1204249541",
    "description": "Galaxy_454253",
    "title": "Galaxy_454253",
    "link_img": "https://live.staticflickr.com/65535/50039899687_c52c024539_o.jpg",
    "id_image": "Galaxy_454253",
    "count_view": 0
  },
  {
    "link_thumb": "https://live.staticflickr.com/65535/50040777626_7a2c0206d1_n.jpg",
    "id_album": "2130067313",
    "description": "Spaceship_972703",
    "title": "Spaceship_972703",
    "link_img": "https://live.staticflickr.com/65535/50040777626_8c39ee6428_o.jpg",
    "id_image": "Spaceship_972703",
    "count_view": 0
  },
  {
    "link_thumb": "https://live.staticflickr.com/65535/50041703522_decf9a1324_n.jpg",
    "id_album": "-1261420436",
    "description": "Warrior_269387",
    "title": "Warrior_269387",
    "link_img": "https://live.staticflickr.com/65535/50041703522_aa2296e982_o.jpg",
    "id_image": "Warrior_269387",
    "count_view": 0
  },
  {
    "link_thumb": "https://live.staticflickr.com/65535/50038806403_74d4b4bdea_n.jpg",
    "id_album": "869545341",
    "description": "Astronaut_388069",
    "title": "Astronaut_388069",
    "link_img": "https://live.staticflickr.com/65535/50038806403_bbcbc258f4_o.jpg",
    "id_image": "Astronaut_388069",
    "count_view": 0
  },
  {
    "link_thumb": "https://live.staticflickr.com/65535/50039821407_e9155de75d_n.jpg",
    "id_album": "-437872736",
    "description": "Creature_920307",
    "title": "Creature_920307",
    "link_img": "https://live.staticflickr.com/65535/50039821407_ac3b13feac_o.jpg",
    "id_image": "Creature_920307",
    "count_view": 0
  },
  {
    "link_thumb": "https://live.staticflickr.com/65535/50039270908_c5035f0767_n.jpg",
    "id_album": "-1610342324",
    "description": "Nebula_66953",
    "title": "Nebula_66953",
    "link_img": "https://live.staticflickr.com/65535/50039270908_c7a58d43a8_o.jpg",
    "id_image": "Nebula_66953",
    "count_view": 0
  },
  {
    "link_thumb": "https://live.staticflickr.com/65535/50041513847_edb57925aa_n.jpg",
    "id_album": "-1863373220",
    "description": "StarWars_981656",
    "title": "StarWars_981656",
    "link_img": "https://live.staticflickr.com/65535/50041513847_09324522e6_o.jpg",
    "id_image": "StarWars_981656",
    "count_view": 0
  },
  {
    "link_thumb": "https://live.staticflickr.com/65535/50039714313_b9154b3a18_n.jpg",
    "id_album": "779690680",
    "description": "Robot_229049",
    "title": "Robot_229049",
    "link_img": "https://live.staticflickr.com/65535/50039714313_d35338d659_o.jpg",
    "id_image": "Robot_229049",
    "count_view": 0
  },
  {
    "link_thumb": "https://live.staticflickr.com/65535/50039689006_55e327e523_n.jpg",
    "id_album": "1402713104",
    "description": "Landscape_441279",
    "title": "Landscape_441279",
    "link_img": "https://live.staticflickr.com/65535/50039689006_d1e2e6dd22_o.jpg",
    "id_image": "Landscape_441279",
    "count_view": 0
  },
  {
    "link_thumb": "https://live.staticflickr.com/65535/50041218906_0f202110d3_n.jpg",
    "id_album": "-1863373220",
    "description": "StarWars_716326",
    "title": "StarWars_716326",
    "link_img": "https://live.staticflickr.com/65535/50041218906_56f19593fb_o.jpg",
    "id_image": "StarWars_716326",
    "count_view": 0
  },
  {
    "link_thumb": "https://live.staticflickr.com/65535/50039410471_c97a3fb773_n.jpg",
    "id_album": "-1780971522",
    "description": "Biohazard_10386",
    "title": "Biohazard_10386",
    "link_img": "https://live.staticflickr.com/65535/50039410471_99b60198a8_o.jpg",
    "id_image": "Biohazard_10386",
    "count_view": 0
  },
  {
    "link_thumb": "https://live.staticflickr.com/65535/50041580312_8d4a9bf218_n.jpg",
    "id_album": "1267121215",
    "description": "Steampunk_413258",
    "title": "Steampunk_413258",
    "link_img": "https://live.staticflickr.com/65535/50041580312_f775e3874a_o.jpg",
    "id_image": "Steampunk_413258",
    "count_view": 0
  },
  {
    "link_thumb": "https://live.staticflickr.com/65535/50039805786_5cb66b8608_n.jpg",
    "id_album": "-1610342324",
    "description": "Nebula_540818",
    "title": "Nebula_540818",
    "link_img": "https://live.staticflickr.com/65535/50039805786_32806514ec_o.jpg",
    "id_image": "Nebula_540818",
    "count_view": 0
  },
  {
    "link_thumb": "https://live.staticflickr.com/65535/50039901521_e925523748_n.jpg",
    "id_album": "395161030",
    "description": "Planet_1006077",
    "title": "Planet_1006077",
    "link_img": "https://live.staticflickr.com/65535/50039901521_89c5abce31_o.jpg",
    "id_image": "Planet_1006077",
    "count_view": 0
  },
  {
    "link_thumb": "https://live.staticflickr.com/65535/50039213263_7d5cfe5903_n.jpg",
    "id_album": "-1610342324",
    "description": "Nebula_124789",
    "title": "Nebula_124789",
    "link_img": "https://live.staticflickr.com/65535/50039213263_ddb536c501_o.jpg",
    "id_image": "Nebula_124789",
    "count_view": 0
  },
  {
    "link_thumb": "https://live.staticflickr.com/65535/50040440072_67d9071678_n.jpg",
    "id_album": "376235057",
    "description": "Planetscape_523425",
    "title": "Planetscape_523425",
    "link_img": "https://live.staticflickr.com/65535/50040440072_180bb8d892_o.jpg",
    "id_image": "Planetscape_523425",
    "count_view": 0
  },
  {
    "link_thumb": "https://live.staticflickr.com/65535/50039924767_8931af4167_n.jpg",
    "id_album": "1402713104",
    "description": "Landscape_159470",
    "title": "Landscape_159470",
    "link_img": "https://live.staticflickr.com/65535/50039924767_8a9d95535a_o.jpg",
    "id_image": "Landscape_159470",
    "count_view": 0
  },
  {
    "link_thumb": "https://live.staticflickr.com/65535/50039530286_df2a07dac6_n.jpg",
    "id_album": "-1964113117",
    "description": "City_974925",
    "title": "City_974925",
    "link_img": "https://live.staticflickr.com/65535/50039530286_c3e6aeaf8c_o.jpg",
    "id_image": "City_974925",
    "count_view": 0
  },
  {
    "link_thumb": "https://live.staticflickr.com/65535/50040300951_98f52ed963_n.jpg",
    "id_album": "779690680",
    "description": "Robot_393580",
    "title": "Robot_393580",
    "link_img": "https://live.staticflickr.com/65535/50040300951_a7a7abb71a_o.jpg",
    "id_image": "Robot_393580",
    "count_view": 0
  },
  {
    "link_thumb": "https://live.staticflickr.com/65535/50040415156_7cfd2254fb_n.jpg",
    "id_album": "779690680",
    "description": "Robot_917208",
    "title": "Robot_917208",
    "link_img": "https://live.staticflickr.com/65535/50040415156_c50e4ed898_o.jpg",
    "id_image": "Robot_917208",
    "count_view": 0
  },
  {
    "link_thumb": "https://live.staticflickr.com/65535/50040471921_487797ff8c_n.jpg",
    "id_album": "1613540653",
    "description": "Space_172125",
    "title": "Space_172125",
    "link_img": "https://live.staticflickr.com/65535/50040471921_7b787a1698_o.jpg",
    "id_image": "Space_172125",
    "count_view": 0
  },
  {
    "link_thumb": "https://live.staticflickr.com/65535/50039354273_94f574b194_n.jpg",
    "id_album": "395161030",
    "description": "Planet_108239",
    "title": "Planet_108239",
    "link_img": "https://live.staticflickr.com/65535/50039354273_984c0dbcab_o.jpg",
    "id_image": "Planet_108239",
    "count_view": 0
  },
  {
    "link_thumb": "https://live.staticflickr.com/65535/50039824026_73c7ac94db_n.jpg",
    "id_album": "-1610342324",
    "description": "Nebula_699745",
    "title": "Nebula_699745",
    "link_img": "https://live.staticflickr.com/65535/50039824026_069fa14f99_o.jpg",
    "id_image": "Nebula_699745",
    "count_view": 0
  },
  {
    "link_thumb": "https://live.staticflickr.com/65535/50039479796_61518ce489_n.jpg",
    "id_album": "-1964113117",
    "description": "City_570221",
    "title": "City_570221",
    "link_img": "https://live.staticflickr.com/65535/50039479796_8cee26ea2d_o.jpg",
    "id_image": "City_570221",
    "count_view": 0
  },
  {
    "link_thumb": "https://live.staticflickr.com/65535/50041739942_25fd76083f_n.jpg",
    "id_album": "-1261420436",
    "description": "Warrior_599815",
    "title": "Warrior_599815",
    "link_img": "https://live.staticflickr.com/65535/50041739942_e4b3b1bfc0_o.jpg",
    "id_image": "Warrior_599815",
    "count_view": 0
  },
  {
    "link_thumb": "https://live.staticflickr.com/65535/50038992273_332bfc418f_n.jpg",
    "id_album": "894679094",
    "description": "Collision_373127",
    "title": "Collision_373127",
    "link_img": "https://live.staticflickr.com/65535/50038992273_1298b0406c_o.jpg",
    "id_image": "Collision_373127",
    "count_view": 0
  },
  {
    "link_thumb": "https://live.staticflickr.com/65535/50040416416_378b6bf80b_n.jpg",
    "id_album": "779690680",
    "description": "Robot_920330",
    "title": "Robot_920330",
    "link_img": "https://live.staticflickr.com/65535/50040416416_2f1c9e665d_o.jpg",
    "id_image": "Robot_920330",
    "count_view": 0
  },
  {
    "link_thumb": "https://live.staticflickr.com/65535/50039654486_9553e15a02_n.jpg",
    "id_album": "1204249541",
    "description": "Galaxy_864929",
    "title": "Galaxy_864929",
    "link_img": "https://live.staticflickr.com/65535/50039654486_718c30c31f_o.jpg",
    "id_image": "Galaxy_864929",
    "count_view": 0
  },
  {
    "link_thumb": "https://live.staticflickr.com/65535/50039498511_8ac94b0d94_n.jpg",
    "id_album": "-1964113117",
    "description": "City_80585",
    "title": "City_80585",
    "link_img": "https://live.staticflickr.com/65535/50039498511_ae0372f85e_o.jpg",
    "id_image": "City_80585",
    "count_view": 0
  },
  {
    "link_thumb": "https://live.staticflickr.com/65535/50039400751_839b79e7b1_n.jpg",
    "id_album": "1187037014",
    "description": "Battle_312152",
    "title": "Battle_312152",
    "link_img": "https://live.staticflickr.com/65535/50039400751_a65957653c_o.jpg",
    "id_image": "Battle_312152",
    "count_view": 0
  },
  {
    "link_thumb": "https://live.staticflickr.com/65535/50040053482_3e43215861_n.jpg",
    "id_album": "-1610342324",
    "description": "Nebula_390841",
    "title": "Nebula_390841",
    "link_img": "https://live.staticflickr.com/65535/50040053482_28a7018491_o.jpg",
    "id_image": "Nebula_390841",
    "count_view": 0
  },
  {
    "link_thumb": "https://live.staticflickr.com/65535/50039521637_61d851d851_n.jpg",
    "id_album": "849020728",
    "description": "Alien_304601",
    "title": "Alien_304601",
    "link_img": "https://live.staticflickr.com/65535/50039521637_8d07e84d2c_o.jpg",
    "id_image": "Alien_304601",
    "count_view": 0
  },
  {
    "link_thumb": "https://live.staticflickr.com/65535/50039772466_0a396e6944_n.jpg",
    "id_album": "-1610342324",
    "description": "Nebula_221006",
    "title": "Nebula_221006",
    "link_img": "https://live.staticflickr.com/65535/50039772466_8d7d15ec75_o.jpg",
    "id_image": "Nebula_221006",
    "count_view": 0
  },
  {
    "link_thumb": "https://live.staticflickr.com/65535/50039809611_843324bb07_n.jpg",
    "id_album": "-1610342324",
    "description": "Nebula_555941",
    "title": "Nebula_555941",
    "link_img": "https://live.staticflickr.com/65535/50039809611_a391ed91d2_o.jpg",
    "id_image": "Nebula_555941",
    "count_view": 0
  },
  {
    "link_thumb": "https://live.staticflickr.com/65535/50039101608_b5143f06e2_n.jpg",
    "id_album": "1204249541",
    "description": "Galaxy_689587",
    "title": "Galaxy_689587",
    "link_img": "https://live.staticflickr.com/65535/50039101608_27d7800ab1_o.jpg",
    "id_image": "Galaxy_689587",
    "count_view": 0
  },
  {
    "link_thumb": "https://live.staticflickr.com/65535/50040852462_9216c8208b_n.jpg",
    "id_album": "2130067313",
    "description": "Spaceship_179006",
    "title": "Spaceship_179006",
    "link_img": "https://live.staticflickr.com/65535/50040852462_d1b810da87_o.jpg",
    "id_image": "Spaceship_179006",
    "count_view": 0
  },
  {
    "link_thumb": "https://live.staticflickr.com/65535/50039826861_f954a09eb6_n.jpg",
    "id_album": "-1610342324",
    "description": "Nebula_728536",
    "title": "Nebula_728536",
    "link_img": "https://live.staticflickr.com/65535/50039826861_b205b03db3_o.jpg",
    "id_image": "Nebula_728536",
    "count_view": 0
  },
  {
    "link_thumb": "https://live.staticflickr.com/65535/50040183757_55bc58e13f_n.jpg",
    "id_album": "395161030",
    "description": "Planet_210868",
    "title": "Planet_210868",
    "link_img": "https://live.staticflickr.com/65535/50040183757_5a37a12ae5_o.jpg",
    "id_image": "Planet_210868",
    "count_view": 0
  },
  {
    "link_thumb": "https://live.staticflickr.com/65535/50039798932_91ff3814ba_n.jpg",
    "id_album": "894679094",
    "description": "Collision_214953",
    "title": "Collision_214953",
    "link_img": "https://live.staticflickr.com/65535/50039798932_cf2b9a101b_o.jpg",
    "id_image": "Collision_214953",
    "count_view": 0
  },
  {
    "link_thumb": "https://live.staticflickr.com/65535/50040033432_c0ed04d06f_n.jpg",
    "id_album": "-1610342324",
    "description": "Nebula_208618",
    "title": "Nebula_208618",
    "link_img": "https://live.staticflickr.com/65535/50040033432_83a35d9377_o.jpg",
    "id_image": "Nebula_208618",
    "count_view": 0
  },
  {
    "link_thumb": "https://live.staticflickr.com/65535/50038841103_dec797d436_n.jpg",
    "id_album": "869545341",
    "description": "Astronaut_980244",
    "title": "Astronaut_980244",
    "link_img": "https://live.staticflickr.com/65535/50038841103_10acbedbc7_o.jpg",
    "id_image": "Astronaut_980244",
    "count_view": 0
  },
  {
    "link_thumb": "https://live.staticflickr.com/65535/50039546387_27d1e0dd8a_n.jpg",
    "id_album": "-419633230",
    "description": "Apocalyptic_528593",
    "title": "Apocalyptic_528593",
    "link_img": "https://live.staticflickr.com/65535/50039546387_972f664ae8_o.jpg",
    "id_image": "Apocalyptic_528593",
    "count_view": 0
  },
  {
    "link_thumb": "https://live.staticflickr.com/65535/50038782563_fef883eac9_n.jpg",
    "id_album": "523598895",
    "description": "Artistic_350329",
    "title": "Artistic_350329",
    "link_img": "https://live.staticflickr.com/65535/50038782563_1513bddbb7_o.jpg",
    "id_image": "Artistic_350329",
    "count_view": 0
  },
  {
    "link_thumb": "https://live.staticflickr.com/65535/50040063777_8d7771d39d_n.jpg",
    "id_album": "-1610342324",
    "description": "Nebula_468742",
    "title": "Nebula_468742",
    "link_img": "https://live.staticflickr.com/65535/50040063777_d840eb72ba_o.jpg",
    "id_image": "Nebula_468742",
    "count_view": 0
  },
  {
    "link_thumb": "https://live.staticflickr.com/65535/50039897393_3522613a9c_n.jpg",
    "id_album": "779690680",
    "description": "Robot_981686",
    "title": "Robot_981686",
    "link_img": "https://live.staticflickr.com/65535/50039897393_ef3f701207_o.jpg",
    "id_image": "Robot_981686",
    "count_view": 0
  },
  {
    "link_thumb": "https://live.staticflickr.com/65535/50039354491_29c15eb144_n.jpg",
    "id_album": "869545341",
    "description": "Astronaut_380678",
    "title": "Astronaut_380678",
    "link_img": "https://live.staticflickr.com/65535/50039354491_1f8f44c833_o.jpg",
    "id_image": "Astronaut_380678",
    "count_view": 0
  },
  {
    "link_thumb": "https://live.staticflickr.com/65535/50039930952_692d89ccc8_n.jpg",
    "id_album": "1402713104",
    "description": "Landscape_257685",
    "title": "Landscape_257685",
    "link_img": "https://live.staticflickr.com/65535/50039930952_ac2cce2be4_o.jpg",
    "id_image": "Landscape_257685",
    "count_view": 0
  },
  {
    "link_thumb": "https://live.staticflickr.com/65535/50039312403_48457ff2cb_n.jpg",
    "id_album": "-1862561193",
    "description": "Other_151183",
    "title": "Other_151183",
    "link_img": "https://live.staticflickr.com/65535/50039312403_98e5166292_o.jpg",
    "id_image": "Other_151183",
    "count_view": 0
  },
  {
    "link_thumb": "https://live.staticflickr.com/65535/50040041017_61866a9120_n.jpg",
    "id_album": "-1610342324",
    "description": "Nebula_2537",
    "title": "Nebula_2537",
    "link_img": "https://live.staticflickr.com/65535/50040041017_34965cece1_o.jpg",
    "id_image": "Nebula_2537",
    "count_view": 0
  },
  {
    "link_thumb": "https://live.staticflickr.com/65535/50039601642_21da17e7b6_n.jpg",
    "id_album": "523598895",
    "description": "Artistic_593706",
    "title": "Artistic_593706",
    "link_img": "https://live.staticflickr.com/65535/50039601642_263c81dc07_o.jpg",
    "id_image": "Artistic_593706",
    "count_view": 0
  },
  {
    "link_thumb": "https://live.staticflickr.com/65535/50039622986_4685f5c48a_n.jpg",
    "id_album": "2104507156",
    "description": "Fantasy_889003",
    "title": "Fantasy_889003",
    "link_img": "https://live.staticflickr.com/65535/50039622986_3a01869fac_o.jpg",
    "id_image": "Fantasy_889003",
    "count_view": 0
  },
  {
    "link_thumb": "https://live.staticflickr.com/65535/50041386516_184b52f8c3_n.jpg",
    "id_album": "2020068132",
    "description": "Vehicle_311985",
    "title": "Vehicle_311985",
    "link_img": "https://live.staticflickr.com/65535/50041386516_45c9812985_o.jpg",
    "id_image": "Vehicle_311985",
    "count_view": 0
  },
  {
    "link_thumb": "https://live.staticflickr.com/65535/50040681182_b5361030f0_n.jpg",
    "id_album": "779690680",
    "description": "Robot_920333",
    "title": "Robot_920333",
    "link_img": "https://live.staticflickr.com/65535/50040681182_7a01088e57_o.jpg",
    "id_image": "Robot_920333",
    "count_view": 0
  },
  {
    "link_thumb": "https://live.staticflickr.com/65535/50039794921_e1cf4b8d38_n.jpg",
    "id_album": "-1610342324",
    "description": "Nebula_422149",
    "title": "Nebula_422149",
    "link_img": "https://live.staticflickr.com/65535/50039794921_14429d19e1_o.jpg",
    "id_image": "Nebula_422149",
    "count_view": 0
  },
  {
    "link_thumb": "https://live.staticflickr.com/65535/50040212446_e621a0d5d1_n.jpg",
    "id_album": "-482547208",
    "description": "PostApocalyptic_529242",
    "title": "PostApocalyptic_529242",
    "link_img": "https://live.staticflickr.com/65535/50040212446_2534266c57_o.jpg",
    "id_image": "PostApocalyptic_529242",
    "count_view": 0
  },
  {
    "link_thumb": "https://live.staticflickr.com/65535/50041383026_5e9057bb1e_n.jpg",
    "id_album": "2020068132",
    "description": "Vehicle_269848",
    "title": "Vehicle_269848",
    "link_img": "https://live.staticflickr.com/65535/50041383026_a2eb76c669_o.jpg",
    "id_image": "Vehicle_269848",
    "count_view": 0
  },
  {
    "link_thumb": "https://live.staticflickr.com/65535/50039535231_3094ede3bb_n.jpg",
    "id_album": "-1964113117",
    "description": "City_999340",
    "title": "City_999340",
    "link_img": "https://live.staticflickr.com/65535/50039535231_98250533d2_o.jpg",
    "id_image": "City_999340",
    "count_view": 0
  },
  {
    "link_thumb": "https://live.staticflickr.com/65535/50038691448_9a163fd5fd_n.jpg",
    "id_album": "-406145265",
    "description": "Aircraft_341297",
    "title": "Aircraft_341297",
    "link_img": "https://live.staticflickr.com/65535/50038691448_5a33ac87e3_o.jpg",
    "id_image": "Aircraft_341297",
    "count_view": 0
  },
  {
    "link_thumb": "https://live.staticflickr.com/65535/50040710678_bfde51f35a_n.jpg",
    "id_album": "-1587696329",
    "description": "Stars_397547",
    "title": "Stars_397547",
    "link_img": "https://live.staticflickr.com/65535/50040710678_3e1a2e2bdf_o.jpg",
    "id_image": "Stars_397547",
    "count_view": 0
  },
  {
    "link_thumb": "https://live.staticflickr.com/65535/50040395776_6770f91f91_n.jpg",
    "id_album": "779690680",
    "description": "Robot_889655",
    "title": "Robot_889655",
    "link_img": "https://live.staticflickr.com/65535/50040395776_2b220b068e_o.jpg",
    "id_image": "Robot_889655",
    "count_view": 0
  },
  {
    "link_thumb": "https://live.staticflickr.com/65535/50041613927_2a0b8a04d3_n.jpg",
    "id_album": "-221671103",
    "description": "Sun_551154",
    "title": "Sun_551154",
    "link_img": "https://live.staticflickr.com/65535/50041613927_075bd4829e_o.jpg",
    "id_image": "Sun_551154",
    "count_view": 0
  },
  {
    "link_thumb": "https://live.staticflickr.com/65535/50039955802_0e05d42aa7_n.jpg",
    "id_album": "1402713104",
    "description": "Landscape_541854",
    "title": "Landscape_541854",
    "link_img": "https://live.staticflickr.com/65535/50039955802_3ba0b87007_o.jpg",
    "id_image": "Landscape_541854",
    "count_view": 0
  },
  {
    "link_thumb": "https://live.staticflickr.com/65535/50039861923_c3a23c9fd2_n.jpg",
    "id_album": "779690680",
    "description": "Robot_918799",
    "title": "Robot_918799",
    "link_img": "https://live.staticflickr.com/65535/50039861923_d5f7404fc9_o.jpg",
    "id_image": "Robot_918799",
    "count_view": 0
  },
  {
    "link_thumb": "https://live.staticflickr.com/65535/50039658692_50dc5dab3a_n.jpg",
    "id_album": "1187037014",
    "description": "Battle_194031",
    "title": "Battle_194031",
    "link_img": "https://live.staticflickr.com/65535/50039658692_283957610d_o.jpg",
    "id_image": "Battle_194031",
    "count_view": 0
  },
  {
    "link_thumb": "https://live.staticflickr.com/65535/50040639912_ab67f845cc_n.jpg",
    "id_album": "779690680",
    "description": "Robot_857296",
    "title": "Robot_857296",
    "link_img": "https://live.staticflickr.com/65535/50040639912_f96b8c2797_o.jpg",
    "id_image": "Robot_857296",
    "count_view": 0
  },
  {
    "link_thumb": "https://live.staticflickr.com/65535/50038936328_245e5cdde7_n.jpg",
    "id_album": "-1964113117",
    "description": "City_665742",
    "title": "City_665742",
    "link_img": "https://live.staticflickr.com/65535/50038936328_90db83e5d3_o.jpg",
    "id_image": "City_665742",
    "count_view": 0
  },
  {
    "link_thumb": "https://live.staticflickr.com/65535/50041849837_3ce25e879e_n.jpg",
    "id_album": "-1675918237",
    "description": "WomenWarrior_834225",
    "title": "WomenWarrior_834225",
    "link_img": "https://live.staticflickr.com/65535/50041849837_0818104d22_o.jpg",
    "id_image": "WomenWarrior_834225",
    "count_view": 0
  },
  {
    "link_thumb": "https://live.staticflickr.com/65535/50041175706_7b0e7e1819_n.jpg",
    "id_album": "-1863373220",
    "description": "StarWars_394105",
    "title": "StarWars_394105",
    "link_img": "https://live.staticflickr.com/65535/50041175706_b15d388913_o.jpg",
    "id_image": "StarWars_394105",
    "count_view": 0
  },
  {
    "link_thumb": "https://live.staticflickr.com/65535/50040819776_43789c86fe_n.jpg",
    "id_album": "-1449720967",
    "description": "StarTrek_279989",
    "title": "StarTrek_279989",
    "link_img": "https://live.staticflickr.com/65535/50040819776_a4112354de_o.jpg",
    "id_image": "StarTrek_279989",
    "count_view": 0
  },
  {
    "link_thumb": "https://live.staticflickr.com/65535/50038879778_018990a8ea_n.jpg",
    "id_album": "406431601",
    "description": "Building_958301",
    "title": "Building_958301",
    "link_img": "https://live.staticflickr.com/65535/50038879778_8ca1f51139_o.jpg",
    "id_image": "Building_958301",
    "count_view": 0
  },
  {
    "link_thumb": "https://live.staticflickr.com/65535/50041509027_9d3e55fc83_n.jpg",
    "id_album": "-1863373220",
    "description": "StarWars_969634",
    "title": "StarWars_969634",
    "link_img": "https://live.staticflickr.com/65535/50041509027_a8b123f895_o.jpg",
    "id_image": "StarWars_969634",
    "count_view": 0
  },
  {
    "link_thumb": "https://live.staticflickr.com/65535/50039631446_4bb723d955_n.jpg",
    "id_album": "1204249541",
    "description": "Galaxy_337200",
    "title": "Galaxy_337200",
    "link_img": "https://live.staticflickr.com/65535/50039631446_8462c1aafb_o.jpg",
    "id_image": "Galaxy_337200",
    "count_view": 0
  },
  {
    "link_thumb": "https://live.staticflickr.com/65535/50039866978_2df9175ea5_n.jpg",
    "id_album": "779690680",
    "description": "Robot_926852",
    "title": "Robot_926852",
    "link_img": "https://live.staticflickr.com/65535/50039866978_22c0a26c5f_o.jpg",
    "id_image": "Robot_926852",
    "count_view": 0
  },
  {
    "link_thumb": "https://live.staticflickr.com/65535/50038857428_b704cdbe9a_n.jpg",
    "id_album": "1187037014",
    "description": "Battle_658752",
    "title": "Battle_658752",
    "link_img": "https://live.staticflickr.com/65535/50038857428_1f0f689db0_o.jpg",
    "id_image": "Battle_658752",
    "count_view": 0
  },
  {
    "link_thumb": "https://live.staticflickr.com/65535/50038950808_b938bd4643_n.jpg",
    "id_album": "-1964113117",
    "description": "City_816704",
    "title": "City_816704",
    "link_img": "https://live.staticflickr.com/65535/50038950808_c35b658f58_o.jpg",
    "id_image": "City_816704",
    "count_view": 0
  },
  {
    "link_thumb": "https://live.staticflickr.com/65535/50039552432_b9f08e0a74_n.jpg",
    "id_album": "-419633230",
    "description": "Apocalyptic_997968",
    "title": "Apocalyptic_997968",
    "link_img": "https://live.staticflickr.com/65535/50039552432_4002d7efe0_o.jpg",
    "id_image": "Apocalyptic_997968",
    "count_view": 0
  },
  {
    "link_thumb": "https://live.staticflickr.com/65535/50039353636_7b02420333_n.jpg",
    "id_album": "869545341",
    "description": "Astronaut_328456",
    "title": "Astronaut_328456",
    "link_img": "https://live.staticflickr.com/65535/50039353636_771ee647ea_o.jpg",
    "id_image": "Astronaut_328456",
    "count_view": 0
  },
  {
    "link_thumb": "https://live.staticflickr.com/65535/50040286586_afc39f0811_n.jpg",
    "id_album": "779690680",
    "description": "Robot_310484",
    "title": "Robot_310484",
    "link_img": "https://live.staticflickr.com/65535/50040286586_95d2146eff_o.jpg",
    "id_image": "Robot_310484",
    "count_view": 0
  },
  {
    "link_thumb": "https://live.staticflickr.com/65535/50040500452_c47017c786_n.jpg",
    "id_album": "-482547208",
    "description": "PostApocalyptic_977052",
    "title": "PostApocalyptic_977052",
    "link_img": "https://live.staticflickr.com/65535/50040500452_caaf79a6f7_o.jpg",
    "id_image": "PostApocalyptic_977052",
    "count_view": 0
  },
  {
    "link_thumb": "https://live.staticflickr.com/65535/50039083623_2ababcde74_n.jpg",
    "id_album": "1204249541",
    "description": "Galaxy_418328",
    "title": "Galaxy_418328",
    "link_img": "https://live.staticflickr.com/65535/50039083623_3abe5ae39e_o.jpg",
    "id_image": "Galaxy_418328",
    "count_view": 0
  },
  {
    "link_thumb": "https://live.staticflickr.com/65535/50039249343_4ffa6bdb29_n.jpg",
    "id_album": "-1610342324",
    "description": "Nebula_442752",
    "title": "Nebula_442752",
    "link_img": "https://live.staticflickr.com/65535/50039249343_a921f1f54c_o.jpg",
    "id_image": "Nebula_442752",
    "count_view": 0
  },
  {
    "link_thumb": "https://live.staticflickr.com/65535/50039897118_fba5303639_n.jpg",
    "id_album": "779690680",
    "description": "Robot_978187",
    "title": "Robot_978187",
    "link_img": "https://live.staticflickr.com/65535/50039897118_6f4b0b6f11_o.jpg",
    "id_image": "Robot_978187",
    "count_view": 0
  },
  {
    "link_thumb": "https://live.staticflickr.com/65535/50039479448_fc3df06820_n.jpg",
    "id_album": "814701616",
    "description": "PlanetaryRing_355071",
    "title": "PlanetaryRing_355071",
    "link_img": "https://live.staticflickr.com/65535/50039479448_36d6908422_o.jpg",
    "id_image": "PlanetaryRing_355071",
    "count_view": 0
  },
  {
    "link_thumb": "https://live.staticflickr.com/65535/50040023862_8a0dde825f_n.jpg",
    "id_album": "-1610342324",
    "description": "Nebula_1009890",
    "title": "Nebula_1009890",
    "link_img": "https://live.staticflickr.com/65535/50040023862_70e21ca365_o.jpg",
    "id_image": "Nebula_1009890",
    "count_view": 0
  },
  {
    "link_thumb": "https://live.staticflickr.com/65535/50038865443_d471118668_n.jpg",
    "id_album": "-1780971522",
    "description": "Biohazard_384718",
    "title": "Biohazard_384718",
    "link_img": "https://live.staticflickr.com/65535/50038865443_e418c449a0_o.jpg",
    "id_image": "Biohazard_384718",
    "count_view": 0
  },
  {
    "link_thumb": "https://live.staticflickr.com/65535/50039542846_e0226a4ac6_n.jpg",
    "id_album": "894679094",
    "description": "Collision_681631",
    "title": "Collision_681631",
    "link_img": "https://live.staticflickr.com/65535/50039542846_58d7a93684_o.jpg",
    "id_image": "Collision_681631",
    "count_view": 0
  },
  {
    "link_thumb": "https://live.staticflickr.com/65535/50039382391_96bfa87451_n.jpg",
    "id_album": "869545341",
    "description": "Astronaut_935282",
    "title": "Astronaut_935282",
    "link_img": "https://live.staticflickr.com/65535/50039382391_39861cbcff_o.jpg",
    "id_image": "Astronaut_935282",
    "count_view": 0
  },
  {
    "link_thumb": "https://live.staticflickr.com/65535/50039273741_bf90710f10_n.jpg",
    "id_album": "849020728",
    "description": "Alien_72043",
    "title": "Alien_72043",
    "link_img": "https://live.staticflickr.com/65535/50039273741_9e5c8aa68c_o.jpg",
    "id_image": "Alien_72043",
    "count_view": 0
  },
  {
    "link_thumb": "https://live.staticflickr.com/65535/50039914497_273e931738_n.jpg",
    "id_album": "1204249541",
    "description": "Galaxy_689590",
    "title": "Galaxy_689590",
    "link_img": "https://live.staticflickr.com/65535/50039914497_2a1e96cd54_o.jpg",
    "id_image": "Galaxy_689590",
    "count_view": 0
  },
  {
    "link_thumb": "https://live.staticflickr.com/65535/50039620713_ba9dfaa817_n.jpg",
    "id_album": "376235057",
    "description": "Planetscape_394009",
    "title": "Planetscape_394009",
    "link_img": "https://live.staticflickr.com/65535/50039620713_ae50a28fe3_o.jpg",
    "id_image": "Planetscape_394009",
    "count_view": 0
  },
  {
    "link_thumb": "https://live.staticflickr.com/65535/50038836408_fe014bf5e0_n.jpg",
    "id_album": "869545341",
    "description": "Astronaut_957397",
    "title": "Astronaut_957397",
    "link_img": "https://live.staticflickr.com/65535/50038836408_19183c80a8_o.jpg",
    "id_image": "Astronaut_957397",
    "count_view": 0
  },
  {
    "link_thumb": "https://live.staticflickr.com/65535/50039354763_b60fb0e016_n.jpg",
    "id_album": "395161030",
    "description": "Planet_113326",
    "title": "Planet_113326",
    "link_img": "https://live.staticflickr.com/65535/50039354763_8f6f5b913a_o.jpg",
    "id_image": "Planet_113326",
    "count_view": 0
  },
  {
    "link_thumb": "https://live.staticflickr.com/65535/50039978788_13765f3a84_n.jpg",
    "id_album": "1613540653",
    "description": "Space_726682",
    "title": "Space_726682",
    "link_img": "https://live.staticflickr.com/65535/50039978788_cb44dbc2b5_o.jpg",
    "id_image": "Space_726682",
    "count_view": 0
  },
  {
    "link_thumb": "https://live.staticflickr.com/65535/50040859583_d442ff6e1f_n.jpg",
    "id_album": "2020068132",
    "description": "Vehicle_714774",
    "title": "Vehicle_714774",
    "link_img": "https://live.staticflickr.com/65535/50040859583_b0177ce5d8_o.jpg",
    "id_image": "Vehicle_714774",
    "count_view": 0
  },
  {
    "link_thumb": "https://live.staticflickr.com/65535/50041790442_82d3013970_n.jpg",
    "id_album": "-1126835654",
    "description": "Women_389470",
    "title": "Women_389470",
    "link_img": "https://live.staticflickr.com/65535/50041790442_3e856f8894_o.jpg",
    "id_image": "Women_389470",
    "count_view": 0
  },
  {
    "link_thumb": "https://live.staticflickr.com/65535/50039669573_9a1bd8a7ec_n.jpg",
    "id_album": "-482547208",
    "description": "PostApocalyptic_725326",
    "title": "PostApocalyptic_725326",
    "link_img": "https://live.staticflickr.com/65535/50039669573_b18ec55185_o.jpg",
    "id_image": "PostApocalyptic_725326",
    "count_view": 0
  },
  {
    "link_thumb": "https://live.staticflickr.com/65535/50038716918_e9f7b48cdd_n.jpg",
    "id_album": "849020728",
    "description": "Alien_43578",
    "title": "Alien_43578",
    "link_img": "https://live.staticflickr.com/65535/50038716918_9f80e6f2a8_o.jpg",
    "id_image": "Alien_43578",
    "count_view": 0
  },
  {
    "link_thumb": "https://live.staticflickr.com/65535/50039744212_299cfd8944_n.jpg",
    "id_album": "-1964113117",
    "description": "City_616579",
    "title": "City_616579",
    "link_img": "https://live.staticflickr.com/65535/50039744212_8caae0a7a8_o.jpg",
    "id_image": "City_616579",
    "count_view": 0
  },
  {
    "link_thumb": "https://live.staticflickr.com/65535/50039526956_26a0c2843c_n.jpg",
    "id_album": "-1964113117",
    "description": "City_955659",
    "title": "City_955659",
    "link_img": "https://live.staticflickr.com/65535/50039526956_a026290a27_o.jpg",
    "id_image": "City_955659",
    "count_view": 0
  },
  {
    "link_thumb": "https://live.staticflickr.com/65535/50040664352_808e15eeaa_n.jpg",
    "id_album": "779690680",
    "description": "Robot_900265",
    "title": "Robot_900265",
    "link_img": "https://live.staticflickr.com/65535/50040664352_81e6238eb9_o.jpg",
    "id_image": "Robot_900265",
    "count_view": 0
  },
  {
    "link_thumb": "https://live.staticflickr.com/65535/50039234493_cffe493308_n.jpg",
    "id_album": "-1610342324",
    "description": "Nebula_291470",
    "title": "Nebula_291470",
    "link_img": "https://live.staticflickr.com/65535/50039234493_9cedf6692e_o.jpg",
    "id_image": "Nebula_291470",
    "count_view": 0
  },
  {
    "link_thumb": "https://live.staticflickr.com/65535/50041555042_4f9792f3b7_n.jpg",
    "id_album": "1267121215",
    "description": "Steampunk_190375",
    "title": "Steampunk_190375",
    "link_img": "https://live.staticflickr.com/65535/50041555042_10216c7a9b_o.jpg",
    "id_image": "Steampunk_190375",
    "count_view": 0
  },
  {
    "link_thumb": "https://live.staticflickr.com/65535/50039325561_08c8e9ced9_n.jpg",
    "id_album": "523598895",
    "description": "Artistic_262902",
    "title": "Artistic_262902",
    "link_img": "https://live.staticflickr.com/65535/50039325561_215fab522b_o.jpg",
    "id_image": "Artistic_262902",
    "count_view": 0
  },
  {
    "link_thumb": "https://live.staticflickr.com/65535/50039544973_f399c24af8_n.jpg",
    "id_album": "-1102314093",
    "description": "Planets_355966",
    "title": "Planets_355966",
    "link_img": "https://live.staticflickr.com/65535/50039544973_66d048a308_o.jpg",
    "id_image": "Planets_355966",
    "count_view": 0
  },
  {
    "link_thumb": "https://live.staticflickr.com/65535/50040041717_7f1d611c8d_n.jpg",
    "id_album": "-1610342324",
    "description": "Nebula_258067",
    "title": "Nebula_258067",
    "link_img": "https://live.staticflickr.com/65535/50040041717_17a17487f4_o.jpg",
    "id_image": "Nebula_258067",
    "count_view": 0
  },
  {
    "link_thumb": "https://live.staticflickr.com/65535/50039330641_743f9fd095_n.jpg",
    "id_album": "523598895",
    "description": "Artistic_345408",
    "title": "Artistic_345408",
    "link_img": "https://live.staticflickr.com/65535/50039330641_ff790dcd78_o.jpg",
    "id_image": "Artistic_345408",
    "count_view": 0
  },
  {
    "link_thumb": "https://live.staticflickr.com/65535/50040111712_1587038f2a_n.jpg",
    "id_album": "-1610342324",
    "description": "Nebula_876164",
    "title": "Nebula_876164",
    "link_img": "https://live.staticflickr.com/65535/50040111712_9f090f12fc_o.jpg",
    "id_image": "Nebula_876164",
    "count_view": 0
  },
  {
    "link_thumb": "https://live.staticflickr.com/65535/50041309596_66a96cd6fe_n.jpg",
    "id_album": "1267121215",
    "description": "Steampunk_264630",
    "title": "Steampunk_264630",
    "link_img": "https://live.staticflickr.com/65535/50041309596_45d8f88427_o.jpg",
    "id_image": "Steampunk_264630",
    "count_view": 0
  },
  {
    "link_thumb": "https://live.staticflickr.com/65535/50040093262_0cf2e2064b_n.jpg",
    "id_album": "-1610342324",
    "description": "Nebula_74809",
    "title": "Nebula_74809",
    "link_img": "https://live.staticflickr.com/65535/50040093262_5eabfb2f19_o.jpg",
    "id_image": "Nebula_74809",
    "count_view": 0
  }
]