[
  {
    "link_thumb": "https://live.staticflickr.com/65535/50039430536_1aed38bd00_n.jpg",
    "id_album": "-1964113117",
    "description": "City_101078",
    "title": "City_101078",
    "link_img": "https://live.staticflickr.com/65535/50039430536_a2b35dc527_o.jpg",
    "id_image": "City_101078",
    "count_view": 0
  },
  {
    "link_thumb": "https://live.staticflickr.com/65535/50039066448_4d71a7f076_n.jpg",
    "id_album": "2104507156",
    "description": "Fantasy_161551",
    "title": "Fantasy_161551",
    "link_img": "https://live.staticflickr.com/65535/50039066448_4a775ef0aa_o.jpg",
    "id_image": "Fantasy_161551",
    "count_view": 0
  },
  {
    "link_thumb": "https://live.staticflickr.com/65535/50039692672_bf57dbaf6a_n.jpg",
    "id_album": "-1964113117",
    "description": "City_1005747",
    "title": "City_1005747",
    "link_img": "https://live.staticflickr.com/65535/50039692672_6db98fe4f9_o.jpg",
    "id_image": "City_1005747",
    "count_view": 0
  },
  {
    "link_thumb": "https://live.staticflickr.com/65535/50039156458_aabbf3b550_n.jpg",
    "id_album": "1402713104",
    "description": "Landscape_776219",
    "title": "Landscape_776219",
    "link_img": "https://live.staticflickr.com/65535/50039156458_de7be1b535_o.jpg",
    "id_image": "Landscape_776219",
    "count_view": 0
  },
  {
    "link_thumb": "https://live.staticflickr.com/65535/50039113068_26e36a2749_n.jpg",
    "id_album": "1402713104",
    "description": "Landscape_171795",
    "title": "Landscape_171795",
    "link_img": "https://live.staticflickr.com/65535/50039113068_116514c868_o.jpg",
    "id_image": "Landscape_171795",
    "count_view": 0
  },
  {
    "link_thumb": "https://live.staticflickr.com/65535/50039916292_241f56f9b9_n.jpg",
    "id_album": "1204249541",
    "description": "Galaxy_76255",
    "title": "Galaxy_76255",
    "link_img": "https://live.staticflickr.com/65535/50039916292_f1f35cd166_o.jpg",
    "id_image": "Galaxy_76255",
    "count_view": 0
  },
  {
    "link_thumb": "https://live.staticflickr.com/65535/50040955027_f17ef57009_n.jpg",
    "id_album": "2130067313",
    "description": "Spaceship_405755",
    "title": "Spaceship_405755",
    "link_img": "https://live.staticflickr.com/65535/50040955027_2a79d9aa36_o.jpg",
    "id_image": "Spaceship_405755",
    "count_view": 0
  },
  {
    "link_thumb": "https://live.staticflickr.com/65535/50041628902_4dd72702a4_n.jpg",
    "id_album": "-1177476763",
    "description": "Sunrise_453077",
    "title": "Sunrise_453077",
    "link_img": "https://live.staticflickr.com/65535/50041628902_5b0b2dcca9_o.jpg",
    "id_image": "Sunrise_453077",
    "count_view": 0
  },
  {
    "link_thumb": "https://live.staticflickr.com/65535/50040190697_e1198dc976_n.jpg",
    "id_album": "395161030",
    "description": "Planet_316710",
    "title": "Planet_316710",
    "link_img": "https://live.staticflickr.com/65535/50040190697_6d64c2e9e1_o.jpg",
    "id_image": "Planet_316710",
    "count_view": 0
  },
  {
    "link_thumb": "https://live.staticflickr.com/65535/50039887838_71a33aab6d_n.jpg",
    "id_album": "779690680",
    "description": "Robot_949799",
    "title": "Robot_949799",
    "link_img": "https://live.staticflickr.com/65535/50039887838_266a2798d8_o.jpg",
    "id_image": "Robot_949799",
    "count_view": 0
  },
  {
    "link_thumb": "https://live.staticflickr.com/65535/50039620713_ba9dfaa817_n.jpg",
    "id_album": "376235057",
    "description": "Planetscape_394009",
    "title": "Planetscape_394009",
    "link_img": "https://live.staticflickr.com/65535/50039620713_ae50a28fe3_o.jpg",
    "id_image": "Planetscape_394009",
    "count_view": 0
  },
  {
    "link_thumb": "https://live.staticflickr.com/65535/50040113272_20a3153b59_n.jpg",
    "id_album": "-1610342324",
    "description": "Nebula_882496",
    "title": "Nebula_882496",
    "link_img": "https://live.staticflickr.com/65535/50040113272_485a1ee482_o.jpg",
    "id_image": "Nebula_882496",
    "count_view": 0
  },
  {
    "link_thumb": "https://live.staticflickr.com/65535/50039798761_95b4197085_n.jpg",
    "id_album": "-1610342324",
    "description": "Nebula_453086",
    "title": "Nebula_453086",
    "link_img": "https://live.staticflickr.com/65535/50039798761_5eec1daee7_o.jpg",
    "id_image": "Nebula_453086",
    "count_view": 0
  },
  {
    "link_thumb": "https://live.staticflickr.com/65535/50040284303_a92fb152d8_n.jpg",
    "id_album": "-1449720967",
    "description": "StarTrek_327165",
    "title": "StarTrek_327165",
    "link_img": "https://live.staticflickr.com/65535/50040284303_a55d586106_o.jpg",
    "id_image": "StarTrek_327165",
    "count_view": 0
  },
  {
    "link_thumb": "https://live.staticflickr.com/65535/50039435656_e77e9fe41f_n.jpg",
    "id_album": "-1964113117",
    "description": "City_150250",
    "title": "City_150250",
    "link_img": "https://live.staticflickr.com/65535/50039435656_400f207770_o.jpg",
    "id_image": "City_150250",
    "count_view": 0
  },
  {
    "link_thumb": "https://live.staticflickr.com/65535/50040750496_4e5263dae1_n.jpg",
    "id_album": "2130067313",
    "description": "Spaceship_81619",
    "title": "Spaceship_81619",
    "link_img": "https://live.staticflickr.com/65535/50040750496_e6e5266fb8_o.jpg",
    "id_image": "Spaceship_81619",
    "count_view": 0
  },
  {
    "link_thumb": "https://live.staticflickr.com/65535/50039092848_f99cb4982e_n.jpg",
    "id_album": "1204249541",
    "description": "Galaxy_549912",
    "title": "Galaxy_549912",
    "link_img": "https://live.staticflickr.com/65535/50039092848_15749f4339_o.jpg",
    "id_image": "Galaxy_549912",
    "count_view": 0
  },
  {
    "link_thumb": "https://live.staticflickr.com/65535/50040132661_439ed44bb5_n.jpg",
    "id_album": "-1102314093",
    "description": "Planets_772054",
    "title": "Planets_772054",
    "link_img": "https://live.staticflickr.com/65535/50040132661_82baf3b5ee_o.jpg",
    "id_image": "Planets_772054",
    "count_view": 0
  },
  {
    "link_thumb": "https://live.staticflickr.com/65535/50039424631_fc0d595b55_n.jpg",
    "id_album": "406431601",
    "description": "Building_871317",
    "title": "Building_871317",
    "link_img": "https://live.staticflickr.com/65535/50039424631_38b2d55113_o.jpg",
    "id_image": "Building_871317",
    "count_view": 0
  },
  {
    "link_thumb": "https://live.staticflickr.com/65535/50040975572_c3133cb669_n.jpg",
    "id_album": "2130067313",
    "description": "Spaceship_533750",
    "title": "Spaceship_533750",
    "link_img": "https://live.staticflickr.com/65535/50040975572_49432cf740_o.jpg",
    "id_image": "Spaceship_533750",
    "count_view": 0
  },
  {
    "link_thumb": "https://live.staticflickr.com/65535/50038784683_695071f981_n.jpg",
    "id_album": "523598895",
    "description": "Artistic_388044",
    "title": "Artistic_388044",
    "link_img": "https://live.staticflickr.com/65535/50038784683_1d8175e7f4_o.jpg",
    "id_image": "Artistic_388044",
    "count_view": 0
  },
  {
    "link_thumb": "https://live.staticflickr.com/65535/50039114543_e81c97f685_n.jpg",
    "id_album": "1402713104",
    "description": "Landscape_185585",
    "title": "Landscape_185585",
    "link_img": "https://live.staticflickr.com/65535/50039114543_e386ce0de8_o.jpg",
    "id_image": "Landscape_185585",
    "count_view": 0
  },
  {
    "link_thumb": "https://live.staticflickr.com/65535/50038864813_c4f0b210a7_n.jpg",
    "id_album": "-1780971522",
    "description": "Biohazard_333718",
    "title": "Biohazard_333718",
    "link_img": "https://live.staticflickr.com/65535/50038864813_1dc0694ce0_o.jpg",
    "id_image": "Biohazard_333718",
    "count_view": 0
  },
  {
    "link_thumb": "https://live.staticflickr.com/65535/50040617028_0056f4f820_n.jpg",
    "id_album": "-1863373220",
    "description": "StarWars_376841",
    "title": "StarWars_376841",
    "link_img": "https://live.staticflickr.com/65535/50040617028_7359cf14de_o.jpg",
    "id_image": "StarWars_376841",
    "count_view": 0
  },
  {
    "link_thumb": "https://live.staticflickr.com/65535/50039922452_c599439ee5_n.jpg",
    "id_album": "1402713104",
    "description": "Landscape_113129",
    "title": "Landscape_113129",
    "link_img": "https://live.staticflickr.com/65535/50039922452_fb6029e928_o.jpg",
    "id_image": "Landscape_113129",
    "count_view": 0
  },
  {
    "link_thumb": "https://live.staticflickr.com/65535/50039924581_41bc2572cf_n.jpg",
    "id_album": "395161030",
    "description": "Planet_287058",
    "title": "Planet_287058",
    "link_img": "https://live.staticflickr.com/65535/50039924581_17281bf4b6_o.jpg",
    "id_image": "Planet_287058",
    "count_view": 0
  },
  {
    "link_thumb": "https://live.staticflickr.com/65535/50039737386_0338bf630d_n.jpg",
    "id_album": "-1388385651",
    "description": "MilkyWay_657343",
    "title": "MilkyWay_657343",
    "link_img": "https://live.staticflickr.com/65535/50039737386_424da3b5d6_o.jpg",
    "id_image": "MilkyWay_657343",
    "count_view": 0
  },
  {
    "link_thumb": "https://live.staticflickr.com/65535/50039733351_70c32044d6_n.jpg",
    "id_album": "-1388385651",
    "description": "MilkyWay_555679",
    "title": "MilkyWay_555679",
    "link_img": "https://live.staticflickr.com/65535/50039733351_c7deceebc4_o.jpg",
    "id_image": "MilkyWay_555679",
    "count_view": 0
  },
  {
    "link_thumb": "https://live.staticflickr.com/65535/50040392966_3b52cd82d4_n.jpg",
    "id_album": "779690680",
    "description": "Robot_884817",
    "title": "Robot_884817",
    "link_img": "https://live.staticflickr.com/65535/50040392966_db32daf2ff_o.jpg",
    "id_image": "Robot_884817",
    "count_view": 0
  },
  {
    "link_thumb": "https://live.staticflickr.com/65535/50038843673_1deb7d6c35_n.jpg",
    "id_album": "869545341",
    "description": "Astronaut_992537",
    "title": "Astronaut_992537",
    "link_img": "https://live.staticflickr.com/65535/50038843673_bd7a1fa430_o.jpg",
    "id_image": "Astronaut_992537",
    "count_view": 0
  },
  {
    "link_thumb": "https://live.staticflickr.com/65535/50039837963_454b1b7b0e_n.jpg",
    "id_album": "779690680",
    "description": "Robot_881761",
    "title": "Robot_881761",
    "link_img": "https://live.staticflickr.com/65535/50039837963_83da7039f9_o.jpg",
    "id_image": "Robot_881761",
    "count_view": 0
  },
  {
    "link_thumb": "https://live.staticflickr.com/65535/50039956927_62e2ed043f_n.jpg",
    "id_album": "1402713104",
    "description": "Landscape_552105",
    "title": "Landscape_552105",
    "link_img": "https://live.staticflickr.com/65535/50039956927_07905ffb02_o.jpg",
    "id_image": "Landscape_552105",
    "count_view": 0
  },
  {
    "link_thumb": "https://live.staticflickr.com/65535/50039810016_2d0dd91090_n.jpg",
    "id_album": "-1610342324",
    "description": "Nebula_558912",
    "title": "Nebula_558912",
    "link_img": "https://live.staticflickr.com/65535/50039810016_1250da37f2_o.jpg",
    "id_image": "Nebula_558912",
    "count_view": 0
  },
  {
    "link_thumb": "https://live.staticflickr.com/65535/50040299361_1d0ef752cc_n.jpg",
    "id_album": "779690680",
    "description": "Robot_387860",
    "title": "Robot_387860",
    "link_img": "https://live.staticflickr.com/65535/50040299361_3b43475412_o.jpg",
    "id_image": "Robot_387860",
    "count_view": 0
  },
  {
    "link_thumb": "https://live.staticflickr.com/65535/50040325237_26a1067750_n.jpg",
    "id_album": "-1102314093",
    "description": "Planets_22375",
    "title": "Planets_22375",
    "link_img": "https://live.staticflickr.com/65535/50040325237_4fe4a29c54_o.jpg",
    "id_image": "Planets_22375",
    "count_view": 0
  },
  {
    "link_thumb": "https://live.staticflickr.com/65535/50041582966_acbbf3d10e_n.jpg",
    "id_album": "-1675918237",
    "description": "WomenWarrior_599794",
    "title": "WomenWarrior_599794",
    "link_img": "https://live.staticflickr.com/65535/50041582966_110a32e0cf_o.jpg",
    "id_image": "WomenWarrior_599794",
    "count_view": 0
  },
  {
    "link_thumb": "https://live.staticflickr.com/65535/50039226603_fba9ce9448_n.jpg",
    "id_album": "-1610342324",
    "description": "Nebula_249733",
    "title": "Nebula_249733",
    "link_img": "https://live.staticflickr.com/65535/50039226603_3118300926_o.jpg",
    "id_image": "Nebula_249733",
    "count_view": 0
  },
  {
    "link_thumb": "https://live.staticflickr.com/65535/50039876802_4b8271fb3b_n.jpg",
    "id_album": "2104507156",
    "description": "Fantasy_151078",
    "title": "Fantasy_151078",
    "link_img": "https://live.staticflickr.com/65535/50039876802_611573c519_o.jpg",
    "id_image": "Fantasy_151078",
    "count_view": 0
  },
  {
    "link_thumb": "https://live.staticflickr.com/65535/50040822498_7f784f6934_n.jpg",
    "id_album": "2020068132",
    "description": "Vehicle_206639",
    "title": "Vehicle_206639",
    "link_img": "https://live.staticflickr.com/65535/50040822498_84fa1cbabd_o.jpg",
    "id_image": "Vehicle_206639",
    "count_view": 0
  },
  {
    "link_thumb": "https://live.staticflickr.com/65535/50039352521_3ccbdb6d04_n.jpg",
    "id_album": "869545341",
    "description": "Astronaut_256917",
    "title": "Astronaut_256917",
    "link_img": "https://live.staticflickr.com/65535/50039352521_15efe8f093_o.jpg",
    "id_image": "Astronaut_256917",
    "count_view": 0
  },
  {
    "link_thumb": "https://live.staticflickr.com/65535/50039747263_76202ba6f5_n.jpg",
    "id_album": "779690680",
    "description": "Robot_391117",
    "title": "Robot_391117",
    "link_img": "https://live.staticflickr.com/65535/50039747263_53b4c9149b_o.jpg",
    "id_image": "Robot_391117",
    "count_view": 0
  },
  {
    "link_thumb": "https://live.staticflickr.com/65535/50040184888_2e3b3371bb_n.jpg",
    "id_album": "2130067313",
    "description": "Spaceship_700686",
    "title": "Spaceship_700686",
    "link_img": "https://live.staticflickr.com/65535/50040184888_9b57ccbd51_o.jpg",
    "id_image": "Spaceship_700686",
    "count_view": 0
  },
  {
    "link_thumb": "https://live.staticflickr.com/65535/50039843188_fa15ca4eda_n.jpg",
    "id_album": "779690680",
    "description": "Robot_889658",
    "title": "Robot_889658",
    "link_img": "https://live.staticflickr.com/65535/50039843188_4325da0ef2_o.jpg",
    "id_image": "Robot_889658",
    "count_view": 0
  },
  {
    "link_thumb": "https://live.staticflickr.com/65535/50040562717_13a48edb0f_n.jpg",
    "id_album": "779690680",
    "description": "Robot_379829",
    "title": "Robot_379829",
    "link_img": "https://live.staticflickr.com/65535/50040562717_ef2b2db8d1_o.jpg",
    "id_image": "Robot_379829",
    "count_view": 0
  },
  {
    "link_thumb": "https://live.staticflickr.com/65535/50039755482_92035f070a_n.jpg",
    "id_album": "-1964113117",
    "description": "City_725221",
    "title": "City_725221",
    "link_img": "https://live.staticflickr.com/65535/50039755482_0d4f29361c_o.jpg",
    "id_image": "City_725221",
    "count_view": 0
  },
  {
    "link_thumb": "https://live.staticflickr.com/65535/50040802121_34cc083a44_n.jpg",
    "id_album": "-1449720967",
    "description": "StarTrek_186206",
    "title": "StarTrek_186206",
    "link_img": "https://live.staticflickr.com/65535/50040802121_d05002a5fb_o.jpg",
    "id_image": "StarTrek_186206",
    "count_view": 0
  },
  {
    "link_thumb": "https://live.staticflickr.com/65535/50041804952_09b852c657_n.jpg",
    "id_album": "-1126835654",
    "description": "Women_611019",
    "title": "Women_611019",
    "link_img": "https://live.staticflickr.com/65535/50041804952_da7a85234b_o.jpg",
    "id_image": "Women_611019",
    "count_view": 0
  },
  {
    "link_thumb": "https://live.staticflickr.com/65535/50039480086_31e9629592_n.jpg",
    "id_album": "-1964113117",
    "description": "City_587290",
    "title": "City_587290",
    "link_img": "https://live.staticflickr.com/65535/50039480086_c1b58184fc_o.jpg",
    "id_image": "City_587290",
    "count_view": 0
  },
  {
    "link_thumb": "https://live.staticflickr.com/65535/50040164682_9dca1140b1_n.jpg",
    "id_album": "395161030",
    "description": "Planet_1004882",
    "title": "Planet_1004882",
    "link_img": "https://live.staticflickr.com/65535/50040164682_ec080948b9_o.jpg",
    "id_image": "Planet_1004882",
    "count_view": 0
  },
  {
    "link_thumb": "https://live.staticflickr.com/65535/50040071132_666fe7eafe_n.jpg",
    "id_album": "-1610342324",
    "description": "Nebula_550540",
    "title": "Nebula_550540",
    "link_img": "https://live.staticflickr.com/65535/50040071132_3ef9b8e0ca_o.jpg",
    "id_image": "Nebula_550540",
    "count_view": 0
  },
  {
    "link_thumb": "https://live.staticflickr.com/65535/50039505486_417670b1cf_n.jpg",
    "id_album": "-1964113117",
    "description": "City_862704",
    "title": "City_862704",
    "link_img": "https://live.staticflickr.com/65535/50039505486_9ca3973435_o.jpg",
    "id_image": "City_862704",
    "count_view": 0
  },
  {
    "link_thumb": "https://live.staticflickr.com/65535/50039499712_abb5f45229_n.jpg",
    "id_album": "-406145265",
    "description": "Aircraft_332964",
    "title": "Aircraft_332964",
    "link_img": "https://live.staticflickr.com/65535/50039499712_e3c8015dac_o.jpg",
    "id_image": "Aircraft_332964",
    "count_view": 0
  },
  {
    "link_thumb": "https://live.staticflickr.com/65535/50040621591_f09628e39d_n.jpg",
    "id_album": "2130067313",
    "description": "Spaceship_278604",
    "title": "Spaceship_278604",
    "link_img": "https://live.staticflickr.com/65535/50040621591_c79d3daf93_o.jpg",
    "id_image": "Spaceship_278604",
    "count_view": 0
  },
  {
    "link_thumb": "https://live.staticflickr.com/65535/50039819147_f7cd26e7ba_n.jpg",
    "id_album": "-437872736",
    "description": "Creature_503794",
    "title": "Creature_503794",
    "link_img": "https://live.staticflickr.com/65535/50039819147_72d4193f70_o.jpg",
    "id_image": "Creature_503794",
    "count_view": 0
  },
  {
    "link_thumb": "https://live.staticflickr.com/65535/50040066152_58229be646_n.jpg",
    "id_album": "-1610342324",
    "description": "Nebula_505516",
    "title": "Nebula_505516",
    "link_img": "https://live.staticflickr.com/65535/50040066152_914ba7d824_o.jpg",
    "id_image": "Nebula_505516",
    "count_view": 0
  },
  {
    "link_thumb": "https://live.staticflickr.com/65535/50040685842_10878fcac6_n.jpg",
    "id_album": "779690680",
    "description": "Robot_928550",
    "title": "Robot_928550",
    "link_img": "https://live.staticflickr.com/65535/50040685842_558bc1b795_o.jpg",
    "id_image": "Robot_928550",
    "count_view": 0
  },
  {
    "link_thumb": "https://live.staticflickr.com/65535/50039170858_1d3223b838_n.jpg",
    "id_album": "1402713104",
    "description": "Landscape_901333",
    "title": "Landscape_901333",
    "link_img": "https://live.staticflickr.com/65535/50039170858_6a8ea4833b_o.jpg",
    "id_image": "Landscape_901333",
    "count_view": 0
  },
  {
    "link_thumb": "https://live.staticflickr.com/65535/50041331981_9e815b08f8_n.jpg",
    "id_album": "1267121215",
    "description": "Steampunk_858543",
    "title": "Steampunk_858543",
    "link_img": "https://live.staticflickr.com/65535/50041331981_e818b6d85b_o.jpg",
    "id_image": "Steampunk_858543",
    "count_view": 0
  },
  {
    "link_thumb": "https://live.staticflickr.com/65535/50040625123_f3b8035da6_n.jpg",
    "id_album": "-1863373220",
    "description": "StarWars_412935",
    "title": "StarWars_412935",
    "link_img": "https://live.staticflickr.com/65535/50040625123_e9d0a0485b_o.jpg",
    "id_image": "StarWars_412935",
    "count_view": 0
  },
  {
    "link_thumb": "https://live.staticflickr.com/65535/50040405616_aa499aca4a_n.jpg",
    "id_album": "779690680",
    "description": "Robot_909549",
    "title": "Robot_909549",
    "link_img": "https://live.staticflickr.com/65535/50040405616_863990d946_o.jpg",
    "id_image": "Robot_909549",
    "count_view": 0
  },
  {
    "link_thumb": "https://live.staticflickr.com/65535/50040019251_39253e23f2_n.jpg",
    "id_album": "814701616",
    "description": "PlanetaryRing_178286",
    "title": "PlanetaryRing_178286",
    "link_img": "https://live.staticflickr.com/65535/50040019251_3849c0538b_o.jpg",
    "id_image": "PlanetaryRing_178286",
    "count_view": 0
  },
  {
    "link_thumb": "https://live.staticflickr.com/65535/50040741487_d70e318d38_n.jpg",
    "id_album": "1613540653",
    "description": "Space_192893",
    "title": "Space_192893",
    "link_img": "https://live.staticflickr.com/65535/50040741487_e93591f548_o.jpg",
    "id_image": "Space_192893",
    "count_view": 0
  },
  {
    "link_thumb": "https://live.staticflickr.com/65535/50040244331_2ca63cda5c_n.jpg",
    "id_album": "-839602625",
    "description": "Predator_489227",
    "title": "Predator_489227",
    "link_img": "https://live.staticflickr.com/65535/50040244331_9ff9c8e7ce_o.jpg",
    "id_image": "Predator_489227",
    "count_view": 0
  },
  {
    "link_thumb": "https://live.staticflickr.com/65535/50039464973_0fbc948aa7_n.jpg",
    "id_album": "1443611160",
    "description": "PlanetRise_82376",
    "title": "PlanetRise_82376",
    "link_img": "https://live.staticflickr.com/65535/50039464973_ed826871e3_o.jpg",
    "id_image": "PlanetRise_82376",
    "count_view": 0
  },
  {
    "link_thumb": "https://live.staticflickr.com/65535/50039557522_3653b81f1e_n.jpg",
    "id_album": "523598895",
    "description": "Artistic_149417",
    "title": "Artistic_149417",
    "link_img": "https://live.staticflickr.com/65535/50039557522_1fbb43ac81_o.jpg",
    "id_image": "Artistic_149417",
    "count_view": 0
  },
  {
    "link_thumb": "https://live.staticflickr.com/65535/50039489681_9ee772883f_n.jpg",
    "id_album": "-1964113117",
    "description": "City_697302",
    "title": "City_697302",
    "link_img": "https://live.staticflickr.com/65535/50039489681_cd5f3f95b0_o.jpg",
    "id_image": "City_697302",
    "count_view": 0
  },
  {
    "link_thumb": "https://live.staticflickr.com/65535/50040350256_074030d6b9_n.jpg",
    "id_album": "779690680",
    "description": "Robot_649069",
    "title": "Robot_649069",
    "link_img": "https://live.staticflickr.com/65535/50040350256_b45a17d75d_o.jpg",
    "id_image": "Robot_649069",
    "count_view": 0
  },
  {
    "link_thumb": "https://live.staticflickr.com/65535/50040157486_8cacb7ed7e_n.jpg",
    "id_album": "376235057",
    "description": "Planetscape_287063",
    "title": "Planetscape_287063",
    "link_img": "https://live.staticflickr.com/65535/50040157486_f935f3b1e9_o.jpg",
    "id_image": "Planetscape_287063",
    "count_view": 0
  },
  {
    "link_thumb": "https://live.staticflickr.com/65535/50039526956_26a0c2843c_n.jpg",
    "id_album": "-1964113117",
    "description": "City_955659",
    "title": "City_955659",
    "link_img": "https://live.staticflickr.com/65535/50039526956_a026290a27_o.jpg",
    "id_image": "City_955659",
    "count_view": 0
  },
  {
    "link_thumb": "https://live.staticflickr.com/65535/50039670226_4747860ca9_n.jpg",
    "id_album": "1402713104",
    "description": "Landscape_283724",
    "title": "Landscape_283724",
    "link_img": "https://live.staticflickr.com/65535/50039670226_05a3bacc4c_o.jpg",
    "id_image": "Landscape_283724",
    "count_view": 0
  },
  {
    "link_thumb": "https://live.staticflickr.com/65535/50039140883_023f1a95ce_n.jpg",
    "id_album": "1402713104",
    "description": "Landscape_459374",
    "title": "Landscape_459374",
    "link_img": "https://live.staticflickr.com/65535/50039140883_ec4d917ef5_o.jpg",
    "id_image": "Landscape_459374",
    "count_view": 0
  },
  {
    "link_thumb": "https://live.staticflickr.com/65535/50039596212_c636242f32_n.jpg",
    "id_album": "523598895",
    "description": "Artistic_411413",
    "title": "Artistic_411413",
    "link_img": "https://live.staticflickr.com/65535/50039596212_907b54cb7e_o.jpg",
    "id_image": "Artistic_411413",
    "count_view": 0
  },
  {
    "link_thumb": "https://live.staticflickr.com/65535/50039629922_73bf3b2918_n.jpg",
    "id_album": "869545341",
    "description": "Astronaut_801382",
    "title": "Astronaut_801382",
    "link_img": "https://live.staticflickr.com/65535/50039629922_83a3c844f7_o.jpg",
    "id_image": "Astronaut_801382",
    "count_view": 0
  },
  {
    "link_thumb": "https://live.staticflickr.com/65535/50040599676_7ed842bcf8_n.jpg",
    "id_album": "2130067313",
    "description": "Spaceship_215129",
    "title": "Spaceship_215129",
    "link_img": "https://live.staticflickr.com/65535/50040599676_789dd29d26_o.jpg",
    "id_image": "Spaceship_215129",
    "count_view": 0
  },
  {
    "link_thumb": "https://live.staticflickr.com/65535/50038981368_0aff23b644_n.jpg",
    "id_album": "-1964113117",
    "description": "City_972181",
    "title": "City_972181",
    "link_img": "https://live.staticflickr.com/65535/50038981368_362f356578_o.jpg",
    "id_image": "City_972181",
    "count_view": 0
  },
  {
    "link_thumb": "https://live.staticflickr.com/65535/50039262998_c1dff906da_n.jpg",
    "id_album": "-1610342324",
    "description": "Nebula_568887",
    "title": "Nebula_568887",
    "link_img": "https://live.staticflickr.com/65535/50039262998_054d9ca925_o.jpg",
    "id_image": "Nebula_568887",
    "count_view": 0
  },
  {
    "link_thumb": "https://live.staticflickr.com/65535/50040431781_3c1ee96913_n.jpg",
    "id_album": "779690680",
    "description": "Robot_934616",
    "title": "Robot_934616",
    "link_img": "https://live.staticflickr.com/65535/50040431781_a6bb19ae7f_o.jpg",
    "id_image": "Robot_934616",
    "count_view": 0
  },
  {
    "link_thumb": "https://live.staticflickr.com/65535/50039890217_8f2bb3522d_n.jpg",
    "id_album": "1204249541",
    "description": "Galaxy_234675",
    "title": "Galaxy_234675",
    "link_img": "https://live.staticflickr.com/65535/50039890217_3d5dc82063_o.jpg",
    "id_image": "Galaxy_234675",
    "count_view": 0
  },
  {
    "link_thumb": "https://live.staticflickr.com/65535/50038857078_2fd7e1b2ca_n.jpg",
    "id_album": "1187037014",
    "description": "Battle_631688",
    "title": "Battle_631688",
    "link_img": "https://live.staticflickr.com/65535/50038857078_f3b5189e1b_o.jpg",
    "id_image": "Battle_631688",
    "count_view": 0
  },
  {
    "link_thumb": "https://live.staticflickr.com/65535/50040238816_74b6576306_n.jpg",
    "id_album": "-839602625",
    "description": "Predator_27651",
    "title": "Predator_27651",
    "link_img": "https://live.staticflickr.com/65535/50040238816_36fc3fce1d_o.jpg",
    "id_image": "Predator_27651",
    "count_view": 0
  },
  {
    "link_thumb": "https://live.staticflickr.com/65535/50039085158_5a7c8d48eb_n.jpg",
    "id_album": "1204249541",
    "description": "Galaxy_438316",
    "title": "Galaxy_438316",
    "link_img": "https://live.staticflickr.com/65535/50039085158_157854ef59_o.jpg",
    "id_image": "Galaxy_438316",
    "count_view": 0
  },
  {
    "link_thumb": "https://live.staticflickr.com/65535/50040800632_3584066838_n.jpg",
    "id_album": "1613540653",
    "description": "Space_746369",
    "title": "Space_746369",
    "link_img": "https://live.staticflickr.com/65535/50040800632_c58c49e58b_o.jpg",
    "id_image": "Space_746369",
    "count_view": 0
  },
  {
    "link_thumb": "https://live.staticflickr.com/65535/50039411781_d46fc7b568_n.jpg",
    "id_album": "-1780971522",
    "description": "Biohazard_300087",
    "title": "Biohazard_300087",
    "link_img": "https://live.staticflickr.com/65535/50039411781_42fb0e37ca_o.jpg",
    "id_image": "Biohazard_300087",
    "count_view": 0
  },
  {
    "link_thumb": "https://live.staticflickr.com/65535/50039099828_a6346993b3_n.jpg",
    "id_album": "1204249541",
    "description": "Galaxy_606891",
    "title": "Galaxy_606891",
    "link_img": "https://live.staticflickr.com/65535/50039099828_96d566a2a1_o.jpg",
    "id_image": "Galaxy_606891",
    "count_view": 0
  },
  {
    "link_thumb": "https://live.staticflickr.com/65535/50038886143_3a47dd3760_n.jpg",
    "id_album": "-1964113117",
    "description": "City_145430",
    "title": "City_145430",
    "link_img": "https://live.staticflickr.com/65535/50038886143_47014d32b6_o.jpg",
    "id_image": "City_145430",
    "count_view": 0
  },
  {
    "link_thumb": "https://live.staticflickr.com/65535/50038719408_c996e970fa_n.jpg",
    "id_album": "849020728",
    "description": "Alien_482025",
    "title": "Alien_482025",
    "link_img": "https://live.staticflickr.com/65535/50038719408_1b293df4d7_o.jpg",
    "id_image": "Alien_482025",
    "count_view": 0
  },
  {
    "link_thumb": "https://live.staticflickr.com/65535/50038767988_280f8ac4dc_n.jpg",
    "id_album": "523598895",
    "description": "Artistic_218934",
    "title": "Artistic_218934",
    "link_img": "https://live.staticflickr.com/65535/50038767988_0e6ea7f4f9_o.jpg",
    "id_image": "Artistic_218934",
    "count_view": 0
  },
  {
    "link_thumb": "https://live.staticflickr.com/65535/50040520286_bfe730115c_n.jpg",
    "id_album": "1613540653",
    "description": "Space_659465",
    "title": "Space_659465",
    "link_img": "https://live.staticflickr.com/65535/50040520286_491d92e827_o.jpg",
    "id_image": "Space_659465",
    "count_view": 0
  },
  {
    "link_thumb": "https://live.staticflickr.com/65535/50039850257_688f55b2fb_n.jpg",
    "id_album": "829169633",
    "description": "Cyborg_390068",
    "title": "Cyborg_390068",
    "link_img": "https://live.staticflickr.com/65535/50039850257_51d7aa45fc_o.jpg",
    "id_image": "Cyborg_390068",
    "count_view": 0
  },
  {
    "link_thumb": "https://live.staticflickr.com/65535/50041620277_d09029d19b_n.jpg",
    "id_album": "-1177476763",
    "description": "Sunrise_209315",
    "title": "Sunrise_209315",
    "link_img": "https://live.staticflickr.com/65535/50041620277_2ea61be0ec_o.jpg",
    "id_image": "Sunrise_209315",
    "count_view": 0
  },
  {
    "link_thumb": "https://live.staticflickr.com/65535/50040452672_fd861f117a_n.jpg",
    "id_album": "-482547208",
    "description": "PostApocalyptic_103035",
    "title": "PostApocalyptic_103035",
    "link_img": "https://live.staticflickr.com/65535/50040452672_0ef2490ebb_o.jpg",
    "id_image": "PostApocalyptic_103035",
    "count_view": 0
  },
  {
    "link_thumb": "https://live.staticflickr.com/65535/50039311356_ef8c8ef497_n.jpg",
    "id_album": "523598895",
    "description": "Artistic_202134",
    "title": "Artistic_202134",
    "link_img": "https://live.staticflickr.com/65535/50039311356_194028fe1b_o.jpg",
    "id_image": "Artistic_202134",
    "count_view": 0
  },
  {
    "link_thumb": "https://live.staticflickr.com/65535/50039262271_12f17ee40f_n.jpg",
    "id_album": "849020728",
    "description": "Alien_393637",
    "title": "Alien_393637",
    "link_img": "https://live.staticflickr.com/65535/50039262271_698be4ef09_o.jpg",
    "id_image": "Alien_393637",
    "count_view": 0
  },
  {
    "link_thumb": "https://live.staticflickr.com/65535/50039485676_549583b5c4_n.jpg",
    "id_album": "-1964113117",
    "description": "City_673591",
    "title": "City_673591",
    "link_img": "https://live.staticflickr.com/65535/50039485676_750a4ef4af_o.jpg",
    "id_image": "City_673591",
    "count_view": 0
  },
  {
    "link_thumb": "https://live.staticflickr.com/65535/50040752627_cb29271ba3_n.jpg",
    "id_album": "1613540653",
    "description": "Space_286996",
    "title": "Space_286996",
    "link_img": "https://live.staticflickr.com/65535/50040752627_8fc35aefd0_o.jpg",
    "id_image": "Space_286996",
    "count_view": 0
  },
  {
    "link_thumb": "https://live.staticflickr.com/65535/50039524162_2d979546ec_n.jpg",
    "id_album": "849020728",
    "description": "Alien_393630",
    "title": "Alien_393630",
    "link_img": "https://live.staticflickr.com/65535/50039524162_087d8bb5b0_o.jpg",
    "id_image": "Alien_393630",
    "count_view": 0
  },
  {
    "link_thumb": "https://live.staticflickr.com/65535/50039423831_ae6ba612f1_n.jpg",
    "id_album": "406431601",
    "description": "Building_827328",
    "title": "Building_827328",
    "link_img": "https://live.staticflickr.com/65535/50039423831_b7877522c3_o.jpg",
    "id_image": "Building_827328",
    "count_view": 0
  },
  {
    "link_thumb": "https://live.staticflickr.com/65535/50040088112_90f212da3d_n.jpg",
    "id_album": "-1610342324",
    "description": "Nebula_705310",
    "title": "Nebula_705310",
    "link_img": "https://live.staticflickr.com/65535/50040088112_6a1545ae21_o.jpg",
    "id_image": "Nebula_705310",
    "count_view": 0
  },
  {
    "link_thumb": "https://live.staticflickr.com/65535/50041378411_dd03b3f40b_n.jpg",
    "id_album": "2020068132",
    "description": "Vehicle_222318",
    "title": "Vehicle_222318",
    "link_img": "https://live.staticflickr.com/65535/50041378411_b7d9f10faa_o.jpg",
    "id_image": "Vehicle_222318",
    "count_view": 0
  },
  {
    "link_thumb": "https://live.staticflickr.com/65535/50040153753_144050b1e8_n.jpg",
    "id_album": "2130067313",
    "description": "Spaceship_528589",
    "title": "Spaceship_528589",
    "link_img": "https://live.staticflickr.com/65535/50040153753_72358b2687_o.jpg",
    "id_image": "Spaceship_528589",
    "count_view": 0
  },
  {
    "link_thumb": "https://live.staticflickr.com/65535/50041473512_8a75733432_n.jpg",
    "id_album": "-1863373220",
    "description": "StarWars_669727",
    "title": "StarWars_669727",
    "link_img": "https://live.staticflickr.com/65535/50041473512_8522dd3253_o.jpg",
    "id_image": "StarWars_669727",
    "count_view": 0
  },
  {
    "link_thumb": "https://live.staticflickr.com/65535/50039515016_a53b99cc57_n.jpg",
    "id_album": "-1964113117",
    "description": "City_896211",
    "title": "City_896211",
    "link_img": "https://live.staticflickr.com/65535/50039515016_9fab6f53c0_o.jpg",
    "id_image": "City_896211",
    "count_view": 0
  },
  {
    "link_thumb": "https://live.staticflickr.com/65535/50039654571_53c5c625a7_n.jpg",
    "id_album": "1204249541",
    "description": "Galaxy_86678",
    "title": "Galaxy_86678",
    "link_img": "https://live.staticflickr.com/65535/50039654571_325b45ba47_o.jpg",
    "id_image": "Galaxy_86678",
    "count_view": 0
  },
  {
    "link_thumb": "https://live.staticflickr.com/65535/50040409786_1014698c6f_n.jpg",
    "id_album": "779690680",
    "description": "Robot_913016",
    "title": "Robot_913016",
    "link_img": "https://live.staticflickr.com/65535/50040409786_052a050818_o.jpg",
    "id_image": "Robot_913016",
    "count_view": 0
  },
  {
    "link_thumb": "https://live.staticflickr.com/65535/50039636802_57d8928915_n.jpg",
    "id_album": "869545341",
    "description": "Astronaut_863506",
    "title": "Astronaut_863506",
    "link_img": "https://live.staticflickr.com/65535/50039636802_8900faeaea_o.jpg",
    "id_image": "Astronaut_863506",
    "count_view": 0
  },
  {
    "link_thumb": "https://live.staticflickr.com/65535/50040597596_e6ea8a20c9_n.jpg",
    "id_album": "2130067313",
    "description": "Spaceship_205565",
    "title": "Spaceship_205565",
    "link_img": "https://live.staticflickr.com/65535/50040597596_42d0eb2a73_o.jpg",
    "id_image": "Spaceship_205565",
    "count_view": 0
  },
  {
    "link_thumb": "https://live.staticflickr.com/65535/50039638267_ba056a40d7_n.jpg",
    "id_album": "869545341",
    "description": "Astronaut_878311",
    "title": "Astronaut_878311",
    "link_img": "https://live.staticflickr.com/65535/50039638267_ce77ee57bc_o.jpg",
    "id_image": "Astronaut_878311",
    "count_view": 0
  },
  {
    "link_thumb": "https://live.staticflickr.com/65535/50040187356_0aa9aea747_n.jpg",
    "id_album": "-482547208",
    "description": "PostApocalyptic_1001692",
    "title": "PostApocalyptic_1001692",
    "link_img": "https://live.staticflickr.com/65535/50040187356_8a3483b44c_o.jpg",
    "id_image": "PostApocalyptic_1001692",
    "count_view": 0
  },
  {
    "link_thumb": "https://live.staticflickr.com/65535/50040438816_81b360e571_n.jpg",
    "id_album": "779690680",
    "description": "Robot_944755",
    "title": "Robot_944755",
    "link_img": "https://live.staticflickr.com/65535/50040438816_5d04e78999_o.jpg",
    "id_image": "Robot_944755",
    "count_view": 0
  },
  {
    "link_thumb": "https://live.staticflickr.com/65535/50039686542_ba11470d97_n.jpg",
    "id_album": "406431601",
    "description": "Building_835703",
    "title": "Building_835703",
    "link_img": "https://live.staticflickr.com/65535/50039686542_71ba98f8ca_o.jpg",
    "id_image": "Building_835703",
    "count_view": 0
  },
  {
    "link_thumb": "https://live.staticflickr.com/65535/50039358356_d0f51753b5_n.jpg",
    "id_album": "869545341",
    "description": "Astronaut_567047",
    "title": "Astronaut_567047",
    "link_img": "https://live.staticflickr.com/65535/50039358356_07c858b9a8_o.jpg",
    "id_image": "Astronaut_567047",
    "count_view": 0
  },
  {
    "link_thumb": "https://live.staticflickr.com/65535/50039327911_a98834509e_n.jpg",
    "id_album": "523598895",
    "description": "Artistic_286161",
    "title": "Artistic_286161",
    "link_img": "https://live.staticflickr.com/65535/50039327911_614a32591b_o.jpg",
    "id_image": "Artistic_286161",
    "count_view": 0
  },
  {
    "link_thumb": "https://live.staticflickr.com/65535/50039933246_f3468e2f68_n.jpg",
    "id_album": "395161030",
    "description": "Planet_351708",
    "title": "Planet_351708",
    "link_img": "https://live.staticflickr.com/65535/50039933246_f1c73b0c1e_o.jpg",
    "id_image": "Planet_351708",
    "count_view": 0
  },
  {
    "link_thumb": "https://live.staticflickr.com/65535/50041266431_801d72372f_n.jpg",
    "id_album": "-1587696329",
    "description": "Stars_421662",
    "title": "Stars_421662",
    "link_img": "https://live.staticflickr.com/65535/50041266431_72993ab4d4_o.jpg",
    "id_image": "Stars_421662",
    "count_view": 0
  },
  {
    "link_thumb": "https://live.staticflickr.com/65535/50040069977_44c758b72e_n.jpg",
    "id_album": "-1610342324",
    "description": "Nebula_547702",
    "title": "Nebula_547702",
    "link_img": "https://live.staticflickr.com/65535/50040069977_4029c9c032_o.jpg",
    "id_image": "Nebula_547702",
    "count_view": 0
  },
  {
    "link_thumb": "https://live.staticflickr.com/65535/50039908192_93763481d1_n.jpg",
    "id_album": "1204249541",
    "description": "Galaxy_58726",
    "title": "Galaxy_58726",
    "link_img": "https://live.staticflickr.com/65535/50039908192_9227a62f6b_o.jpg",
    "id_image": "Galaxy_58726",
    "count_view": 0
  },
  {
    "link_thumb": "https://live.staticflickr.com/65535/50039529261_edc841190e_n.jpg",
    "id_album": "-1964113117",
    "description": "City_971390",
    "title": "City_971390",
    "link_img": "https://live.staticflickr.com/65535/50039529261_2c158bd0c8_o.jpg",
    "id_image": "City_971390",
    "count_view": 0
  },
  {
    "link_thumb": "https://live.staticflickr.com/65535/50039872907_f7c63358ce_n.jpg",
    "id_album": "651930207",
    "description": "Explosion_370785",
    "title": "Explosion_370785",
    "link_img": "https://live.staticflickr.com/65535/50039872907_328cae396c_o.jpg",
    "id_image": "Explosion_370785",
    "count_view": 0
  },
  {
    "link_thumb": "https://live.staticflickr.com/65535/50040300103_8fc449f8f3_n.jpg",
    "id_album": "-1449720967",
    "description": "StarTrek_339024",
    "title": "StarTrek_339024",
    "link_img": "https://live.staticflickr.com/65535/50040300103_2306dc9c3f_o.jpg",
    "id_image": "StarTrek_339024",
    "count_view": 0
  },
  {
    "link_thumb": "https://live.staticflickr.com/65535/50040555171_de96ed0263_n.jpg",
    "id_album": "1613540653",
    "description": "Space_975730",
    "title": "Space_975730",
    "link_img": "https://live.staticflickr.com/65535/50040555171_b51304f3a1_o.jpg",
    "id_image": "Space_975730",
    "count_view": 0
  },
  {
    "link_thumb": "https://live.staticflickr.com/65535/50039777501_8c1ec506f1_n.jpg",
    "id_album": "-1610342324",
    "description": "Nebula_2541",
    "title": "Nebula_2541",
    "link_img": "https://live.staticflickr.com/65535/50039777501_e1218d1ef7_o.jpg",
    "id_image": "Nebula_2541",
    "count_view": 0
  },
  {
    "link_thumb": "https://live.staticflickr.com/65535/50039463936_b6df08e8c9_n.jpg",
    "id_album": "-1964113117",
    "description": "City_332525",
    "title": "City_332525",
    "link_img": "https://live.staticflickr.com/65535/50039463936_fe05499c4e_o.jpg",
    "id_image": "City_332525",
    "count_view": 0
  },
  {
    "link_thumb": "https://live.staticflickr.com/65535/50040183757_55bc58e13f_n.jpg",
    "id_album": "395161030",
    "description": "Planet_210868",
    "title": "Planet_210868",
    "link_img": "https://live.staticflickr.com/65535/50040183757_5a37a12ae5_o.jpg",
    "id_image": "Planet_210868",
    "count_view": 0
  },
  {
    "link_thumb": "https://live.staticflickr.com/65535/50041284241_f895027b11_n.jpg",
    "id_album": "-1587696329",
    "description": "Stars_956500",
    "title": "Stars_956500",
    "link_img": "https://live.staticflickr.com/65535/50041284241_2eb4a3c529_o.jpg",
    "id_image": "Stars_956500",
    "count_view": 0
  },
  {
    "link_thumb": "https://live.staticflickr.com/65535/50041335116_705bfcbb90_n.jpg",
    "id_album": "1267121215",
    "description": "Steampunk_912945",
    "title": "Steampunk_912945",
    "link_img": "https://live.staticflickr.com/65535/50041335116_ed47f33081_o.jpg",
    "id_image": "Steampunk_912945",
    "count_view": 0
  },
  {
    "link_thumb": "https://live.staticflickr.com/65535/50039344466_a9c05e609f_n.jpg",
    "id_album": "523598895",
    "description": "Artistic_740043",
    "title": "Artistic_740043",
    "link_img": "https://live.staticflickr.com/65535/50039344466_b857f21353_o.jpg",
    "id_image": "Artistic_740043",
    "count_view": 0
  },
  {
    "link_thumb": "https://live.staticflickr.com/65535/50040229878_c15cb27193_n.jpg",
    "id_album": "2130067313",
    "description": "Spaceship_985119",
    "title": "Spaceship_985119",
    "link_img": "https://live.staticflickr.com/65535/50040229878_ee8e4954e3_o.jpg",
    "id_image": "Spaceship_985119",
    "count_view": 0
  },
  {
    "link_thumb": "https://live.staticflickr.com/65535/50039908518_83af7ff6da_n.jpg",
    "id_album": "1613540653",
    "description": "Space_110332",
    "title": "Space_110332",
    "link_img": "https://live.staticflickr.com/65535/50039908518_45e9e28a8a_o.jpg",
    "id_image": "Space_110332",
    "count_view": 0
  },
  {
    "link_thumb": "https://live.staticflickr.com/65535/50039459596_dbb75d44b5_n.jpg",
    "id_album": "-1964113117",
    "description": "City_291957",
    "title": "City_291957",
    "link_img": "https://live.staticflickr.com/65535/50039459596_91b31e3813_o.jpg",
    "id_image": "City_291957",
    "count_view": 0
  },
  {
    "link_thumb": "https://live.staticflickr.com/65535/50039256783_c8c6359705_n.jpg",
    "id_album": "-1610342324",
    "description": "Nebula_546024",
    "title": "Nebula_546024",
    "link_img": "https://live.staticflickr.com/65535/50039256783_e8b91ce5e8_o.jpg",
    "id_image": "Nebula_546024",
    "count_view": 0
  },
  {
    "link_thumb": "https://live.staticflickr.com/65535/50041309121_602b0246e0_n.jpg",
    "id_album": "1267121215",
    "description": "Steampunk_258451",
    "title": "Steampunk_258451",
    "link_img": "https://live.staticflickr.com/65535/50041309121_48e6e2c6b6_o.jpg",
    "id_image": "Steampunk_258451",
    "count_view": 0
  },
  {
    "link_thumb": "https://live.staticflickr.com/65535/50038966173_5782166d37_n.jpg",
    "id_album": "-1964113117",
    "description": "City_894321",
    "title": "City_894321",
    "link_img": "https://live.staticflickr.com/65535/50038966173_71c9f148ce_o.jpg",
    "id_image": "City_894321",
    "count_view": 0
  },
  {
    "link_thumb": "https://live.staticflickr.com/65535/50040362487_10fbc986bb_n.jpg",
    "id_album": "-1102314093",
    "description": "Planets_361693",
    "title": "Planets_361693",
    "link_img": "https://live.staticflickr.com/65535/50040362487_ab5bf7f8a8_o.jpg",
    "id_image": "Planets_361693",
    "count_view": 0
  },
  {
    "link_thumb": "https://live.staticflickr.com/65535/50040384416_b4bc991b06_n.jpg",
    "id_album": "779690680",
    "description": "Robot_874029",
    "title": "Robot_874029",
    "link_img": "https://live.staticflickr.com/65535/50040384416_4dbe12890e_o.jpg",
    "id_image": "Robot_874029",
    "count_view": 0
  },
  {
    "link_thumb": "https://live.staticflickr.com/65535/50039737751_97b9f297da_n.jpg",
    "id_album": "-1388385651",
    "description": "MilkyWay_677843",
    "title": "MilkyWay_677843",
    "link_img": "https://live.staticflickr.com/65535/50039737751_bdb7c1d154_o.jpg",
    "id_image": "MilkyWay_677843",
    "count_view": 0
  },
  {
    "link_thumb": "https://live.staticflickr.com/65535/50039275928_8320673c56_n.jpg",
    "id_album": "-1610342324",
    "description": "Nebula_705665",
    "title": "Nebula_705665",
    "link_img": "https://live.staticflickr.com/65535/50039275928_c9928d8997_o.jpg",
    "id_image": "Nebula_705665",
    "count_view": 0
  },
  {
    "link_thumb": "https://live.staticflickr.com/65535/50039078763_28f0f61bd5_n.jpg",
    "id_album": "1204249541",
    "description": "Galaxy_24849",
    "title": "Galaxy_24849",
    "link_img": "https://live.staticflickr.com/65535/50039078763_59a26f2904_o.jpg",
    "id_image": "Galaxy_24849",
    "count_view": 0
  },
  {
    "link_thumb": "https://live.staticflickr.com/65535/50040804652_1075eafd4f_n.jpg",
    "id_album": "1613540653",
    "description": "Space_78677",
    "title": "Space_78677",
    "link_img": "https://live.staticflickr.com/65535/50040804652_2c1509f663_o.jpg",
    "id_image": "Space_78677",
    "count_view": 0
  },
  {
    "link_thumb": "https://live.staticflickr.com/65535/50041012657_a6ac3d1f1c_n.jpg",
    "id_album": "2130067313",
    "description": "Spaceship_785328",
    "title": "Spaceship_785328",
    "link_img": "https://live.staticflickr.com/65535/50041012657_85fee80942_o.jpg",
    "id_image": "Spaceship_785328",
    "count_view": 0
  },
  {
    "link_thumb": "https://live.staticflickr.com/65535/50038839168_b76ac3e5ea_n.jpg",
    "id_album": "869545341",
    "description": "Astronaut_969760",
    "title": "Astronaut_969760",
    "link_img": "https://live.staticflickr.com/65535/50038839168_9e51f392b3_o.jpg",
    "id_image": "Astronaut_969760",
    "count_view": 0
  },
  {
    "link_thumb": "https://live.staticflickr.com/65535/50039871287_117c7750a5_n.jpg",
    "id_album": "651930207",
    "description": "Explosion_2868",
    "title": "Explosion_2868",
    "link_img": "https://live.staticflickr.com/65535/50039871287_1f1c844395_o.jpg",
    "id_image": "Explosion_2868",
    "count_view": 0
  },
  {
    "link_thumb": "https://live.staticflickr.com/65535/50040776776_b328e02d00_n.jpg",
    "id_album": "2130067313",
    "description": "Spaceship_972168",
    "title": "Spaceship_972168",
    "link_img": "https://live.staticflickr.com/65535/50040776776_eba15d9d76_o.jpg",
    "id_image": "Spaceship_972168",
    "count_view": 0
  },
  {
    "link_thumb": "https://live.staticflickr.com/65535/50040988738_6187f99009_n.jpg",
    "id_album": "-1126835654",
    "description": "Women_608896",
    "title": "Women_608896",
    "link_img": "https://live.staticflickr.com/65535/50040988738_36af47bdfd_o.jpg",
    "id_image": "Women_608896",
    "count_view": 0
  },
  {
    "link_thumb": "https://live.staticflickr.com/65535/50039530401_3d03a9e1e7_n.jpg",
    "id_album": "-1964113117",
    "description": "City_975249",
    "title": "City_975249",
    "link_img": "https://live.staticflickr.com/65535/50039530401_9baf5650bf_o.jpg",
    "id_image": "City_975249",
    "count_view": 0
  },
  {
    "link_thumb": "https://live.staticflickr.com/65535/50038810753_4fd44f4910_n.jpg",
    "id_album": "869545341",
    "description": "Astronaut_587343",
    "title": "Astronaut_587343",
    "link_img": "https://live.staticflickr.com/65535/50038810753_ac4bb1828b_o.jpg",
    "id_image": "Astronaut_587343",
    "count_view": 0
  },
  {
    "link_thumb": "https://live.staticflickr.com/65535/50039044468_982865903f_n.jpg",
    "id_album": "829169633",
    "description": "Cyborg_564482",
    "title": "Cyborg_564482",
    "link_img": "https://live.staticflickr.com/65535/50039044468_bc97f28758_o.jpg",
    "id_image": "Cyborg_564482",
    "count_view": 0
  },
  {
    "link_thumb": "https://live.staticflickr.com/65535/50039708747_250e4661b0_n.jpg",
    "id_album": "-1964113117",
    "description": "City_213527",
    "title": "City_213527",
    "link_img": "https://live.staticflickr.com/65535/50039708747_6a37194e44_o.jpg",
    "id_image": "City_213527",
    "count_view": 0
  },
  {
    "link_thumb": "https://live.staticflickr.com/65535/50039278481_4fec0bf99b_n.jpg",
    "id_album": "849020728",
    "description": "Alien_996736",
    "title": "Alien_996736",
    "link_img": "https://live.staticflickr.com/65535/50039278481_8a1ee6cc84_o.jpg",
    "id_image": "Alien_996736",
    "count_view": 0
  },
  {
    "link_thumb": "https://live.staticflickr.com/65535/50039683603_f299db939b_n.jpg",
    "id_album": "-482547208",
    "description": "PostApocalyptic_977198",
    "title": "PostApocalyptic_977198",
    "link_img": "https://live.staticflickr.com/65535/50039683603_2699327a2b_o.jpg",
    "id_image": "PostApocalyptic_977198",
    "count_view": 0
  },
  {
    "link_thumb": "https://live.staticflickr.com/65535/50038768593_50cdf47331_n.jpg",
    "id_album": "523598895",
    "description": "Artistic_220877",
    "title": "Artistic_220877",
    "link_img": "https://live.staticflickr.com/65535/50038768593_6a0c574f2f_o.jpg",
    "id_image": "Artistic_220877",
    "count_view": 0
  },
  {
    "link_thumb": "https://live.staticflickr.com/65535/50040169391_469a72ecd6_n.jpg",
    "id_album": "376235057",
    "description": "Planetscape_376845",
    "title": "Planetscape_376845",
    "link_img": "https://live.staticflickr.com/65535/50040169391_84d80e2730_o.jpg",
    "id_image": "Planetscape_376845",
    "count_view": 0
  },
  {
    "link_thumb": "https://live.staticflickr.com/65535/50038765733_eb5a3c3982_n.jpg",
    "id_album": "523598895",
    "description": "Artistic_209957",
    "title": "Artistic_209957",
    "link_img": "https://live.staticflickr.com/65535/50038765733_43ef1e2484_o.jpg",
    "id_image": "Artistic_209957",
    "count_view": 0
  },
  {
    "link_thumb": "https://live.staticflickr.com/65535/50040048727_17c67e404c_n.jpg",
    "id_album": "-1610342324",
    "description": "Nebula_304916",
    "title": "Nebula_304916",
    "link_img": "https://live.staticflickr.com/65535/50040048727_64423cc30a_o.jpg",
    "id_image": "Nebula_304916",
    "count_view": 0
  },
  {
    "link_thumb": "https://live.staticflickr.com/65535/50039283851_f10cdc73fb_n.jpg",
    "id_album": "-419633230",
    "description": "Apocalyptic_418200",
    "title": "Apocalyptic_418200",
    "link_img": "https://live.staticflickr.com/65535/50039283851_05fdcdd881_o.jpg",
    "id_image": "Apocalyptic_418200",
    "count_view": 0
  },
  {
    "link_thumb": "https://live.staticflickr.com/65535/50039254721_e4a3b03a45_n.jpg",
    "id_album": "849020728",
    "description": "Alien_217685",
    "title": "Alien_217685",
    "link_img": "https://live.staticflickr.com/65535/50039254721_b4a8004f19_o.jpg",
    "id_image": "Alien_217685",
    "count_view": 0
  },
  {
    "link_thumb": "https://live.staticflickr.com/65535/50040426726_1269e4e7ce_n.jpg",
    "id_album": "779690680",
    "description": "Robot_928647",
    "title": "Robot_928647",
    "link_img": "https://live.staticflickr.com/65535/50040426726_08f06734c0_o.jpg",
    "id_image": "Robot_928647",
    "count_view": 0
  },
  {
    "link_thumb": "https://live.staticflickr.com/65535/50039409266_9ee1190df3_n.jpg",
    "id_album": "1187037014",
    "description": "Battle_957796",
    "title": "Battle_957796",
    "link_img": "https://live.staticflickr.com/65535/50039409266_a576a93bf6_o.jpg",
    "id_image": "Battle_957796",
    "count_view": 0
  },
  {
    "link_thumb": "https://live.staticflickr.com/65535/50040694548_4dc08aa26d_n.jpg",
    "id_album": "-1863373220",
    "description": "StarWars_980507",
    "title": "StarWars_980507",
    "link_img": "https://live.staticflickr.com/65535/50040694548_64eecb241d_o.jpg",
    "id_image": "StarWars_980507",
    "count_view": 0
  },
  {
    "link_thumb": "https://live.staticflickr.com/65535/50039850331_971de89383_n.jpg",
    "id_album": "-1610342324",
    "description": "Nebula_893250",
    "title": "Nebula_893250",
    "link_img": "https://live.staticflickr.com/65535/50039850331_d37f454d35_o.jpg",
    "id_image": "Nebula_893250",
    "count_view": 0
  },
  {
    "link_thumb": "https://live.staticflickr.com/65535/50041638192_65b7f5f552_n.jpg",
    "id_album": "2020068132",
    "description": "Vehicle_192943",
    "title": "Vehicle_192943",
    "link_img": "https://live.staticflickr.com/65535/50041638192_680655783d_o.jpg",
    "id_image": "Vehicle_192943",
    "count_view": 0
  },
  {
    "link_thumb": "https://live.staticflickr.com/65535/50041249811_ece1da76fd_n.jpg",
    "id_album": "-1863373220",
    "description": "StarWars_980541",
    "title": "StarWars_980541",
    "link_img": "https://live.staticflickr.com/65535/50041249811_1501f8f87d_o.jpg",
    "id_image": "StarWars_980541",
    "count_view": 0
  },
  {
    "link_thumb": "https://live.staticflickr.com/65535/50039507491_5fb27267c3_n.jpg",
    "id_album": "-1964113117",
    "description": "City_867429",
    "title": "City_867429",
    "link_img": "https://live.staticflickr.com/65535/50039507491_02d771f09b_o.jpg",
    "id_image": "City_867429",
    "count_view": 0
  },
  {
    "link_thumb": "https://live.staticflickr.com/65535/50039643182_287fdbc577_n.jpg",
    "id_album": "869545341",
    "description": "Astronaut_923969",
    "title": "Astronaut_923969",
    "link_img": "https://live.staticflickr.com/65535/50039643182_36169e3746_o.jpg",
    "id_image": "Astronaut_923969",
    "count_view": 0
  },
  {
    "link_thumb": "https://live.staticflickr.com/65535/50039552067_069bb29163_n.jpg",
    "id_album": "-419633230",
    "description": "Apocalyptic_957532",
    "title": "Apocalyptic_957532",
    "link_img": "https://live.staticflickr.com/65535/50039552067_df90acfd75_o.jpg",
    "id_image": "Apocalyptic_957532",
    "count_view": 0
  },
  {
    "link_thumb": "https://live.staticflickr.com/65535/50039723868_dd4d7f61e0_n.jpg",
    "id_album": "779690680",
    "description": "Robot_262877",
    "title": "Robot_262877",
    "link_img": "https://live.staticflickr.com/65535/50039723868_46e35aca96_o.jpg",
    "id_image": "Robot_262877",
    "count_view": 0
  },
  {
    "link_thumb": "https://live.staticflickr.com/65535/50039973138_84683b71a8_n.jpg",
    "id_album": "1613540653",
    "description": "Space_694407",
    "title": "Space_694407",
    "link_img": "https://live.staticflickr.com/65535/50039973138_d8b38fdded_o.jpg",
    "id_image": "Space_694407",
    "count_view": 0
  },
  {
    "link_thumb": "https://live.staticflickr.com/65535/50040898648_7bda980552_n.jpg",
    "id_album": "-1261420436",
    "description": "Warrior_373907",
    "title": "Warrior_373907",
    "link_img": "https://live.staticflickr.com/65535/50040898648_6d84609be8_o.jpg",
    "id_image": "Warrior_373907",
    "count_view": 0
  },
  {
    "link_thumb": "https://live.staticflickr.com/65535/50039833666_0b000b1444_n.jpg",
    "id_album": "-1610342324",
    "description": "Nebula_772691",
    "title": "Nebula_772691",
    "link_img": "https://live.staticflickr.com/65535/50039833666_9154b611fe_o.jpg",
    "id_image": "Nebula_772691",
    "count_view": 0
  },
  {
    "link_thumb": "https://live.staticflickr.com/65535/50038903323_f024fc7659_n.jpg",
    "id_album": "-1964113117",
    "description": "City_236462",
    "title": "City_236462",
    "link_img": "https://live.staticflickr.com/65535/50038903323_ba61a6cda5_o.jpg",
    "id_image": "City_236462",
    "count_view": 0
  },
  {
    "link_thumb": "https://live.staticflickr.com/65535/50040755232_fd3b8a633d_n.jpg",
    "id_album": "1613540653",
    "description": "Space_312428",
    "title": "Space_312428",
    "link_img": "https://live.staticflickr.com/65535/50040755232_a5c91f0f6f_o.jpg",
    "id_image": "Space_312428",
    "count_view": 0
  },
  {
    "link_thumb": "https://live.staticflickr.com/65535/50039220908_2af09bf1de_n.jpg",
    "id_album": "-1610342324",
    "description": "Nebula_212710",
    "title": "Nebula_212710",
    "link_img": "https://live.staticflickr.com/65535/50039220908_392530eda5_o.jpg",
    "id_image": "Nebula_212710",
    "count_view": 0
  },
  {
    "link_thumb": "https://live.staticflickr.com/65535/50041218906_0f202110d3_n.jpg",
    "id_album": "-1863373220",
    "description": "StarWars_716326",
    "title": "StarWars_716326",
    "link_img": "https://live.staticflickr.com/65535/50041218906_56f19593fb_o.jpg",
    "id_image": "StarWars_716326",
    "count_view": 0
  },
  {
    "link_thumb": "https://live.staticflickr.com/65535/50041526527_8fb7e24834_n.jpg",
    "id_album": "-1587696329",
    "description": "Stars_369530",
    "title": "Stars_369530",
    "link_img": "https://live.staticflickr.com/65535/50041526527_21abf5ef5f_o.jpg",
    "id_image": "Stars_369530",
    "count_view": 0
  },
  {
    "link_thumb": "https://live.staticflickr.com/65535/50040415036_e1d8375185_n.jpg",
    "id_album": "779690680",
    "description": "Robot_917207",
    "title": "Robot_917207",
    "link_img": "https://live.staticflickr.com/65535/50040415036_c1917a5a1a_o.jpg",
    "id_image": "Robot_917207",
    "count_view": 0
  },
  {
    "link_thumb": "https://live.staticflickr.com/65535/50039885123_acd2480b65_n.jpg",
    "id_album": "779690680",
    "description": "Robot_944760",
    "title": "Robot_944760",
    "link_img": "https://live.staticflickr.com/65535/50039885123_8a17f70c9e_o.jpg",
    "id_image": "Robot_944760",
    "count_view": 0
  },
  {
    "link_thumb": "https://live.staticflickr.com/65535/50039587223_c004c70032_n.jpg",
    "id_album": "-1102314093",
    "description": "Planets_807190",
    "title": "Planets_807190",
    "link_img": "https://live.staticflickr.com/65535/50039587223_d20d29099d_o.jpg",
    "id_image": "Planets_807190",
    "count_view": 0
  },
  {
    "link_thumb": "https://live.staticflickr.com/65535/50040564067_56d1bd1255_n.jpg",
    "id_album": "779690680",
    "description": "Robot_388640",
    "title": "Robot_388640",
    "link_img": "https://live.staticflickr.com/65535/50040564067_aa7182d2f8_o.jpg",
    "id_image": "Robot_388640",
    "count_view": 0
  },
  {
    "link_thumb": "https://live.staticflickr.com/65535/50041503767_e195265922_n.jpg",
    "id_album": "-1863373220",
    "description": "StarWars_913639",
    "title": "StarWars_913639",
    "link_img": "https://live.staticflickr.com/65535/50041503767_8a27f0e63f_o.jpg",
    "id_image": "StarWars_913639",
    "count_view": 0
  },
  {
    "link_thumb": "https://live.staticflickr.com/65535/50040010911_f00e8b8701_n.jpg",
    "id_album": "1443611160",
    "description": "PlanetRise_696212",
    "title": "PlanetRise_696212",
    "link_img": "https://live.staticflickr.com/65535/50040010911_72953e9660_o.jpg",
    "id_image": "PlanetRise_696212",
    "count_view": 0
  },
  {
    "link_thumb": "https://live.staticflickr.com/65535/50039669656_c6d075a804_n.jpg",
    "id_album": "1402713104",
    "description": "Landscape_282511",
    "title": "Landscape_282511",
    "link_img": "https://live.staticflickr.com/65535/50039669656_de2e1ece3d_o.jpg",
    "id_image": "Landscape_282511",
    "count_view": 0
  },
  {
    "link_thumb": "https://live.staticflickr.com/65535/50039350968_95fbe45329_n.jpg",
    "id_album": "395161030",
    "description": "Planet_1003035",
    "title": "Planet_1003035",
    "link_img": "https://live.staticflickr.com/65535/50039350968_064a32d958_o.jpg",
    "id_image": "Planet_1003035",
    "count_view": 0
  },
  {
    "link_thumb": "https://live.staticflickr.com/65535/50039255418_5e7e9a4c31_n.jpg",
    "id_album": "-1610342324",
    "description": "Nebula_533759",
    "title": "Nebula_533759",
    "link_img": "https://live.staticflickr.com/65535/50039255418_a9ed149704_o.jpg",
    "id_image": "Nebula_533759",
    "count_view": 0
  },
  {
    "link_thumb": "https://live.staticflickr.com/65535/50039138368_9f240c1398_n.jpg",
    "id_album": "1402713104",
    "description": "Landscape_410267",
    "title": "Landscape_410267",
    "link_img": "https://live.staticflickr.com/65535/50039138368_a8e5bfeb6d_o.jpg",
    "id_image": "Landscape_410267",
    "count_view": 0
  },
  {
    "link_thumb": "https://live.staticflickr.com/65535/50041433671_aaab140aa1_n.jpg",
    "id_album": "-1261420436",
    "description": "Warrior_180932",
    "title": "Warrior_180932",
    "link_img": "https://live.staticflickr.com/65535/50041433671_8b6fd78516_o.jpg",
    "id_image": "Warrior_180932",
    "count_view": 0
  },
  {
    "link_thumb": "https://live.staticflickr.com/65535/50040171917_75406aec22_n.jpg",
    "id_album": "395161030",
    "description": "Planet_167856",
    "title": "Planet_167856",
    "link_img": "https://live.staticflickr.com/65535/50040171917_30a8881d3a_o.jpg",
    "id_image": "Planet_167856",
    "count_view": 0
  },
  {
    "link_thumb": "https://live.staticflickr.com/65535/50038771398_0c962028b9_n.jpg",
    "id_album": "523598895",
    "description": "Artistic_225506",
    "title": "Artistic_225506",
    "link_img": "https://live.staticflickr.com/65535/50038771398_f9025aa702_o.jpg",
    "id_image": "Artistic_225506",
    "count_view": 0
  },
  {
    "link_thumb": "https://live.staticflickr.com/65535/50039701858_76760212f5_n.jpg",
    "id_album": "779690680",
    "description": "Robot_145924",
    "title": "Robot_145924",
    "link_img": "https://live.staticflickr.com/65535/50039701858_cbdbae8548_o.jpg",
    "id_image": "Robot_145924",
    "count_view": 0
  },
  {
    "link_thumb": "https://live.staticflickr.com/65535/50039746988_cd64e15963_n.jpg",
    "id_album": "779690680",
    "description": "Robot_389490",
    "title": "Robot_389490",
    "link_img": "https://live.staticflickr.com/65535/50039746988_a9489ae984_o.jpg",
    "id_image": "Robot_389490",
    "count_view": 0
  },
  {
    "link_thumb": "https://live.staticflickr.com/65535/50039817926_b61b0de202_n.jpg",
    "id_album": "-1610342324",
    "description": "Nebula_608334",
    "title": "Nebula_608334",
    "link_img": "https://live.staticflickr.com/65535/50039817926_a7e4e500a1_o.jpg",
    "id_image": "Nebula_608334",
    "count_view": 0
  },
  {
    "link_thumb": "https://live.staticflickr.com/65535/50039959752_05af802ce6_n.jpg",
    "id_album": "1402713104",
    "description": "Landscape_6391",
    "title": "Landscape_6391",
    "link_img": "https://live.staticflickr.com/65535/50039959752_f7daae072a_o.jpg",
    "id_image": "Landscape_6391",
    "count_view": 0
  },
  {
    "link_thumb": "https://live.staticflickr.com/65535/50038726568_5dfe3333e7_n.jpg",
    "id_album": "849020728",
    "description": "Alien_804042",
    "title": "Alien_804042",
    "link_img": "https://live.staticflickr.com/65535/50038726568_da16ee20dc_o.jpg",
    "id_image": "Alien_804042",
    "count_view": 0
  },
  {
    "link_thumb": "https://live.staticflickr.com/65535/50040787308_701b50564a_n.jpg",
    "id_album": "-221671103",
    "description": "Sun_223222",
    "title": "Sun_223222",
    "link_img": "https://live.staticflickr.com/65535/50040787308_8e93af61dd_o.jpg",
    "id_image": "Sun_223222",
    "count_view": 0
  },
  {
    "link_thumb": "https://live.staticflickr.com/65535/50039840393_362ab7f104_n.jpg",
    "id_album": "779690680",
    "description": "Robot_884818",
    "title": "Robot_884818",
    "link_img": "https://live.staticflickr.com/65535/50039840393_0c266092de_o.jpg",
    "id_image": "Robot_884818",
    "count_view": 0
  },
  {
    "link_thumb": "https://live.staticflickr.com/65535/50039586312_0bb72b2888_n.jpg",
    "id_album": "523598895",
    "description": "Artistic_255969",
    "title": "Artistic_255969",
    "link_img": "https://live.staticflickr.com/65535/50039586312_f8071a1661_o.jpg",
    "id_image": "Artistic_255969",
    "count_view": 0
  },
  {
    "link_thumb": "https://live.staticflickr.com/65535/50040257828_17b44e936a_n.jpg",
    "id_album": "-1449720967",
    "description": "StarTrek_248609",
    "title": "StarTrek_248609",
    "link_img": "https://live.staticflickr.com/65535/50040257828_3c0a0bbd95_o.jpg",
    "id_image": "StarTrek_248609",
    "count_view": 0
  },
  {
    "link_thumb": "https://live.staticflickr.com/65535/50039550082_479b552b2a_n.jpg",
    "id_album": "-419633230",
    "description": "Apocalyptic_957340",
    "title": "Apocalyptic_957340",
    "link_img": "https://live.staticflickr.com/65535/50039550082_48929cab07_o.jpg",
    "id_image": "Apocalyptic_957340",
    "count_view": 0
  },
  {
    "link_thumb": "https://live.staticflickr.com/65535/50039495186_6c612f2636_n.jpg",
    "id_album": "-1964113117",
    "description": "City_750010",
    "title": "City_750010",
    "link_img": "https://live.staticflickr.com/65535/50039495186_d25d19e942_o.jpg",
    "id_image": "City_750010",
    "count_view": 0
  },
  {
    "link_thumb": "https://live.staticflickr.com/65535/50039354273_94f574b194_n.jpg",
    "id_album": "395161030",
    "description": "Planet_108239",
    "title": "Planet_108239",
    "link_img": "https://live.staticflickr.com/65535/50039354273_984c0dbcab_o.jpg",
    "id_image": "Planet_108239",
    "count_view": 0
  },
  {
    "link_thumb": "https://live.staticflickr.com/65535/50039667357_1b291c16c8_n.jpg",
    "id_album": "1187037014",
    "description": "Battle_615954",
    "title": "Battle_615954",
    "link_img": "https://live.staticflickr.com/65535/50039667357_d77a41ae63_o.jpg",
    "id_image": "Battle_615954",
    "count_view": 0
  },
  {
    "link_thumb": "https://live.staticflickr.com/65535/50039997752_3510230570_n.jpg",
    "id_album": "-1388385651",
    "description": "MilkyWay_560780",
    "title": "MilkyWay_560780",
    "link_img": "https://live.staticflickr.com/65535/50039997752_558646d62d_o.jpg",
    "id_image": "MilkyWay_560780",
    "count_view": 0
  },
  {
    "link_thumb": "https://live.staticflickr.com/65535/50039702517_a5b9b3953f_n.jpg",
    "id_album": "-1964113117",
    "description": "City_183034",
    "title": "City_183034",
    "link_img": "https://live.staticflickr.com/65535/50039702517_8a50b54fdf_o.jpg",
    "id_image": "City_183034",
    "count_view": 0
  },
  {
    "link_thumb": "https://live.staticflickr.com/65535/50039070423_09b432bf82_n.jpg",
    "id_album": "2104507156",
    "description": "Fantasy_194228",
    "title": "Fantasy_194228",
    "link_img": "https://live.staticflickr.com/65535/50039070423_2934beaffb_o.jpg",
    "id_image": "Fantasy_194228",
    "count_view": 0
  },
  {
    "link_thumb": "https://live.staticflickr.com/65535/50039052743_af1d2239f7_n.jpg",
    "id_album": "829169633",
    "description": "Cyborg_759422",
    "title": "Cyborg_759422",
    "link_img": "https://live.staticflickr.com/65535/50039052743_60df1def1d_o.jpg",
    "id_image": "Cyborg_759422",
    "count_view": 0
  },
  {
    "link_thumb": "https://live.staticflickr.com/65535/50039906176_661676bac0_n.jpg",
    "id_album": "395161030",
    "description": "Planet_155148",
    "title": "Planet_155148",
    "link_img": "https://live.staticflickr.com/65535/50039906176_ace3a8ed61_o.jpg",
    "id_image": "Planet_155148",
    "count_view": 0
  },
  {
    "link_thumb": "https://live.staticflickr.com/65535/50039642291_0042308154_n.jpg",
    "id_album": "1204249541",
    "description": "Galaxy_550128",
    "title": "Galaxy_550128",
    "link_img": "https://live.staticflickr.com/65535/50039642291_05a56058a5_o.jpg",
    "id_image": "Galaxy_550128",
    "count_view": 0
  },
  {
    "link_thumb": "https://live.staticflickr.com/65535/50040116397_222b3d60c2_n.jpg",
    "id_album": "-1610342324",
    "description": "Nebula_922577",
    "title": "Nebula_922577",
    "link_img": "https://live.staticflickr.com/65535/50040116397_6b6feaed4e_o.jpg",
    "id_image": "Nebula_922577",
    "count_view": 0
  },
  {
    "link_thumb": "https://live.staticflickr.com/65535/50041703097_2394d9aac7_n.jpg",
    "id_album": "-1261420436",
    "description": "Warrior_268817",
    "title": "Warrior_268817",
    "link_img": "https://live.staticflickr.com/65535/50041703097_ca2a6d2a19_o.jpg",
    "id_image": "Warrior_268817",
    "count_view": 0
  },
  {
    "link_thumb": "https://live.staticflickr.com/65535/50039603208_cc0c285278_n.jpg",
    "id_album": "376235057",
    "description": "Planetscape_261187",
    "title": "Planetscape_261187",
    "link_img": "https://live.staticflickr.com/65535/50039603208_f61873a757_o.jpg",
    "id_image": "Planetscape_261187",
    "count_view": 0
  },
  {
    "link_thumb": "https://live.staticflickr.com/65535/50039855372_e5313ccdd1_n.jpg",
    "id_album": "829169633",
    "description": "Cyborg_545494",
    "title": "Cyborg_545494",
    "link_img": "https://live.staticflickr.com/65535/50039855372_5fb5714aa9_o.jpg",
    "id_image": "Cyborg_545494",
    "count_view": 0
  },
  {
    "link_thumb": "https://live.staticflickr.com/65535/50039597113_53e3d488e8_n.jpg",
    "id_album": "-1102314093",
    "description": "Planets_957334",
    "title": "Planets_957334",
    "link_img": "https://live.staticflickr.com/65535/50039597113_97e63c58b2_o.jpg",
    "id_image": "Planets_957334",
    "count_view": 0
  },
  {
    "link_thumb": "https://live.staticflickr.com/65535/50041461577_6bbc1d190a_n.jpg",
    "id_album": "-1863373220",
    "description": "StarWars_590407",
    "title": "StarWars_590407",
    "link_img": "https://live.staticflickr.com/65535/50041461577_2f024fded0_o.jpg",
    "id_image": "StarWars_590407",
    "count_view": 0
  },
  {
    "link_thumb": "https://live.staticflickr.com/65535/50040344992_1be4094a48_n.jpg",
    "id_album": "-1102314093",
    "description": "Planets_32584",
    "title": "Planets_32584",
    "link_img": "https://live.staticflickr.com/65535/50040344992_cc8f427e07_o.jpg",
    "id_image": "Planets_32584",
    "count_view": 0
  },
  {
    "link_thumb": "https://live.staticflickr.com/65535/50039235633_ecb43aecea_n.jpg",
    "id_album": "-1610342324",
    "description": "Nebula_306650",
    "title": "Nebula_306650",
    "link_img": "https://live.staticflickr.com/65535/50039235633_ba457d6746_o.jpg",
    "id_image": "Nebula_306650",
    "count_view": 0
  },
  {
    "link_thumb": "https://live.staticflickr.com/65535/50039106558_84b5a464ec_n.jpg",
    "id_album": "1204249541",
    "description": "Galaxy_905628",
    "title": "Galaxy_905628",
    "link_img": "https://live.staticflickr.com/65535/50039106558_e8b65c48ef_o.jpg",
    "id_image": "Galaxy_905628",
    "count_view": 0
  },
  {
    "link_thumb": "https://live.staticflickr.com/65535/50039920292_28ede4f717_n.jpg",
    "id_album": "1204249541",
    "description": "Galaxy_957473",
    "title": "Galaxy_957473",
    "link_img": "https://live.staticflickr.com/65535/50039920292_e4658c6b0d_o.jpg",
    "id_image": "Galaxy_957473",
    "count_view": 0
  },
  {
    "link_thumb": "https://live.staticflickr.com/65535/50039787696_29a7f0bc15_n.jpg",
    "id_album": "-1610342324",
    "description": "Nebula_363730",
    "title": "Nebula_363730",
    "link_img": "https://live.staticflickr.com/65535/50039787696_46fc81412d_o.jpg",
    "id_image": "Nebula_363730",
    "count_view": 0
  },
  {
    "link_thumb": "https://live.staticflickr.com/65535/50039922501_1521de8191_n.jpg",
    "id_album": "395161030",
    "description": "Planet_286824",
    "title": "Planet_286824",
    "link_img": "https://live.staticflickr.com/65535/50039922501_72f4dcbb3c_o.jpg",
    "id_image": "Planet_286824",
    "count_view": 0
  },
  {
    "link_thumb": "https://live.staticflickr.com/65535/50039548253_2d175c5921_n.jpg",
    "id_album": "-1102314093",
    "description": "Planets_361692",
    "title": "Planets_361692",
    "link_img": "https://live.staticflickr.com/65535/50039548253_a3c4f19015_o.jpg",
    "id_image": "Planets_361692",
    "count_view": 0
  },
  {
    "link_thumb": "https://live.staticflickr.com/65535/50039357641_19f6e66e65_n.jpg",
    "id_album": "869545341",
    "description": "Astronaut_557605",
    "title": "Astronaut_557605",
    "link_img": "https://live.staticflickr.com/65535/50039357641_9b0ea19074_o.jpg",
    "id_image": "Astronaut_557605",
    "count_view": 0
  },
  {
    "link_thumb": "https://live.staticflickr.com/65535/50038882168_5dd3146770_n.jpg",
    "id_album": "-1964113117",
    "description": "City_103237",
    "title": "City_103237",
    "link_img": "https://live.staticflickr.com/65535/50038882168_f3566cd276_o.jpg",
    "id_image": "City_103237",
    "count_view": 0
  },
  {
    "link_thumb": "https://live.staticflickr.com/65535/50040752923_368539a5c1_n.jpg",
    "id_album": "1267121215",
    "description": "Steampunk_239583",
    "title": "Steampunk_239583",
    "link_img": "https://live.staticflickr.com/65535/50040752923_ae1e384daf_o.jpg",
    "id_image": "Steampunk_239583",
    "count_view": 0
  },
  {
    "link_thumb": "https://live.staticflickr.com/65535/50039940857_6944cb7149_n.jpg",
    "id_album": "1402713104",
    "description": "Landscape_328307",
    "title": "Landscape_328307",
    "link_img": "https://live.staticflickr.com/65535/50039940857_2c792dc0d3_o.jpg",
    "id_image": "Landscape_328307",
    "count_view": 0
  },
  {
    "link_thumb": "https://live.staticflickr.com/65535/50039085638_f3f1f15e65_n.jpg",
    "id_album": "1204249541",
    "description": "Galaxy_441052",
    "title": "Galaxy_441052",
    "link_img": "https://live.staticflickr.com/65535/50039085638_1dab90f29d_o.jpg",
    "id_image": "Galaxy_441052",
    "count_view": 0
  },
  {
    "link_thumb": "https://live.staticflickr.com/65535/50039701061_54ac8d779a_n.jpg",
    "id_album": "1402713104",
    "description": "Landscape_706882",
    "title": "Landscape_706882",
    "link_img": "https://live.staticflickr.com/65535/50039701061_a66d9b9ab3_o.jpg",
    "id_image": "Landscape_706882",
    "count_view": 0
  },
  {
    "link_thumb": "https://live.staticflickr.com/65535/50040562547_51d3432fef_n.jpg",
    "id_album": "779690680",
    "description": "Robot_376314",
    "title": "Robot_376314",
    "link_img": "https://live.staticflickr.com/65535/50040562547_409a137410_o.jpg",
    "id_image": "Robot_376314",
    "count_view": 0
  },
  {
    "link_thumb": "https://live.staticflickr.com/65535/50038776493_0d4722567a_n.jpg",
    "id_album": "523598895",
    "description": "Artistic_250290",
    "title": "Artistic_250290",
    "link_img": "https://live.staticflickr.com/65535/50038776493_c00ab2e99b_o.jpg",
    "id_image": "Artistic_250290",
    "count_view": 0
  },
  {
    "link_thumb": "https://live.staticflickr.com/65535/50040060397_33d86e2d0c_n.jpg",
    "id_album": "-1610342324",
    "description": "Nebula_440483",
    "title": "Nebula_440483",
    "link_img": "https://live.staticflickr.com/65535/50040060397_38b2ca38ff_o.jpg",
    "id_image": "Nebula_440483",
    "count_view": 0
  },
  {
    "link_thumb": "https://live.staticflickr.com/65535/50039650742_3fbc2254e2_n.jpg",
    "id_album": "869545341",
    "description": "Astronaut_971255",
    "title": "Astronaut_971255",
    "link_img": "https://live.staticflickr.com/65535/50039650742_a4f551daed_o.jpg",
    "id_image": "Astronaut_971255",
    "count_view": 0
  },
  {
    "link_thumb": "https://live.staticflickr.com/65535/50039901521_e925523748_n.jpg",
    "id_album": "395161030",
    "description": "Planet_1006077",
    "title": "Planet_1006077",
    "link_img": "https://live.staticflickr.com/65535/50039901521_89c5abce31_o.jpg",
    "id_image": "Planet_1006077",
    "count_view": 0
  },
  {
    "link_thumb": "https://live.staticflickr.com/65535/50040263522_06a220168d_n.jpg",
    "id_album": "1443611160",
    "description": "PlanetRise_287016",
    "title": "PlanetRise_287016",
    "link_img": "https://live.staticflickr.com/65535/50040263522_23640c196b_o.jpg",
    "id_image": "PlanetRise_287016",
    "count_view": 0
  },
  {
    "link_thumb": "https://live.staticflickr.com/65535/50039794921_e1cf4b8d38_n.jpg",
    "id_album": "-1610342324",
    "description": "Nebula_422149",
    "title": "Nebula_422149",
    "link_img": "https://live.staticflickr.com/65535/50039794921_14429d19e1_o.jpg",
    "id_image": "Nebula_422149",
    "count_view": 0
  },
  {
    "link_thumb": "https://live.staticflickr.com/65535/50039433606_3316558ca6_n.jpg",
    "id_album": "-1964113117",
    "description": "City_118677",
    "title": "City_118677",
    "link_img": "https://live.staticflickr.com/65535/50039433606_dbe69aeddb_o.jpg",
    "id_image": "City_118677",
    "count_view": 0
  },
  {
    "link_thumb": "https://live.staticflickr.com/65535/50039078368_b24e5a7e8f_n.jpg",
    "id_album": "1204249541",
    "description": "Galaxy_235286",
    "title": "Galaxy_235286",
    "link_img": "https://live.staticflickr.com/65535/50039078368_df6d0a6632_o.jpg",
    "id_image": "Galaxy_235286",
    "count_view": 0
  },
  {
    "link_thumb": "https://live.staticflickr.com/65535/50041398796_187033f465_n.jpg",
    "id_album": "2020068132",
    "description": "Vehicle_412736",
    "title": "Vehicle_412736",
    "link_img": "https://live.staticflickr.com/65535/50041398796_b04689cd06_o.jpg",
    "id_image": "Vehicle_412736",
    "count_view": 0
  },
  {
    "link_thumb": "https://live.staticflickr.com/65535/50041692782_259fe6ecfa_n.jpg",
    "id_album": "-1261420436",
    "description": "Warrior_112335",
    "title": "Warrior_112335",
    "link_img": "https://live.staticflickr.com/65535/50041692782_5e6e66a611_o.jpg",
    "id_image": "Warrior_112335",
    "count_view": 0
  },
  {
    "link_thumb": "https://live.staticflickr.com/65535/50040453317_c91a88cb6c_n.jpg",
    "id_album": "-482547208",
    "description": "PostApocalyptic_112258",
    "title": "PostApocalyptic_112258",
    "link_img": "https://live.staticflickr.com/65535/50040453317_587d1fc75b_o.jpg",
    "id_image": "PostApocalyptic_112258",
    "count_view": 0
  },
  {
    "link_thumb": "https://live.staticflickr.com/65535/50039964506_639755913f_n.jpg",
    "id_album": "395161030",
    "description": "Planet_56300",
    "title": "Planet_56300",
    "link_img": "https://live.staticflickr.com/65535/50039964506_55bbb38065_o.jpg",
    "id_image": "Planet_56300",
    "count_view": 0
  },
  {
    "link_thumb": "https://live.staticflickr.com/65535/50039643306_aaa0eccb64_n.jpg",
    "id_album": "1204249541",
    "description": "Galaxy_559143",
    "title": "Galaxy_559143",
    "link_img": "https://live.staticflickr.com/65535/50039643306_54fc035ac9_o.jpg",
    "id_image": "Galaxy_559143",
    "count_view": 0
  },
  {
    "link_thumb": "https://live.staticflickr.com/65535/50041419316_e4537872c6_n.jpg",
    "id_album": "2020068132",
    "description": "Vehicle_905534",
    "title": "Vehicle_905534",
    "link_img": "https://live.staticflickr.com/65535/50041419316_5d22936e11_o.jpg",
    "id_image": "Vehicle_905534",
    "count_view": 0
  },
  {
    "link_thumb": "https://live.staticflickr.com/65535/50039978463_9a2c17c7e7_n.jpg",
    "id_album": "1613540653",
    "description": "Space_719904",
    "title": "Space_719904",
    "link_img": "https://live.staticflickr.com/65535/50039978463_384812a457_o.jpg",
    "id_image": "Space_719904",
    "count_view": 0
  },
  {
    "link_thumb": "https://live.staticflickr.com/65535/50039249443_77f4c8ce0a_n.jpg",
    "id_album": "-1610342324",
    "description": "Nebula_44996",
    "title": "Nebula_44996",
    "link_img": "https://live.staticflickr.com/65535/50039249443_fe3dee12bb_o.jpg",
    "id_image": "Nebula_44996",
    "count_view": 0
  },
  {
    "link_thumb": "https://live.staticflickr.com/65535/50039932193_8864912259_n.jpg",
    "id_album": "1613540653",
    "description": "Space_286946",
    "title": "Space_286946",
    "link_img": "https://live.staticflickr.com/65535/50039932193_e837491b76_o.jpg",
    "id_image": "Space_286946",
    "count_view": 0
  },
  {
    "link_thumb": "https://live.staticflickr.com/65535/50039777261_57d6f83b9c_n.jpg",
    "id_album": "-1610342324",
    "description": "Nebula_2533",
    "title": "Nebula_2533",
    "link_img": "https://live.staticflickr.com/65535/50039777261_1496f6f89a_o.jpg",
    "id_image": "Nebula_2533",
    "count_view": 0
  },
  {
    "link_thumb": "https://live.staticflickr.com/65535/50040034782_d6d8711061_n.jpg",
    "id_album": "-1610342324",
    "description": "Nebula_216925",
    "title": "Nebula_216925",
    "link_img": "https://live.staticflickr.com/65535/50040034782_9ca8990d04_o.jpg",
    "id_image": "Nebula_216925",
    "count_view": 0
  },
  {
    "link_thumb": "https://live.staticflickr.com/65535/50040201657_346430a541_n.jpg",
    "id_album": "395161030",
    "description": "Planet_363682",
    "title": "Planet_363682",
    "link_img": "https://live.staticflickr.com/65535/50040201657_b2ccbe537b_o.jpg",
    "id_image": "Planet_363682",
    "count_view": 0
  },
  {
    "link_thumb": "https://live.staticflickr.com/65535/50038699178_11ec2631bc_n.jpg",
    "id_album": "849020728",
    "description": "Alien_152631",
    "title": "Alien_152631",
    "link_img": "https://live.staticflickr.com/65535/50038699178_a8eedc5aa9_o.jpg",
    "id_image": "Alien_152631",
    "count_view": 0
  },
  {
    "link_thumb": "https://live.staticflickr.com/65535/50039610306_bc740fd64d_n.jpg",
    "id_album": "651930207",
    "description": "Explosion_370815",
    "title": "Explosion_370815",
    "link_img": "https://live.staticflickr.com/65535/50039610306_e6bce1a3ce_o.jpg",
    "id_image": "Explosion_370815",
    "count_view": 0
  },
  {
    "link_thumb": "https://live.staticflickr.com/65535/50039689006_55e327e523_n.jpg",
    "id_album": "1402713104",
    "description": "Landscape_441279",
    "title": "Landscape_441279",
    "link_img": "https://live.staticflickr.com/65535/50039689006_d1e2e6dd22_o.jpg",
    "id_image": "Landscape_441279",
    "count_view": 0
  },
  {
    "link_thumb": "https://live.staticflickr.com/65535/50039413206_4d82ea1f2a_n.jpg",
    "id_album": "-1780971522",
    "description": "Biohazard_332959",
    "title": "Biohazard_332959",
    "link_img": "https://live.staticflickr.com/65535/50039413206_81fc0b585f_o.jpg",
    "id_image": "Biohazard_332959",
    "count_view": 0
  },
  {
    "link_thumb": "https://live.staticflickr.com/65535/50039302993_15aa956093_n.jpg",
    "id_album": "-1610342324",
    "description": "Nebula_922578",
    "title": "Nebula_922578",
    "link_img": "https://live.staticflickr.com/65535/50039302993_f4f69a73ee_o.jpg",
    "id_image": "Nebula_922578",
    "count_view": 0
  }
]