[
  {
    "link_thumb": "https://live.staticflickr.com/65535/50038730893_f627ac0246_n.jpg",
    "id_album": "-419633230",
    "description": "Apocalyptic_116807",
    "title": "Apocalyptic_116807",
    "link_img": "https://live.staticflickr.com/65535/50038730893_68d7d64db4_o.jpg",
    "id_image": "Apocalyptic_116807",
    "count_view": 0
  },
  {
    "link_thumb": "https://live.staticflickr.com/65535/50039943083_fc14ee64b9_n.jpg",
    "id_album": "1613540653",
    "description": "Space_347115",
    "title": "Space_347115",
    "link_img": "https://live.staticflickr.com/65535/50039943083_3d9a20ac48_o.jpg",
    "id_image": "Space_347115",
    "count_view": 0
  },
  {
    "link_thumb": "https://live.staticflickr.com/65535/50039236171_05b3cb10f5_n.jpg",
    "id_album": "-406145265",
    "description": "Aircraft_269816",
    "title": "Aircraft_269816",
    "link_img": "https://live.staticflickr.com/65535/50039236171_0265b8cafc_o.jpg",
    "id_image": "Aircraft_269816",
    "count_view": 0
  },
  {
    "link_thumb": "https://live.staticflickr.com/65535/50041550656_aa4cb95652_n.jpg",
    "id_album": "-1126835654",
    "description": "Women_911000",
    "title": "Women_911000",
    "link_img": "https://live.staticflickr.com/65535/50041550656_251482dd1f_o.jpg",
    "id_image": "Women_911000",
    "count_view": 0
  },
  {
    "link_thumb": "https://live.staticflickr.com/65535/50039333591_4b7b2afc78_n.jpg",
    "id_album": "523598895",
    "description": "Artistic_397382",
    "title": "Artistic_397382",
    "link_img": "https://live.staticflickr.com/65535/50039333591_2979c7fe58_o.jpg",
    "id_image": "Artistic_397382",
    "count_view": 0
  },
  {
    "link_thumb": "https://live.staticflickr.com/65535/50039660976_09abfcef3a_n.jpg",
    "id_album": "1402713104",
    "description": "Landscape_151181",
    "title": "Landscape_151181",
    "link_img": "https://live.staticflickr.com/65535/50039660976_fe25dbff0c_o.jpg",
    "id_image": "Landscape_151181",
    "count_view": 0
  },
  {
    "link_thumb": "https://live.staticflickr.com/65535/50039886737_94af319445_n.jpg",
    "id_album": "1204249541",
    "description": "Galaxy_107614",
    "title": "Galaxy_107614",
    "link_img": "https://live.staticflickr.com/65535/50039886737_dfc9497c61_o.jpg",
    "id_image": "Galaxy_107614",
    "count_view": 0
  },
  {
    "link_thumb": "https://live.staticflickr.com/65535/50039539266_d2f73cb172_n.jpg",
    "id_album": "894679094",
    "description": "Collision_324633",
    "title": "Collision_324633",
    "link_img": "https://live.staticflickr.com/65535/50039539266_18d42d3457_o.jpg",
    "id_image": "Collision_324633",
    "count_view": 0
  },
  {
    "link_thumb": "https://live.staticflickr.com/65535/50039074673_79fa0c2f63_n.jpg",
    "id_album": "1204249541",
    "description": "Galaxy_101692",
    "title": "Galaxy_101692",
    "link_img": "https://live.staticflickr.com/65535/50039074673_fd69118caf_o.jpg",
    "id_image": "Galaxy_101692",
    "count_view": 0
  },
  {
    "link_thumb": "https://live.staticflickr.com/65535/50040815368_7e63465fac_n.jpg",
    "id_album": "-1177476763",
    "description": "Sunrise_857570",
    "title": "Sunrise_857570",
    "link_img": "https://live.staticflickr.com/65535/50040815368_5225a5f360_o.jpg",
    "id_image": "Sunrise_857570",
    "count_view": 0
  },
  {
    "link_thumb": "https://live.staticflickr.com/65535/50039901102_b0c976c2de_n.jpg",
    "id_album": "1204249541",
    "description": "Galaxy_505514",
    "title": "Galaxy_505514",
    "link_img": "https://live.staticflickr.com/65535/50039901102_75d1a3ae66_o.jpg",
    "id_image": "Galaxy_505514",
    "count_view": 0
  },
  {
    "link_thumb": "https://live.staticflickr.com/65535/50039491352_6e4d9823cb_n.jpg",
    "id_album": "280884763",
    "description": "Abstract_286767",
    "title": "Abstract_286767",
    "link_img": "https://live.staticflickr.com/65535/50039491352_751097a9a0_o.jpg",
    "id_image": "Abstract_286767",
    "count_view": 0
  },
  {
    "link_thumb": "https://live.staticflickr.com/65535/50040254111_875bf2f80d_n.jpg",
    "id_album": "779690680",
    "description": "Robot_129813",
    "title": "Robot_129813",
    "link_img": "https://live.staticflickr.com/65535/50040254111_8927a5afe5_o.jpg",
    "id_image": "Robot_129813",
    "count_view": 0
  },
  {
    "link_thumb": "https://live.staticflickr.com/65535/50040931958_4c505aa176_n.jpg",
    "id_album": "-1261420436",
    "description": "Warrior_715711",
    "title": "Warrior_715711",
    "link_img": "https://live.staticflickr.com/65535/50040931958_d760ece0e9_o.jpg",
    "id_image": "Warrior_715711",
    "count_view": 0
  },
  {
    "link_thumb": "https://live.staticflickr.com/65535/50039490912_d7f5816a69_n.jpg",
    "id_album": "280884763",
    "description": "Abstract_229319",
    "title": "Abstract_229319",
    "link_img": "https://live.staticflickr.com/65535/50039490912_54dcd18721_o.jpg",
    "id_image": "Abstract_229319",
    "count_view": 0
  },
  {
    "link_thumb": "https://live.staticflickr.com/65535/50039395206_2948d9cc40_n.jpg",
    "id_album": "1187037014",
    "description": "Battle_173806",
    "title": "Battle_173806",
    "link_img": "https://live.staticflickr.com/65535/50039395206_f65349ac5a_o.jpg",
    "id_image": "Battle_173806",
    "count_view": 0
  },
  {
    "link_thumb": "https://live.staticflickr.com/65535/50040998868_c8f81440c6_n.jpg",
    "id_album": "-1126835654",
    "description": "Women_967449",
    "title": "Women_967449",
    "link_img": "https://live.staticflickr.com/65535/50040998868_1282e76f56_o.jpg",
    "id_image": "Women_967449",
    "count_view": 0
  },
  {
    "link_thumb": "https://live.staticflickr.com/65535/50040050752_4562a973fb_n.jpg",
    "id_album": "-1610342324",
    "description": "Nebula_32608",
    "title": "Nebula_32608",
    "link_img": "https://live.staticflickr.com/65535/50040050752_b1e19a7e01_o.jpg",
    "id_image": "Nebula_32608",
    "count_view": 0
  },
  {
    "link_thumb": "https://live.staticflickr.com/65535/50040068822_21f2fbeefb_n.jpg",
    "id_album": "-1610342324",
    "description": "Nebula_533835",
    "title": "Nebula_533835",
    "link_img": "https://live.staticflickr.com/65535/50040068822_87d6d935be_o.jpg",
    "id_image": "Nebula_533835",
    "count_view": 0
  },
  {
    "link_thumb": "https://live.staticflickr.com/65535/50039658363_f8ec6339e9_n.jpg",
    "id_album": "-482547208",
    "description": "PostApocalyptic_424402",
    "title": "PostApocalyptic_424402",
    "link_img": "https://live.staticflickr.com/65535/50039658363_4e368b56f6_o.jpg",
    "id_image": "PostApocalyptic_424402",
    "count_view": 0
  },
  {
    "link_thumb": "https://live.staticflickr.com/65535/50040000447_1f65d8d437_n.jpg",
    "id_album": "-1388385651",
    "description": "MilkyWay_607471",
    "title": "MilkyWay_607471",
    "link_img": "https://live.staticflickr.com/65535/50040000447_136c71e355_o.jpg",
    "id_image": "MilkyWay_607471",
    "count_view": 0
  },
  {
    "link_thumb": "https://live.staticflickr.com/65535/50039553156_423eb8d31b_n.jpg",
    "id_album": "-437872736",
    "description": "Creature_339011",
    "title": "Creature_339011",
    "link_img": "https://live.staticflickr.com/65535/50039553156_311f038483_o.jpg",
    "id_image": "Creature_339011",
    "count_view": 0
  },
  {
    "link_thumb": "https://live.staticflickr.com/65535/50040111956_fe0c3e0b44_n.jpg",
    "id_album": "-1102314093",
    "description": "Planets_419632",
    "title": "Planets_419632",
    "link_img": "https://live.staticflickr.com/65535/50040111956_cafae3f439_o.jpg",
    "id_image": "Planets_419632",
    "count_view": 0
  },
  {
    "link_thumb": "https://live.staticflickr.com/65535/50040710741_9a5b9ea642_n.jpg",
    "id_album": "2130067313",
    "description": "Spaceship_532547",
    "title": "Spaceship_532547",
    "link_img": "https://live.staticflickr.com/65535/50040710741_a1ba32cc25_o.jpg",
    "id_image": "Spaceship_532547",
    "count_view": 0
  },
  {
    "link_thumb": "https://live.staticflickr.com/65535/50039899687_00df7c69fa_n.jpg",
    "id_album": "1204249541",
    "description": "Galaxy_454253",
    "title": "Galaxy_454253",
    "link_img": "https://live.staticflickr.com/65535/50039899687_c52c024539_o.jpg",
    "id_image": "Galaxy_454253",
    "count_view": 0
  },
  {
    "link_thumb": "https://live.staticflickr.com/65535/50039812943_0880dca44b_n.jpg",
    "id_album": "779690680",
    "description": "Robot_777005",
    "title": "Robot_777005",
    "link_img": "https://live.staticflickr.com/65535/50039812943_0b627374b7_o.jpg",
    "id_image": "Robot_777005",
    "count_view": 0
  },
  {
    "link_thumb": "https://live.staticflickr.com/65535/50039720051_2ff6d7a20a_n.jpg",
    "id_album": "1402713104",
    "description": "Landscape_900201",
    "title": "Landscape_900201",
    "link_img": "https://live.staticflickr.com/65535/50039720051_383ee3d02b_o.jpg",
    "id_image": "Landscape_900201",
    "count_view": 0
  },
  {
    "link_thumb": "https://live.staticflickr.com/65535/50039724921_71c48ed24f_n.jpg",
    "id_album": "1402713104",
    "description": "Landscape_930907",
    "title": "Landscape_930907",
    "link_img": "https://live.staticflickr.com/65535/50039724921_9babfbfb7c_o.jpg",
    "id_image": "Landscape_930907",
    "count_view": 0
  },
  {
    "link_thumb": "https://live.staticflickr.com/65535/50039850331_971de89383_n.jpg",
    "id_album": "-1610342324",
    "description": "Nebula_893250",
    "title": "Nebula_893250",
    "link_img": "https://live.staticflickr.com/65535/50039850331_d37f454d35_o.jpg",
    "id_image": "Nebula_893250",
    "count_view": 0
  },
  {
    "link_thumb": "https://live.staticflickr.com/65535/50039110628_c9f9b1e2f1_n.jpg",
    "id_album": "1402713104",
    "description": "Landscape_114870",
    "title": "Landscape_114870",
    "link_img": "https://live.staticflickr.com/65535/50039110628_79fc5f4556_o.jpg",
    "id_image": "Landscape_114870",
    "count_view": 0
  },
  {
    "link_thumb": "https://live.staticflickr.com/65535/50038989788_681a43a62f_n.jpg",
    "id_album": "894679094",
    "description": "Collision_284766",
    "title": "Collision_284766",
    "link_img": "https://live.staticflickr.com/65535/50038989788_ac09f03625_o.jpg",
    "id_image": "Collision_284766",
    "count_view": 0
  },
  {
    "link_thumb": "https://live.staticflickr.com/65535/50038682278_d0ae10a1f5_n.jpg",
    "id_album": "280884763",
    "description": "Abstract_286991",
    "title": "Abstract_286991",
    "link_img": "https://live.staticflickr.com/65535/50038682278_6b6f987b25_o.jpg",
    "id_image": "Abstract_286991",
    "count_view": 0
  },
  {
    "link_thumb": "https://live.staticflickr.com/65535/50039904621_9fb06c528e_n.jpg",
    "id_album": "395161030",
    "description": "Planet_118587",
    "title": "Planet_118587",
    "link_img": "https://live.staticflickr.com/65535/50039904621_993dfa1bb6_o.jpg",
    "id_image": "Planet_118587",
    "count_view": 0
  },
  {
    "link_thumb": "https://live.staticflickr.com/65535/50039597113_53e3d488e8_n.jpg",
    "id_album": "-1102314093",
    "description": "Planets_957334",
    "title": "Planets_957334",
    "link_img": "https://live.staticflickr.com/65535/50039597113_97e63c58b2_o.jpg",
    "id_image": "Planets_957334",
    "count_view": 0
  },
  {
    "link_thumb": "https://live.staticflickr.com/65535/50040284501_aa4fdc51b4_n.jpg",
    "id_album": "779690680",
    "description": "Robot_304597",
    "title": "Robot_304597",
    "link_img": "https://live.staticflickr.com/65535/50040284501_0918ca54ef_o.jpg",
    "id_image": "Robot_304597",
    "count_view": 0
  },
  {
    "link_thumb": "https://live.staticflickr.com/65535/50039545051_252dcfaf14_n.jpg",
    "id_album": "894679094",
    "description": "Collision_957418",
    "title": "Collision_957418",
    "link_img": "https://live.staticflickr.com/65535/50039545051_c222cb5c3a_o.jpg",
    "id_image": "Collision_957418",
    "count_view": 0
  },
  {
    "link_thumb": "https://live.staticflickr.com/65535/50040167177_91403bf913_n.jpg",
    "id_album": "395161030",
    "description": "Planet_103242",
    "title": "Planet_103242",
    "link_img": "https://live.staticflickr.com/65535/50040167177_95fbc2ff06_o.jpg",
    "id_image": "Planet_103242",
    "count_view": 0
  },
  {
    "link_thumb": "https://live.staticflickr.com/65535/50039629087_ec10ca2cb7_n.jpg",
    "id_album": "869545341",
    "description": "Astronaut_774482",
    "title": "Astronaut_774482",
    "link_img": "https://live.staticflickr.com/65535/50039629087_60df2303a2_o.jpg",
    "id_image": "Astronaut_774482",
    "count_view": 0
  },
  {
    "link_thumb": "https://live.staticflickr.com/65535/50040609072_4335143572_n.jpg",
    "id_album": "779690680",
    "description": "Robot_616406",
    "title": "Robot_616406",
    "link_img": "https://live.staticflickr.com/65535/50040609072_d5aeda4327_o.jpg",
    "id_image": "Robot_616406",
    "count_view": 0
  },
  {
    "link_thumb": "https://live.staticflickr.com/65535/50039359603_20cacee3fa_n.jpg",
    "id_album": "395161030",
    "description": "Planet_173023",
    "title": "Planet_173023",
    "link_img": "https://live.staticflickr.com/65535/50039359603_ae53f89bd4_o.jpg",
    "id_image": "Planet_173023",
    "count_view": 0
  },
  {
    "link_thumb": "https://live.staticflickr.com/65535/50040429081_e06002b649_n.jpg",
    "id_album": "779690680",
    "description": "Robot_931802",
    "title": "Robot_931802",
    "link_img": "https://live.staticflickr.com/65535/50040429081_40043d07b0_o.jpg",
    "id_image": "Robot_931802",
    "count_view": 0
  },
  {
    "link_thumb": "https://live.staticflickr.com/65535/50040480922_950edd208c_n.jpg",
    "id_album": "-482547208",
    "description": "PostApocalyptic_599881",
    "title": "PostApocalyptic_599881",
    "link_img": "https://live.staticflickr.com/65535/50040480922_2e0d604ba5_o.jpg",
    "id_image": "PostApocalyptic_599881",
    "count_view": 0
  },
  {
    "link_thumb": "https://live.staticflickr.com/65535/50039355396_217798c324_n.jpg",
    "id_album": "869545341",
    "description": "Astronaut_422156",
    "title": "Astronaut_422156",
    "link_img": "https://live.staticflickr.com/65535/50039355396_778c1e6764_o.jpg",
    "id_image": "Astronaut_422156",
    "count_view": 0
  },
  {
    "link_thumb": "https://live.staticflickr.com/65535/50039410941_27e0b117b3_n.jpg",
    "id_album": "-1780971522",
    "description": "Biohazard_189834",
    "title": "Biohazard_189834",
    "link_img": "https://live.staticflickr.com/65535/50039410941_11d852306e_o.jpg",
    "id_image": "Biohazard_189834",
    "count_view": 0
  },
  {
    "link_thumb": "https://live.staticflickr.com/65535/50040356092_501eec8bf6_n.jpg",
    "id_album": "-1102314093",
    "description": "Planets_350803",
    "title": "Planets_350803",
    "link_img": "https://live.staticflickr.com/65535/50040356092_7f4da54dca_o.jpg",
    "id_image": "Planets_350803",
    "count_view": 0
  },
  {
    "link_thumb": "https://live.staticflickr.com/65535/50040471706_5f9d29bd2b_n.jpg",
    "id_album": "1613540653",
    "description": "Space_171898",
    "title": "Space_171898",
    "link_img": "https://live.staticflickr.com/65535/50040471706_37e893056a_o.jpg",
    "id_image": "Space_171898",
    "count_view": 0
  },
  {
    "link_thumb": "https://live.staticflickr.com/65535/50041736532_84994a9c39_n.jpg",
    "id_album": "-1261420436",
    "description": "Warrior_564436",
    "title": "Warrior_564436",
    "link_img": "https://live.staticflickr.com/65535/50041736532_e323729e2d_o.jpg",
    "id_image": "Warrior_564436",
    "count_view": 0
  },
  {
    "link_thumb": "https://live.staticflickr.com/65535/50039914642_ea6201651a_n.jpg",
    "id_album": "1204249541",
    "description": "Galaxy_689592",
    "title": "Galaxy_689592",
    "link_img": "https://live.staticflickr.com/65535/50039914642_0dac39960e_o.jpg",
    "id_image": "Galaxy_689592",
    "count_view": 0
  },
  {
    "link_thumb": "https://live.staticflickr.com/65535/50041848172_3f07c75670_n.jpg",
    "id_album": "-1675918237",
    "description": "WomenWarrior_701645",
    "title": "WomenWarrior_701645",
    "link_img": "https://live.staticflickr.com/65535/50041848172_24294ce9e4_o.jpg",
    "id_image": "WomenWarrior_701645",
    "count_view": 0
  },
  {
    "link_thumb": "https://live.staticflickr.com/65535/50040703553_ac819d1051_n.jpg",
    "id_album": "-1587696329",
    "description": "Stars_171589",
    "title": "Stars_171589",
    "link_img": "https://live.staticflickr.com/65535/50040703553_4c8c7b4233_o.jpg",
    "id_image": "Stars_171589",
    "count_view": 0
  },
  {
    "link_thumb": "https://live.staticflickr.com/65535/50040034042_5e8a2e72a3_n.jpg",
    "id_album": "-1610342324",
    "description": "Nebula_214557",
    "title": "Nebula_214557",
    "link_img": "https://live.staticflickr.com/65535/50040034042_a101ce50ee_o.jpg",
    "id_image": "Nebula_214557",
    "count_view": 0
  },
  {
    "link_thumb": "https://live.staticflickr.com/65535/50039369868_1e6c3b2e35_n.jpg",
    "id_album": "395161030",
    "description": "Planet_206087",
    "title": "Planet_206087",
    "link_img": "https://live.staticflickr.com/65535/50039369868_2c81d7a794_o.jpg",
    "id_image": "Planet_206087",
    "count_view": 0
  },
  {
    "link_thumb": "https://live.staticflickr.com/65535/50040043132_1dd01fdfa3_n.jpg",
    "id_album": "-1610342324",
    "description": "Nebula_265686",
    "title": "Nebula_265686",
    "link_img": "https://live.staticflickr.com/65535/50040043132_553fc7b2ae_o.jpg",
    "id_image": "Nebula_265686",
    "count_view": 0
  },
  {
    "link_thumb": "https://live.staticflickr.com/65535/50039295718_035cfb1ac7_n.jpg",
    "id_album": "-1610342324",
    "description": "Nebula_864570",
    "title": "Nebula_864570",
    "link_img": "https://live.staticflickr.com/65535/50039295718_18b1f45c9a_o.jpg",
    "id_image": "Nebula_864570",
    "count_view": 0
  },
  {
    "link_thumb": "https://live.staticflickr.com/65535/50038679693_a35264e421_n.jpg",
    "id_album": "280884763",
    "description": "Abstract_123869",
    "title": "Abstract_123869",
    "link_img": "https://live.staticflickr.com/65535/50038679693_38997663ae_o.jpg",
    "id_image": "Abstract_123869",
    "count_view": 0
  },
  {
    "link_thumb": "https://live.staticflickr.com/65535/50039233878_0bf6f13ce6_n.jpg",
    "id_album": "-1610342324",
    "description": "Nebula_289232",
    "title": "Nebula_289232",
    "link_img": "https://live.staticflickr.com/65535/50039233878_26d3cb40d8_o.jpg",
    "id_image": "Nebula_289232",
    "count_view": 0
  },
  {
    "link_thumb": "https://live.staticflickr.com/65535/50039633543_dc94140a5b_n.jpg",
    "id_album": "376235057",
    "description": "Planetscape_957403",
    "title": "Planetscape_957403",
    "link_img": "https://live.staticflickr.com/65535/50039633543_b4b988f204_o.jpg",
    "id_image": "Planetscape_957403",
    "count_view": 0
  },
  {
    "link_thumb": "https://live.staticflickr.com/65535/50040176356_8e607036d1_n.jpg",
    "id_album": "376235057",
    "description": "Planetscape_550240",
    "title": "Planetscape_550240",
    "link_img": "https://live.staticflickr.com/65535/50040176356_92f652c82d_o.jpg",
    "id_image": "Planetscape_550240",
    "count_view": 0
  },
  {
    "link_thumb": "https://live.staticflickr.com/65535/50039088208_8d55841d5a_n.jpg",
    "id_album": "1204249541",
    "description": "Galaxy_467024",
    "title": "Galaxy_467024",
    "link_img": "https://live.staticflickr.com/65535/50039088208_d1cb7bc633_o.jpg",
    "id_image": "Galaxy_467024",
    "count_view": 0
  },
  {
    "link_thumb": "https://live.staticflickr.com/65535/50039287128_d5e4f3bb44_n.jpg",
    "id_album": "-1610342324",
    "description": "Nebula_785842",
    "title": "Nebula_785842",
    "link_img": "https://live.staticflickr.com/65535/50039287128_83cb6bf809_o.jpg",
    "id_image": "Nebula_785842",
    "count_view": 0
  },
  {
    "link_thumb": "https://live.staticflickr.com/65535/50040155941_ef93ef93ea_n.jpg",
    "id_album": "376235057",
    "description": "Planetscape_286866",
    "title": "Planetscape_286866",
    "link_img": "https://live.staticflickr.com/65535/50040155941_c704df78ab_o.jpg",
    "id_image": "Planetscape_286866",
    "count_view": 0
  },
  {
    "link_thumb": "https://live.staticflickr.com/65535/50039006903_d12e58519c_n.jpg",
    "id_album": "-437872736",
    "description": "Creature_387851",
    "title": "Creature_387851",
    "link_img": "https://live.staticflickr.com/65535/50039006903_1e00b5046a_o.jpg",
    "id_image": "Creature_387851",
    "count_view": 0
  },
  {
    "link_thumb": "https://live.staticflickr.com/65535/50038719678_7005b3c726_n.jpg",
    "id_album": "849020728",
    "description": "Alien_488059",
    "title": "Alien_488059",
    "link_img": "https://live.staticflickr.com/65535/50038719678_4a5a87f722_o.jpg",
    "id_image": "Alien_488059",
    "count_view": 0
  },
  {
    "link_thumb": "https://live.staticflickr.com/65535/50040756772_965242bc6a_n.jpg",
    "id_album": "1613540653",
    "description": "Space_324430",
    "title": "Space_324430",
    "link_img": "https://live.staticflickr.com/65535/50040756772_ce857cb463_o.jpg",
    "id_image": "Space_324430",
    "count_view": 0
  },
  {
    "link_thumb": "https://live.staticflickr.com/65535/50040400506_2591062df0_n.jpg",
    "id_album": "779690680",
    "description": "Robot_902752",
    "title": "Robot_902752",
    "link_img": "https://live.staticflickr.com/65535/50040400506_6f2781468a_o.jpg",
    "id_image": "Robot_902752",
    "count_view": 0
  },
  {
    "link_thumb": "https://live.staticflickr.com/65535/50039954252_caa49a2c36_n.jpg",
    "id_album": "1402713104",
    "description": "Landscape_495942",
    "title": "Landscape_495942",
    "link_img": "https://live.staticflickr.com/65535/50039954252_564c6f395d_o.jpg",
    "id_image": "Landscape_495942",
    "count_view": 0
  },
  {
    "link_thumb": "https://live.staticflickr.com/65535/50041679732_ab7c5cb28f_n.jpg",
    "id_album": "2020068132",
    "description": "Vehicle_874660",
    "title": "Vehicle_874660",
    "link_img": "https://live.staticflickr.com/65535/50041679732_900c5f1d91_o.jpg",
    "id_image": "Vehicle_874660",
    "count_view": 0
  },
  {
    "link_thumb": "https://live.staticflickr.com/65535/50039832542_c3d4aef425_n.jpg",
    "id_album": "-1372247677",
    "description": "Cyberpunk_962035",
    "title": "Cyberpunk_962035",
    "link_img": "https://live.staticflickr.com/65535/50039832542_d372a00d36_o.jpg",
    "id_image": "Cyberpunk_962035",
    "count_view": 0
  },
  {
    "link_thumb": "https://live.staticflickr.com/65535/50039141278_b85f2d7d92_n.jpg",
    "id_album": "1402713104",
    "description": "Landscape_472240",
    "title": "Landscape_472240",
    "link_img": "https://live.staticflickr.com/65535/50039141278_1ae8c7f33b_o.jpg",
    "id_image": "Landscape_472240",
    "count_view": 0
  },
  {
    "link_thumb": "https://live.staticflickr.com/65535/50039743358_47b1064f5f_n.jpg",
    "id_album": "779690680",
    "description": "Robot_368193",
    "title": "Robot_368193",
    "link_img": "https://live.staticflickr.com/65535/50039743358_1e86cb3e8a_o.jpg",
    "id_image": "Robot_368193",
    "count_view": 0
  },
  {
    "link_thumb": "https://live.staticflickr.com/65535/50040063777_8d7771d39d_n.jpg",
    "id_album": "-1610342324",
    "description": "Nebula_468742",
    "title": "Nebula_468742",
    "link_img": "https://live.staticflickr.com/65535/50040063777_d840eb72ba_o.jpg",
    "id_image": "Nebula_468742",
    "count_view": 0
  },
  {
    "link_thumb": "https://live.staticflickr.com/65535/50039293823_dc167aa41d_n.jpg",
    "id_album": "-1610342324",
    "description": "Nebula_84045",
    "title": "Nebula_84045",
    "link_img": "https://live.staticflickr.com/65535/50039293823_ff1d9b3707_o.jpg",
    "id_image": "Nebula_84045",
    "count_view": 0
  },
  {
    "link_thumb": "https://live.staticflickr.com/65535/50040808303_0740cb786a_n.jpg",
    "id_album": "-1177476763",
    "description": "Sunrise_372793",
    "title": "Sunrise_372793",
    "link_img": "https://live.staticflickr.com/65535/50040808303_df11ca71c3_o.jpg",
    "id_image": "Sunrise_372793",
    "count_view": 0
  },
  {
    "link_thumb": "https://live.staticflickr.com/65535/50040017226_342e63747f_n.jpg",
    "id_album": "1443611160",
    "description": "PlanetRise_99304",
    "title": "PlanetRise_99304",
    "link_img": "https://live.staticflickr.com/65535/50040017226_d5f9956fb6_o.jpg",
    "id_image": "PlanetRise_99304",
    "count_view": 0
  },
  {
    "link_thumb": "https://live.staticflickr.com/65535/50039775581_0075d43cc5_n.jpg",
    "id_album": "-1610342324",
    "description": "Nebula_246275",
    "title": "Nebula_246275",
    "link_img": "https://live.staticflickr.com/65535/50039775581_2892094443_o.jpg",
    "id_image": "Nebula_246275",
    "count_view": 0
  },
  {
    "link_thumb": "https://live.staticflickr.com/65535/50039843246_9ece353449_n.jpg",
    "id_album": "-1610342324",
    "description": "Nebula_842164",
    "title": "Nebula_842164",
    "link_img": "https://live.staticflickr.com/65535/50039843246_cac8c9c0c9_o.jpg",
    "id_image": "Nebula_842164",
    "count_view": 0
  },
  {
    "link_thumb": "https://live.staticflickr.com/65535/50039926022_c52058e1d8_n.jpg",
    "id_album": "1402713104",
    "description": "Landscape_174052",
    "title": "Landscape_174052",
    "link_img": "https://live.staticflickr.com/65535/50039926022_30d1a45bf7_o.jpg",
    "id_image": "Landscape_174052",
    "count_view": 0
  },
  {
    "link_thumb": "https://live.staticflickr.com/65535/50041436532_5fa4366a71_n.jpg",
    "id_album": "-1863373220",
    "description": "StarWars_382008",
    "title": "StarWars_382008",
    "link_img": "https://live.staticflickr.com/65535/50041436532_f0db220b66_o.jpg",
    "id_image": "StarWars_382008",
    "count_view": 0
  },
  {
    "link_thumb": "https://live.staticflickr.com/65535/50039930436_1095bb353f_n.jpg",
    "id_album": "395161030",
    "description": "Planet_343603",
    "title": "Planet_343603",
    "link_img": "https://live.staticflickr.com/65535/50039930436_d6e112b571_o.jpg",
    "id_image": "Planet_343603",
    "count_view": 0
  },
  {
    "link_thumb": "https://live.staticflickr.com/65535/50040888238_62d05700f4_n.jpg",
    "id_album": "-1261420436",
    "description": "Warrior_280872",
    "title": "Warrior_280872",
    "link_img": "https://live.staticflickr.com/65535/50040888238_5bcfe9429d_o.jpg",
    "id_image": "Warrior_280872",
    "count_view": 0
  },
  {
    "link_thumb": "https://live.staticflickr.com/65535/50039572763_d3351081b7_n.jpg",
    "id_album": "-1102314093",
    "description": "Planets_533836",
    "title": "Planets_533836",
    "link_img": "https://live.staticflickr.com/65535/50039572763_5cf8e1e06b_o.jpg",
    "id_image": "Planets_533836",
    "count_view": 0
  },
  {
    "link_thumb": "https://live.staticflickr.com/65535/50041724567_4b5f1ec52b_n.jpg",
    "id_album": "-1261420436",
    "description": "Warrior_439154",
    "title": "Warrior_439154",
    "link_img": "https://live.staticflickr.com/65535/50041724567_d4186eaeb7_o.jpg",
    "id_image": "Warrior_439154",
    "count_view": 0
  },
  {
    "link_thumb": "https://live.staticflickr.com/65535/50039669656_c6d075a804_n.jpg",
    "id_album": "1402713104",
    "description": "Landscape_282511",
    "title": "Landscape_282511",
    "link_img": "https://live.staticflickr.com/65535/50039669656_de2e1ece3d_o.jpg",
    "id_image": "Landscape_282511",
    "count_view": 0
  },
  {
    "link_thumb": "https://live.staticflickr.com/65535/50039559467_651027c614_n.jpg",
    "id_album": "523598895",
    "description": "Artistic_152609",
    "title": "Artistic_152609",
    "link_img": "https://live.staticflickr.com/65535/50039559467_3387283521_o.jpg",
    "id_image": "Artistic_152609",
    "count_view": 0
  },
  {
    "link_thumb": "https://live.staticflickr.com/65535/50038773458_4cefce4386_n.jpg",
    "id_album": "523598895",
    "description": "Artistic_235986",
    "title": "Artistic_235986",
    "link_img": "https://live.staticflickr.com/65535/50038773458_360708f9c9_o.jpg",
    "id_image": "Artistic_235986",
    "count_view": 0
  },
  {
    "link_thumb": "https://live.staticflickr.com/65535/50039293406_1572a4aa30_n.jpg",
    "id_album": "523598895",
    "description": "Artistic_114133",
    "title": "Artistic_114133",
    "link_img": "https://live.staticflickr.com/65535/50039293406_c717bce632_o.jpg",
    "id_image": "Artistic_114133",
    "count_view": 0
  },
  {
    "link_thumb": "https://live.staticflickr.com/65535/50039931896_f272d30857_n.jpg",
    "id_album": "395161030",
    "description": "Planet_347830",
    "title": "Planet_347830",
    "link_img": "https://live.staticflickr.com/65535/50039931896_5b03c12046_o.jpg",
    "id_image": "Planet_347830",
    "count_view": 0
  },
  {
    "link_thumb": "https://live.staticflickr.com/65535/50040528392_8c028f533e_n.jpg",
    "id_album": "779690680",
    "description": "Robot_202139",
    "title": "Robot_202139",
    "link_img": "https://live.staticflickr.com/65535/50040528392_15e89fba6a_o.jpg",
    "id_image": "Robot_202139",
    "count_view": 0
  },
  {
    "link_thumb": "https://live.staticflickr.com/65535/50038726568_5dfe3333e7_n.jpg",
    "id_album": "849020728",
    "description": "Alien_804042",
    "title": "Alien_804042",
    "link_img": "https://live.staticflickr.com/65535/50038726568_da16ee20dc_o.jpg",
    "id_image": "Alien_804042",
    "count_view": 0
  },
  {
    "link_thumb": "https://live.staticflickr.com/65535/50039779211_c1dfb67f93_n.jpg",
    "id_album": "-1610342324",
    "description": "Nebula_264729",
    "title": "Nebula_264729",
    "link_img": "https://live.staticflickr.com/65535/50039779211_7c23e60091_o.jpg",
    "id_image": "Nebula_264729",
    "count_view": 0
  },
  {
    "link_thumb": "https://live.staticflickr.com/65535/50040118951_86e19350a0_n.jpg",
    "id_album": "-1102314093",
    "description": "Planets_482225",
    "title": "Planets_482225",
    "link_img": "https://live.staticflickr.com/65535/50040118951_4dfdc549da_o.jpg",
    "id_image": "Planets_482225",
    "count_view": 0
  },
  {
    "link_thumb": "https://live.staticflickr.com/65535/50039787951_5417c85ec7_n.jpg",
    "id_album": "-1610342324",
    "description": "Nebula_36842",
    "title": "Nebula_36842",
    "link_img": "https://live.staticflickr.com/65535/50039787951_81733edc96_o.jpg",
    "id_image": "Nebula_36842",
    "count_view": 0
  },
  {
    "link_thumb": "https://live.staticflickr.com/65535/50039735566_7ede620eb4_n.jpg",
    "id_album": "-1388385651",
    "description": "MilkyWay_596227",
    "title": "MilkyWay_596227",
    "link_img": "https://live.staticflickr.com/65535/50039735566_a522bafb72_o.jpg",
    "id_image": "MilkyWay_596227",
    "count_view": 0
  },
  {
    "link_thumb": "https://live.staticflickr.com/65535/50040516756_7daacdbf08_n.jpg",
    "id_album": "1613540653",
    "description": "Space_588412",
    "title": "Space_588412",
    "link_img": "https://live.staticflickr.com/65535/50040516756_b19ba21fab_o.jpg",
    "id_image": "Space_588412",
    "count_view": 0
  },
  {
    "link_thumb": "https://live.staticflickr.com/65535/50039658226_eaa2bf4b8d_n.jpg",
    "id_album": "1402713104",
    "description": "Landscape_1004828",
    "title": "Landscape_1004828",
    "link_img": "https://live.staticflickr.com/65535/50039658226_668d1072d5_o.jpg",
    "id_image": "Landscape_1004828",
    "count_view": 0
  },
  {
    "link_thumb": "https://live.staticflickr.com/65535/50038806403_74d4b4bdea_n.jpg",
    "id_album": "869545341",
    "description": "Astronaut_388069",
    "title": "Astronaut_388069",
    "link_img": "https://live.staticflickr.com/65535/50038806403_bbcbc258f4_o.jpg",
    "id_image": "Astronaut_388069",
    "count_view": 0
  },
  {
    "link_thumb": "https://live.staticflickr.com/65535/50040445577_41a17e16db_n.jpg",
    "id_album": "376235057",
    "description": "Planetscape_778700",
    "title": "Planetscape_778700",
    "link_img": "https://live.staticflickr.com/65535/50040445577_a8f9ac3462_o.jpg",
    "id_image": "Planetscape_778700",
    "count_view": 0
  },
  {
    "link_thumb": "https://live.staticflickr.com/65535/50040520286_bfe730115c_n.jpg",
    "id_album": "1613540653",
    "description": "Space_659465",
    "title": "Space_659465",
    "link_img": "https://live.staticflickr.com/65535/50040520286_491d92e827_o.jpg",
    "id_image": "Space_659465",
    "count_view": 0
  },
  {
    "link_thumb": "https://live.staticflickr.com/65535/50038735358_30a2181952_n.jpg",
    "id_album": "-419633230",
    "description": "Apocalyptic_319075",
    "title": "Apocalyptic_319075",
    "link_img": "https://live.staticflickr.com/65535/50038735358_be99913b8f_o.jpg",
    "id_image": "Apocalyptic_319075",
    "count_view": 0
  },
  {
    "link_thumb": "https://live.staticflickr.com/65535/50039424466_99f845e182_n.jpg",
    "id_album": "406431601",
    "description": "Building_867735",
    "title": "Building_867735",
    "link_img": "https://live.staticflickr.com/65535/50039424466_902f774290_o.jpg",
    "id_image": "Building_867735",
    "count_view": 0
  },
  {
    "link_thumb": "https://live.staticflickr.com/65535/50039142788_4538a15227_n.jpg",
    "id_album": "1402713104",
    "description": "Landscape_526198",
    "title": "Landscape_526198",
    "link_img": "https://live.staticflickr.com/65535/50039142788_ed9b995c7e_o.jpg",
    "id_image": "Landscape_526198",
    "count_view": 0
  },
  {
    "link_thumb": "https://live.staticflickr.com/65535/50040589491_59e7f6a175_n.jpg",
    "id_album": "2130067313",
    "description": "Spaceship_179010",
    "title": "Spaceship_179010",
    "link_img": "https://live.staticflickr.com/65535/50040589491_c33829dda3_o.jpg",
    "id_image": "Spaceship_179010",
    "count_view": 0
  },
  {
    "link_thumb": "https://live.staticflickr.com/65535/50040818002_27c4297d0f_n.jpg",
    "id_album": "1613540653",
    "description": "Space_952752",
    "title": "Space_952752",
    "link_img": "https://live.staticflickr.com/65535/50040818002_0caa214d18_o.jpg",
    "id_image": "Space_952752",
    "count_view": 0
  },
  {
    "link_thumb": "https://live.staticflickr.com/65535/50040663868_5aa6e4fb94_n.jpg",
    "id_album": "-1863373220",
    "description": "StarWars_710385",
    "title": "StarWars_710385",
    "link_img": "https://live.staticflickr.com/65535/50040663868_42969cba37_o.jpg",
    "id_image": "StarWars_710385",
    "count_view": 0
  },
  {
    "link_thumb": "https://live.staticflickr.com/65535/50038737858_83b840eaa3_n.jpg",
    "id_album": "-419633230",
    "description": "Apocalyptic_678079",
    "title": "Apocalyptic_678079",
    "link_img": "https://live.staticflickr.com/65535/50038737858_bb8cf87595_o.jpg",
    "id_image": "Apocalyptic_678079",
    "count_view": 0
  },
  {
    "link_thumb": "https://live.staticflickr.com/65535/50039982847_e61ddaaba2_n.jpg",
    "id_album": "1402713104",
    "description": "Landscape_888573",
    "title": "Landscape_888573",
    "link_img": "https://live.staticflickr.com/65535/50039982847_3b6fc24e78_o.jpg",
    "id_image": "Landscape_888573",
    "count_view": 0
  },
  {
    "link_thumb": "https://live.staticflickr.com/65535/50038681923_eea6c18fa2_n.jpg",
    "id_album": "280884763",
    "description": "Abstract_286916",
    "title": "Abstract_286916",
    "link_img": "https://live.staticflickr.com/65535/50038681923_bef6f1b611_o.jpg",
    "id_image": "Abstract_286916",
    "count_view": 0
  },
  {
    "link_thumb": "https://live.staticflickr.com/65535/50039296991_6307596bb0_n.jpg",
    "id_album": "523598895",
    "description": "Artistic_151704",
    "title": "Artistic_151704",
    "link_img": "https://live.staticflickr.com/65535/50039296991_2fa726915d_o.jpg",
    "id_image": "Artistic_151704",
    "count_view": 0
  },
  {
    "link_thumb": "https://live.staticflickr.com/65535/50038829443_ec2e5335b7_n.jpg",
    "id_album": "869545341",
    "description": "Astronaut_913006",
    "title": "Astronaut_913006",
    "link_img": "https://live.staticflickr.com/65535/50038829443_316cd0e360_o.jpg",
    "id_image": "Astronaut_913006",
    "count_view": 0
  },
  {
    "link_thumb": "https://live.staticflickr.com/65535/50039734816_a1fe96429c_n.jpg",
    "id_album": "-1388385651",
    "description": "MilkyWay_592441",
    "title": "MilkyWay_592441",
    "link_img": "https://live.staticflickr.com/65535/50039734816_d3986cb655_o.jpg",
    "id_image": "MilkyWay_592441",
    "count_view": 0
  },
  {
    "link_thumb": "https://live.staticflickr.com/65535/50038940373_f969a02269_n.jpg",
    "id_album": "-1964113117",
    "description": "City_694102",
    "title": "City_694102",
    "link_img": "https://live.staticflickr.com/65535/50038940373_8ceb414c27_o.jpg",
    "id_image": "City_694102",
    "count_view": 0
  },
  {
    "link_thumb": "https://live.staticflickr.com/65535/50041851467_ef55904c29_n.jpg",
    "id_album": "-1675918237",
    "description": "WomenWarrior_910966",
    "title": "WomenWarrior_910966",
    "link_img": "https://live.staticflickr.com/65535/50041851467_4d823122f2_o.jpg",
    "id_image": "WomenWarrior_910966",
    "count_view": 0
  },
  {
    "link_thumb": "https://live.staticflickr.com/65535/50038890258_327de88c48_n.jpg",
    "id_album": "-1964113117",
    "description": "City_174039",
    "title": "City_174039",
    "link_img": "https://live.staticflickr.com/65535/50038890258_4be1cbf04e_o.jpg",
    "id_image": "City_174039",
    "count_view": 0
  },
  {
    "link_thumb": "https://live.staticflickr.com/65535/50040048262_9c2bbe3de8_n.jpg",
    "id_album": "-1610342324",
    "description": "Nebula_301298",
    "title": "Nebula_301298",
    "link_img": "https://live.staticflickr.com/65535/50040048262_0833da0988_o.jpg",
    "id_image": "Nebula_301298",
    "count_view": 0
  },
  {
    "link_thumb": "https://live.staticflickr.com/65535/50039160673_9981b5bff9_n.jpg",
    "id_album": "1402713104",
    "description": "Landscape_842682",
    "title": "Landscape_842682",
    "link_img": "https://live.staticflickr.com/65535/50039160673_a6c80ca108_o.jpg",
    "id_image": "Landscape_842682",
    "count_view": 0
  },
  {
    "link_thumb": "https://live.staticflickr.com/65535/50040401291_c9f30aceaa_n.jpg",
    "id_album": "779690680",
    "description": "Robot_903926",
    "title": "Robot_903926",
    "link_img": "https://live.staticflickr.com/65535/50040401291_ed8bbddb79_o.jpg",
    "id_image": "Robot_903926",
    "count_view": 0
  },
  {
    "link_thumb": "https://live.staticflickr.com/65535/50038953483_e9bd090140_n.jpg",
    "id_album": "-1964113117",
    "description": "City_854794",
    "title": "City_854794",
    "link_img": "https://live.staticflickr.com/65535/50038953483_afca357b5e_o.jpg",
    "id_image": "City_854794",
    "count_view": 0
  },
  {
    "link_thumb": "https://live.staticflickr.com/65535/50039606756_ff656410c6_n.jpg",
    "id_album": "829169633",
    "description": "Cyborg_995224",
    "title": "Cyborg_995224",
    "link_img": "https://live.staticflickr.com/65535/50039606756_5b180e6045_o.jpg",
    "id_image": "Cyborg_995224",
    "count_view": 0
  },
  {
    "link_thumb": "https://live.staticflickr.com/65535/50039798427_f136207562_n.jpg",
    "id_album": "894679094",
    "description": "Collision_192887",
    "title": "Collision_192887",
    "link_img": "https://live.staticflickr.com/65535/50039798427_c5ac94d265_o.jpg",
    "id_image": "Collision_192887",
    "count_view": 0
  },
  {
    "link_thumb": "https://live.staticflickr.com/65535/50039717938_9416c6cba5_n.jpg",
    "id_album": "779690680",
    "description": "Robot_249483",
    "title": "Robot_249483",
    "link_img": "https://live.staticflickr.com/65535/50039717938_d7b480b2d4_o.jpg",
    "id_image": "Robot_249483",
    "count_view": 0
  },
  {
    "link_thumb": "https://live.staticflickr.com/65535/50039869987_d6190761a5_n.jpg",
    "id_album": "651930207",
    "description": "Explosion_163941",
    "title": "Explosion_163941",
    "link_img": "https://live.staticflickr.com/65535/50039869987_ea9899d80f_o.jpg",
    "id_image": "Explosion_163941",
    "count_view": 0
  },
  {
    "link_thumb": "https://live.staticflickr.com/65535/50039687811_a6bb8023fc_n.jpg",
    "id_album": "1402713104",
    "description": "Landscape_425656",
    "title": "Landscape_425656",
    "link_img": "https://live.staticflickr.com/65535/50039687811_7d3c1485b6_o.jpg",
    "id_image": "Landscape_425656",
    "count_view": 0
  },
  {
    "link_thumb": "https://live.staticflickr.com/65535/50040646276_1248a7e528_n.jpg",
    "id_album": "2130067313",
    "description": "Spaceship_314362",
    "title": "Spaceship_314362",
    "link_img": "https://live.staticflickr.com/65535/50040646276_61e0b0bbc9_o.jpg",
    "id_image": "Spaceship_314362",
    "count_view": 0
  },
  {
    "link_thumb": "https://live.staticflickr.com/65535/50039669338_8678901538_n.jpg",
    "id_album": "-482547208",
    "description": "PostApocalyptic_717812",
    "title": "PostApocalyptic_717812",
    "link_img": "https://live.staticflickr.com/65535/50039669338_9dfdae034b_o.jpg",
    "id_image": "PostApocalyptic_717812",
    "count_view": 0
  },
  {
    "link_thumb": "https://live.staticflickr.com/65535/50040660178_cb7d490940_n.jpg",
    "id_album": "-1863373220",
    "description": "StarWars_670890",
    "title": "StarWars_670890",
    "link_img": "https://live.staticflickr.com/65535/50040660178_e4931bb587_o.jpg",
    "id_image": "StarWars_670890",
    "count_view": 0
  },
  {
    "link_thumb": "https://live.staticflickr.com/65535/50041420051_3649753a66_n.jpg",
    "id_album": "2020068132",
    "description": "Vehicle_927370",
    "title": "Vehicle_927370",
    "link_img": "https://live.staticflickr.com/65535/50041420051_77eb4a50dd_o.jpg",
    "id_image": "Vehicle_927370",
    "count_view": 0
  },
  {
    "link_thumb": "https://live.staticflickr.com/65535/50040968782_f413c1ddf5_n.jpg",
    "id_album": "2130067313",
    "description": "Spaceship_514676",
    "title": "Spaceship_514676",
    "link_img": "https://live.staticflickr.com/65535/50040968782_c65ba232da_o.jpg",
    "id_image": "Spaceship_514676",
    "count_view": 0
  },
  {
    "link_thumb": "https://live.staticflickr.com/65535/50039489681_9ee772883f_n.jpg",
    "id_album": "-1964113117",
    "description": "City_697302",
    "title": "City_697302",
    "link_img": "https://live.staticflickr.com/65535/50039489681_cd5f3f95b0_o.jpg",
    "id_image": "City_697302",
    "count_view": 0
  },
  {
    "link_thumb": "https://live.staticflickr.com/65535/50039512691_d05eafa97d_n.jpg",
    "id_album": "-1964113117",
    "description": "City_884373",
    "title": "City_884373",
    "link_img": "https://live.staticflickr.com/65535/50039512691_d35fd2bf82_o.jpg",
    "id_image": "City_884373",
    "count_view": 0
  },
  {
    "link_thumb": "https://live.staticflickr.com/65535/50038854778_ce6fe0f324_n.jpg",
    "id_album": "1187037014",
    "description": "Battle_528305",
    "title": "Battle_528305",
    "link_img": "https://live.staticflickr.com/65535/50038854778_7a331d936b_o.jpg",
    "id_image": "Battle_528305",
    "count_view": 0
  },
  {
    "link_thumb": "https://live.staticflickr.com/65535/50039773483_b01d6d569d_n.jpg",
    "id_album": "779690680",
    "description": "Robot_504736",
    "title": "Robot_504736",
    "link_img": "https://live.staticflickr.com/65535/50039773483_9799744c06_o.jpg",
    "id_image": "Robot_504736",
    "count_view": 0
  },
  {
    "link_thumb": "https://live.staticflickr.com/65535/50039516246_bd0d7e3b73_n.jpg",
    "id_album": "-1964113117",
    "description": "City_902774",
    "title": "City_902774",
    "link_img": "https://live.staticflickr.com/65535/50039516246_73a44948df_o.jpg",
    "id_image": "City_902774",
    "count_view": 0
  },
  {
    "link_thumb": "https://live.staticflickr.com/65535/50039691566_fd88ec1e7e_n.jpg",
    "id_album": "1402713104",
    "description": "Landscape_526205",
    "title": "Landscape_526205",
    "link_img": "https://live.staticflickr.com/65535/50039691566_c9df282e9d_o.jpg",
    "id_image": "Landscape_526205",
    "count_view": 0
  },
  {
    "link_thumb": "https://live.staticflickr.com/65535/50041797317_8683349f0a_n.jpg",
    "id_album": "-1126835654",
    "description": "Women_530822",
    "title": "Women_530822",
    "link_img": "https://live.staticflickr.com/65535/50041797317_a00641bf4b_o.jpg",
    "id_image": "Women_530822",
    "count_view": 0
  },
  {
    "link_thumb": "https://live.staticflickr.com/65535/50038906183_cc5f9dfd57_n.jpg",
    "id_album": "-1964113117",
    "description": "City_263391",
    "title": "City_263391",
    "link_img": "https://live.staticflickr.com/65535/50038906183_d5f90db801_o.jpg",
    "id_image": "City_263391",
    "count_view": 0
  },
  {
    "link_thumb": "https://live.staticflickr.com/65535/50039542011_2434261751_n.jpg",
    "id_album": "894679094",
    "description": "Collision_6412",
    "title": "Collision_6412",
    "link_img": "https://live.staticflickr.com/65535/50039542011_bc1f626430_o.jpg",
    "id_image": "Collision_6412",
    "count_view": 0
  },
  {
    "link_thumb": "https://live.staticflickr.com/65535/50039188203_3d85381ab7_n.jpg",
    "id_album": "-1388385651",
    "description": "MilkyWay_663080",
    "title": "MilkyWay_663080",
    "link_img": "https://live.staticflickr.com/65535/50039188203_8f0bebb336_o.jpg",
    "id_image": "MilkyWay_663080",
    "count_view": 0
  },
  {
    "link_thumb": "https://live.staticflickr.com/65535/50039088798_b22976553c_n.jpg",
    "id_album": "1204249541",
    "description": "Galaxy_502935",
    "title": "Galaxy_502935",
    "link_img": "https://live.staticflickr.com/65535/50039088798_a0eb0fa0cb_o.jpg",
    "id_image": "Galaxy_502935",
    "count_view": 0
  },
  {
    "link_thumb": "https://live.staticflickr.com/65535/50039939046_99834d90b9_n.jpg",
    "id_album": "395161030",
    "description": "Planet_374641",
    "title": "Planet_374641",
    "link_img": "https://live.staticflickr.com/65535/50039939046_18e6a69cd3_o.jpg",
    "id_image": "Planet_374641",
    "count_view": 0
  },
  {
    "link_thumb": "https://live.staticflickr.com/65535/50038993988_3ca0653db4_n.jpg",
    "id_album": "894679094",
    "description": "Collision_669906",
    "title": "Collision_669906",
    "link_img": "https://live.staticflickr.com/65535/50038993988_2132aa18f1_o.jpg",
    "id_image": "Collision_669906",
    "count_view": 0
  },
  {
    "link_thumb": "https://live.staticflickr.com/65535/50039570768_a00ccf5ddd_n.jpg",
    "id_album": "-1102314093",
    "description": "Planets_529580",
    "title": "Planets_529580",
    "link_img": "https://live.staticflickr.com/65535/50039570768_b7e9404e0b_o.jpg",
    "id_image": "Planets_529580",
    "count_view": 0
  },
  {
    "link_thumb": "https://live.staticflickr.com/65535/50039885898_c092ae6404_n.jpg",
    "id_album": "779690680",
    "description": "Robot_949785",
    "title": "Robot_949785",
    "link_img": "https://live.staticflickr.com/65535/50039885898_81553d13c8_o.jpg",
    "id_image": "Robot_949785",
    "count_view": 0
  },
  {
    "link_thumb": "https://live.staticflickr.com/65535/50040959272_0d99299f13_n.jpg",
    "id_album": "2130067313",
    "description": "Spaceship_42972",
    "title": "Spaceship_42972",
    "link_img": "https://live.staticflickr.com/65535/50040959272_388b4185ce_o.jpg",
    "id_image": "Spaceship_42972",
    "count_view": 0
  },
  {
    "link_thumb": "https://live.staticflickr.com/65535/50039871228_66ffa93845_n.jpg",
    "id_album": "779690680",
    "description": "Robot_928638",
    "title": "Robot_928638",
    "link_img": "https://live.staticflickr.com/65535/50039871228_5fcd5d4695_o.jpg",
    "id_image": "Robot_928638",
    "count_view": 0
  },
  {
    "link_thumb": "https://live.staticflickr.com/65535/50040211761_be9b44e981_n.jpg",
    "id_album": "-482547208",
    "description": "PostApocalyptic_51666",
    "title": "PostApocalyptic_51666",
    "link_img": "https://live.staticflickr.com/65535/50040211761_841e4e442b_o.jpg",
    "id_image": "PostApocalyptic_51666",
    "count_view": 0
  },
  {
    "link_thumb": "https://live.staticflickr.com/65535/50039673032_0832781dba_n.jpg",
    "id_album": "1187037014",
    "description": "Battle_991376",
    "title": "Battle_991376",
    "link_img": "https://live.staticflickr.com/65535/50039673032_cc9bddf7b4_o.jpg",
    "id_image": "Battle_991376",
    "count_view": 0
  },
  {
    "link_thumb": "https://live.staticflickr.com/65535/50039490492_9ca622def0_n.jpg",
    "id_album": "280884763",
    "description": "Abstract_229060",
    "title": "Abstract_229060",
    "link_img": "https://live.staticflickr.com/65535/50039490492_dc71ae5c00_o.jpg",
    "id_image": "Abstract_229060",
    "count_view": 0
  },
  {
    "link_thumb": "https://live.staticflickr.com/65535/50039668053_de8a0b79c0_n.jpg",
    "id_album": "-482547208",
    "description": "PostApocalyptic_709120",
    "title": "PostApocalyptic_709120",
    "link_img": "https://live.staticflickr.com/65535/50039668053_f21b51ef70_o.jpg",
    "id_image": "PostApocalyptic_709120",
    "count_view": 0
  },
  {
    "link_thumb": "https://live.staticflickr.com/65535/50039934703_281e3199a1_n.jpg",
    "id_album": "1613540653",
    "description": "Space_294956",
    "title": "Space_294956",
    "link_img": "https://live.staticflickr.com/65535/50039934703_69f0662ac3_o.jpg",
    "id_image": "Space_294956",
    "count_view": 0
  },
  {
    "link_thumb": "https://live.staticflickr.com/65535/50039251168_6878286ff0_n.jpg",
    "id_album": "-1610342324",
    "description": "Nebula_500527",
    "title": "Nebula_500527",
    "link_img": "https://live.staticflickr.com/65535/50039251168_a8009f25c9_o.jpg",
    "id_image": "Nebula_500527",
    "count_view": 0
  },
  {
    "link_thumb": "https://live.staticflickr.com/65535/50039603392_6d22239320_n.jpg",
    "id_album": "523598895",
    "description": "Artistic_665848",
    "title": "Artistic_665848",
    "link_img": "https://live.staticflickr.com/65535/50039603392_143c3f9fa2_o.jpg",
    "id_image": "Artistic_665848",
    "count_view": 0
  },
  {
    "link_thumb": "https://live.staticflickr.com/65535/50039778746_649dd406a4_n.jpg",
    "id_album": "-1610342324",
    "description": "Nebula_263809",
    "title": "Nebula_263809",
    "link_img": "https://live.staticflickr.com/65535/50039778746_a010eb021a_o.jpg",
    "id_image": "Nebula_263809",
    "count_view": 0
  },
  {
    "link_thumb": "https://live.staticflickr.com/65535/50039677727_dd477e0c53_n.jpg",
    "id_album": "-1780971522",
    "description": "Biohazard_494279",
    "title": "Biohazard_494279",
    "link_img": "https://live.staticflickr.com/65535/50039677727_5213f9f4f4_o.jpg",
    "id_image": "Biohazard_494279",
    "count_view": 0
  },
  {
    "link_thumb": "https://live.staticflickr.com/65535/50038690088_c41372dba0_n.jpg",
    "id_album": "-406145265",
    "description": "Aircraft_331760",
    "title": "Aircraft_331760",
    "link_img": "https://live.staticflickr.com/65535/50038690088_4fc091eb58_o.jpg",
    "id_image": "Aircraft_331760",
    "count_view": 0
  },
  {
    "link_thumb": "https://live.staticflickr.com/65535/50039666897_eedc816c93_n.jpg",
    "id_album": "1187037014",
    "description": "Battle_602694",
    "title": "Battle_602694",
    "link_img": "https://live.staticflickr.com/65535/50039666897_c334d918ae_o.jpg",
    "id_image": "Battle_602694",
    "count_view": 0
  },
  {
    "link_thumb": "https://live.staticflickr.com/65535/50039666647_85342c02c5_n.jpg",
    "id_album": "1187037014",
    "description": "Battle_602051",
    "title": "Battle_602051",
    "link_img": "https://live.staticflickr.com/65535/50039666647_2c44e76a52_o.jpg",
    "id_image": "Battle_602051",
    "count_view": 0
  },
  {
    "link_thumb": "https://live.staticflickr.com/65535/50041027168_3753ca27e9_n.jpg",
    "id_album": "-1675918237",
    "description": "WomenWarrior_566289",
    "title": "WomenWarrior_566289",
    "link_img": "https://live.staticflickr.com/65535/50041027168_7af3fb8886_o.jpg",
    "id_image": "WomenWarrior_566289",
    "count_view": 0
  },
  {
    "link_thumb": "https://live.staticflickr.com/65535/50040664102_07ac4196eb_n.jpg",
    "id_album": "779690680",
    "description": "Robot_900263",
    "title": "Robot_900263",
    "link_img": "https://live.staticflickr.com/65535/50040664102_78766360e8_o.jpg",
    "id_image": "Robot_900263",
    "count_view": 0
  },
  {
    "link_thumb": "https://live.staticflickr.com/65535/50039853527_ae9a1f888f_n.jpg",
    "id_album": "829169633",
    "description": "Cyborg_488054",
    "title": "Cyborg_488054",
    "link_img": "https://live.staticflickr.com/65535/50039853527_b2c571966e_o.jpg",
    "id_image": "Cyborg_488054",
    "count_view": 0
  },
  {
    "link_thumb": "https://live.staticflickr.com/65535/50038938878_a66385b76d_n.jpg",
    "id_album": "-1964113117",
    "description": "City_681248",
    "title": "City_681248",
    "link_img": "https://live.staticflickr.com/65535/50038938878_4b86489e66_o.jpg",
    "id_image": "City_681248",
    "count_view": 0
  },
  {
    "link_thumb": "https://live.staticflickr.com/65535/50040677787_e4c2c7b5d5_n.jpg",
    "id_album": "779690680",
    "description": "Robot_915578",
    "title": "Robot_915578",
    "link_img": "https://live.staticflickr.com/65535/50040677787_4ae7a6eb2e_o.jpg",
    "id_image": "Robot_915578",
    "count_view": 0
  },
  {
    "link_thumb": "https://live.staticflickr.com/65535/50039268551_0ae227fa27_n.jpg",
    "id_album": "849020728",
    "description": "Alien_517024",
    "title": "Alien_517024",
    "link_img": "https://live.staticflickr.com/65535/50039268551_c377cac25f_o.jpg",
    "id_image": "Alien_517024",
    "count_view": 0
  },
  {
    "link_thumb": "https://live.staticflickr.com/65535/50039736798_e3a95b619d_n.jpg",
    "id_album": "779690680",
    "description": "Robot_324537",
    "title": "Robot_324537",
    "link_img": "https://live.staticflickr.com/65535/50039736798_ee3577180c_o.jpg",
    "id_image": "Robot_324537",
    "count_view": 0
  },
  {
    "link_thumb": "https://live.staticflickr.com/65535/50041589121_82a8b8178b_n.jpg",
    "id_album": "-1675918237",
    "description": "WomenWarrior_870420",
    "title": "WomenWarrior_870420",
    "link_img": "https://live.staticflickr.com/65535/50041589121_cb9dc558ae_o.jpg",
    "id_image": "WomenWarrior_870420",
    "count_view": 0
  },
  {
    "link_thumb": "https://live.staticflickr.com/65535/50039846248_29db110bb5_n.jpg",
    "id_album": "779690680",
    "description": "Robot_900262",
    "title": "Robot_900262",
    "link_img": "https://live.staticflickr.com/65535/50039846248_2457314dcf_o.jpg",
    "id_image": "Robot_900262",
    "count_view": 0
  },
  {
    "link_thumb": "https://live.staticflickr.com/65535/50038895608_0253e0f96f_n.jpg",
    "id_album": "-1964113117",
    "description": "City_208233",
    "title": "City_208233",
    "link_img": "https://live.staticflickr.com/65535/50038895608_fd40f528c8_o.jpg",
    "id_image": "City_208233",
    "count_view": 0
  },
  {
    "link_thumb": "https://live.staticflickr.com/65535/50040906633_665cb7d8f8_n.jpg",
    "id_album": "-1261420436",
    "description": "Warrior_426470",
    "title": "Warrior_426470",
    "link_img": "https://live.staticflickr.com/65535/50040906633_6c024b8064_o.jpg",
    "id_image": "Warrior_426470",
    "count_view": 0
  },
  {
    "link_thumb": "https://live.staticflickr.com/65535/50039841676_956db39d3b_n.jpg",
    "id_album": "-1610342324",
    "description": "Nebula_825785",
    "title": "Nebula_825785",
    "link_img": "https://live.staticflickr.com/65535/50039841676_4bcd40e282_o.jpg",
    "id_image": "Nebula_825785",
    "count_view": 0
  },
  {
    "link_thumb": "https://live.staticflickr.com/65535/50039924767_8931af4167_n.jpg",
    "id_album": "1402713104",
    "description": "Landscape_159470",
    "title": "Landscape_159470",
    "link_img": "https://live.staticflickr.com/65535/50039924767_8a9d95535a_o.jpg",
    "id_image": "Landscape_159470",
    "count_view": 0
  },
  {
    "link_thumb": "https://live.staticflickr.com/65535/50040450521_4f362f9f4d_n.jpg",
    "id_album": "779690680",
    "description": "Robot_959320",
    "title": "Robot_959320",
    "link_img": "https://live.staticflickr.com/65535/50040450521_15b9474e7d_o.jpg",
    "id_image": "Robot_959320",
    "count_view": 0
  },
  {
    "link_thumb": "https://live.staticflickr.com/65535/50040246168_f937beb9e3_n.jpg",
    "id_album": "-1449720967",
    "description": "StarTrek_177180",
    "title": "StarTrek_177180",
    "link_img": "https://live.staticflickr.com/65535/50040246168_fdcde32423_o.jpg",
    "id_image": "StarTrek_177180",
    "count_view": 0
  },
  {
    "link_thumb": "https://live.staticflickr.com/65535/50039278016_320aa9542e_n.jpg",
    "id_album": "849020728",
    "description": "Alien_973309",
    "title": "Alien_973309",
    "link_img": "https://live.staticflickr.com/65535/50039278016_475d65b56d_o.jpg",
    "id_image": "Alien_973309",
    "count_view": 0
  },
  {
    "link_thumb": "https://live.staticflickr.com/65535/50039342901_59f3d55cfd_n.jpg",
    "id_album": "523598895",
    "description": "Artistic_712822",
    "title": "Artistic_712822",
    "link_img": "https://live.staticflickr.com/65535/50039342901_1b87507f30_o.jpg",
    "id_image": "Artistic_712822",
    "count_view": 0
  },
  {
    "link_thumb": "https://live.staticflickr.com/65535/50040310352_1ece5b0606_n.jpg",
    "id_album": "-1102314093",
    "description": "Planets_113084",
    "title": "Planets_113084",
    "link_img": "https://live.staticflickr.com/65535/50040310352_eaaba6d627_o.jpg",
    "id_image": "Planets_113084",
    "count_view": 0
  },
  {
    "link_thumb": "https://live.staticflickr.com/65535/50041577487_cdfe68b1ae_n.jpg",
    "id_album": "1267121215",
    "description": "Steampunk_347702",
    "title": "Steampunk_347702",
    "link_img": "https://live.staticflickr.com/65535/50041577487_0904988030_o.jpg",
    "id_image": "Steampunk_347702",
    "count_view": 0
  },
  {
    "link_thumb": "https://live.staticflickr.com/65535/50039851431_83d364ccd2_n.jpg",
    "id_album": "-1610342324",
    "description": "Nebula_910923",
    "title": "Nebula_910923",
    "link_img": "https://live.staticflickr.com/65535/50039851431_a48ee0214e_o.jpg",
    "id_image": "Nebula_910923",
    "count_view": 0
  },
  {
    "link_thumb": "https://live.staticflickr.com/65535/50041591326_3b263aeaa9_n.jpg",
    "id_album": "-1675918237",
    "description": "WomenWarrior_932181",
    "title": "WomenWarrior_932181",
    "link_img": "https://live.staticflickr.com/65535/50041591326_68a2ce4cae_o.jpg",
    "id_image": "WomenWarrior_932181",
    "count_view": 0
  },
  {
    "link_thumb": "https://live.staticflickr.com/65535/50040650502_3ac428372d_n.jpg",
    "id_album": "779690680",
    "description": "Robot_875294",
    "title": "Robot_875294",
    "link_img": "https://live.staticflickr.com/65535/50040650502_cb88dd000c_o.jpg",
    "id_image": "Robot_875294",
    "count_view": 0
  },
  {
    "link_thumb": "https://live.staticflickr.com/65535/50039791052_31ec193fa3_n.jpg",
    "id_album": "-1964113117",
    "description": "City_971391",
    "title": "City_971391",
    "link_img": "https://live.staticflickr.com/65535/50039791052_e096ba6e8e_o.jpg",
    "id_image": "City_971391",
    "count_view": 0
  },
  {
    "link_thumb": "https://live.staticflickr.com/65535/50040243432_e16fd171ff_n.jpg",
    "id_album": "395161030",
    "description": "Planet_860675",
    "title": "Planet_860675",
    "link_img": "https://live.staticflickr.com/65535/50040243432_d0414c45df_o.jpg",
    "id_image": "Planet_860675",
    "count_view": 0
  },
  {
    "link_thumb": "https://live.staticflickr.com/65535/50039415696_aa5a6048fe_n.jpg",
    "id_album": "-1780971522",
    "description": "Biohazard_49910",
    "title": "Biohazard_49910",
    "link_img": "https://live.staticflickr.com/65535/50039415696_da15f7f98a_o.jpg",
    "id_image": "Biohazard_49910",
    "count_view": 0
  },
  {
    "link_thumb": "https://live.staticflickr.com/65535/50039248726_17ab597e17_n.jpg",
    "id_album": "849020728",
    "description": "Alien_178710",
    "title": "Alien_178710",
    "link_img": "https://live.staticflickr.com/65535/50039248726_51fc613551_o.jpg",
    "id_image": "Alien_178710",
    "count_view": 0
  },
  {
    "link_thumb": "https://live.staticflickr.com/65535/50041750302_8f0485a27d_n.jpg",
    "id_album": "-1261420436",
    "description": "Warrior_787254",
    "title": "Warrior_787254",
    "link_img": "https://live.staticflickr.com/65535/50041750302_f845bcde86_o.jpg",
    "id_image": "Warrior_787254",
    "count_view": 0
  },
  {
    "link_thumb": "https://live.staticflickr.com/65535/50040742747_e4849050c0_n.jpg",
    "id_album": "1613540653",
    "description": "Space_198223",
    "title": "Space_198223",
    "link_img": "https://live.staticflickr.com/65535/50040742747_1ab0edb347_o.jpg",
    "id_image": "Space_198223",
    "count_view": 0
  },
  {
    "link_thumb": "https://live.staticflickr.com/65535/50039667151_e6867c8fe6_n.jpg",
    "id_album": "1402713104",
    "description": "Landscape_259810",
    "title": "Landscape_259810",
    "link_img": "https://live.staticflickr.com/65535/50039667151_1fd2cf7ae0_o.jpg",
    "id_image": "Landscape_259810",
    "count_view": 0
  },
  {
    "link_thumb": "https://live.staticflickr.com/65535/50039645962_459bf1a307_n.jpg",
    "id_album": "869545341",
    "description": "Astronaut_942086",
    "title": "Astronaut_942086",
    "link_img": "https://live.staticflickr.com/65535/50039645962_237e420439_o.jpg",
    "id_image": "Astronaut_942086",
    "count_view": 0
  },
  {
    "link_thumb": "https://live.staticflickr.com/65535/50039420551_1d4ec51869_n.jpg",
    "id_album": "-1780971522",
    "description": "Biohazard_851548",
    "title": "Biohazard_851548",
    "link_img": "https://live.staticflickr.com/65535/50039420551_939bd5e6e8_o.jpg",
    "id_image": "Biohazard_851548",
    "count_view": 0
  },
  {
    "link_thumb": "https://live.staticflickr.com/65535/50039995402_e84a8eeff5_n.jpg",
    "id_album": "-1388385651",
    "description": "MilkyWay_528668",
    "title": "MilkyWay_528668",
    "link_img": "https://live.staticflickr.com/65535/50039995402_fd41a38416_o.jpg",
    "id_image": "MilkyWay_528668",
    "count_view": 0
  },
  {
    "link_thumb": "https://live.staticflickr.com/65535/50039714218_5f198dc0b9_n.jpg",
    "id_album": "779690680",
    "description": "Robot_225343",
    "title": "Robot_225343",
    "link_img": "https://live.staticflickr.com/65535/50039714218_e387d4e94c_o.jpg",
    "id_image": "Robot_225343",
    "count_view": 0
  },
  {
    "link_thumb": "https://live.staticflickr.com/65535/50040424426_fb91d6b3e1_n.jpg",
    "id_album": "779690680",
    "description": "Robot_928591",
    "title": "Robot_928591",
    "link_img": "https://live.staticflickr.com/65535/50040424426_dd4cd4cf1a_o.jpg",
    "id_image": "Robot_928591",
    "count_view": 0
  },
  {
    "link_thumb": "https://live.staticflickr.com/65535/50040499822_9c9c1d7a44_n.jpg",
    "id_album": "-482547208",
    "description": "PostApocalyptic_969091",
    "title": "PostApocalyptic_969091",
    "link_img": "https://live.staticflickr.com/65535/50040499822_9cee81a89c_o.jpg",
    "id_image": "PostApocalyptic_969091",
    "count_view": 0
  },
  {
    "link_thumb": "https://live.staticflickr.com/65535/50041622647_3d911b35d2_n.jpg",
    "id_album": "-1177476763",
    "description": "Sunrise_324435",
    "title": "Sunrise_324435",
    "link_img": "https://live.staticflickr.com/65535/50041622647_a3e83a4598_o.jpg",
    "id_image": "Sunrise_324435",
    "count_view": 0
  },
  {
    "link_thumb": "https://live.staticflickr.com/65535/50039563683_227420d3b4_n.jpg",
    "id_album": "-1102314093",
    "description": "Planets_426318",
    "title": "Planets_426318",
    "link_img": "https://live.staticflickr.com/65535/50039563683_a671e38d82_o.jpg",
    "id_image": "Planets_426318",
    "count_view": 0
  },
  {
    "link_thumb": "https://live.staticflickr.com/65535/50041368422_607bc09ee5_n.jpg",
    "id_album": "779690680",
    "description": "Robot_994832",
    "title": "Robot_994832",
    "link_img": "https://live.staticflickr.com/65535/50041368422_8990297b5f_o.jpg",
    "id_image": "Robot_994832",
    "count_view": 0
  },
  {
    "link_thumb": "https://live.staticflickr.com/65535/50040364732_3de065b040_n.jpg",
    "id_album": "-1102314093",
    "description": "Planets_364385",
    "title": "Planets_364385",
    "link_img": "https://live.staticflickr.com/65535/50040364732_ce7bc45fae_o.jpg",
    "id_image": "Planets_364385",
    "count_view": 0
  },
  {
    "link_thumb": "https://live.staticflickr.com/65535/50039436516_cd57fe9945_n.jpg",
    "id_album": "-1964113117",
    "description": "City_155240",
    "title": "City_155240",
    "link_img": "https://live.staticflickr.com/65535/50039436516_af0dff472b_o.jpg",
    "id_image": "City_155240",
    "count_view": 0
  },
  {
    "link_thumb": "https://live.staticflickr.com/65535/50039261576_d59801d09d_n.jpg",
    "id_album": "849020728",
    "description": "Alien_368209",
    "title": "Alien_368209",
    "link_img": "https://live.staticflickr.com/65535/50039261576_4b631a8d44_o.jpg",
    "id_image": "Alien_368209",
    "count_view": 0
  },
  {
    "link_thumb": "https://live.staticflickr.com/65535/50040060397_33d86e2d0c_n.jpg",
    "id_album": "-1610342324",
    "description": "Nebula_440483",
    "title": "Nebula_440483",
    "link_img": "https://live.staticflickr.com/65535/50040060397_38b2ca38ff_o.jpg",
    "id_image": "Nebula_440483",
    "count_view": 0
  },
  {
    "link_thumb": "https://live.staticflickr.com/65535/50039428981_05d7108185_n.jpg",
    "id_album": "406431601",
    "description": "Building_982296",
    "title": "Building_982296",
    "link_img": "https://live.staticflickr.com/65535/50039428981_a104f17e17_o.jpg",
    "id_image": "Building_982296",
    "count_view": 0
  },
  {
    "link_thumb": "https://live.staticflickr.com/65535/50040554186_cf28a08cf9_n.jpg",
    "id_album": "1613540653",
    "description": "Space_957467",
    "title": "Space_957467",
    "link_img": "https://live.staticflickr.com/65535/50040554186_55f5280697_o.jpg",
    "id_image": "Space_957467",
    "count_view": 0
  },
  {
    "link_thumb": "https://live.staticflickr.com/65535/50040444821_5ee65e75a5_n.jpg",
    "id_album": "779690680",
    "description": "Robot_955773",
    "title": "Robot_955773",
    "link_img": "https://live.staticflickr.com/65535/50040444821_31f31fa5b9_o.jpg",
    "id_image": "Robot_955773",
    "count_view": 0
  },
  {
    "link_thumb": "https://live.staticflickr.com/65535/50039976116_2a45246872_n.jpg",
    "id_album": "395161030",
    "description": "Planet_777594",
    "title": "Planet_777594",
    "link_img": "https://live.staticflickr.com/65535/50039976116_b54b007112_o.jpg",
    "id_image": "Planet_777594",
    "count_view": 0
  },
  {
    "link_thumb": "https://live.staticflickr.com/65535/50040853072_89d1454de2_n.jpg",
    "id_album": "2130067313",
    "description": "Spaceship_183938",
    "title": "Spaceship_183938",
    "link_img": "https://live.staticflickr.com/65535/50040853072_38e72c4b33_o.jpg",
    "id_image": "Spaceship_183938",
    "count_view": 0
  },
  {
    "link_thumb": "https://live.staticflickr.com/65535/50038990508_d4c0a4876a_n.jpg",
    "id_album": "894679094",
    "description": "Collision_291861",
    "title": "Collision_291861",
    "link_img": "https://live.staticflickr.com/65535/50038990508_b59242dbff_o.jpg",
    "id_image": "Collision_291861",
    "count_view": 0
  },
  {
    "link_thumb": "https://live.staticflickr.com/65535/50041415572_6b11c3120d_n.jpg",
    "id_album": "-1863373220",
    "description": "StarWars_241448",
    "title": "StarWars_241448",
    "link_img": "https://live.staticflickr.com/65535/50041415572_37e2132737_o.jpg",
    "id_image": "StarWars_241448",
    "count_view": 0
  },
  {
    "link_thumb": "https://live.staticflickr.com/65535/50039639662_691c56fdf3_n.jpg",
    "id_album": "869545341",
    "description": "Astronaut_907775",
    "title": "Astronaut_907775",
    "link_img": "https://live.staticflickr.com/65535/50039639662_66afdbd081_o.jpg",
    "id_image": "Astronaut_907775",
    "count_view": 0
  },
  {
    "link_thumb": "https://live.staticflickr.com/65535/50040022857_2a8d90f163_n.jpg",
    "id_album": "416351698",
    "description": "Moon_931684",
    "title": "Moon_931684",
    "link_img": "https://live.staticflickr.com/65535/50040022857_558d265b74_o.jpg",
    "id_image": "Moon_931684",
    "count_view": 0
  },
  {
    "link_thumb": "https://live.staticflickr.com/65535/50039500911_52bbf8816b_n.jpg",
    "id_album": "-1964113117",
    "description": "City_842652",
    "title": "City_842652",
    "link_img": "https://live.staticflickr.com/65535/50039500911_8c4d262cef_o.jpg",
    "id_image": "City_842652",
    "count_view": 0
  },
  {
    "link_thumb": "https://live.staticflickr.com/65535/50039004508_ea7821afd2_n.jpg",
    "id_album": "-437872736",
    "description": "Creature_333367",
    "title": "Creature_333367",
    "link_img": "https://live.staticflickr.com/65535/50039004508_4210796a9f_o.jpg",
    "id_image": "Creature_333367",
    "count_view": 0
  },
  {
    "link_thumb": "https://live.staticflickr.com/65535/50039940481_773f889fb2_n.jpg",
    "id_album": "395161030",
    "description": "Planet_375800",
    "title": "Planet_375800",
    "link_img": "https://live.staticflickr.com/65535/50039940481_4deb144a83_o.jpg",
    "id_image": "Planet_375800",
    "count_view": 0
  },
  {
    "link_thumb": "https://live.staticflickr.com/65535/50039657276_f20bedf3bf_n.jpg",
    "id_album": "1204249541",
    "description": "Galaxy_975252",
    "title": "Galaxy_975252",
    "link_img": "https://live.staticflickr.com/65535/50039657276_fee79fc4a5_o.jpg",
    "id_image": "Galaxy_975252",
    "count_view": 0
  },
  {
    "link_thumb": "https://live.staticflickr.com/65535/50040674467_4b97d5fb52_n.jpg",
    "id_album": "779690680",
    "description": "Robot_913018",
    "title": "Robot_913018",
    "link_img": "https://live.staticflickr.com/65535/50040674467_bba9b163a0_o.jpg",
    "id_image": "Robot_913018",
    "count_view": 0
  },
  {
    "link_thumb": "https://live.staticflickr.com/65535/50039721116_0f0f29f28c_n.jpg",
    "id_album": "1402713104",
    "description": "Landscape_906146",
    "title": "Landscape_906146",
    "link_img": "https://live.staticflickr.com/65535/50039721116_ab14485b53_o.jpg",
    "id_image": "Landscape_906146",
    "count_view": 0
  },
  {
    "link_thumb": "https://live.staticflickr.com/65535/50039773782_16684e4535_n.jpg",
    "id_album": "-1964113117",
    "description": "City_881696",
    "title": "City_881696",
    "link_img": "https://live.staticflickr.com/65535/50039773782_f27cd6ea94_o.jpg",
    "id_image": "City_881696",
    "count_view": 0
  },
  {
    "link_thumb": "https://live.staticflickr.com/65535/50040241347_45d2abb4c8_n.jpg",
    "id_album": "395161030",
    "description": "Planet_80642",
    "title": "Planet_80642",
    "link_img": "https://live.staticflickr.com/65535/50040241347_54eb22809a_o.jpg",
    "id_image": "Planet_80642",
    "count_view": 0
  },
  {
    "link_thumb": "https://live.staticflickr.com/65535/50039246718_4a85ab897b_n.jpg",
    "id_album": "-1610342324",
    "description": "Nebula_432766",
    "title": "Nebula_432766",
    "link_img": "https://live.staticflickr.com/65535/50039246718_358a05aef8_o.jpg",
    "id_image": "Nebula_432766",
    "count_view": 0
  },
  {
    "link_thumb": "https://live.staticflickr.com/65535/50040995088_a64fb3aefb_n.jpg",
    "id_album": "-1126835654",
    "description": "Women_865727",
    "title": "Women_865727",
    "link_img": "https://live.staticflickr.com/65535/50040995088_552687054a_o.jpg",
    "id_image": "Women_865727",
    "count_view": 0
  },
  {
    "link_thumb": "https://live.staticflickr.com/65535/50040353661_7a7b63d4a3_n.jpg",
    "id_album": "779690680",
    "description": "Robot_658830",
    "title": "Robot_658830",
    "link_img": "https://live.staticflickr.com/65535/50040353661_c603f441f9_o.jpg",
    "id_image": "Robot_658830",
    "count_view": 0
  },
  {
    "link_thumb": "https://live.staticflickr.com/65535/50039656251_d5015d87b5_n.jpg",
    "id_album": "1204249541",
    "description": "Galaxy_941744",
    "title": "Galaxy_941744",
    "link_img": "https://live.staticflickr.com/65535/50039656251_b84293e5d4_o.jpg",
    "id_image": "Galaxy_941744",
    "count_view": 0
  },
  {
    "link_thumb": "https://live.staticflickr.com/65535/50039519993_8dea8db689_n.jpg",
    "id_album": "-1102314093",
    "description": "Planets_272488",
    "title": "Planets_272488",
    "link_img": "https://live.staticflickr.com/65535/50039519993_8ae47f511b_o.jpg",
    "id_image": "Planets_272488",
    "count_view": 0
  },
  {
    "link_thumb": "https://live.staticflickr.com/65535/50040589107_f9c7904d25_n.jpg",
    "id_album": "779690680",
    "description": "Robot_489383",
    "title": "Robot_489383",
    "link_img": "https://live.staticflickr.com/65535/50040589107_c7044d8e07_o.jpg",
    "id_image": "Robot_489383",
    "count_view": 0
  },
  {
    "link_thumb": "https://live.staticflickr.com/65535/50039752996_0fbee80138_n.jpg",
    "id_album": "416351698",
    "description": "Moon_113990",
    "title": "Moon_113990",
    "link_img": "https://live.staticflickr.com/65535/50039752996_424e0dfc11_o.jpg",
    "id_image": "Moon_113990",
    "count_view": 0
  },
  {
    "link_thumb": "https://live.staticflickr.com/65535/50039744968_66b4f38d46_n.jpg",
    "id_album": "779690680",
    "description": "Robot_375699",
    "title": "Robot_375699",
    "link_img": "https://live.staticflickr.com/65535/50039744968_b05895d3f0_o.jpg",
    "id_image": "Robot_375699",
    "count_view": 0
  },
  {
    "link_thumb": "https://live.staticflickr.com/65535/50039349068_6e3cc0b272_n.jpg",
    "id_album": "1896531081",
    "description": "People_869615",
    "title": "People_869615",
    "link_img": "https://live.staticflickr.com/65535/50039349068_319d699538_o.jpg",
    "id_image": "People_869615",
    "count_view": 0
  },
  {
    "link_thumb": "https://live.staticflickr.com/65535/50039479448_fc3df06820_n.jpg",
    "id_album": "814701616",
    "description": "PlanetaryRing_355071",
    "title": "PlanetaryRing_355071",
    "link_img": "https://live.staticflickr.com/65535/50039479448_36d6908422_o.jpg",
    "id_image": "PlanetaryRing_355071",
    "count_view": 0
  },
  {
    "link_thumb": "https://live.staticflickr.com/65535/50039531506_dc9eec3491_n.jpg",
    "id_album": "-1964113117",
    "description": "City_980248",
    "title": "City_980248",
    "link_img": "https://live.staticflickr.com/65535/50039531506_e5269efd41_o.jpg",
    "id_image": "City_980248",
    "count_view": 0
  },
  {
    "link_thumb": "https://live.staticflickr.com/65535/50038911668_d1f8d28102_n.jpg",
    "id_album": "-1964113117",
    "description": "City_297913",
    "title": "City_297913",
    "link_img": "https://live.staticflickr.com/65535/50038911668_a1f12360f3_o.jpg",
    "id_image": "City_297913",
    "count_view": 0
  },
  {
    "link_thumb": "https://live.staticflickr.com/65535/50039745277_c8c748f23e_n.jpg",
    "id_album": "-1964113117",
    "description": "City_649090",
    "title": "City_649090",
    "link_img": "https://live.staticflickr.com/65535/50039745277_9e5c27ce63_o.jpg",
    "id_image": "City_649090",
    "count_view": 0
  },
  {
    "link_thumb": "https://live.staticflickr.com/65535/50040251666_341d31e986_n.jpg",
    "id_album": "779690680",
    "description": "Robot_112407",
    "title": "Robot_112407",
    "link_img": "https://live.staticflickr.com/65535/50040251666_23ccaf6ceb_o.jpg",
    "id_image": "Robot_112407",
    "count_view": 0
  },
  {
    "link_thumb": "https://live.staticflickr.com/65535/50041790442_82d3013970_n.jpg",
    "id_album": "-1126835654",
    "description": "Women_389470",
    "title": "Women_389470",
    "link_img": "https://live.staticflickr.com/65535/50041790442_3e856f8894_o.jpg",
    "id_image": "Women_389470",
    "count_view": 0
  },
  {
    "link_thumb": "https://live.staticflickr.com/65535/50040689237_95d38d605a_n.jpg",
    "id_album": "779690680",
    "description": "Robot_928637",
    "title": "Robot_928637",
    "link_img": "https://live.staticflickr.com/65535/50040689237_5548c8ea02_o.jpg",
    "id_image": "Robot_928637",
    "count_view": 0
  },
  {
    "link_thumb": "https://live.staticflickr.com/65535/50040402011_2e6870f7b3_n.jpg",
    "id_album": "779690680",
    "description": "Robot_903940",
    "title": "Robot_903940",
    "link_img": "https://live.staticflickr.com/65535/50040402011_4ab88ae01e_o.jpg",
    "id_image": "Robot_903940",
    "count_view": 0
  },
  {
    "link_thumb": "https://live.staticflickr.com/65535/50040267697_b9251d8c9e_n.jpg",
    "id_album": "1443611160",
    "description": "PlanetRise_375147",
    "title": "PlanetRise_375147",
    "link_img": "https://live.staticflickr.com/65535/50040267697_172726cc07_o.jpg",
    "id_image": "PlanetRise_375147",
    "count_view": 0
  },
  {
    "link_thumb": "https://live.staticflickr.com/65535/50040814898_43b1ccf451_n.jpg",
    "id_album": "-1177476763",
    "description": "Sunrise_805194",
    "title": "Sunrise_805194",
    "link_img": "https://live.staticflickr.com/65535/50040814898_97b0a2010a_o.jpg",
    "id_image": "Sunrise_805194",
    "count_view": 0
  },
  {
    "link_thumb": "https://live.staticflickr.com/65535/50040164417_aa351d236f_n.jpg",
    "id_album": "395161030",
    "description": "Planet_10004",
    "title": "Planet_10004",
    "link_img": "https://live.staticflickr.com/65535/50040164417_37dae06533_o.jpg",
    "id_image": "Planet_10004",
    "count_view": 0
  },
  {
    "link_thumb": "https://live.staticflickr.com/65535/50040064552_44ecf40d85_n.jpg",
    "id_album": "-1610342324",
    "description": "Nebula_500766",
    "title": "Nebula_500766",
    "link_img": "https://live.staticflickr.com/65535/50040064552_c1f1c28989_o.jpg",
    "id_image": "Nebula_500766",
    "count_view": 0
  },
  {
    "link_thumb": "https://live.staticflickr.com/65535/50039880378_8bbfcfbb7d_n.jpg",
    "id_album": "779690680",
    "description": "Robot_940953",
    "title": "Robot_940953",
    "link_img": "https://live.staticflickr.com/65535/50039880378_3f764b3171_o.jpg",
    "id_image": "Robot_940953",
    "count_view": 0
  },
  {
    "link_thumb": "https://live.staticflickr.com/65535/50039256968_c69ba70e40_n.jpg",
    "id_album": "-1610342324",
    "description": "Nebula_546083",
    "title": "Nebula_546083",
    "link_img": "https://live.staticflickr.com/65535/50039256968_714f141a92_o.jpg",
    "id_image": "Nebula_546083",
    "count_view": 0
  },
  {
    "link_thumb": "https://live.staticflickr.com/65535/50041047902_090005729d_n.jpg",
    "id_album": "2130067313",
    "description": "Spaceship_992543",
    "title": "Spaceship_992543",
    "link_img": "https://live.staticflickr.com/65535/50041047902_0f27dee4b9_o.jpg",
    "id_image": "Spaceship_992543",
    "count_view": 0
  },
  {
    "link_thumb": "https://live.staticflickr.com/65535/50039488698_1e4ce2943e_n.jpg",
    "id_album": "814701616",
    "description": "PlanetaryRing_56259",
    "title": "PlanetaryRing_56259",
    "link_img": "https://live.staticflickr.com/65535/50039488698_307bcb86fb_o.jpg",
    "id_image": "PlanetaryRing_56259",
    "count_view": 0
  },
  {
    "link_thumb": "https://live.staticflickr.com/65535/50040390431_032ef1442b_n.jpg",
    "id_album": "779690680",
    "description": "Robot_881753",
    "title": "Robot_881753",
    "link_img": "https://live.staticflickr.com/65535/50040390431_fcc4befd2e_o.jpg",
    "id_image": "Robot_881753",
    "count_view": 0
  },
  {
    "link_thumb": "https://live.staticflickr.com/65535/50039084793_8ab1e46f05_n.jpg",
    "id_album": "1204249541",
    "description": "Galaxy_430469",
    "title": "Galaxy_430469",
    "link_img": "https://live.staticflickr.com/65535/50039084793_7c502c9d75_o.jpg",
    "id_image": "Galaxy_430469",
    "count_view": 0
  },
  {
    "link_thumb": "https://live.staticflickr.com/65535/50040257961_bf8405c8f1_n.jpg",
    "id_album": "779690680",
    "description": "Robot_173456",
    "title": "Robot_173456",
    "link_img": "https://live.staticflickr.com/65535/50040257961_319fdb7d66_o.jpg",
    "id_image": "Robot_173456",
    "count_view": 0
  },
  {
    "link_thumb": "https://live.staticflickr.com/65535/50040595643_9b21035576_n.jpg",
    "id_album": "-1863373220",
    "description": "StarWars_235021",
    "title": "StarWars_235021",
    "link_img": "https://live.staticflickr.com/65535/50040595643_60b68b4786_o.jpg",
    "id_image": "StarWars_235021",
    "count_view": 0
  },
  {
    "link_thumb": "https://live.staticflickr.com/65535/50041036663_f15d42a281_n.jpg",
    "id_album": "-1675918237",
    "description": "WomenWarrior_912306",
    "title": "WomenWarrior_912306",
    "link_img": "https://live.staticflickr.com/65535/50041036663_4e85bed13e_o.jpg",
    "id_image": "WomenWarrior_912306",
    "count_view": 0
  },
  {
    "link_thumb": "https://live.staticflickr.com/65535/50040627751_1606c3d360_n.jpg",
    "id_album": "2130067313",
    "description": "Spaceship_286775",
    "title": "Spaceship_286775",
    "link_img": "https://live.staticflickr.com/65535/50040627751_b08d5770e7_o.jpg",
    "id_image": "Spaceship_286775",
    "count_view": 0
  },
  {
    "link_thumb": "https://live.staticflickr.com/65535/50038855628_7aeda00024_n.jpg",
    "id_album": "1187037014",
    "description": "Battle_585062",
    "title": "Battle_585062",
    "link_img": "https://live.staticflickr.com/65535/50038855628_7d071cc005_o.jpg",
    "id_image": "Battle_585062",
    "count_view": 0
  },
  {
    "link_thumb": "https://live.staticflickr.com/65535/50041035043_42ebabeff4_n.jpg",
    "id_album": "-1675918237",
    "description": "WomenWarrior_849366",
    "title": "WomenWarrior_849366",
    "link_img": "https://live.staticflickr.com/65535/50041035043_0c2d31a4df_o.jpg",
    "id_image": "WomenWarrior_849366",
    "count_view": 0
  },
  {
    "link_thumb": "https://live.staticflickr.com/65535/50040232246_66fe0d5084_n.jpg",
    "id_album": "-482547208",
    "description": "PostApocalyptic_940000",
    "title": "PostApocalyptic_940000",
    "link_img": "https://live.staticflickr.com/65535/50040232246_e72d170975_o.jpg",
    "id_image": "PostApocalyptic_940000",
    "count_view": 0
  },
  {
    "link_thumb": "https://live.staticflickr.com/65535/50039898297_d5da53a109_n.jpg",
    "id_album": "1204249541",
    "description": "Galaxy_441411",
    "title": "Galaxy_441411",
    "link_img": "https://live.staticflickr.com/65535/50039898297_519396b9e7_o.jpg",
    "id_image": "Galaxy_441411",
    "count_view": 0
  }
]