[
  {
    "link_thumb": "https://live.staticflickr.com/65535/50040662993_9033c4193a_n.jpg",
    "id_album": "-1863373220",
    "description": "StarWars_696431",
    "title": "StarWars_696431",
    "link_img": "https://live.staticflickr.com/65535/50040662993_7299b95a91_o.jpg",
    "id_image": "StarWars_696431",
    "count_view": 0
  },
  {
    "link_thumb": "https://live.staticflickr.com/65535/50041846102_20887a0bfe_n.jpg",
    "id_album": "-1675918237",
    "description": "WomenWarrior_609092",
    "title": "WomenWarrior_609092",
    "link_img": "https://live.staticflickr.com/65535/50041846102_e971b55caa_o.jpg",
    "id_image": "WomenWarrior_609092",
    "count_view": 0
  },
  {
    "link_thumb": "https://live.staticflickr.com/65535/50039876968_18a57cd24a_n.jpg",
    "id_album": "779690680",
    "description": "Robot_934612",
    "title": "Robot_934612",
    "link_img": "https://live.staticflickr.com/65535/50039876968_d1bcfbda2c_o.jpg",
    "id_image": "Robot_934612",
    "count_view": 0
  },
  {
    "link_thumb": "https://live.staticflickr.com/65535/50040695813_e1599a89ea_n.jpg",
    "id_album": "-1863373220",
    "description": "StarWars_980537",
    "title": "StarWars_980537",
    "link_img": "https://live.staticflickr.com/65535/50040695813_a239505197_o.jpg",
    "id_image": "StarWars_980537",
    "count_view": 0
  },
  {
    "link_thumb": "https://live.staticflickr.com/65535/50038998338_62811ce04b_n.jpg",
    "id_album": "-437872736",
    "description": "Creature_195664",
    "title": "Creature_195664",
    "link_img": "https://live.staticflickr.com/65535/50038998338_0d249159b7_o.jpg",
    "id_image": "Creature_195664",
    "count_view": 0
  },
  {
    "link_thumb": "https://live.staticflickr.com/65535/50039800037_37fdd21a9d_n.jpg",
    "id_album": "894679094",
    "description": "Collision_286791",
    "title": "Collision_286791",
    "link_img": "https://live.staticflickr.com/65535/50039800037_5d8c62b31a_o.jpg",
    "id_image": "Collision_286791",
    "count_view": 0
  },
  {
    "link_thumb": "https://live.staticflickr.com/65535/50040024702_c8ca15cb2b_n.jpg",
    "id_album": "-1610342324",
    "description": "Nebula_104930",
    "title": "Nebula_104930",
    "link_img": "https://live.staticflickr.com/65535/50040024702_550befb9aa_o.jpg",
    "id_image": "Nebula_104930",
    "count_view": 0
  },
  {
    "link_thumb": "https://live.staticflickr.com/65535/50041458342_d93641a522_n.jpg",
    "id_album": "-1863373220",
    "description": "StarWars_584605",
    "title": "StarWars_584605",
    "link_img": "https://live.staticflickr.com/65535/50041458342_57d3676311_o.jpg",
    "id_image": "StarWars_584605",
    "count_view": 0
  },
  {
    "link_thumb": "https://live.staticflickr.com/65535/50041031763_067fe49795_n.jpg",
    "id_album": "-1675918237",
    "description": "WomenWarrior_616398",
    "title": "WomenWarrior_616398",
    "link_img": "https://live.staticflickr.com/65535/50041031763_fb7673a37f_o.jpg",
    "id_image": "WomenWarrior_616398",
    "count_view": 0
  },
  {
    "link_thumb": "https://live.staticflickr.com/65535/50039434091_3a5639f8f7_n.jpg",
    "id_album": "-1964113117",
    "description": "City_145191",
    "title": "City_145191",
    "link_img": "https://live.staticflickr.com/65535/50039434091_dfbfb6a553_o.jpg",
    "id_image": "City_145191",
    "count_view": 0
  },
  {
    "link_thumb": "https://live.staticflickr.com/65535/50039294316_0ffaaeee83_n.jpg",
    "id_album": "523598895",
    "description": "Artistic_116011",
    "title": "Artistic_116011",
    "link_img": "https://live.staticflickr.com/65535/50039294316_c491bf2d23_o.jpg",
    "id_image": "Artistic_116011",
    "count_view": 0
  },
  {
    "link_thumb": "https://live.staticflickr.com/65535/50040657162_3800ae30c4_n.jpg",
    "id_album": "779690680",
    "description": "Robot_884809",
    "title": "Robot_884809",
    "link_img": "https://live.staticflickr.com/65535/50040657162_79cb073feb_o.jpg",
    "id_image": "Robot_884809",
    "count_view": 0
  },
  {
    "link_thumb": "https://live.staticflickr.com/65535/50039737386_0338bf630d_n.jpg",
    "id_album": "-1388385651",
    "description": "MilkyWay_657343",
    "title": "MilkyWay_657343",
    "link_img": "https://live.staticflickr.com/65535/50039737386_424da3b5d6_o.jpg",
    "id_image": "MilkyWay_657343",
    "count_view": 0
  },
  {
    "link_thumb": "https://live.staticflickr.com/65535/50039854023_58566d8048_n.jpg",
    "id_album": "779690680",
    "description": "Robot_910947",
    "title": "Robot_910947",
    "link_img": "https://live.staticflickr.com/65535/50039854023_ce17a48a4e_o.jpg",
    "id_image": "Robot_910947",
    "count_view": 0
  },
  {
    "link_thumb": "https://live.staticflickr.com/65535/50040083077_19a724438a_n.jpg",
    "id_album": "-1610342324",
    "description": "Nebula_66952",
    "title": "Nebula_66952",
    "link_img": "https://live.staticflickr.com/65535/50040083077_57187b167d_o.jpg",
    "id_image": "Nebula_66952",
    "count_view": 0
  },
  {
    "link_thumb": "https://live.staticflickr.com/65535/50039278163_c1663a747e_n.jpg",
    "id_album": "-1610342324",
    "description": "Nebula_738413",
    "title": "Nebula_738413",
    "link_img": "https://live.staticflickr.com/65535/50039278163_1de4cbb648_o.jpg",
    "id_image": "Nebula_738413",
    "count_view": 0
  },
  {
    "link_thumb": "https://live.staticflickr.com/65535/50039921052_2acecd1b82_n.jpg",
    "id_album": "1204249541",
    "description": "Galaxy_996255",
    "title": "Galaxy_996255",
    "link_img": "https://live.staticflickr.com/65535/50039921052_a0b3f83fca_o.jpg",
    "id_image": "Galaxy_996255",
    "count_view": 0
  },
  {
    "link_thumb": "https://live.staticflickr.com/65535/50038736588_35acb8b253_n.jpg",
    "id_album": "-419633230",
    "description": "Apocalyptic_528587",
    "title": "Apocalyptic_528587",
    "link_img": "https://live.staticflickr.com/65535/50038736588_52cef39f35_o.jpg",
    "id_image": "Apocalyptic_528587",
    "count_view": 0
  },
  {
    "link_thumb": "https://live.staticflickr.com/65535/50039926388_8691cddc82_n.jpg",
    "id_album": "1613540653",
    "description": "Space_223704",
    "title": "Space_223704",
    "link_img": "https://live.staticflickr.com/65535/50039926388_f88e5ef8a5_o.jpg",
    "id_image": "Space_223704",
    "count_view": 0
  },
  {
    "link_thumb": "https://live.staticflickr.com/65535/50039597633_6324214c0f_n.jpg",
    "id_album": "-1102314093",
    "description": "Planets_957377",
    "title": "Planets_957377",
    "link_img": "https://live.staticflickr.com/65535/50039597633_2493201f0e_o.jpg",
    "id_image": "Planets_957377",
    "count_view": 0
  },
  {
    "link_thumb": "https://live.staticflickr.com/65535/50041563741_5b21c625f9_n.jpg",
    "id_album": "-1675918237",
    "description": "WomenWarrior_283334",
    "title": "WomenWarrior_283334",
    "link_img": "https://live.staticflickr.com/65535/50041563741_5a8b211ee1_o.jpg",
    "id_image": "WomenWarrior_283334",
    "count_view": 0
  },
  {
    "link_thumb": "https://live.staticflickr.com/65535/50038742178_029a671127_n.jpg",
    "id_album": "-419633230",
    "description": "Apocalyptic_957495",
    "title": "Apocalyptic_957495",
    "link_img": "https://live.staticflickr.com/65535/50038742178_e762978d8f_o.jpg",
    "id_image": "Apocalyptic_957495",
    "count_view": 0
  },
  {
    "link_thumb": "https://live.staticflickr.com/65535/50040097477_950e72cc67_n.jpg",
    "id_album": "-1610342324",
    "description": "Nebula_772690",
    "title": "Nebula_772690",
    "link_img": "https://live.staticflickr.com/65535/50040097477_f399be184c_o.jpg",
    "id_image": "Nebula_772690",
    "count_view": 0
  },
  {
    "link_thumb": "https://live.staticflickr.com/65535/50040859583_d442ff6e1f_n.jpg",
    "id_album": "2020068132",
    "description": "Vehicle_714774",
    "title": "Vehicle_714774",
    "link_img": "https://live.staticflickr.com/65535/50040859583_b0177ce5d8_o.jpg",
    "id_image": "Vehicle_714774",
    "count_view": 0
  },
  {
    "link_thumb": "https://live.staticflickr.com/65535/50040519217_5f0c467647_n.jpg",
    "id_album": "779690680",
    "description": "Robot_145931",
    "title": "Robot_145931",
    "link_img": "https://live.staticflickr.com/65535/50040519217_34831e1eab_o.jpg",
    "id_image": "Robot_145931",
    "count_view": 0
  },
  {
    "link_thumb": "https://live.staticflickr.com/65535/50040921043_1e8c7a7bb5_n.jpg",
    "id_album": "-1261420436",
    "description": "Warrior_592181",
    "title": "Warrior_592181",
    "link_img": "https://live.staticflickr.com/65535/50040921043_b8af30f262_o.jpg",
    "id_image": "Warrior_592181",
    "count_view": 0
  },
  {
    "link_thumb": "https://live.staticflickr.com/65535/50039773401_a78d8b2db0_n.jpg",
    "id_album": "-1610342324",
    "description": "Nebula_225904",
    "title": "Nebula_225904",
    "link_img": "https://live.staticflickr.com/65535/50039773401_f76bef9e82_o.jpg",
    "id_image": "Nebula_225904",
    "count_view": 0
  },
  {
    "link_thumb": "https://live.staticflickr.com/65535/50039436516_cd57fe9945_n.jpg",
    "id_album": "-1964113117",
    "description": "City_155240",
    "title": "City_155240",
    "link_img": "https://live.staticflickr.com/65535/50039436516_af0dff472b_o.jpg",
    "id_image": "City_155240",
    "count_view": 0
  },
  {
    "link_thumb": "https://live.staticflickr.com/65535/50040129961_6f6f32658e_n.jpg",
    "id_album": "-1102314093",
    "description": "Planets_714854",
    "title": "Planets_714854",
    "link_img": "https://live.staticflickr.com/65535/50040129961_7b8e0ebc58_o.jpg",
    "id_image": "Planets_714854",
    "count_view": 0
  },
  {
    "link_thumb": "https://live.staticflickr.com/65535/50039434676_7874f86231_n.jpg",
    "id_album": "-1964113117",
    "description": "City_145401",
    "title": "City_145401",
    "link_img": "https://live.staticflickr.com/65535/50039434676_e60e48be0f_o.jpg",
    "id_image": "City_145401",
    "count_view": 0
  },
  {
    "link_thumb": "https://live.staticflickr.com/65535/50040517567_93b0356ae2_n.jpg",
    "id_album": "779690680",
    "description": "Robot_116309",
    "title": "Robot_116309",
    "link_img": "https://live.staticflickr.com/65535/50040517567_0816b977a4_o.jpg",
    "id_image": "Robot_116309",
    "count_view": 0
  },
  {
    "link_thumb": "https://live.staticflickr.com/65535/50040074097_cdd934831d_n.jpg",
    "id_album": "-1610342324",
    "description": "Nebula_560768",
    "title": "Nebula_560768",
    "link_img": "https://live.staticflickr.com/65535/50040074097_3626f6ae67_o.jpg",
    "id_image": "Nebula_560768",
    "count_view": 0
  },
  {
    "link_thumb": "https://live.staticflickr.com/65535/50039667638_90340d3309_n.jpg",
    "id_album": "-482547208",
    "description": "PostApocalyptic_703348",
    "title": "PostApocalyptic_703348",
    "link_img": "https://live.staticflickr.com/65535/50039667638_24d651bbeb_o.jpg",
    "id_image": "PostApocalyptic_703348",
    "count_view": 0
  },
  {
    "link_thumb": "https://live.staticflickr.com/65535/50038838778_4845a33262_n.jpg",
    "id_album": "869545341",
    "description": "Astronaut_967914",
    "title": "Astronaut_967914",
    "link_img": "https://live.staticflickr.com/65535/50038838778_a1857e4857_o.jpg",
    "id_image": "Astronaut_967914",
    "count_view": 0
  },
  {
    "link_thumb": "https://live.staticflickr.com/65535/50039951792_6733306867_n.jpg",
    "id_album": "1402713104",
    "description": "Landscape_4283",
    "title": "Landscape_4283",
    "link_img": "https://live.staticflickr.com/65535/50039951792_a4ab39176a_o.jpg",
    "id_image": "Landscape_4283",
    "count_view": 0
  },
  {
    "link_thumb": "https://live.staticflickr.com/65535/50041337091_2a6f885b09_n.jpg",
    "id_album": "1267121215",
    "description": "Steampunk_992541",
    "title": "Steampunk_992541",
    "link_img": "https://live.staticflickr.com/65535/50041337091_645e07d002_o.jpg",
    "id_image": "Steampunk_992541",
    "count_view": 0
  },
  {
    "link_thumb": "https://live.staticflickr.com/65535/50041595071_789050681b_n.jpg",
    "id_album": "-1675918237",
    "description": "WomenWarrior_993643",
    "title": "WomenWarrior_993643",
    "link_img": "https://live.staticflickr.com/65535/50041595071_97eaa4e0f3_o.jpg",
    "id_image": "WomenWarrior_993643",
    "count_view": 0
  },
  {
    "link_thumb": "https://live.staticflickr.com/65535/50039310958_1c77f5c3c5_n.jpg",
    "id_album": "-1862561193",
    "description": "Other_1304",
    "title": "Other_1304",
    "link_img": "https://live.staticflickr.com/65535/50039310958_814f2b0880_o.jpg",
    "id_image": "Other_1304",
    "count_view": 0
  },
  {
    "link_thumb": "https://live.staticflickr.com/65535/50039996496_c81784ef63_n.jpg",
    "id_album": "1443611160",
    "description": "PlanetRise_150176",
    "title": "PlanetRise_150176",
    "link_img": "https://live.staticflickr.com/65535/50039996496_85e5d2f2ef_o.jpg",
    "id_image": "PlanetRise_150176",
    "count_view": 0
  },
  {
    "link_thumb": "https://live.staticflickr.com/65535/50039721601_2c072325d4_n.jpg",
    "id_album": "1402713104",
    "description": "Landscape_911493",
    "title": "Landscape_911493",
    "link_img": "https://live.staticflickr.com/65535/50039721601_7b87aa289a_o.jpg",
    "id_image": "Landscape_911493",
    "count_view": 0
  },
  {
    "link_thumb": "https://live.staticflickr.com/65535/50038839448_af80f761ef_n.jpg",
    "id_album": "869545341",
    "description": "Astronaut_970134",
    "title": "Astronaut_970134",
    "link_img": "https://live.staticflickr.com/65535/50038839448_a68e8fed00_o.jpg",
    "id_image": "Astronaut_970134",
    "count_view": 0
  },
  {
    "link_thumb": "https://live.staticflickr.com/65535/50038789233_be6b99409b_n.jpg",
    "id_album": "523598895",
    "description": "Artistic_469028",
    "title": "Artistic_469028",
    "link_img": "https://live.staticflickr.com/65535/50038789233_e96d2e232f_o.jpg",
    "id_image": "Artistic_469028",
    "count_view": 0
  },
  {
    "link_thumb": "https://live.staticflickr.com/65535/50040465737_d02ba43512_n.jpg",
    "id_album": "-482547208",
    "description": "PostApocalyptic_242352",
    "title": "PostApocalyptic_242352",
    "link_img": "https://live.staticflickr.com/65535/50040465737_4dbae4cc91_o.jpg",
    "id_image": "PostApocalyptic_242352",
    "count_view": 0
  },
  {
    "link_thumb": "https://live.staticflickr.com/65535/50041851042_dceabd01d8_n.jpg",
    "id_album": "-1675918237",
    "description": "WomenWarrior_895543",
    "title": "WomenWarrior_895543",
    "link_img": "https://live.staticflickr.com/65535/50041851042_a37c26372d_o.jpg",
    "id_image": "WomenWarrior_895543",
    "count_view": 0
  },
  {
    "link_thumb": "https://live.staticflickr.com/65535/50038772593_382ecebfee_n.jpg",
    "id_album": "523598895",
    "description": "Artistic_233260",
    "title": "Artistic_233260",
    "link_img": "https://live.staticflickr.com/65535/50038772593_a9f7f1991e_o.jpg",
    "id_image": "Artistic_233260",
    "count_view": 0
  },
  {
    "link_thumb": "https://live.staticflickr.com/65535/50039899687_00df7c69fa_n.jpg",
    "id_album": "1204249541",
    "description": "Galaxy_454253",
    "title": "Galaxy_454253",
    "link_img": "https://live.staticflickr.com/65535/50039899687_c52c024539_o.jpg",
    "id_image": "Galaxy_454253",
    "count_view": 0
  },
  {
    "link_thumb": "https://live.staticflickr.com/65535/50038917188_1870a05359_n.jpg",
    "id_album": "-1964113117",
    "description": "City_356713",
    "title": "City_356713",
    "link_img": "https://live.staticflickr.com/65535/50038917188_a9dba55148_o.jpg",
    "id_image": "City_356713",
    "count_view": 0
  },
  {
    "link_thumb": "https://live.staticflickr.com/65535/50039901612_57866f98ae_n.jpg",
    "id_album": "1204249541",
    "description": "Galaxy_510806",
    "title": "Galaxy_510806",
    "link_img": "https://live.staticflickr.com/65535/50039901612_c9907679db_o.jpg",
    "id_image": "Galaxy_510806",
    "count_view": 0
  },
  {
    "link_thumb": "https://live.staticflickr.com/65535/50039714143_121fffec76_n.jpg",
    "id_album": "779690680",
    "description": "Robot_222877",
    "title": "Robot_222877",
    "link_img": "https://live.staticflickr.com/65535/50039714143_230a9b86c8_o.jpg",
    "id_image": "Robot_222877",
    "count_view": 0
  },
  {
    "link_thumb": "https://live.staticflickr.com/65535/50039574598_5a20ba0c85_n.jpg",
    "id_album": "-1102314093",
    "description": "Planets_535399",
    "title": "Planets_535399",
    "link_img": "https://live.staticflickr.com/65535/50039574598_bab7a43f27_o.jpg",
    "id_image": "Planets_535399",
    "count_view": 0
  },
  {
    "link_thumb": "https://live.staticflickr.com/65535/50039203663_5667c7cd51_n.jpg",
    "id_album": "-1388385651",
    "description": "MilkyWay_96303",
    "title": "MilkyWay_96303",
    "link_img": "https://live.staticflickr.com/65535/50039203663_07eceb83d2_o.jpg",
    "id_image": "MilkyWay_96303",
    "count_view": 0
  },
  {
    "link_thumb": "https://live.staticflickr.com/65535/50040843372_db3ec1c7c0_n.jpg",
    "id_album": "2130067313",
    "description": "Spaceship_146638",
    "title": "Spaceship_146638",
    "link_img": "https://live.staticflickr.com/65535/50040843372_4031d515de_o.jpg",
    "id_image": "Spaceship_146638",
    "count_view": 0
  },
  {
    "link_thumb": "https://live.staticflickr.com/65535/50039074673_79fa0c2f63_n.jpg",
    "id_album": "1204249541",
    "description": "Galaxy_101692",
    "title": "Galaxy_101692",
    "link_img": "https://live.staticflickr.com/65535/50039074673_fd69118caf_o.jpg",
    "id_image": "Galaxy_101692",
    "count_view": 0
  },
  {
    "link_thumb": "https://live.staticflickr.com/65535/50039827271_82884c24c2_n.jpg",
    "id_album": "-1610342324",
    "description": "Nebula_736814",
    "title": "Nebula_736814",
    "link_img": "https://live.staticflickr.com/65535/50039827271_1b47391ab6_o.jpg",
    "id_image": "Nebula_736814",
    "count_view": 0
  },
  {
    "link_thumb": "https://live.staticflickr.com/65535/50041422771_1b607aaf7a_n.jpg",
    "id_album": "2020068132",
    "description": "Vehicle_955936",
    "title": "Vehicle_955936",
    "link_img": "https://live.staticflickr.com/65535/50041422771_389dd09114_o.jpg",
    "id_image": "Vehicle_955936",
    "count_view": 0
  },
  {
    "link_thumb": "https://live.staticflickr.com/65535/50039931896_f272d30857_n.jpg",
    "id_album": "395161030",
    "description": "Planet_347830",
    "title": "Planet_347830",
    "link_img": "https://live.staticflickr.com/65535/50039931896_5b03c12046_o.jpg",
    "id_image": "Planet_347830",
    "count_view": 0
  },
  {
    "link_thumb": "https://live.staticflickr.com/65535/50041677412_0526190a69_n.jpg",
    "id_album": "2020068132",
    "description": "Vehicle_779329",
    "title": "Vehicle_779329",
    "link_img": "https://live.staticflickr.com/65535/50041677412_3b4681d1b1_o.jpg",
    "id_image": "Vehicle_779329",
    "count_view": 0
  },
  {
    "link_thumb": "https://live.staticflickr.com/65535/50039973138_84683b71a8_n.jpg",
    "id_album": "1613540653",
    "description": "Space_694407",
    "title": "Space_694407",
    "link_img": "https://live.staticflickr.com/65535/50039973138_d8b38fdded_o.jpg",
    "id_image": "Space_694407",
    "count_view": 0
  },
  {
    "link_thumb": "https://live.staticflickr.com/65535/50040417371_26aa15bd51_n.jpg",
    "id_album": "779690680",
    "description": "Robot_921708",
    "title": "Robot_921708",
    "link_img": "https://live.staticflickr.com/65535/50040417371_dfa7a8b4d4_o.jpg",
    "id_image": "Robot_921708",
    "count_view": 0
  },
  {
    "link_thumb": "https://live.staticflickr.com/65535/50039273741_bf90710f10_n.jpg",
    "id_album": "849020728",
    "description": "Alien_72043",
    "title": "Alien_72043",
    "link_img": "https://live.staticflickr.com/65535/50039273741_9e5c8aa68c_o.jpg",
    "id_image": "Alien_72043",
    "count_view": 0
  },
  {
    "link_thumb": "https://live.staticflickr.com/65535/50040268727_a3fd5f2433_n.jpg",
    "id_album": "1443611160",
    "description": "PlanetRise_397568",
    "title": "PlanetRise_397568",
    "link_img": "https://live.staticflickr.com/65535/50040268727_41026ab4aa_o.jpg",
    "id_image": "PlanetRise_397568",
    "count_view": 0
  },
  {
    "link_thumb": "https://live.staticflickr.com/65535/50038858893_c4f649b965_n.jpg",
    "id_album": "1187037014",
    "description": "Battle_790113",
    "title": "Battle_790113",
    "link_img": "https://live.staticflickr.com/65535/50038858893_8d91e7d6b9_o.jpg",
    "id_image": "Battle_790113",
    "count_view": 0
  },
  {
    "link_thumb": "https://live.staticflickr.com/65535/50039838066_a6c399ae5a_n.jpg",
    "id_album": "-1610342324",
    "description": "Nebula_795901",
    "title": "Nebula_795901",
    "link_img": "https://live.staticflickr.com/65535/50039838066_9e21328a3e_o.jpg",
    "id_image": "Nebula_795901",
    "count_view": 0
  },
  {
    "link_thumb": "https://live.staticflickr.com/65535/50039229378_5edcd77c16_n.jpg",
    "id_album": "-1610342324",
    "description": "Nebula_264727",
    "title": "Nebula_264727",
    "link_img": "https://live.staticflickr.com/65535/50039229378_880e13c148_o.jpg",
    "id_image": "Nebula_264727",
    "count_view": 0
  },
  {
    "link_thumb": "https://live.staticflickr.com/65535/50039256783_c8c6359705_n.jpg",
    "id_album": "-1610342324",
    "description": "Nebula_546024",
    "title": "Nebula_546024",
    "link_img": "https://live.staticflickr.com/65535/50039256783_e8b91ce5e8_o.jpg",
    "id_image": "Nebula_546024",
    "count_view": 0
  },
  {
    "link_thumb": "https://live.staticflickr.com/65535/50041377031_9191de9bea_n.jpg",
    "id_album": "2020068132",
    "description": "Vehicle_198980",
    "title": "Vehicle_198980",
    "link_img": "https://live.staticflickr.com/65535/50041377031_2269e598ce_o.jpg",
    "id_image": "Vehicle_198980",
    "count_view": 0
  },
  {
    "link_thumb": "https://live.staticflickr.com/65535/50040442831_57368eaf1f_n.jpg",
    "id_album": "779690680",
    "description": "Robot_949798",
    "title": "Robot_949798",
    "link_img": "https://live.staticflickr.com/65535/50040442831_1ce6a73244_o.jpg",
    "id_image": "Robot_949798",
    "count_view": 0
  },
  {
    "link_thumb": "https://live.staticflickr.com/65535/50039339306_8d45e436de_n.jpg",
    "id_album": "523598895",
    "description": "Artistic_563761",
    "title": "Artistic_563761",
    "link_img": "https://live.staticflickr.com/65535/50039339306_2666b2eab2_o.jpg",
    "id_image": "Artistic_563761",
    "count_view": 0
  },
  {
    "link_thumb": "https://live.staticflickr.com/65535/50040344992_1be4094a48_n.jpg",
    "id_album": "-1102314093",
    "description": "Planets_32584",
    "title": "Planets_32584",
    "link_img": "https://live.staticflickr.com/65535/50040344992_cc8f427e07_o.jpg",
    "id_image": "Planets_32584",
    "count_view": 0
  },
  {
    "link_thumb": "https://live.staticflickr.com/65535/50039841298_eb2ebd2254_n.jpg",
    "id_album": "779690680",
    "description": "Robot_886635",
    "title": "Robot_886635",
    "link_img": "https://live.staticflickr.com/65535/50039841298_32e33be649_o.jpg",
    "id_image": "Robot_886635",
    "count_view": 0
  },
  {
    "link_thumb": "https://live.staticflickr.com/65535/50040639912_ab67f845cc_n.jpg",
    "id_album": "779690680",
    "description": "Robot_857296",
    "title": "Robot_857296",
    "link_img": "https://live.staticflickr.com/65535/50040639912_f96b8c2797_o.jpg",
    "id_image": "Robot_857296",
    "count_view": 0
  },
  {
    "link_thumb": "https://live.staticflickr.com/65535/50039642711_f9f29f6884_n.jpg",
    "id_album": "1204249541",
    "description": "Galaxy_555688",
    "title": "Galaxy_555688",
    "link_img": "https://live.staticflickr.com/65535/50039642711_6ccda1932f_o.jpg",
    "id_image": "Galaxy_555688",
    "count_view": 0
  },
  {
    "link_thumb": "https://live.staticflickr.com/65535/50040589107_f9c7904d25_n.jpg",
    "id_album": "779690680",
    "description": "Robot_489383",
    "title": "Robot_489383",
    "link_img": "https://live.staticflickr.com/65535/50040589107_c7044d8e07_o.jpg",
    "id_image": "Robot_489383",
    "count_view": 0
  },
  {
    "link_thumb": "https://live.staticflickr.com/65535/50038738103_2cf552aa28_n.jpg",
    "id_album": "-419633230",
    "description": "Apocalyptic_678101",
    "title": "Apocalyptic_678101",
    "link_img": "https://live.staticflickr.com/65535/50038738103_94aa5ba697_o.jpg",
    "id_image": "Apocalyptic_678101",
    "count_view": 0
  },
  {
    "link_thumb": "https://live.staticflickr.com/65535/50040638362_31351a3378_n.jpg",
    "id_album": "779690680",
    "description": "Robot_857285",
    "title": "Robot_857285",
    "link_img": "https://live.staticflickr.com/65535/50040638362_3503092af9_o.jpg",
    "id_image": "Robot_857285",
    "count_view": 0
  },
  {
    "link_thumb": "https://live.staticflickr.com/65535/50039381796_dec156a8a0_n.jpg",
    "id_album": "869545341",
    "description": "Astronaut_925911",
    "title": "Astronaut_925911",
    "link_img": "https://live.staticflickr.com/65535/50039381796_cdbb76edff_o.jpg",
    "id_image": "Astronaut_925911",
    "count_view": 0
  },
  {
    "link_thumb": "https://live.staticflickr.com/65535/50039631517_91c1531130_n.jpg",
    "id_album": "869545341",
    "description": "Astronaut_841058",
    "title": "Astronaut_841058",
    "link_img": "https://live.staticflickr.com/65535/50039631517_cc5082a090_o.jpg",
    "id_image": "Astronaut_841058",
    "count_view": 0
  },
  {
    "link_thumb": "https://live.staticflickr.com/65535/50040049682_31107fa995_n.jpg",
    "id_album": "-1610342324",
    "description": "Nebula_311770",
    "title": "Nebula_311770",
    "link_img": "https://live.staticflickr.com/65535/50040049682_c46fdecf1f_o.jpg",
    "id_image": "Nebula_311770",
    "count_view": 0
  },
  {
    "link_thumb": "https://live.staticflickr.com/65535/50039801096_b25b6a0eb7_n.jpg",
    "id_album": "-1610342324",
    "description": "Nebula_501295",
    "title": "Nebula_501295",
    "link_img": "https://live.staticflickr.com/65535/50039801096_568ede5693_o.jpg",
    "id_image": "Nebula_501295",
    "count_view": 0
  },
  {
    "link_thumb": "https://live.staticflickr.com/65535/50039871837_abc9f25e9a_n.jpg",
    "id_album": "651930207",
    "description": "Explosion_329790",
    "title": "Explosion_329790",
    "link_img": "https://live.staticflickr.com/65535/50039871837_cd3cf47d00_o.jpg",
    "id_image": "Explosion_329790",
    "count_view": 0
  },
  {
    "link_thumb": "https://live.staticflickr.com/65535/50039505287_bd61cca65b_n.jpg",
    "id_album": "849020728",
    "description": "Alien_1011232",
    "title": "Alien_1011232",
    "link_img": "https://live.staticflickr.com/65535/50039505287_d42de51647_o.jpg",
    "id_image": "Alien_1011232",
    "count_view": 0
  },
  {
    "link_thumb": "https://live.staticflickr.com/65535/50039642386_c6760a0e9c_n.jpg",
    "id_album": "1204249541",
    "description": "Galaxy_550539",
    "title": "Galaxy_550539",
    "link_img": "https://live.staticflickr.com/65535/50039642386_082ff644d4_o.jpg",
    "id_image": "Galaxy_550539",
    "count_view": 0
  },
  {
    "link_thumb": "https://live.staticflickr.com/65535/50039592757_6354181898_n.jpg",
    "id_album": "523598895",
    "description": "Artistic_353782",
    "title": "Artistic_353782",
    "link_img": "https://live.staticflickr.com/65535/50039592757_c3e10ca174_o.jpg",
    "id_image": "Artistic_353782",
    "count_view": 0
  },
  {
    "link_thumb": "https://live.staticflickr.com/65535/50040072037_8b9d7d5048_n.jpg",
    "id_album": "-1610342324",
    "description": "Nebula_555187",
    "title": "Nebula_555187",
    "link_img": "https://live.staticflickr.com/65535/50040072037_04ff30503a_o.jpg",
    "id_image": "Nebula_555187",
    "count_view": 0
  },
  {
    "link_thumb": "https://live.staticflickr.com/65535/50039427796_40c402370e_n.jpg",
    "id_album": "406431601",
    "description": "Building_94710",
    "title": "Building_94710",
    "link_img": "https://live.staticflickr.com/65535/50039427796_b95386d190_o.jpg",
    "id_image": "Building_94710",
    "count_view": 0
  },
  {
    "link_thumb": "https://live.staticflickr.com/65535/50040195377_56dbcceb01_n.jpg",
    "id_album": "395161030",
    "description": "Planet_335814",
    "title": "Planet_335814",
    "link_img": "https://live.staticflickr.com/65535/50040195377_6b8c72a68b_o.jpg",
    "id_image": "Planet_335814",
    "count_view": 0
  },
  {
    "link_thumb": "https://live.staticflickr.com/65535/50041187211_9c1a05b262_n.jpg",
    "id_album": "-1863373220",
    "description": "StarWars_497637",
    "title": "StarWars_497637",
    "link_img": "https://live.staticflickr.com/65535/50041187211_07b9832a9f_o.jpg",
    "id_image": "StarWars_497637",
    "count_view": 0
  },
  {
    "link_thumb": "https://live.staticflickr.com/65535/50041590377_79ca5c6569_n.jpg",
    "id_album": "1267121215",
    "description": "Steampunk_711576",
    "title": "Steampunk_711576",
    "link_img": "https://live.staticflickr.com/65535/50041590377_627e9a7acc_o.jpg",
    "id_image": "Steampunk_711576",
    "count_view": 0
  },
  {
    "link_thumb": "https://live.staticflickr.com/65535/50041419706_e036f0fdd1_n.jpg",
    "id_album": "2020068132",
    "description": "Vehicle_910953",
    "title": "Vehicle_910953",
    "link_img": "https://live.staticflickr.com/65535/50041419706_d4fe7156ab_o.jpg",
    "id_image": "Vehicle_910953",
    "count_view": 0
  },
  {
    "link_thumb": "https://live.staticflickr.com/65535/50039413206_4d82ea1f2a_n.jpg",
    "id_album": "-1780971522",
    "description": "Biohazard_332959",
    "title": "Biohazard_332959",
    "link_img": "https://live.staticflickr.com/65535/50039413206_81fc0b585f_o.jpg",
    "id_image": "Biohazard_332959",
    "count_view": 0
  },
  {
    "link_thumb": "https://live.staticflickr.com/65535/50039161918_88e68403bd_n.jpg",
    "id_album": "1402713104",
    "description": "Landscape_852572",
    "title": "Landscape_852572",
    "link_img": "https://live.staticflickr.com/65535/50039161918_eb11bc834c_o.jpg",
    "id_image": "Landscape_852572",
    "count_view": 0
  },
  {
    "link_thumb": "https://live.staticflickr.com/65535/50040135571_c619d60bee_n.jpg",
    "id_album": "-1102314093",
    "description": "Planets_786780",
    "title": "Planets_786780",
    "link_img": "https://live.staticflickr.com/65535/50040135571_06eee4a706_o.jpg",
    "id_image": "Planets_786780",
    "count_view": 0
  },
  {
    "link_thumb": "https://live.staticflickr.com/65535/50038885388_e013fdd53e_n.jpg",
    "id_album": "-1964113117",
    "description": "City_145199",
    "title": "City_145199",
    "link_img": "https://live.staticflickr.com/65535/50038885388_8f56a2ab8d_o.jpg",
    "id_image": "City_145199",
    "count_view": 0
  },
  {
    "link_thumb": "https://live.staticflickr.com/65535/50039414153_4ed3569a1e_n.jpg",
    "id_album": "395161030",
    "description": "Planet_559151",
    "title": "Planet_559151",
    "link_img": "https://live.staticflickr.com/65535/50039414153_94141061ff_o.jpg",
    "id_image": "Planet_559151",
    "count_view": 0
  },
  {
    "link_thumb": "https://live.staticflickr.com/65535/50039550986_774572321e_n.jpg",
    "id_album": "-437872736",
    "description": "Creature_321082",
    "title": "Creature_321082",
    "link_img": "https://live.staticflickr.com/65535/50039550986_eb8f2a33a5_o.jpg",
    "id_image": "Creature_321082",
    "count_view": 0
  },
  {
    "link_thumb": "https://live.staticflickr.com/65535/50039323541_4bd3ff0ab7_n.jpg",
    "id_album": "523598895",
    "description": "Artistic_244220",
    "title": "Artistic_244220",
    "link_img": "https://live.staticflickr.com/65535/50039323541_6c8b4cd9c1_o.jpg",
    "id_image": "Artistic_244220",
    "count_view": 0
  },
  {
    "link_thumb": "https://live.staticflickr.com/65535/50040402471_a594fe1ba1_n.jpg",
    "id_album": "779690680",
    "description": "Robot_906343",
    "title": "Robot_906343",
    "link_img": "https://live.staticflickr.com/65535/50040402471_a51e79dc56_o.jpg",
    "id_image": "Robot_906343",
    "count_view": 0
  },
  {
    "link_thumb": "https://live.staticflickr.com/65535/50041241146_bae6f29631_n.jpg",
    "id_album": "-1863373220",
    "description": "StarWars_916314",
    "title": "StarWars_916314",
    "link_img": "https://live.staticflickr.com/65535/50041241146_9b1eda3aa1_o.jpg",
    "id_image": "StarWars_916314",
    "count_view": 0
  },
  {
    "link_thumb": "https://live.staticflickr.com/65535/50038898438_13d5511b22_n.jpg",
    "id_album": "-1964113117",
    "description": "City_214300",
    "title": "City_214300",
    "link_img": "https://live.staticflickr.com/65535/50038898438_efe9b0f30c_o.jpg",
    "id_image": "City_214300",
    "count_view": 0
  },
  {
    "link_thumb": "https://live.staticflickr.com/65535/50040099582_357012e678_n.jpg",
    "id_album": "-1610342324",
    "description": "Nebula_7823",
    "title": "Nebula_7823",
    "link_img": "https://live.staticflickr.com/65535/50040099582_840061a40d_o.jpg",
    "id_image": "Nebula_7823",
    "count_view": 0
  },
  {
    "link_thumb": "https://live.staticflickr.com/65535/50039236076_435d2d1de9_n.jpg",
    "id_album": "-406145265",
    "description": "Aircraft_269540",
    "title": "Aircraft_269540",
    "link_img": "https://live.staticflickr.com/65535/50039236076_377f9f5640_o.jpg",
    "id_image": "Aircraft_269540",
    "count_view": 0
  },
  {
    "link_thumb": "https://live.staticflickr.com/65535/50038908318_bce8fc222b_n.jpg",
    "id_album": "-1964113117",
    "description": "City_271106",
    "title": "City_271106",
    "link_img": "https://live.staticflickr.com/65535/50038908318_ef237da2c3_o.jpg",
    "id_image": "City_271106",
    "count_view": 0
  },
  {
    "link_thumb": "https://live.staticflickr.com/65535/50040041717_7f1d611c8d_n.jpg",
    "id_album": "-1610342324",
    "description": "Nebula_258067",
    "title": "Nebula_258067",
    "link_img": "https://live.staticflickr.com/65535/50040041717_17a17487f4_o.jpg",
    "id_image": "Nebula_258067",
    "count_view": 0
  },
  {
    "link_thumb": "https://live.staticflickr.com/65535/50040568672_0fe9b57ab5_n.jpg",
    "id_album": "779690680",
    "description": "Robot_407249",
    "title": "Robot_407249",
    "link_img": "https://live.staticflickr.com/65535/50040568672_c9b9ac0a36_o.jpg",
    "id_image": "Robot_407249",
    "count_view": 0
  },
  {
    "link_thumb": "https://live.staticflickr.com/65535/50039061098_31b8e5929b_n.jpg",
    "id_album": "651930207",
    "description": "Explosion_370831",
    "title": "Explosion_370831",
    "link_img": "https://live.staticflickr.com/65535/50039061098_aeda350901_o.jpg",
    "id_image": "Explosion_370831",
    "count_view": 0
  },
  {
    "link_thumb": "https://live.staticflickr.com/65535/50041410742_94bdd69f48_n.jpg",
    "id_album": "-1863373220",
    "description": "StarWars_234667",
    "title": "StarWars_234667",
    "link_img": "https://live.staticflickr.com/65535/50041410742_01a90b1679_o.jpg",
    "id_image": "StarWars_234667",
    "count_view": 0
  },
  {
    "link_thumb": "https://live.staticflickr.com/65535/50039299451_659e024d73_n.jpg",
    "id_album": "523598895",
    "description": "Artistic_162665",
    "title": "Artistic_162665",
    "link_img": "https://live.staticflickr.com/65535/50039299451_2abc96f0fd_o.jpg",
    "id_image": "Artistic_162665",
    "count_view": 0
  },
  {
    "link_thumb": "https://live.staticflickr.com/65535/50040310352_1ece5b0606_n.jpg",
    "id_album": "-1102314093",
    "description": "Planets_113084",
    "title": "Planets_113084",
    "link_img": "https://live.staticflickr.com/65535/50040310352_eaaba6d627_o.jpg",
    "id_image": "Planets_113084",
    "count_view": 0
  },
  {
    "link_thumb": "https://live.staticflickr.com/65535/50040387842_9dcedae910_n.jpg",
    "id_album": "-1102314093",
    "description": "Planets_533844",
    "title": "Planets_533844",
    "link_img": "https://live.staticflickr.com/65535/50040387842_2d3284f8f9_o.jpg",
    "id_image": "Planets_533844",
    "count_view": 0
  },
  {
    "link_thumb": "https://live.staticflickr.com/65535/50040556417_de5935b891_n.jpg",
    "id_album": "779690680",
    "description": "Robot_333324",
    "title": "Robot_333324",
    "link_img": "https://live.staticflickr.com/65535/50040556417_26e70843e6_o.jpg",
    "id_image": "Robot_333324",
    "count_view": 0
  },
  {
    "link_thumb": "https://live.staticflickr.com/65535/50040031062_9cc7c8cda5_n.jpg",
    "id_album": "-1610342324",
    "description": "Nebula_198127",
    "title": "Nebula_198127",
    "link_img": "https://live.staticflickr.com/65535/50040031062_c759937ff2_o.jpg",
    "id_image": "Nebula_198127",
    "count_view": 0
  },
  {
    "link_thumb": "https://live.staticflickr.com/65535/50039679113_ef8179783b_n.jpg",
    "id_album": "-482547208",
    "description": "PostApocalyptic_931808",
    "title": "PostApocalyptic_931808",
    "link_img": "https://live.staticflickr.com/65535/50039679113_fa291e2157_o.jpg",
    "id_image": "PostApocalyptic_931808",
    "count_view": 0
  },
  {
    "link_thumb": "https://live.staticflickr.com/65535/50039542121_5bed5f426f_n.jpg",
    "id_album": "894679094",
    "description": "Collision_652645",
    "title": "Collision_652645",
    "link_img": "https://live.staticflickr.com/65535/50039542121_5cc724df30_o.jpg",
    "id_image": "Collision_652645",
    "count_view": 0
  },
  {
    "link_thumb": "https://live.staticflickr.com/65535/50039211443_5c2826bea0_n.jpg",
    "id_album": "-1610342324",
    "description": "Nebula_106481",
    "title": "Nebula_106481",
    "link_img": "https://live.staticflickr.com/65535/50039211443_22e9d7dae2_o.jpg",
    "id_image": "Nebula_106481",
    "count_view": 0
  },
  {
    "link_thumb": "https://live.staticflickr.com/65535/50039791717_660238144a_n.jpg",
    "id_album": "-1964113117",
    "description": "City_974386",
    "title": "City_974386",
    "link_img": "https://live.staticflickr.com/65535/50039791717_875711ba2b_o.jpg",
    "id_image": "City_974386",
    "count_view": 0
  },
  {
    "link_thumb": "https://live.staticflickr.com/65535/50039580366_5588f45d7d_n.jpg",
    "id_album": "829169633",
    "description": "Cyborg_187721",
    "title": "Cyborg_187721",
    "link_img": "https://live.staticflickr.com/65535/50039580366_f812e1e118_o.jpg",
    "id_image": "Cyborg_187721",
    "count_view": 0
  },
  {
    "link_thumb": "https://live.staticflickr.com/65535/50041442301_9662d5c46c_n.jpg",
    "id_album": "-1261420436",
    "description": "Warrior_280873",
    "title": "Warrior_280873",
    "link_img": "https://live.staticflickr.com/65535/50041442301_7ff5191e93_o.jpg",
    "id_image": "Warrior_280873",
    "count_view": 0
  },
  {
    "link_thumb": "https://live.staticflickr.com/65535/50040203603_23063c29dd_n.jpg",
    "id_album": "2130067313",
    "description": "Spaceship_870321",
    "title": "Spaceship_870321",
    "link_img": "https://live.staticflickr.com/65535/50040203603_1451f40fee_o.jpg",
    "id_image": "Spaceship_870321",
    "count_view": 0
  },
  {
    "link_thumb": "https://live.staticflickr.com/65535/50041529066_884e73609a_n.jpg",
    "id_album": "-1126835654",
    "description": "Women_395369",
    "title": "Women_395369",
    "link_img": "https://live.staticflickr.com/65535/50041529066_53dc30496c_o.jpg",
    "id_image": "Women_395369",
    "count_view": 0
  },
  {
    "link_thumb": "https://live.staticflickr.com/65535/50040028042_bb80715ccb_n.jpg",
    "id_album": "-1610342324",
    "description": "Nebula_175209",
    "title": "Nebula_175209",
    "link_img": "https://live.staticflickr.com/65535/50040028042_edb5533ddc_o.jpg",
    "id_image": "Nebula_175209",
    "count_view": 0
  },
  {
    "link_thumb": "https://live.staticflickr.com/65535/50039782446_df1df3727d_n.jpg",
    "id_album": "-1610342324",
    "description": "Nebula_286803",
    "title": "Nebula_286803",
    "link_img": "https://live.staticflickr.com/65535/50039782446_850da57d27_o.jpg",
    "id_image": "Nebula_286803",
    "count_view": 0
  },
  {
    "link_thumb": "https://live.staticflickr.com/65535/50041357191_9a4ab5fc53_n.jpg",
    "id_album": "-1177476763",
    "description": "Sunrise_121799",
    "title": "Sunrise_121799",
    "link_img": "https://live.staticflickr.com/65535/50041357191_e198a55752_o.jpg",
    "id_image": "Sunrise_121799",
    "count_view": 0
  },
  {
    "link_thumb": "https://live.staticflickr.com/65535/50039861803_f683ddecea_n.jpg",
    "id_album": "779690680",
    "description": "Robot_918798",
    "title": "Robot_918798",
    "link_img": "https://live.staticflickr.com/65535/50039861803_012fbd12cf_o.jpg",
    "id_image": "Robot_918798",
    "count_view": 0
  },
  {
    "link_thumb": "https://live.staticflickr.com/65535/50040672807_b3ce28c4f5_n.jpg",
    "id_album": "779690680",
    "description": "Robot_911875",
    "title": "Robot_911875",
    "link_img": "https://live.staticflickr.com/65535/50040672807_71e3974c6d_o.jpg",
    "id_image": "Robot_911875",
    "count_view": 0
  },
  {
    "link_thumb": "https://live.staticflickr.com/65535/50041154141_fe68c417e0_n.jpg",
    "id_album": "-1863373220",
    "description": "StarWars_248869",
    "title": "StarWars_248869",
    "link_img": "https://live.staticflickr.com/65535/50041154141_997845326d_o.jpg",
    "id_image": "StarWars_248869",
    "count_view": 0
  },
  {
    "link_thumb": "https://live.staticflickr.com/65535/50041387377_6d8963a344_n.jpg",
    "id_album": "-1863373220",
    "description": "StarWars_190485",
    "title": "StarWars_190485",
    "link_img": "https://live.staticflickr.com/65535/50041387377_068ff47f4f_o.jpg",
    "id_image": "StarWars_190485",
    "count_view": 0
  },
  {
    "link_thumb": "https://live.staticflickr.com/65535/50040545467_9f3fe0a46e_n.jpg",
    "id_album": "779690680",
    "description": "Robot_283424",
    "title": "Robot_283424",
    "link_img": "https://live.staticflickr.com/65535/50040545467_6d66a0518f_o.jpg",
    "id_image": "Robot_283424",
    "count_view": 0
  },
  {
    "link_thumb": "https://live.staticflickr.com/65535/50039793202_1e8feb241f_n.jpg",
    "id_album": "-1964113117",
    "description": "City_981425",
    "title": "City_981425",
    "link_img": "https://live.staticflickr.com/65535/50039793202_381fb87322_o.jpg",
    "id_image": "City_981425",
    "count_view": 0
  },
  {
    "link_thumb": "https://live.staticflickr.com/65535/50039668482_7722791d2c_n.jpg",
    "id_album": "1187037014",
    "description": "Battle_667619",
    "title": "Battle_667619",
    "link_img": "https://live.staticflickr.com/65535/50039668482_9683557a47_o.jpg",
    "id_image": "Battle_667619",
    "count_view": 0
  },
  {
    "link_thumb": "https://live.staticflickr.com/65535/50040277576_dfabeefa1f_n.jpg",
    "id_album": "779690680",
    "description": "Robot_267709",
    "title": "Robot_267709",
    "link_img": "https://live.staticflickr.com/65535/50040277576_32845d8c24_o.jpg",
    "id_image": "Robot_267709",
    "count_view": 0
  },
  {
    "link_thumb": "https://live.staticflickr.com/65535/50039883547_9dc920a6cb_n.jpg",
    "id_album": "2104507156",
    "description": "Fantasy_573694",
    "title": "Fantasy_573694",
    "link_img": "https://live.staticflickr.com/65535/50039883547_f313df7f43_o.jpg",
    "id_image": "Fantasy_573694",
    "count_view": 0
  },
  {
    "link_thumb": "https://live.staticflickr.com/65535/50040569127_8f71b424f8_n.jpg",
    "id_album": "779690680",
    "description": "Robot_410154",
    "title": "Robot_410154",
    "link_img": "https://live.staticflickr.com/65535/50040569127_e1e67cc443_o.jpg",
    "id_image": "Robot_410154",
    "count_view": 0
  },
  {
    "link_thumb": "https://live.staticflickr.com/65535/50041246281_a67b101dd3_n.jpg",
    "id_album": "-1863373220",
    "description": "StarWars_972995",
    "title": "StarWars_972995",
    "link_img": "https://live.staticflickr.com/65535/50041246281_c426289fab_o.jpg",
    "id_image": "StarWars_972995",
    "count_view": 0
  },
  {
    "link_thumb": "https://live.staticflickr.com/65535/50039059733_6a549704db_n.jpg",
    "id_album": "651930207",
    "description": "Explosion_325892",
    "title": "Explosion_325892",
    "link_img": "https://live.staticflickr.com/65535/50039059733_3e74f47e09_o.jpg",
    "id_image": "Explosion_325892",
    "count_view": 0
  },
  {
    "link_thumb": "https://live.staticflickr.com/65535/50040184888_2e3b3371bb_n.jpg",
    "id_album": "2130067313",
    "description": "Spaceship_700686",
    "title": "Spaceship_700686",
    "link_img": "https://live.staticflickr.com/65535/50040184888_9b57ccbd51_o.jpg",
    "id_image": "Spaceship_700686",
    "count_view": 0
  },
  {
    "link_thumb": "https://live.staticflickr.com/65535/50039890458_1c62e80082_n.jpg",
    "id_album": "779690680",
    "description": "Robot_958229",
    "title": "Robot_958229",
    "link_img": "https://live.staticflickr.com/65535/50039890458_cf4383612a_o.jpg",
    "id_image": "Robot_958229",
    "count_view": 0
  },
  {
    "link_thumb": "https://live.staticflickr.com/65535/50040462941_95242c621b_n.jpg",
    "id_album": "1613540653",
    "description": "Space_109273",
    "title": "Space_109273",
    "link_img": "https://live.staticflickr.com/65535/50040462941_fcb1e53440_o.jpg",
    "id_image": "Space_109273",
    "count_view": 0
  },
  {
    "link_thumb": "https://live.staticflickr.com/65535/50039077518_0e2b344c2e_n.jpg",
    "id_album": "1204249541",
    "description": "Galaxy_220712",
    "title": "Galaxy_220712",
    "link_img": "https://live.staticflickr.com/65535/50039077518_5db786c315_o.jpg",
    "id_image": "Galaxy_220712",
    "count_view": 0
  },
  {
    "link_thumb": "https://live.staticflickr.com/65535/50039631687_7461c53a77_n.jpg",
    "id_album": "869545341",
    "description": "Astronaut_848687",
    "title": "Astronaut_848687",
    "link_img": "https://live.staticflickr.com/65535/50039631687_79211002ed_o.jpg",
    "id_image": "Astronaut_848687",
    "count_view": 0
  },
  {
    "link_thumb": "https://live.staticflickr.com/65535/50041118426_915e9c0b22_n.jpg",
    "id_album": "-1863373220",
    "description": "StarWars_107771",
    "title": "StarWars_107771",
    "link_img": "https://live.staticflickr.com/65535/50041118426_4a01191b05_o.jpg",
    "id_image": "StarWars_107771",
    "count_view": 0
  },
  {
    "link_thumb": "https://live.staticflickr.com/65535/50041594317_139af41c33_n.jpg",
    "id_album": "1267121215",
    "description": "Steampunk_852656",
    "title": "Steampunk_852656",
    "link_img": "https://live.staticflickr.com/65535/50041594317_56728458a8_o.jpg",
    "id_image": "Steampunk_852656",
    "count_view": 0
  },
  {
    "link_thumb": "https://live.staticflickr.com/65535/50040381352_484a3133bb_n.jpg",
    "id_album": "-1102314093",
    "description": "Planets_441288",
    "title": "Planets_441288",
    "link_img": "https://live.staticflickr.com/65535/50040381352_a6395d9fd1_o.jpg",
    "id_image": "Planets_441288",
    "count_view": 0
  },
  {
    "link_thumb": "https://live.staticflickr.com/65535/50039421471_4bfd39ee46_n.jpg",
    "id_album": "406431601",
    "description": "Building_309918",
    "title": "Building_309918",
    "link_img": "https://live.staticflickr.com/65535/50039421471_ce450275c1_o.jpg",
    "id_image": "Building_309918",
    "count_view": 0
  },
  {
    "link_thumb": "https://live.staticflickr.com/65535/50040218071_7571b0c5f5_n.jpg",
    "id_album": "-482547208",
    "description": "PostApocalyptic_676803",
    "title": "PostApocalyptic_676803",
    "link_img": "https://live.staticflickr.com/65535/50040218071_27d329b9ea_o.jpg",
    "id_image": "PostApocalyptic_676803",
    "count_view": 0
  },
  {
    "link_thumb": "https://live.staticflickr.com/65535/50040191947_a018f6d241_n.jpg",
    "id_album": "395161030",
    "description": "Planet_324785",
    "title": "Planet_324785",
    "link_img": "https://live.staticflickr.com/65535/50040191947_364a3f7821_o.jpg",
    "id_image": "Planet_324785",
    "count_view": 0
  },
  {
    "link_thumb": "https://live.staticflickr.com/65535/50040188396_c951e8cf0a_n.jpg",
    "id_album": "-482547208",
    "description": "PostApocalyptic_106770",
    "title": "PostApocalyptic_106770",
    "link_img": "https://live.staticflickr.com/65535/50040188396_24a49a4bf9_o.jpg",
    "id_image": "PostApocalyptic_106770",
    "count_view": 0
  },
  {
    "link_thumb": "https://live.staticflickr.com/65535/50039896027_c7f5471989_n.jpg",
    "id_album": "1204249541",
    "description": "Galaxy_422263",
    "title": "Galaxy_422263",
    "link_img": "https://live.staticflickr.com/65535/50039896027_ee16687425_o.jpg",
    "id_image": "Galaxy_422263",
    "count_view": 0
  },
  {
    "link_thumb": "https://live.staticflickr.com/65535/50040069977_44c758b72e_n.jpg",
    "id_album": "-1610342324",
    "description": "Nebula_547702",
    "title": "Nebula_547702",
    "link_img": "https://live.staticflickr.com/65535/50040069977_4029c9c032_o.jpg",
    "id_image": "Nebula_547702",
    "count_view": 0
  },
  {
    "link_thumb": "https://live.staticflickr.com/65535/50040495797_5c00f36a49_n.jpg",
    "id_album": "-482547208",
    "description": "PostApocalyptic_921759",
    "title": "PostApocalyptic_921759",
    "link_img": "https://live.staticflickr.com/65535/50040495797_e625842dd4_o.jpg",
    "id_image": "PostApocalyptic_921759",
    "count_view": 0
  },
  {
    "link_thumb": "https://live.staticflickr.com/65535/50039572507_c814893366_n.jpg",
    "id_album": "523598895",
    "description": "Artistic_197729",
    "title": "Artistic_197729",
    "link_img": "https://live.staticflickr.com/65535/50039572507_a159ed3fb7_o.jpg",
    "id_image": "Artistic_197729",
    "count_view": 0
  },
  {
    "link_thumb": "https://live.staticflickr.com/65535/50040435282_d7ddb374cf_n.jpg",
    "id_album": "376235057",
    "description": "Planetscape_383294",
    "title": "Planetscape_383294",
    "link_img": "https://live.staticflickr.com/65535/50040435282_617a5e9243_o.jpg",
    "id_image": "Planetscape_383294",
    "count_view": 0
  },
  {
    "link_thumb": "https://live.staticflickr.com/65535/50039610571_bc0e27cfa4_n.jpg",
    "id_album": "651930207",
    "description": "Explosion_371317",
    "title": "Explosion_371317",
    "link_img": "https://live.staticflickr.com/65535/50039610571_43b23446a9_o.jpg",
    "id_image": "Explosion_371317",
    "count_view": 0
  },
  {
    "link_thumb": "https://live.staticflickr.com/65535/50039489042_7cd6a3840a_n.jpg",
    "id_album": "280884763",
    "description": "Abstract_123849",
    "title": "Abstract_123849",
    "link_img": "https://live.staticflickr.com/65535/50039489042_ef32e326de_o.jpg",
    "id_image": "Abstract_123849",
    "count_view": 0
  },
  {
    "link_thumb": "https://live.staticflickr.com/65535/50040442596_9a60f16c18_n.jpg",
    "id_album": "779690680",
    "description": "Robot_949797",
    "title": "Robot_949797",
    "link_img": "https://live.staticflickr.com/65535/50040442596_2557fb0c85_o.jpg",
    "id_image": "Robot_949797",
    "count_view": 0
  },
  {
    "link_thumb": "https://live.staticflickr.com/65535/50038753888_baba6f0565_n.jpg",
    "id_album": "523598895",
    "description": "Artistic_170992",
    "title": "Artistic_170992",
    "link_img": "https://live.staticflickr.com/65535/50038753888_4229e5987e_o.jpg",
    "id_image": "Artistic_170992",
    "count_view": 0
  },
  {
    "link_thumb": "https://live.staticflickr.com/65535/50040807867_6bb9db9e1d_n.jpg",
    "id_album": "1613540653",
    "description": "Space_822464",
    "title": "Space_822464",
    "link_img": "https://live.staticflickr.com/65535/50040807867_53d4c3aa32_o.jpg",
    "id_image": "Space_822464",
    "count_view": 0
  },
  {
    "link_thumb": "https://live.staticflickr.com/65535/50039253788_93e937322c_n.jpg",
    "id_album": "-1610342324",
    "description": "Nebula_514526",
    "title": "Nebula_514526",
    "link_img": "https://live.staticflickr.com/65535/50039253788_00fe70f308_o.jpg",
    "id_image": "Nebula_514526",
    "count_view": 0
  },
  {
    "link_thumb": "https://live.staticflickr.com/65535/50039620361_65a4704f27_n.jpg",
    "id_album": "2104507156",
    "description": "Fantasy_284941",
    "title": "Fantasy_284941",
    "link_img": "https://live.staticflickr.com/65535/50039620361_216155a632_o.jpg",
    "id_image": "Fantasy_284941",
    "count_view": 0
  },
  {
    "link_thumb": "https://live.staticflickr.com/65535/50039764767_9ff6029ef4_n.jpg",
    "id_album": "-1964113117",
    "description": "City_857253",
    "title": "City_857253",
    "link_img": "https://live.staticflickr.com/65535/50039764767_1b774d7ee1_o.jpg",
    "id_image": "City_857253",
    "count_view": 0
  },
  {
    "link_thumb": "https://live.staticflickr.com/65535/50039406901_922577001f_n.jpg",
    "id_album": "1187037014",
    "description": "Battle_793102",
    "title": "Battle_793102",
    "link_img": "https://live.staticflickr.com/65535/50039406901_a3b3d3cee0_o.jpg",
    "id_image": "Battle_793102",
    "count_view": 0
  },
  {
    "link_thumb": "https://live.staticflickr.com/65535/50038906183_cc5f9dfd57_n.jpg",
    "id_album": "-1964113117",
    "description": "City_263391",
    "title": "City_263391",
    "link_img": "https://live.staticflickr.com/65535/50038906183_d5f90db801_o.jpg",
    "id_image": "City_263391",
    "count_view": 0
  },
  {
    "link_thumb": "https://live.staticflickr.com/65535/50041716882_c3a240f1f1_n.jpg",
    "id_album": "-1261420436",
    "description": "Warrior_377831",
    "title": "Warrior_377831",
    "link_img": "https://live.staticflickr.com/65535/50041716882_db2504c770_o.jpg",
    "id_image": "Warrior_377831",
    "count_view": 0
  },
  {
    "link_thumb": "https://live.staticflickr.com/65535/50039744212_299cfd8944_n.jpg",
    "id_album": "-1964113117",
    "description": "City_616579",
    "title": "City_616579",
    "link_img": "https://live.staticflickr.com/65535/50039744212_8caae0a7a8_o.jpg",
    "id_image": "City_616579",
    "count_view": 0
  },
  {
    "link_thumb": "https://live.staticflickr.com/65535/50039495998_3fa8988fb4_n.jpg",
    "id_album": "-1102314093",
    "description": "Planets_111481",
    "title": "Planets_111481",
    "link_img": "https://live.staticflickr.com/65535/50039495998_e515228c01_o.jpg",
    "id_image": "Planets_111481",
    "count_view": 0
  },
  {
    "link_thumb": "https://live.staticflickr.com/65535/50039885228_8d381eb2c1_n.jpg",
    "id_album": "779690680",
    "description": "Robot_944761",
    "title": "Robot_944761",
    "link_img": "https://live.staticflickr.com/65535/50039885228_26d6978df8_o.jpg",
    "id_image": "Robot_944761",
    "count_view": 0
  },
  {
    "link_thumb": "https://live.staticflickr.com/65535/50041149901_4723f25827_n.jpg",
    "id_album": "-1863373220",
    "description": "StarWars_236570",
    "title": "StarWars_236570",
    "link_img": "https://live.staticflickr.com/65535/50041149901_bd33d1948b_o.jpg",
    "id_image": "StarWars_236570",
    "count_view": 0
  },
  {
    "link_thumb": "https://live.staticflickr.com/65535/50041531442_97e795883c_n.jpg",
    "id_album": "-1587696329",
    "description": "Stars_430134",
    "title": "Stars_430134",
    "link_img": "https://live.staticflickr.com/65535/50041531442_968f59ced6_o.jpg",
    "id_image": "Stars_430134",
    "count_view": 0
  },
  {
    "link_thumb": "https://live.staticflickr.com/65535/50039216888_0a7c39b42e_n.jpg",
    "id_album": "-1610342324",
    "description": "Nebula_191120",
    "title": "Nebula_191120",
    "link_img": "https://live.staticflickr.com/65535/50039216888_daf085af14_o.jpg",
    "id_image": "Nebula_191120",
    "count_view": 0
  },
  {
    "link_thumb": "https://live.staticflickr.com/65535/50039489003_b11696fbd6_n.jpg",
    "id_album": "814701616",
    "description": "PlanetaryRing_588780",
    "title": "PlanetaryRing_588780",
    "link_img": "https://live.staticflickr.com/65535/50039489003_c665f5f83a_o.jpg",
    "id_image": "PlanetaryRing_588780",
    "count_view": 0
  },
  {
    "link_thumb": "https://live.staticflickr.com/65535/50041277051_81789ed1e8_n.jpg",
    "id_album": "-1587696329",
    "description": "Stars_548447",
    "title": "Stars_548447",
    "link_img": "https://live.staticflickr.com/65535/50041277051_27a20e0e7c_o.jpg",
    "id_image": "Stars_548447",
    "count_view": 0
  },
  {
    "link_thumb": "https://live.staticflickr.com/65535/50039255088_b38731a3fe_n.jpg",
    "id_album": "-1610342324",
    "description": "Nebula_531442",
    "title": "Nebula_531442",
    "link_img": "https://live.staticflickr.com/65535/50039255088_3e10e015f5_o.jpg",
    "id_image": "Nebula_531442",
    "count_view": 0
  },
  {
    "link_thumb": "https://live.staticflickr.com/65535/50039639051_47a4c4e0e7_n.jpg",
    "id_album": "1204249541",
    "description": "Galaxy_523674",
    "title": "Galaxy_523674",
    "link_img": "https://live.staticflickr.com/65535/50039639051_0bec7529f8_o.jpg",
    "id_image": "Galaxy_523674",
    "count_view": 0
  },
  {
    "link_thumb": "https://live.staticflickr.com/65535/50040148041_ffb014df61_n.jpg",
    "id_album": "-1102314093",
    "description": "Planets_957339",
    "title": "Planets_957339",
    "link_img": "https://live.staticflickr.com/65535/50040148041_bc2a1fa023_o.jpg",
    "id_image": "Planets_957339",
    "count_view": 0
  },
  {
    "link_thumb": "https://live.staticflickr.com/65535/50040818702_f243287666_n.jpg",
    "id_album": "1613540653",
    "description": "Space_957436",
    "title": "Space_957436",
    "link_img": "https://live.staticflickr.com/65535/50040818702_a469b19fd7_o.jpg",
    "id_image": "Space_957436",
    "count_view": 0
  },
  {
    "link_thumb": "https://live.staticflickr.com/65535/50040821777_cff0433310_n.jpg",
    "id_album": "-1532370292",
    "description": "SpaceStation_266621",
    "title": "SpaceStation_266621",
    "link_img": "https://live.staticflickr.com/65535/50040821777_a7f1d5dd7a_o.jpg",
    "id_image": "SpaceStation_266621",
    "count_view": 0
  },
  {
    "link_thumb": "https://live.staticflickr.com/65535/50039762517_57ff47b490_n.jpg",
    "id_album": "-1964113117",
    "description": "City_840846",
    "title": "City_840846",
    "link_img": "https://live.staticflickr.com/65535/50039762517_ca6f79ff07_o.jpg",
    "id_image": "City_840846",
    "count_view": 0
  },
  {
    "link_thumb": "https://live.staticflickr.com/65535/50039474601_d3e534b062_n.jpg",
    "id_album": "-1964113117",
    "description": "City_51459",
    "title": "City_51459",
    "link_img": "https://live.staticflickr.com/65535/50039474601_b2083b5ba7_o.jpg",
    "id_image": "City_51459",
    "count_view": 0
  },
  {
    "link_thumb": "https://live.staticflickr.com/65535/50041728607_0f6449b8b0_n.jpg",
    "id_album": "-1261420436",
    "description": "Warrior_501780",
    "title": "Warrior_501780",
    "link_img": "https://live.staticflickr.com/65535/50041728607_080e01eb53_o.jpg",
    "id_image": "Warrior_501780",
    "count_view": 0
  },
  {
    "link_thumb": "https://live.staticflickr.com/65535/50038989638_c156c486c6_n.jpg",
    "id_album": "894679094",
    "description": "Collision_280041",
    "title": "Collision_280041",
    "link_img": "https://live.staticflickr.com/65535/50038989638_721b223bb4_o.jpg",
    "id_image": "Collision_280041",
    "count_view": 0
  },
  {
    "link_thumb": "https://live.staticflickr.com/65535/50040734627_ef99d0d673_n.jpg",
    "id_album": "1613540653",
    "description": "Space_152721",
    "title": "Space_152721",
    "link_img": "https://live.staticflickr.com/65535/50040734627_b86f5c4655_o.jpg",
    "id_image": "Space_152721",
    "count_view": 0
  },
  {
    "link_thumb": "https://live.staticflickr.com/65535/50040435672_5d1a6f989a_n.jpg",
    "id_album": "376235057",
    "description": "Planetscape_387291",
    "title": "Planetscape_387291",
    "link_img": "https://live.staticflickr.com/65535/50040435672_d8a17dd3cb_o.jpg",
    "id_image": "Planetscape_387291",
    "count_view": 0
  },
  {
    "link_thumb": "https://live.staticflickr.com/65535/50039896122_291b650e84_n.jpg",
    "id_album": "1204249541",
    "description": "Galaxy_424697",
    "title": "Galaxy_424697",
    "link_img": "https://live.staticflickr.com/65535/50039896122_3b483e8c1a_o.jpg",
    "id_image": "Galaxy_424697",
    "count_view": 0
  },
  {
    "link_thumb": "https://live.staticflickr.com/65535/50039534686_8a642e3b13_n.jpg",
    "id_album": "-1964113117",
    "description": "City_997454",
    "title": "City_997454",
    "link_img": "https://live.staticflickr.com/65535/50039534686_e0416f54ea_o.jpg",
    "id_image": "City_997454",
    "count_view": 0
  },
  {
    "link_thumb": "https://live.staticflickr.com/65535/50039666147_e2bd0a9e87_n.jpg",
    "id_album": "1187037014",
    "description": "Battle_581300",
    "title": "Battle_581300",
    "link_img": "https://live.staticflickr.com/65535/50039666147_203e3c4d01_o.jpg",
    "id_image": "Battle_581300",
    "count_view": 0
  },
  {
    "link_thumb": "https://live.staticflickr.com/65535/50041235711_ab8bf48df0_n.jpg",
    "id_album": "-1863373220",
    "description": "StarWars_889086",
    "title": "StarWars_889086",
    "link_img": "https://live.staticflickr.com/65535/50041235711_6ffa5a39a4_o.jpg",
    "id_image": "StarWars_889086",
    "count_view": 0
  },
  {
    "link_thumb": "https://live.staticflickr.com/65535/50040696983_9b9af3fb93_n.jpg",
    "id_album": "-1863373220",
    "description": "StarWars_981654",
    "title": "StarWars_981654",
    "link_img": "https://live.staticflickr.com/65535/50040696983_d0dd48e93b_o.jpg",
    "id_image": "StarWars_981654",
    "count_view": 0
  },
  {
    "link_thumb": "https://live.staticflickr.com/65535/50039909922_d4ef749581_n.jpg",
    "id_album": "1204249541",
    "description": "Galaxy_596378",
    "title": "Galaxy_596378",
    "link_img": "https://live.staticflickr.com/65535/50039909922_bea47c14ba_o.jpg",
    "id_image": "Galaxy_596378",
    "count_view": 0
  },
  {
    "link_thumb": "https://live.staticflickr.com/65535/50039940503_bc4fe3ff49_n.jpg",
    "id_album": "1613540653",
    "description": "Space_330680",
    "title": "Space_330680",
    "link_img": "https://live.staticflickr.com/65535/50039940503_101877ea2a_o.jpg",
    "id_image": "Space_330680",
    "count_view": 0
  },
  {
    "link_thumb": "https://live.staticflickr.com/65535/50040802121_34cc083a44_n.jpg",
    "id_album": "-1449720967",
    "description": "StarTrek_186206",
    "title": "StarTrek_186206",
    "link_img": "https://live.staticflickr.com/65535/50040802121_d05002a5fb_o.jpg",
    "id_image": "StarTrek_186206",
    "count_view": 0
  },
  {
    "link_thumb": "https://live.staticflickr.com/65535/50039978348_9f8bcf9f61_n.jpg",
    "id_album": "1613540653",
    "description": "Space_719903",
    "title": "Space_719903",
    "link_img": "https://live.staticflickr.com/65535/50039978348_8eab05a215_o.jpg",
    "id_image": "Space_719903",
    "count_view": 0
  },
  {
    "link_thumb": "https://live.staticflickr.com/65535/50040627608_c3568ef708_n.jpg",
    "id_album": "-1863373220",
    "description": "StarWars_446472",
    "title": "StarWars_446472",
    "link_img": "https://live.staticflickr.com/65535/50040627608_4ed361ca60_o.jpg",
    "id_image": "StarWars_446472",
    "count_view": 0
  },
  {
    "link_thumb": "https://live.staticflickr.com/65535/50040991228_9ba1c65299_n.jpg",
    "id_album": "-1126835654",
    "description": "Women_688511",
    "title": "Women_688511",
    "link_img": "https://live.staticflickr.com/65535/50040991228_82aa9ed12f_o.jpg",
    "id_image": "Women_688511",
    "count_view": 0
  },
  {
    "link_thumb": "https://live.staticflickr.com/65535/50039874972_1d925201ae_n.jpg",
    "id_album": "651930207",
    "description": "Explosion_712632",
    "title": "Explosion_712632",
    "link_img": "https://live.staticflickr.com/65535/50039874972_dcd9c444f4_o.jpg",
    "id_image": "Explosion_712632",
    "count_view": 0
  },
  {
    "link_thumb": "https://live.staticflickr.com/65535/50038889218_54d7b3c3cd_n.jpg",
    "id_album": "-1964113117",
    "description": "City_165862",
    "title": "City_165862",
    "link_img": "https://live.staticflickr.com/65535/50038889218_17d3c34e6d_o.jpg",
    "id_image": "City_165862",
    "count_view": 0
  },
  {
    "link_thumb": "https://live.staticflickr.com/65535/50039311946_75e49eacb1_n.jpg",
    "id_album": "523598895",
    "description": "Artistic_204793",
    "title": "Artistic_204793",
    "link_img": "https://live.staticflickr.com/65535/50039311946_e9e099f858_o.jpg",
    "id_image": "Artistic_204793",
    "count_view": 0
  },
  {
    "link_thumb": "https://live.staticflickr.com/65535/50039636802_57d8928915_n.jpg",
    "id_album": "869545341",
    "description": "Astronaut_863506",
    "title": "Astronaut_863506",
    "link_img": "https://live.staticflickr.com/65535/50039636802_8900faeaea_o.jpg",
    "id_image": "Astronaut_863506",
    "count_view": 0
  },
  {
    "link_thumb": "https://live.staticflickr.com/65535/50038691448_9a163fd5fd_n.jpg",
    "id_album": "-406145265",
    "description": "Aircraft_341297",
    "title": "Aircraft_341297",
    "link_img": "https://live.staticflickr.com/65535/50038691448_5a33ac87e3_o.jpg",
    "id_image": "Aircraft_341297",
    "count_view": 0
  },
  {
    "link_thumb": "https://live.staticflickr.com/65535/50039775581_0075d43cc5_n.jpg",
    "id_album": "-1610342324",
    "description": "Nebula_246275",
    "title": "Nebula_246275",
    "link_img": "https://live.staticflickr.com/65535/50039775581_2892094443_o.jpg",
    "id_image": "Nebula_246275",
    "count_view": 0
  },
  {
    "link_thumb": "https://live.staticflickr.com/65535/50040454242_71ed43fb5b_n.jpg",
    "id_album": "-482547208",
    "description": "PostApocalyptic_118751",
    "title": "PostApocalyptic_118751",
    "link_img": "https://live.staticflickr.com/65535/50040454242_01c9c5432b_o.jpg",
    "id_image": "PostApocalyptic_118751",
    "count_view": 0
  },
  {
    "link_thumb": "https://live.staticflickr.com/65535/50039617881_bf43412254_n.jpg",
    "id_album": "2104507156",
    "description": "Fantasy_177853",
    "title": "Fantasy_177853",
    "link_img": "https://live.staticflickr.com/65535/50039617881_b6fbebab5d_o.jpg",
    "id_image": "Fantasy_177853",
    "count_view": 0
  },
  {
    "link_thumb": "https://live.staticflickr.com/65535/50040325237_26a1067750_n.jpg",
    "id_album": "-1102314093",
    "description": "Planets_22375",
    "title": "Planets_22375",
    "link_img": "https://live.staticflickr.com/65535/50040325237_4fe4a29c54_o.jpg",
    "id_image": "Planets_22375",
    "count_view": 0
  },
  {
    "link_thumb": "https://live.staticflickr.com/65535/50039382566_2856543f9c_n.jpg",
    "id_album": "869545341",
    "description": "Astronaut_938823",
    "title": "Astronaut_938823",
    "link_img": "https://live.staticflickr.com/65535/50039382566_5c0f7b6f88_o.jpg",
    "id_image": "Astronaut_938823",
    "count_view": 0
  },
  {
    "link_thumb": "https://live.staticflickr.com/65535/50038760848_65846f8241_n.jpg",
    "id_album": "523598895",
    "description": "Artistic_189554",
    "title": "Artistic_189554",
    "link_img": "https://live.staticflickr.com/65535/50038760848_e50fde9a45_o.jpg",
    "id_image": "Artistic_189554",
    "count_view": 0
  },
  {
    "link_thumb": "https://live.staticflickr.com/65535/50039678456_58254897a2_n.jpg",
    "id_album": "1402713104",
    "description": "Landscape_331034",
    "title": "Landscape_331034",
    "link_img": "https://live.staticflickr.com/65535/50039678456_e98c5339d8_o.jpg",
    "id_image": "Landscape_331034",
    "count_view": 0
  },
  {
    "link_thumb": "https://live.staticflickr.com/65535/50040765902_94cb502b5f_n.jpg",
    "id_album": "1613540653",
    "description": "Space_368406",
    "title": "Space_368406",
    "link_img": "https://live.staticflickr.com/65535/50040765902_7ae0c889be_o.jpg",
    "id_image": "Space_368406",
    "count_view": 0
  },
  {
    "link_thumb": "https://live.staticflickr.com/65535/50041411601_246a303350_n.jpg",
    "id_album": "2020068132",
    "description": "Vehicle_694112",
    "title": "Vehicle_694112",
    "link_img": "https://live.staticflickr.com/65535/50041411601_c2d0a18fef_o.jpg",
    "id_image": "Vehicle_694112",
    "count_view": 0
  },
  {
    "link_thumb": "https://live.staticflickr.com/65535/50040561327_c6e9d8058c_n.jpg",
    "id_album": "779690680",
    "description": "Robot_371241",
    "title": "Robot_371241",
    "link_img": "https://live.staticflickr.com/65535/50040561327_c56ec217a6_o.jpg",
    "id_image": "Robot_371241",
    "count_view": 0
  },
  {
    "link_thumb": "https://live.staticflickr.com/65535/50041824037_2e0dfe0301_n.jpg",
    "id_album": "-1675918237",
    "description": "WomenWarrior_245613",
    "title": "WomenWarrior_245613",
    "link_img": "https://live.staticflickr.com/65535/50041824037_935bf2c674_o.jpg",
    "id_image": "WomenWarrior_245613",
    "count_view": 0
  },
  {
    "link_thumb": "https://live.staticflickr.com/65535/50040725177_89db9a61a3_n.jpg",
    "id_album": "779690680",
    "description": "Robot_997950",
    "title": "Robot_997950",
    "link_img": "https://live.staticflickr.com/65535/50040725177_dc25b04fb0_o.jpg",
    "id_image": "Robot_997950",
    "count_view": 0
  },
  {
    "link_thumb": "https://live.staticflickr.com/65535/50040305591_682a47debc_n.jpg",
    "id_album": "779690680",
    "description": "Robot_413349",
    "title": "Robot_413349",
    "link_img": "https://live.staticflickr.com/65535/50040305591_63b44394c4_o.jpg",
    "id_image": "Robot_413349",
    "count_view": 0
  },
  {
    "link_thumb": "https://live.staticflickr.com/65535/50039562983_e59638f1c2_n.jpg",
    "id_album": "-1102314093",
    "description": "Planets_422020",
    "title": "Planets_422020",
    "link_img": "https://live.staticflickr.com/65535/50039562983_df0511f457_o.jpg",
    "id_image": "Planets_422020",
    "count_view": 0
  },
  {
    "link_thumb": "https://live.staticflickr.com/65535/50041542851_41a031f902_n.jpg",
    "id_album": "-1126835654",
    "description": "Women_615461",
    "title": "Women_615461",
    "link_img": "https://live.staticflickr.com/65535/50041542851_12ab918f9c_o.jpg",
    "id_image": "Women_615461",
    "count_view": 0
  },
  {
    "link_thumb": "https://live.staticflickr.com/65535/50040048442_42684ec362_n.jpg",
    "id_album": "-1610342324",
    "description": "Nebula_302312",
    "title": "Nebula_302312",
    "link_img": "https://live.staticflickr.com/65535/50040048442_04ee74624a_o.jpg",
    "id_image": "Nebula_302312",
    "count_view": 0
  },
  {
    "link_thumb": "https://live.staticflickr.com/65535/50040065972_f682277b1f_n.jpg",
    "id_album": "-1610342324",
    "description": "Nebula_502979",
    "title": "Nebula_502979",
    "link_img": "https://live.staticflickr.com/65535/50040065972_78cc57015f_o.jpg",
    "id_image": "Nebula_502979",
    "count_view": 0
  },
  {
    "link_thumb": "https://live.staticflickr.com/65535/50040082661_b536248a55_n.jpg",
    "id_album": "-1102314093",
    "description": "Planets_327612",
    "title": "Planets_327612",
    "link_img": "https://live.staticflickr.com/65535/50040082661_21d2dafaab_o.jpg",
    "id_image": "Planets_327612",
    "count_view": 0
  },
  {
    "link_thumb": "https://live.staticflickr.com/65535/50039275803_32483a594f_n.jpg",
    "id_album": "-1610342324",
    "description": "Nebula_705340",
    "title": "Nebula_705340",
    "link_img": "https://live.staticflickr.com/65535/50039275803_7f866733cc_o.jpg",
    "id_image": "Nebula_705340",
    "count_view": 0
  },
  {
    "link_thumb": "https://live.staticflickr.com/65535/50041012427_cdbd33bdc7_n.jpg",
    "id_album": "2130067313",
    "description": "Spaceship_778587",
    "title": "Spaceship_778587",
    "link_img": "https://live.staticflickr.com/65535/50041012427_42733f353f_o.jpg",
    "id_image": "Spaceship_778587",
    "count_view": 0
  },
  {
    "link_thumb": "https://live.staticflickr.com/65535/50039029418_9bbdbd50da_n.jpg",
    "id_album": "829169633",
    "description": "Cyborg_176741",
    "title": "Cyborg_176741",
    "link_img": "https://live.staticflickr.com/65535/50039029418_19d35a5942_o.jpg",
    "id_image": "Cyborg_176741",
    "count_view": 0
  },
  {
    "link_thumb": "https://live.staticflickr.com/65535/50039224548_278f4b912c_n.jpg",
    "id_album": "-1610342324",
    "description": "Nebula_2353",
    "title": "Nebula_2353",
    "link_img": "https://live.staticflickr.com/65535/50039224548_d275388e63_o.jpg",
    "id_image": "Nebula_2353",
    "count_view": 0
  },
  {
    "link_thumb": "https://live.staticflickr.com/65535/50039810016_2d0dd91090_n.jpg",
    "id_album": "-1610342324",
    "description": "Nebula_558912",
    "title": "Nebula_558912",
    "link_img": "https://live.staticflickr.com/65535/50039810016_1250da37f2_o.jpg",
    "id_image": "Nebula_558912",
    "count_view": 0
  },
  {
    "link_thumb": "https://live.staticflickr.com/65535/50040055147_edc9332bfd_n.jpg",
    "id_album": "-1610342324",
    "description": "Nebula_397249",
    "title": "Nebula_397249",
    "link_img": "https://live.staticflickr.com/65535/50040055147_223ab811e6_o.jpg",
    "id_image": "Nebula_397249",
    "count_view": 0
  },
  {
    "link_thumb": "https://live.staticflickr.com/65535/50039823046_c98c7fe471_n.jpg",
    "id_album": "-1610342324",
    "description": "Nebula_689588",
    "title": "Nebula_689588",
    "link_img": "https://live.staticflickr.com/65535/50039823046_063738cc80_o.jpg",
    "id_image": "Nebula_689588",
    "count_view": 0
  },
  {
    "link_thumb": "https://live.staticflickr.com/65535/50040556702_dd6532ea65_n.jpg",
    "id_album": "779690680",
    "description": "Robot_335121",
    "title": "Robot_335121",
    "link_img": "https://live.staticflickr.com/65535/50040556702_e6d8c8bf36_o.jpg",
    "id_image": "Robot_335121",
    "count_view": 0
  },
  {
    "link_thumb": "https://live.staticflickr.com/65535/50038725523_2868fcd058_n.jpg",
    "id_album": "849020728",
    "description": "Alien_697088",
    "title": "Alien_697088",
    "link_img": "https://live.staticflickr.com/65535/50038725523_c50633c96c_o.jpg",
    "id_image": "Alien_697088",
    "count_view": 0
  },
  {
    "link_thumb": "https://live.staticflickr.com/65535/50039649643_1ee4861fe7_n.jpg",
    "id_album": "-482547208",
    "description": "PostApocalyptic_245473",
    "title": "PostApocalyptic_245473",
    "link_img": "https://live.staticflickr.com/65535/50039649643_086397fb43_o.jpg",
    "id_image": "PostApocalyptic_245473",
    "count_view": 0
  },
  {
    "link_thumb": "https://live.staticflickr.com/65535/50038728568_ae39649ff0_n.jpg",
    "id_album": "849020728",
    "description": "Alien_910952",
    "title": "Alien_910952",
    "link_img": "https://live.staticflickr.com/65535/50038728568_c1a2d3038d_o.jpg",
    "id_image": "Alien_910952",
    "count_view": 0
  },
  {
    "link_thumb": "https://live.staticflickr.com/65535/50040511087_421bccb61e_n.jpg",
    "id_album": "-839602625",
    "description": "Predator_973467",
    "title": "Predator_973467",
    "link_img": "https://live.staticflickr.com/65535/50040511087_20db344bb2_o.jpg",
    "id_image": "Predator_973467",
    "count_view": 0
  },
  {
    "link_thumb": "https://live.staticflickr.com/65535/50041495157_622d057474_n.jpg",
    "id_album": "-1863373220",
    "description": "StarWars_881039",
    "title": "StarWars_881039",
    "link_img": "https://live.staticflickr.com/65535/50041495157_06e1b1be00_o.jpg",
    "id_image": "StarWars_881039",
    "count_view": 0
  },
  {
    "link_thumb": "https://live.staticflickr.com/65535/50039792406_1753eaf9c6_n.jpg",
    "id_album": "-1610342324",
    "description": "Nebula_397986",
    "title": "Nebula_397986",
    "link_img": "https://live.staticflickr.com/65535/50039792406_4a1b0eccc8_o.jpg",
    "id_image": "Nebula_397986",
    "count_view": 0
  },
  {
    "link_thumb": "https://live.staticflickr.com/65535/50039604208_04a3ec8ff5_n.jpg",
    "id_album": "376235057",
    "description": "Planetscape_280012",
    "title": "Planetscape_280012",
    "link_img": "https://live.staticflickr.com/65535/50039604208_0d4789ca3e_o.jpg",
    "id_image": "Planetscape_280012",
    "count_view": 0
  },
  {
    "link_thumb": "https://live.staticflickr.com/65535/50039519212_8f8e392cb4_n.jpg",
    "id_album": "849020728",
    "description": "Alien_268482",
    "title": "Alien_268482",
    "link_img": "https://live.staticflickr.com/65535/50039519212_d522dd27ca_o.jpg",
    "id_image": "Alien_268482",
    "count_view": 0
  },
  {
    "link_thumb": "https://live.staticflickr.com/65535/50041217851_3fea386a18_n.jpg",
    "id_album": "-1863373220",
    "description": "StarWars_711018",
    "title": "StarWars_711018",
    "link_img": "https://live.staticflickr.com/65535/50041217851_af92c3eef6_o.jpg",
    "id_image": "StarWars_711018",
    "count_view": 0
  },
  {
    "link_thumb": "https://live.staticflickr.com/65535/50040876447_a161627095_n.jpg",
    "id_album": "2130067313",
    "description": "Spaceship_268620",
    "title": "Spaceship_268620",
    "link_img": "https://live.staticflickr.com/65535/50040876447_8256128a40_o.jpg",
    "id_image": "Spaceship_268620",
    "count_view": 0
  },
  {
    "link_thumb": "https://live.staticflickr.com/65535/50039793772_f798daca92_n.jpg",
    "id_album": "-1964113117",
    "description": "City_982823",
    "title": "City_982823",
    "link_img": "https://live.staticflickr.com/65535/50039793772_b917bb8138_o.jpg",
    "id_image": "City_982823",
    "count_view": 0
  },
  {
    "link_thumb": "https://live.staticflickr.com/65535/50039710022_307dd1e764_n.jpg",
    "id_album": "-1964113117",
    "description": "City_214928",
    "title": "City_214928",
    "link_img": "https://live.staticflickr.com/65535/50039710022_9c0c24e22c_o.jpg",
    "id_image": "City_214928",
    "count_view": 0
  },
  {
    "link_thumb": "https://live.staticflickr.com/65535/50040238091_6696756caf_n.jpg",
    "id_album": "-839602625",
    "description": "Predator_196974",
    "title": "Predator_196974",
    "link_img": "https://live.staticflickr.com/65535/50040238091_1f905a8878_o.jpg",
    "id_image": "Predator_196974",
    "count_view": 0
  },
  {
    "link_thumb": "https://live.staticflickr.com/65535/50039230808_22655d0fee_n.jpg",
    "id_album": "-1610342324",
    "description": "Nebula_277936",
    "title": "Nebula_277936",
    "link_img": "https://live.staticflickr.com/65535/50039230808_96b98844b0_o.jpg",
    "id_image": "Nebula_277936",
    "count_view": 0
  },
  {
    "link_thumb": "https://live.staticflickr.com/65535/50039692786_a4a8d07572_n.jpg",
    "id_album": "1402713104",
    "description": "Landscape_548906",
    "title": "Landscape_548906",
    "link_img": "https://live.staticflickr.com/65535/50039692786_41c24f623c_o.jpg",
    "id_image": "Landscape_548906",
    "count_view": 0
  },
  {
    "link_thumb": "https://live.staticflickr.com/65535/50039497722_9176eda5f2_n.jpg",
    "id_album": "-406145265",
    "description": "Aircraft_268465",
    "title": "Aircraft_268465",
    "link_img": "https://live.staticflickr.com/65535/50039497722_577b3c5bef_o.jpg",
    "id_image": "Aircraft_268465",
    "count_view": 0
  },
  {
    "link_thumb": "https://live.staticflickr.com/65535/50039134218_976f6fe9cc_n.jpg",
    "id_album": "1402713104",
    "description": "Landscape_371300",
    "title": "Landscape_371300",
    "link_img": "https://live.staticflickr.com/65535/50039134218_5a4a2af4d4_o.jpg",
    "id_image": "Landscape_371300",
    "count_view": 0
  },
  {
    "link_thumb": "https://live.staticflickr.com/65535/50041582861_d816785948_n.jpg",
    "id_album": "-1675918237",
    "description": "WomenWarrior_594687",
    "title": "WomenWarrior_594687",
    "link_img": "https://live.staticflickr.com/65535/50041582861_96ea516c04_o.jpg",
    "id_image": "WomenWarrior_594687",
    "count_view": 0
  },
  {
    "link_thumb": "https://live.staticflickr.com/65535/50039652537_ca5424085b_n.jpg",
    "id_album": "869545341",
    "description": "Astronaut_984725",
    "title": "Astronaut_984725",
    "link_img": "https://live.staticflickr.com/65535/50039652537_1528070dbd_o.jpg",
    "id_image": "Astronaut_984725",
    "count_view": 0
  },
  {
    "link_thumb": "https://live.staticflickr.com/65535/50039883613_38cf62970d_n.jpg",
    "id_album": "779690680",
    "description": "Robot_944752",
    "title": "Robot_944752",
    "link_img": "https://live.staticflickr.com/65535/50039883613_05b6c9fb95_o.jpg",
    "id_image": "Robot_944752",
    "count_view": 0
  },
  {
    "link_thumb": "https://live.staticflickr.com/65535/50039877152_65c59498c5_n.jpg",
    "id_album": "2104507156",
    "description": "Fantasy_151862",
    "title": "Fantasy_151862",
    "link_img": "https://live.staticflickr.com/65535/50039877152_af567ab83c_o.jpg",
    "id_image": "Fantasy_151862",
    "count_view": 0
  },
  {
    "link_thumb": "https://live.staticflickr.com/65535/50039874088_8a561c3cf9_n.jpg",
    "id_album": "779690680",
    "description": "Robot_930931",
    "title": "Robot_930931",
    "link_img": "https://live.staticflickr.com/65535/50039874088_66167b744d_o.jpg",
    "id_image": "Robot_930931",
    "count_view": 0
  },
  {
    "link_thumb": "https://live.staticflickr.com/65535/50039665897_6885fbc034_n.jpg",
    "id_album": "1187037014",
    "description": "Battle_559693",
    "title": "Battle_559693",
    "link_img": "https://live.staticflickr.com/65535/50039665897_8b0263f727_o.jpg",
    "id_image": "Battle_559693",
    "count_view": 0
  },
  {
    "link_thumb": "https://live.staticflickr.com/65535/50039143038_4be14a5ed6_n.jpg",
    "id_album": "1402713104",
    "description": "Landscape_528576",
    "title": "Landscape_528576",
    "link_img": "https://live.staticflickr.com/65535/50039143038_ac827424e3_o.jpg",
    "id_image": "Landscape_528576",
    "count_view": 0
  },
  {
    "link_thumb": "https://live.staticflickr.com/65535/50039995078_31b5cffd96_n.jpg",
    "id_album": "1613540653",
    "description": "Space_87915",
    "title": "Space_87915",
    "link_img": "https://live.staticflickr.com/65535/50039995078_923df9cb75_o.jpg",
    "id_image": "Space_87915",
    "count_view": 0
  },
  {
    "link_thumb": "https://live.staticflickr.com/65535/50039329726_866d50e805_n.jpg",
    "id_album": "523598895",
    "description": "Artistic_334554",
    "title": "Artistic_334554",
    "link_img": "https://live.staticflickr.com/65535/50039329726_1c22a042cb_o.jpg",
    "id_image": "Artistic_334554",
    "count_view": 0
  },
  {
    "link_thumb": "https://live.staticflickr.com/65535/50040997648_77c713864a_n.jpg",
    "id_album": "-1126835654",
    "description": "Women_921318",
    "title": "Women_921318",
    "link_img": "https://live.staticflickr.com/65535/50040997648_c0c5673fa0_o.jpg",
    "id_image": "Women_921318",
    "count_view": 0
  },
  {
    "link_thumb": "https://live.staticflickr.com/65535/50039512108_ab3d9d690d_n.jpg",
    "id_album": "-1102314093",
    "description": "Planets_227369",
    "title": "Planets_227369",
    "link_img": "https://live.staticflickr.com/65535/50039512108_fc219811ce_o.jpg",
    "id_image": "Planets_227369",
    "count_view": 0
  },
  {
    "link_thumb": "https://live.staticflickr.com/65535/50039311566_038ac5c7e2_n.jpg",
    "id_album": "523598895",
    "description": "Artistic_202209",
    "title": "Artistic_202209",
    "link_img": "https://live.staticflickr.com/65535/50039311566_3d9eb0210e_o.jpg",
    "id_image": "Artistic_202209",
    "count_view": 0
  },
  {
    "link_thumb": "https://live.staticflickr.com/65535/50040244521_9b9bbf6fb6_n.jpg",
    "id_album": "-839602625",
    "description": "Predator_492471",
    "title": "Predator_492471",
    "link_img": "https://live.staticflickr.com/65535/50040244521_04c8e14e2f_o.jpg",
    "id_image": "Predator_492471",
    "count_view": 0
  },
  {
    "link_thumb": "https://live.staticflickr.com/65535/50040178883_0693de2f47_n.jpg",
    "id_album": "2130067313",
    "description": "Spaceship_676807",
    "title": "Spaceship_676807",
    "link_img": "https://live.staticflickr.com/65535/50040178883_eb6c9a9001_o.jpg",
    "id_image": "Spaceship_676807",
    "count_view": 0
  },
  {
    "link_thumb": "https://live.staticflickr.com/65535/50039850426_5069967e07_n.jpg",
    "id_album": "-1610342324",
    "description": "Nebula_89358",
    "title": "Nebula_89358",
    "link_img": "https://live.staticflickr.com/65535/50039850426_4663a3c03b_o.jpg",
    "id_image": "Nebula_89358",
    "count_view": 0
  },
  {
    "link_thumb": "https://live.staticflickr.com/65535/50040988738_6187f99009_n.jpg",
    "id_album": "-1126835654",
    "description": "Women_608896",
    "title": "Women_608896",
    "link_img": "https://live.staticflickr.com/65535/50040988738_36af47bdfd_o.jpg",
    "id_image": "Women_608896",
    "count_view": 0
  },
  {
    "link_thumb": "https://live.staticflickr.com/65535/50039522887_57f54f1536_n.jpg",
    "id_album": "849020728",
    "description": "Alien_327579",
    "title": "Alien_327579",
    "link_img": "https://live.staticflickr.com/65535/50039522887_2dbd16f7ba_o.jpg",
    "id_image": "Alien_327579",
    "count_view": 0
  },
  {
    "link_thumb": "https://live.staticflickr.com/65535/50039759811_fd00a1da3c_n.jpg",
    "id_album": "-1610342324",
    "description": "Nebula_1002681",
    "title": "Nebula_1002681",
    "link_img": "https://live.staticflickr.com/65535/50039759811_fc2ba21b9f_o.jpg",
    "id_image": "Nebula_1002681",
    "count_view": 0
  },
  {
    "link_thumb": "https://live.staticflickr.com/65535/50039652166_3a416defcf_n.jpg",
    "id_album": "1204249541",
    "description": "Galaxy_738626",
    "title": "Galaxy_738626",
    "link_img": "https://live.staticflickr.com/65535/50039652166_59cdcb0607_o.jpg",
    "id_image": "Galaxy_738626",
    "count_view": 0
  },
  {
    "link_thumb": "https://live.staticflickr.com/65535/50039445931_f75b6cf13f_n.jpg",
    "id_album": "-1964113117",
    "description": "City_2113",
    "title": "City_2113",
    "link_img": "https://live.staticflickr.com/65535/50039445931_07414065c5_o.jpg",
    "id_image": "City_2113",
    "count_view": 0
  },
  {
    "link_thumb": "https://live.staticflickr.com/65535/50039922358_016f2ae0c6_n.jpg",
    "id_album": "1613540653",
    "description": "Space_192895",
    "title": "Space_192895",
    "link_img": "https://live.staticflickr.com/65535/50039922358_3107c8dc11_o.jpg",
    "id_image": "Space_192895",
    "count_view": 0
  },
  {
    "link_thumb": "https://live.staticflickr.com/65535/50040266778_028c6762ce_n.jpg",
    "id_album": "-1449720967",
    "description": "StarTrek_280876",
    "title": "StarTrek_280876",
    "link_img": "https://live.staticflickr.com/65535/50040266778_61bbec95d5_o.jpg",
    "id_image": "StarTrek_280876",
    "count_view": 0
  },
  {
    "link_thumb": "https://live.staticflickr.com/65535/50039992632_90c4441156_n.jpg",
    "id_album": "1402713104",
    "description": "Landscape_979174",
    "title": "Landscape_979174",
    "link_img": "https://live.staticflickr.com/65535/50039992632_a47e47ba91_o.jpg",
    "id_image": "Landscape_979174",
    "count_view": 0
  },
  {
    "link_thumb": "https://live.staticflickr.com/65535/50040391301_01bf14ca18_n.jpg",
    "id_album": "779690680",
    "description": "Robot_883158",
    "title": "Robot_883158",
    "link_img": "https://live.staticflickr.com/65535/50040391301_cfa42aed30_o.jpg",
    "id_image": "Robot_883158",
    "count_view": 0
  },
  {
    "link_thumb": "https://live.staticflickr.com/65535/50039496802_9b1632990d_n.jpg",
    "id_album": "-406145265",
    "description": "Aircraft_237854",
    "title": "Aircraft_237854",
    "link_img": "https://live.staticflickr.com/65535/50039496802_27a9911b25_o.jpg",
    "id_image": "Aircraft_237854",
    "count_view": 0
  },
  {
    "link_thumb": "https://live.staticflickr.com/65535/50039663242_eb7d862795_n.jpg",
    "id_album": "1187037014",
    "description": "Battle_304903",
    "title": "Battle_304903",
    "link_img": "https://live.staticflickr.com/65535/50039663242_4285e78999_o.jpg",
    "id_image": "Battle_304903",
    "count_view": 0
  },
  {
    "link_thumb": "https://live.staticflickr.com/65535/50040865147_9f5dc8f6bc_n.jpg",
    "id_album": "2130067313",
    "description": "Spaceship_235124",
    "title": "Spaceship_235124",
    "link_img": "https://live.staticflickr.com/65535/50040865147_9fa98a3e00_o.jpg",
    "id_image": "Spaceship_235124",
    "count_view": 0
  },
  {
    "link_thumb": "https://live.staticflickr.com/65535/50041606792_835fa7d74d_n.jpg",
    "id_album": "-221671103",
    "description": "Sun_264703",
    "title": "Sun_264703",
    "link_img": "https://live.staticflickr.com/65535/50041606792_82df70dd87_o.jpg",
    "id_image": "Sun_264703",
    "count_view": 0
  },
  {
    "link_thumb": "https://live.staticflickr.com/65535/50040058347_d976ba9bee_n.jpg",
    "id_album": "-1610342324",
    "description": "Nebula_419970",
    "title": "Nebula_419970",
    "link_img": "https://live.staticflickr.com/65535/50040058347_3342a79549_o.jpg",
    "id_image": "Nebula_419970",
    "count_view": 0
  },
  {
    "link_thumb": "https://live.staticflickr.com/65535/50040113462_ae55abc373_n.jpg",
    "id_album": "-1610342324",
    "description": "Nebula_882802",
    "title": "Nebula_882802",
    "link_img": "https://live.staticflickr.com/65535/50040113462_a61c005a2d_o.jpg",
    "id_image": "Nebula_882802",
    "count_view": 0
  },
  {
    "link_thumb": "https://live.staticflickr.com/65535/50039812943_0880dca44b_n.jpg",
    "id_album": "779690680",
    "description": "Robot_777005",
    "title": "Robot_777005",
    "link_img": "https://live.staticflickr.com/65535/50039812943_0b627374b7_o.jpg",
    "id_image": "Robot_777005",
    "count_view": 0
  },
  {
    "link_thumb": "https://live.staticflickr.com/65535/50039657762_2d4ea6c4e3_n.jpg",
    "id_album": "1187037014",
    "description": "Battle_163940",
    "title": "Battle_163940",
    "link_img": "https://live.staticflickr.com/65535/50039657762_7c0b8fea0a_o.jpg",
    "id_image": "Battle_163940",
    "count_view": 0
  },
  {
    "link_thumb": "https://live.staticflickr.com/65535/50039242898_25b73d73c7_n.jpg",
    "id_album": "-1610342324",
    "description": "Nebula_397567",
    "title": "Nebula_397567",
    "link_img": "https://live.staticflickr.com/65535/50039242898_c1e0d5386e_o.jpg",
    "id_image": "Nebula_397567",
    "count_view": 0
  },
  {
    "link_thumb": "https://live.staticflickr.com/65535/50039218748_7083f63e31_n.jpg",
    "id_album": "-1610342324",
    "description": "Nebula_202551",
    "title": "Nebula_202551",
    "link_img": "https://live.staticflickr.com/65535/50039218748_5e3193d18e_o.jpg",
    "id_image": "Nebula_202551",
    "count_view": 0
  },
  {
    "link_thumb": "https://live.staticflickr.com/65535/50041288216_f0b65ac18a_n.jpg",
    "id_album": "1267121215",
    "description": "Steampunk_149854",
    "title": "Steampunk_149854",
    "link_img": "https://live.staticflickr.com/65535/50041288216_8c84ba55c5_o.jpg",
    "id_image": "Steampunk_149854",
    "count_view": 0
  },
  {
    "link_thumb": "https://live.staticflickr.com/65535/50039947592_2ce8e61052_n.jpg",
    "id_album": "1402713104",
    "description": "Landscape_375742",
    "title": "Landscape_375742",
    "link_img": "https://live.staticflickr.com/65535/50039947592_911a3a5f20_o.jpg",
    "id_image": "Landscape_375742",
    "count_view": 0
  },
  {
    "link_thumb": "https://live.staticflickr.com/65535/50040140682_84320e6169_n.jpg",
    "id_album": "869545341",
    "description": "Astronaut_712774",
    "title": "Astronaut_712774",
    "link_img": "https://live.staticflickr.com/65535/50040140682_b1abcfea14_o.jpg",
    "id_image": "Astronaut_712774",
    "count_view": 0
  },
  {
    "link_thumb": "https://live.staticflickr.com/65535/50040920713_bf79d86752_n.jpg",
    "id_album": "-1261420436",
    "description": "Warrior_590988",
    "title": "Warrior_590988",
    "link_img": "https://live.staticflickr.com/65535/50040920713_a4a6ac2c05_o.jpg",
    "id_image": "Warrior_590988",
    "count_view": 0
  },
  {
    "link_thumb": "https://live.staticflickr.com/65535/50041853547_ac3f84ac2c_n.jpg",
    "id_album": "-1675918237",
    "description": "WomenWarrior_970141",
    "title": "WomenWarrior_970141",
    "link_img": "https://live.staticflickr.com/65535/50041853547_1b9794e31c_o.jpg",
    "id_image": "WomenWarrior_970141",
    "count_view": 0
  },
  {
    "link_thumb": "https://live.staticflickr.com/65535/50040177142_36ab99075e_n.jpg",
    "id_album": "395161030",
    "description": "Planet_185271",
    "title": "Planet_185271",
    "link_img": "https://live.staticflickr.com/65535/50040177142_c5f1979ce8_o.jpg",
    "id_image": "Planet_185271",
    "count_view": 0
  },
  {
    "link_thumb": "https://live.staticflickr.com/65535/50041442527_f81dff17bc_n.jpg",
    "id_album": "-1863373220",
    "description": "StarWars_429294",
    "title": "StarWars_429294",
    "link_img": "https://live.staticflickr.com/65535/50041442527_7d034c47a5_o.jpg",
    "id_image": "StarWars_429294",
    "count_view": 0
  },
  {
    "link_thumb": "https://live.staticflickr.com/65535/50039867783_23f14f5a24_n.jpg",
    "id_album": "779690680",
    "description": "Robot_928546",
    "title": "Robot_928546",
    "link_img": "https://live.staticflickr.com/65535/50039867783_7237550a22_o.jpg",
    "id_image": "Robot_928546",
    "count_view": 0
  },
  {
    "link_thumb": "https://live.staticflickr.com/65535/50040689037_e650588d36_n.jpg",
    "id_album": "779690680",
    "description": "Robot_928636",
    "title": "Robot_928636",
    "link_img": "https://live.staticflickr.com/65535/50040689037_ea54c996c3_o.jpg",
    "id_image": "Robot_928636",
    "count_view": 0
  },
  {
    "link_thumb": "https://live.staticflickr.com/65535/50039610306_bc740fd64d_n.jpg",
    "id_album": "651930207",
    "description": "Explosion_370815",
    "title": "Explosion_370815",
    "link_img": "https://live.staticflickr.com/65535/50039610306_e6bce1a3ce_o.jpg",
    "id_image": "Explosion_370815",
    "count_view": 0
  },
  {
    "link_thumb": "https://live.staticflickr.com/65535/50039924052_5d956c96e7_n.jpg",
    "id_album": "1402713104",
    "description": "Landscape_145400",
    "title": "Landscape_145400",
    "link_img": "https://live.staticflickr.com/65535/50039924052_33c211b49d_o.jpg",
    "id_image": "Landscape_145400",
    "count_view": 0
  },
  {
    "link_thumb": "https://live.staticflickr.com/65535/50040863333_04fc14c97f_n.jpg",
    "id_album": "2020068132",
    "description": "Vehicle_876293",
    "title": "Vehicle_876293",
    "link_img": "https://live.staticflickr.com/65535/50040863333_4526303139_o.jpg",
    "id_image": "Vehicle_876293",
    "count_view": 0
  },
  {
    "link_thumb": "https://live.staticflickr.com/65535/50039960156_3e00bae2f3_n.jpg",
    "id_album": "395161030",
    "description": "Planet_558937",
    "title": "Planet_558937",
    "link_img": "https://live.staticflickr.com/65535/50039960156_3d0af5d8b5_o.jpg",
    "id_image": "Planet_558937",
    "count_view": 0
  },
  {
    "link_thumb": "https://live.staticflickr.com/65535/50040725942_acc65e803e_n.jpg",
    "id_album": "1613540653",
    "description": "Space_1010552",
    "title": "Space_1010552",
    "link_img": "https://live.staticflickr.com/65535/50040725942_d0f631a701_o.jpg",
    "id_image": "Space_1010552",
    "count_view": 0
  },
  {
    "link_thumb": "https://live.staticflickr.com/65535/50039521637_61d851d851_n.jpg",
    "id_album": "849020728",
    "description": "Alien_304601",
    "title": "Alien_304601",
    "link_img": "https://live.staticflickr.com/65535/50039521637_8d07e84d2c_o.jpg",
    "id_image": "Alien_304601",
    "count_view": 0
  },
  {
    "link_thumb": "https://live.staticflickr.com/65535/50039490632_8921e67d6d_n.jpg",
    "id_album": "280884763",
    "description": "Abstract_229062",
    "title": "Abstract_229062",
    "link_img": "https://live.staticflickr.com/65535/50039490632_9f2bc8b21a_o.jpg",
    "id_image": "Abstract_229062",
    "count_view": 0
  },
  {
    "link_thumb": "https://live.staticflickr.com/65535/50039100058_eb956c3c88_n.jpg",
    "id_album": "1204249541",
    "description": "Galaxy_607095",
    "title": "Galaxy_607095",
    "link_img": "https://live.staticflickr.com/65535/50039100058_0bcc2d5fd1_o.jpg",
    "id_image": "Galaxy_607095",
    "count_view": 0
  },
  {
    "link_thumb": "https://live.staticflickr.com/65535/50038901823_311e1293e8_n.jpg",
    "id_album": "-1964113117",
    "description": "City_229237",
    "title": "City_229237",
    "link_img": "https://live.staticflickr.com/65535/50038901823_5b0012060e_o.jpg",
    "id_image": "City_229237",
    "count_view": 0
  },
  {
    "link_thumb": "https://live.staticflickr.com/65535/50039083443_4e9b7eb726_n.jpg",
    "id_album": "1204249541",
    "description": "Galaxy_413533",
    "title": "Galaxy_413533",
    "link_img": "https://live.staticflickr.com/65535/50039083443_362b799d68_o.jpg",
    "id_image": "Galaxy_413533",
    "count_view": 0
  },
  {
    "link_thumb": "https://live.staticflickr.com/65535/50039710998_827ef0d8ee_n.jpg",
    "id_album": "779690680",
    "description": "Robot_200565",
    "title": "Robot_200565",
    "link_img": "https://live.staticflickr.com/65535/50039710998_f37df81a69_o.jpg",
    "id_image": "Robot_200565",
    "count_view": 0
  },
  {
    "link_thumb": "https://live.staticflickr.com/65535/50038847928_7d385237e4_n.jpg",
    "id_album": "1187037014",
    "description": "Battle_189558",
    "title": "Battle_189558",
    "link_img": "https://live.staticflickr.com/65535/50038847928_43e3d95a89_o.jpg",
    "id_image": "Battle_189558",
    "count_view": 0
  },
  {
    "link_thumb": "https://live.staticflickr.com/65535/50040514812_71fe5b86c1_n.jpg",
    "id_album": "779690680",
    "description": "Robot_107012",
    "title": "Robot_107012",
    "link_img": "https://live.staticflickr.com/65535/50040514812_9ac6b5a993_o.jpg",
    "id_image": "Robot_107012",
    "count_view": 0
  },
  {
    "link_thumb": "https://live.staticflickr.com/65535/50041459731_2ee3baa194_n.jpg",
    "id_album": "-1261420436",
    "description": "Warrior_409691",
    "title": "Warrior_409691",
    "link_img": "https://live.staticflickr.com/65535/50041459731_7aa44bb43e_o.jpg",
    "id_image": "Warrior_409691",
    "count_view": 0
  },
  {
    "link_thumb": "https://live.staticflickr.com/65535/50039171373_078f558c67_n.jpg",
    "id_album": "1402713104",
    "description": "Landscape_905585",
    "title": "Landscape_905585",
    "link_img": "https://live.staticflickr.com/65535/50039171373_a687fc074e_o.jpg",
    "id_image": "Landscape_905585",
    "count_view": 0
  },
  {
    "link_thumb": "https://live.staticflickr.com/65535/50039485676_549583b5c4_n.jpg",
    "id_album": "-1964113117",
    "description": "City_673591",
    "title": "City_673591",
    "link_img": "https://live.staticflickr.com/65535/50039485676_750a4ef4af_o.jpg",
    "id_image": "City_673591",
    "count_view": 0
  },
  {
    "link_thumb": "https://live.staticflickr.com/65535/50039230623_6bd6db2b48_n.jpg",
    "id_album": "-1610342324",
    "description": "Nebula_271792",
    "title": "Nebula_271792",
    "link_img": "https://live.staticflickr.com/65535/50039230623_451ffda269_o.jpg",
    "id_image": "Nebula_271792",
    "count_view": 0
  }
]