[
  {
    "link_thumb": "https://live.staticflickr.com/65535/50040698028_65ee0f9767_n.jpg",
    "id_album": "-1863373220",
    "description": "StarWars_985650",
    "title": "StarWars_985650",
    "link_img": "https://live.staticflickr.com/65535/50040698028_ddf5ceb1f7_o.jpg",
    "id_image": "StarWars_985650",
    "count_view": 0
  },
  {
    "link_thumb": "https://live.staticflickr.com/65535/50041462466_483e7f8eec_n.jpg",
    "id_album": "-1261420436",
    "description": "Warrior_450058",
    "title": "Warrior_450058",
    "link_img": "https://live.staticflickr.com/65535/50041462466_03764027dd_o.jpg",
    "id_image": "Warrior_450058",
    "count_view": 0
  },
  {
    "link_thumb": "https://live.staticflickr.com/65535/50039992632_90c4441156_n.jpg",
    "id_album": "1402713104",
    "description": "Landscape_979174",
    "title": "Landscape_979174",
    "link_img": "https://live.staticflickr.com/65535/50039992632_a47e47ba91_o.jpg",
    "id_image": "Landscape_979174",
    "count_view": 0
  },
  {
    "link_thumb": "https://live.staticflickr.com/65535/50039015418_d5a7a41381_n.jpg",
    "id_album": "-1372247677",
    "description": "Cyberpunk_872307",
    "title": "Cyberpunk_872307",
    "link_img": "https://live.staticflickr.com/65535/50039015418_af7b16e04a_o.jpg",
    "id_image": "Cyberpunk_872307",
    "count_view": 0
  },
  {
    "link_thumb": "https://live.staticflickr.com/65535/50039691527_bbfc1ffb59_n.jpg",
    "id_album": "406431601",
    "description": "Building_967915",
    "title": "Building_967915",
    "link_img": "https://live.staticflickr.com/65535/50039691527_e9fa28c863_o.jpg",
    "id_image": "Building_967915",
    "count_view": 0
  },
  {
    "link_thumb": "https://live.staticflickr.com/65535/50039659017_143e3feec8_n.jpg",
    "id_album": "1187037014",
    "description": "Battle_221914",
    "title": "Battle_221914",
    "link_img": "https://live.staticflickr.com/65535/50039659017_98ab5f27d2_o.jpg",
    "id_image": "Battle_221914",
    "count_view": 0
  },
  {
    "link_thumb": "https://live.staticflickr.com/65535/50039659048_8fdb1f90ce_n.jpg",
    "id_album": "-482547208",
    "description": "PostApocalyptic_453012",
    "title": "PostApocalyptic_453012",
    "link_img": "https://live.staticflickr.com/65535/50039659048_88c8f395fb_o.jpg",
    "id_image": "PostApocalyptic_453012",
    "count_view": 0
  },
  {
    "link_thumb": "https://live.staticflickr.com/65535/50040834676_d702d2b8c0_n.jpg",
    "id_album": "-1449720967",
    "description": "StarTrek_323570",
    "title": "StarTrek_323570",
    "link_img": "https://live.staticflickr.com/65535/50040834676_4f29a14210_o.jpg",
    "id_image": "StarTrek_323570",
    "count_view": 0
  },
  {
    "link_thumb": "https://live.staticflickr.com/65535/50041377121_983bac8123_n.jpg",
    "id_album": "2020068132",
    "description": "Vehicle_201819",
    "title": "Vehicle_201819",
    "link_img": "https://live.staticflickr.com/65535/50041377121_e7be5a2074_o.jpg",
    "id_image": "Vehicle_201819",
    "count_view": 0
  },
  {
    "link_thumb": "https://live.staticflickr.com/65535/50040132661_439ed44bb5_n.jpg",
    "id_album": "-1102314093",
    "description": "Planets_772054",
    "title": "Planets_772054",
    "link_img": "https://live.staticflickr.com/65535/50040132661_82baf3b5ee_o.jpg",
    "id_image": "Planets_772054",
    "count_view": 0
  },
  {
    "link_thumb": "https://live.staticflickr.com/65535/50041148306_8e0d2c8a96_n.jpg",
    "id_album": "-1863373220",
    "description": "StarWars_234730",
    "title": "StarWars_234730",
    "link_img": "https://live.staticflickr.com/65535/50041148306_cb4b94929b_o.jpg",
    "id_image": "StarWars_234730",
    "count_view": 0
  },
  {
    "link_thumb": "https://live.staticflickr.com/65535/50039921703_1874468f41_n.jpg",
    "id_album": "1613540653",
    "description": "Space_192886",
    "title": "Space_192886",
    "link_img": "https://live.staticflickr.com/65535/50039921703_d7aeb44c75_o.jpg",
    "id_image": "Space_192886",
    "count_view": 0
  },
  {
    "link_thumb": "https://live.staticflickr.com/65535/50040699522_ba23f77d12_n.jpg",
    "id_album": "779690680",
    "description": "Robot_940955",
    "title": "Robot_940955",
    "link_img": "https://live.staticflickr.com/65535/50040699522_1c5f8fda55_o.jpg",
    "id_image": "Robot_940955",
    "count_view": 0
  },
  {
    "link_thumb": "https://live.staticflickr.com/65535/50039851211_c7d34fbf94_n.jpg",
    "id_album": "-1610342324",
    "description": "Nebula_909175",
    "title": "Nebula_909175",
    "link_img": "https://live.staticflickr.com/65535/50039851211_ba5b75a5b9_o.jpg",
    "id_image": "Nebula_909175",
    "count_view": 0
  },
  {
    "link_thumb": "https://live.staticflickr.com/65535/50039569682_12971dbe36_n.jpg",
    "id_album": "523598895",
    "description": "Artistic_187833",
    "title": "Artistic_187833",
    "link_img": "https://live.staticflickr.com/65535/50039569682_107c0ca2c9_o.jpg",
    "id_image": "Artistic_187833",
    "count_view": 0
  },
  {
    "link_thumb": "https://live.staticflickr.com/65535/50039144003_9877b1cee6_n.jpg",
    "id_album": "1402713104",
    "description": "Landscape_549184",
    "title": "Landscape_549184",
    "link_img": "https://live.staticflickr.com/65535/50039144003_a28302d139_o.jpg",
    "id_image": "Landscape_549184",
    "count_view": 0
  },
  {
    "link_thumb": "https://live.staticflickr.com/65535/50040300103_8fc449f8f3_n.jpg",
    "id_album": "-1449720967",
    "description": "StarTrek_339024",
    "title": "StarTrek_339024",
    "link_img": "https://live.staticflickr.com/65535/50040300103_2306dc9c3f_o.jpg",
    "id_image": "StarTrek_339024",
    "count_view": 0
  },
  {
    "link_thumb": "https://live.staticflickr.com/65535/50039557308_8bbe7d72fc_n.jpg",
    "id_album": "-1102314093",
    "description": "Planets_397549",
    "title": "Planets_397549",
    "link_img": "https://live.staticflickr.com/65535/50039557308_453a4b9190_o.jpg",
    "id_image": "Planets_397549",
    "count_view": 0
  },
  {
    "link_thumb": "https://live.staticflickr.com/65535/50038745453_26c37e10f6_n.jpg",
    "id_album": "523598895",
    "description": "Artistic_112397",
    "title": "Artistic_112397",
    "link_img": "https://live.staticflickr.com/65535/50038745453_ccf7d1e445_o.jpg",
    "id_image": "Artistic_112397",
    "count_view": 0
  },
  {
    "link_thumb": "https://live.staticflickr.com/65535/50040433137_85b79e8481_n.jpg",
    "id_album": "376235057",
    "description": "Planetscape_373315",
    "title": "Planetscape_373315",
    "link_img": "https://live.staticflickr.com/65535/50040433137_440de2d946_o.jpg",
    "id_image": "Planetscape_373315",
    "count_view": 0
  },
  {
    "link_thumb": "https://live.staticflickr.com/65535/50040087797_7131a8ed3f_n.jpg",
    "id_album": "-1610342324",
    "description": "Nebula_704886",
    "title": "Nebula_704886",
    "link_img": "https://live.staticflickr.com/65535/50040087797_557a30da1d_o.jpg",
    "id_image": "Nebula_704886",
    "count_view": 0
  },
  {
    "link_thumb": "https://live.staticflickr.com/65535/50039786626_db67bf2d51_n.jpg",
    "id_album": "-1610342324",
    "description": "Nebula_32594",
    "title": "Nebula_32594",
    "link_img": "https://live.staticflickr.com/65535/50039786626_1c030c2a6c_o.jpg",
    "id_image": "Nebula_32594",
    "count_view": 0
  },
  {
    "link_thumb": "https://live.staticflickr.com/65535/50039236171_05b3cb10f5_n.jpg",
    "id_album": "-406145265",
    "description": "Aircraft_269816",
    "title": "Aircraft_269816",
    "link_img": "https://live.staticflickr.com/65535/50039236171_0265b8cafc_o.jpg",
    "id_image": "Aircraft_269816",
    "count_view": 0
  },
  {
    "link_thumb": "https://live.staticflickr.com/65535/50039661742_42abb783de_n.jpg",
    "id_album": "1187037014",
    "description": "Battle_269840",
    "title": "Battle_269840",
    "link_img": "https://live.staticflickr.com/65535/50039661742_7273f8ce89_o.jpg",
    "id_image": "Battle_269840",
    "count_view": 0
  },
  {
    "link_thumb": "https://live.staticflickr.com/65535/50039883601_5c059b27c4_n.jpg",
    "id_album": "-1862561193",
    "description": "Other_280795",
    "title": "Other_280795",
    "link_img": "https://live.staticflickr.com/65535/50039883601_0c8edf0243_o.jpg",
    "id_image": "Other_280795",
    "count_view": 0
  },
  {
    "link_thumb": "https://live.staticflickr.com/65535/50041497326_d07667195d_n.jpg",
    "id_album": "-1261420436",
    "description": "Warrior_976315",
    "title": "Warrior_976315",
    "link_img": "https://live.staticflickr.com/65535/50041497326_83652bbd7e_o.jpg",
    "id_image": "Warrior_976315",
    "count_view": 0
  },
  {
    "link_thumb": "https://live.staticflickr.com/65535/50038856898_2c28f06a47_n.jpg",
    "id_album": "1187037014",
    "description": "Battle_629982",
    "title": "Battle_629982",
    "link_img": "https://live.staticflickr.com/65535/50038856898_dc51ff5c23_o.jpg",
    "id_image": "Battle_629982",
    "count_view": 0
  },
  {
    "link_thumb": "https://live.staticflickr.com/65535/50039536421_ff467119af_n.jpg",
    "id_album": "894679094",
    "description": "Collision_152137",
    "title": "Collision_152137",
    "link_img": "https://live.staticflickr.com/65535/50039536421_16f4842c2e_o.jpg",
    "id_image": "Collision_152137",
    "count_view": 0
  },
  {
    "link_thumb": "https://live.staticflickr.com/65535/50040307717_573766253a_n.jpg",
    "id_album": "-1102314093",
    "description": "Planets_106277",
    "title": "Planets_106277",
    "link_img": "https://live.staticflickr.com/65535/50040307717_6dbe18efbb_o.jpg",
    "id_image": "Planets_106277",
    "count_view": 0
  },
  {
    "link_thumb": "https://live.staticflickr.com/65535/50039699848_2ca234fcd0_n.jpg",
    "id_album": "779690680",
    "description": "Robot_114142",
    "title": "Robot_114142",
    "link_img": "https://live.staticflickr.com/65535/50039699848_ca654009a2_o.jpg",
    "id_image": "Robot_114142",
    "count_view": 0
  },
  {
    "link_thumb": "https://live.staticflickr.com/65535/50040387842_9dcedae910_n.jpg",
    "id_album": "-1102314093",
    "description": "Planets_533844",
    "title": "Planets_533844",
    "link_img": "https://live.staticflickr.com/65535/50040387842_2d3284f8f9_o.jpg",
    "id_image": "Planets_533844",
    "count_view": 0
  },
  {
    "link_thumb": "https://live.staticflickr.com/65535/50040737727_f5106613db_n.jpg",
    "id_album": "1613540653",
    "description": "Space_177928",
    "title": "Space_177928",
    "link_img": "https://live.staticflickr.com/65535/50040737727_a97ebdaeb1_o.jpg",
    "id_image": "Space_177928",
    "count_view": 0
  },
  {
    "link_thumb": "https://live.staticflickr.com/65535/50040412641_b2a3ef2789_n.jpg",
    "id_album": "779690680",
    "description": "Robot_915573",
    "title": "Robot_915573",
    "link_img": "https://live.staticflickr.com/65535/50040412641_d9b5769d04_o.jpg",
    "id_image": "Robot_915573",
    "count_view": 0
  },
  {
    "link_thumb": "https://live.staticflickr.com/65535/50039922358_016f2ae0c6_n.jpg",
    "id_album": "1613540653",
    "description": "Space_192895",
    "title": "Space_192895",
    "link_img": "https://live.staticflickr.com/65535/50039922358_3107c8dc11_o.jpg",
    "id_image": "Space_192895",
    "count_view": 0
  },
  {
    "link_thumb": "https://live.staticflickr.com/65535/50040378522_80f4ab4e2a_n.jpg",
    "id_album": "-1102314093",
    "description": "Planets_428363",
    "title": "Planets_428363",
    "link_img": "https://live.staticflickr.com/65535/50040378522_cfc25e30fe_o.jpg",
    "id_image": "Planets_428363",
    "count_view": 0
  },
  {
    "link_thumb": "https://live.staticflickr.com/65535/50039940037_bc2cb98495_n.jpg",
    "id_album": "1402713104",
    "description": "Landscape_324659",
    "title": "Landscape_324659",
    "link_img": "https://live.staticflickr.com/65535/50039940037_b08fb9e0d8_o.jpg",
    "id_image": "Landscape_324659",
    "count_view": 0
  },
  {
    "link_thumb": "https://live.staticflickr.com/65535/50039955071_9f1e037d60_n.jpg",
    "id_album": "395161030",
    "description": "Planet_516168",
    "title": "Planet_516168",
    "link_img": "https://live.staticflickr.com/65535/50039955071_6baab262b5_o.jpg",
    "id_image": "Planet_516168",
    "count_view": 0
  },
  {
    "link_thumb": "https://live.staticflickr.com/65535/50041214456_48033379c4_n.jpg",
    "id_album": "-1863373220",
    "description": "StarWars_672006",
    "title": "StarWars_672006",
    "link_img": "https://live.staticflickr.com/65535/50041214456_15f9cb2419_o.jpg",
    "id_image": "StarWars_672006",
    "count_view": 0
  },
  {
    "link_thumb": "https://live.staticflickr.com/65535/50040164277_d44facd418_n.jpg",
    "id_album": "1896531081",
    "description": "People_996486",
    "title": "People_996486",
    "link_img": "https://live.staticflickr.com/65535/50040164277_a60e70f2cc_o.jpg",
    "id_image": "People_996486",
    "count_view": 0
  },
  {
    "link_thumb": "https://live.staticflickr.com/65535/50041341631_575724bd7e_n.jpg",
    "id_album": "-221671103",
    "description": "Sun_204328",
    "title": "Sun_204328",
    "link_img": "https://live.staticflickr.com/65535/50041341631_5584fdbddf_o.jpg",
    "id_image": "Sun_204328",
    "count_view": 0
  },
  {
    "link_thumb": "https://live.staticflickr.com/65535/50040717947_984bcaf4df_n.jpg",
    "id_album": "779690680",
    "description": "Robot_987589",
    "title": "Robot_987589",
    "link_img": "https://live.staticflickr.com/65535/50040717947_504b691a7f_o.jpg",
    "id_image": "Robot_987589",
    "count_view": 0
  },
  {
    "link_thumb": "https://live.staticflickr.com/65535/50039112828_c4702433c8_n.jpg",
    "id_album": "1402713104",
    "description": "Landscape_163743",
    "title": "Landscape_163743",
    "link_img": "https://live.staticflickr.com/65535/50039112828_d21aa72912_o.jpg",
    "id_image": "Landscape_163743",
    "count_view": 0
  },
  {
    "link_thumb": "https://live.staticflickr.com/65535/50039826861_f954a09eb6_n.jpg",
    "id_album": "-1610342324",
    "description": "Nebula_728536",
    "title": "Nebula_728536",
    "link_img": "https://live.staticflickr.com/65535/50039826861_b205b03db3_o.jpg",
    "id_image": "Nebula_728536",
    "count_view": 0
  },
  {
    "link_thumb": "https://live.staticflickr.com/65535/50040390571_09254441b8_n.jpg",
    "id_album": "779690680",
    "description": "Robot_881754",
    "title": "Robot_881754",
    "link_img": "https://live.staticflickr.com/65535/50040390571_cf607076ae_o.jpg",
    "id_image": "Robot_881754",
    "count_view": 0
  },
  {
    "link_thumb": "https://live.staticflickr.com/65535/50041642482_bee9538140_n.jpg",
    "id_album": "2020068132",
    "description": "Vehicle_259808",
    "title": "Vehicle_259808",
    "link_img": "https://live.staticflickr.com/65535/50041642482_5426af25d7_o.jpg",
    "id_image": "Vehicle_259808",
    "count_view": 0
  },
  {
    "link_thumb": "https://live.staticflickr.com/65535/50039930596_336c7b308f_n.jpg",
    "id_album": "395161030",
    "description": "Planet_343743",
    "title": "Planet_343743",
    "link_img": "https://live.staticflickr.com/65535/50039930596_e683d4a767_o.jpg",
    "id_image": "Planet_343743",
    "count_view": 0
  },
  {
    "link_thumb": "https://live.staticflickr.com/65535/50040436317_e46d210779_n.jpg",
    "id_album": "376235057",
    "description": "Planetscape_393915",
    "title": "Planetscape_393915",
    "link_img": "https://live.staticflickr.com/65535/50040436317_e3d8e8ea5c_o.jpg",
    "id_image": "Planetscape_393915",
    "count_view": 0
  },
  {
    "link_thumb": "https://live.staticflickr.com/65535/50039646727_eb784f45c0_n.jpg",
    "id_album": "869545341",
    "description": "Astronaut_957344",
    "title": "Astronaut_957344",
    "link_img": "https://live.staticflickr.com/65535/50039646727_27bce795c8_o.jpg",
    "id_image": "Astronaut_957344",
    "count_view": 0
  },
  {
    "link_thumb": "https://live.staticflickr.com/65535/50039759486_914866ba6a_n.jpg",
    "id_album": "-1610342324",
    "description": "Nebula_1002215",
    "title": "Nebula_1002215",
    "link_img": "https://live.staticflickr.com/65535/50039759486_1ce6de9cc0_o.jpg",
    "id_image": "Nebula_1002215",
    "count_view": 0
  },
  {
    "link_thumb": "https://live.staticflickr.com/65535/50039670092_9187e33790_n.jpg",
    "id_album": "1187037014",
    "description": "Battle_84029",
    "title": "Battle_84029",
    "link_img": "https://live.staticflickr.com/65535/50039670092_d94cc4c628_o.jpg",
    "id_image": "Battle_84029",
    "count_view": 0
  },
  {
    "link_thumb": "https://live.staticflickr.com/65535/50039316366_135e3d9ce4_n.jpg",
    "id_album": "523598895",
    "description": "Artistic_220485",
    "title": "Artistic_220485",
    "link_img": "https://live.staticflickr.com/65535/50039316366_e75c97f956_o.jpg",
    "id_image": "Artistic_220485",
    "count_view": 0
  },
  {
    "link_thumb": "https://live.staticflickr.com/65535/50039893182_e636ba3c38_n.jpg",
    "id_album": "1204249541",
    "description": "Galaxy_305308",
    "title": "Galaxy_305308",
    "link_img": "https://live.staticflickr.com/65535/50039893182_89dfddf850_o.jpg",
    "id_image": "Galaxy_305308",
    "count_view": 0
  },
  {
    "link_thumb": "https://live.staticflickr.com/65535/50040863583_a6a51548b3_n.jpg",
    "id_album": "2020068132",
    "description": "Vehicle_879537",
    "title": "Vehicle_879537",
    "link_img": "https://live.staticflickr.com/65535/50040863583_d5207bd673_o.jpg",
    "id_image": "Vehicle_879537",
    "count_view": 0
  },
  {
    "link_thumb": "https://live.staticflickr.com/65535/50039951151_78fca4527a_n.jpg",
    "id_album": "395161030",
    "description": "Planet_464558",
    "title": "Planet_464558",
    "link_img": "https://live.staticflickr.com/65535/50039951151_2273781326_o.jpg",
    "id_image": "Planet_464558",
    "count_view": 0
  },
  {
    "link_thumb": "https://live.staticflickr.com/65535/50038954068_2979fa50f3_n.jpg",
    "id_album": "-1964113117",
    "description": "City_856984",
    "title": "City_856984",
    "link_img": "https://live.staticflickr.com/65535/50038954068_b0a1e5b485_o.jpg",
    "id_image": "City_856984",
    "count_view": 0
  },
  {
    "link_thumb": "https://live.staticflickr.com/65535/50040089836_21545a399d_n.jpg",
    "id_album": "-1102314093",
    "description": "Planets_347227",
    "title": "Planets_347227",
    "link_img": "https://live.staticflickr.com/65535/50040089836_b6b907eaa1_o.jpg",
    "id_image": "Planets_347227",
    "count_view": 0
  },
  {
    "link_thumb": "https://live.staticflickr.com/65535/50039097678_b6ffd67171_n.jpg",
    "id_album": "1204249541",
    "description": "Galaxy_596544",
    "title": "Galaxy_596544",
    "link_img": "https://live.staticflickr.com/65535/50039097678_95ea3be8e3_o.jpg",
    "id_image": "Galaxy_596544",
    "count_view": 0
  },
  {
    "link_thumb": "https://live.staticflickr.com/65535/50040111467_1e9c7e3b87_n.jpg",
    "id_album": "-1610342324",
    "description": "Nebula_874817",
    "title": "Nebula_874817",
    "link_img": "https://live.staticflickr.com/65535/50040111467_f499bef8db_o.jpg",
    "id_image": "Nebula_874817",
    "count_view": 0
  },
  {
    "link_thumb": "https://live.staticflickr.com/65535/50039929417_1c3b09224f_n.jpg",
    "id_album": "1402713104",
    "description": "Landscape_234062",
    "title": "Landscape_234062",
    "link_img": "https://live.staticflickr.com/65535/50039929417_f8d1a06603_o.jpg",
    "id_image": "Landscape_234062",
    "count_view": 0
  },
  {
    "link_thumb": "https://live.staticflickr.com/65535/50038858893_c4f649b965_n.jpg",
    "id_album": "1187037014",
    "description": "Battle_790113",
    "title": "Battle_790113",
    "link_img": "https://live.staticflickr.com/65535/50038858893_8d91e7d6b9_o.jpg",
    "id_image": "Battle_790113",
    "count_view": 0
  },
  {
    "link_thumb": "https://live.staticflickr.com/65535/50039986522_15712bc631_n.jpg",
    "id_album": "1402713104",
    "description": "Landscape_917847",
    "title": "Landscape_917847",
    "link_img": "https://live.staticflickr.com/65535/50039986522_a87384a6bd_o.jpg",
    "id_image": "Landscape_917847",
    "count_view": 0
  },
  {
    "link_thumb": "https://live.staticflickr.com/65535/50040812612_7f7d28f8e6_n.jpg",
    "id_album": "1613540653",
    "description": "Space_853894",
    "title": "Space_853894",
    "link_img": "https://live.staticflickr.com/65535/50040812612_0bff8e9e86_o.jpg",
    "id_image": "Space_853894",
    "count_view": 0
  },
  {
    "link_thumb": "https://live.staticflickr.com/65535/50040042503_6e2433f607_n.jpg",
    "id_album": "2130067313",
    "description": "Spaceship_195156",
    "title": "Spaceship_195156",
    "link_img": "https://live.staticflickr.com/65535/50040042503_dc4f3bf7d9_o.jpg",
    "id_image": "Spaceship_195156",
    "count_view": 0
  },
  {
    "link_thumb": "https://live.staticflickr.com/65535/50040544336_6e298b19e4_n.jpg",
    "id_album": "1613540653",
    "description": "Space_822482",
    "title": "Space_822482",
    "link_img": "https://live.staticflickr.com/65535/50040544336_0a2c07a8ca_o.jpg",
    "id_image": "Space_822482",
    "count_view": 0
  },
  {
    "link_thumb": "https://live.staticflickr.com/65535/50039908192_93763481d1_n.jpg",
    "id_album": "1204249541",
    "description": "Galaxy_58726",
    "title": "Galaxy_58726",
    "link_img": "https://live.staticflickr.com/65535/50039908192_9227a62f6b_o.jpg",
    "id_image": "Galaxy_58726",
    "count_view": 0
  },
  {
    "link_thumb": "https://live.staticflickr.com/65535/50040411586_52890e8eaf_n.jpg",
    "id_album": "779690680",
    "description": "Robot_914568",
    "title": "Robot_914568",
    "link_img": "https://live.staticflickr.com/65535/50040411586_e0f7d2ffb6_o.jpg",
    "id_image": "Robot_914568",
    "count_view": 0
  },
  {
    "link_thumb": "https://live.staticflickr.com/65535/50039789806_9a0d8f1e9b_n.jpg",
    "id_album": "-1610342324",
    "description": "Nebula_393914",
    "title": "Nebula_393914",
    "link_img": "https://live.staticflickr.com/65535/50039789806_c1201f3e95_o.jpg",
    "id_image": "Nebula_393914",
    "count_view": 0
  },
  {
    "link_thumb": "https://live.staticflickr.com/65535/50039203123_e788899a99_n.jpg",
    "id_album": "-1388385651",
    "description": "MilkyWay_890775",
    "title": "MilkyWay_890775",
    "link_img": "https://live.staticflickr.com/65535/50039203123_1943894ef0_o.jpg",
    "id_image": "MilkyWay_890775",
    "count_view": 0
  },
  {
    "link_thumb": "https://live.staticflickr.com/65535/50040487401_be1903396e_n.jpg",
    "id_album": "1613540653",
    "description": "Space_286967",
    "title": "Space_286967",
    "link_img": "https://live.staticflickr.com/65535/50040487401_d9f2013240_o.jpg",
    "id_image": "Space_286967",
    "count_view": 0
  },
  {
    "link_thumb": "https://live.staticflickr.com/65535/50039140883_023f1a95ce_n.jpg",
    "id_album": "1402713104",
    "description": "Landscape_459374",
    "title": "Landscape_459374",
    "link_img": "https://live.staticflickr.com/65535/50039140883_ec4d917ef5_o.jpg",
    "id_image": "Landscape_459374",
    "count_view": 0
  },
  {
    "link_thumb": "https://live.staticflickr.com/65535/50040549872_eea889a3d7_n.jpg",
    "id_album": "779690680",
    "description": "Robot_309455",
    "title": "Robot_309455",
    "link_img": "https://live.staticflickr.com/65535/50040549872_152c55883b_o.jpg",
    "id_image": "Robot_309455",
    "count_view": 0
  },
  {
    "link_thumb": "https://live.staticflickr.com/65535/50039574598_5a20ba0c85_n.jpg",
    "id_album": "-1102314093",
    "description": "Planets_535399",
    "title": "Planets_535399",
    "link_img": "https://live.staticflickr.com/65535/50039574598_bab7a43f27_o.jpg",
    "id_image": "Planets_535399",
    "count_view": 0
  },
  {
    "link_thumb": "https://live.staticflickr.com/65535/50040502167_9bbd67299c_n.jpg",
    "id_album": "-839602625",
    "description": "Predator_177845",
    "title": "Predator_177845",
    "link_img": "https://live.staticflickr.com/65535/50040502167_3b501d8a8a_o.jpg",
    "id_image": "Predator_177845",
    "count_view": 0
  },
  {
    "link_thumb": "https://live.staticflickr.com/65535/50039539687_ddc55c7817_n.jpg",
    "id_album": "849020728",
    "description": "Alien_941433",
    "title": "Alien_941433",
    "link_img": "https://live.staticflickr.com/65535/50039539687_86cacf4b57_o.jpg",
    "id_image": "Alien_941433",
    "count_view": 0
  },
  {
    "link_thumb": "https://live.staticflickr.com/65535/50040067892_106aaa6c42_n.jpg",
    "id_album": "-1610342324",
    "description": "Nebula_529281",
    "title": "Nebula_529281",
    "link_img": "https://live.staticflickr.com/65535/50040067892_9f5f0196ff_o.jpg",
    "id_image": "Nebula_529281",
    "count_view": 0
  },
  {
    "link_thumb": "https://live.staticflickr.com/65535/50041036663_f15d42a281_n.jpg",
    "id_album": "-1675918237",
    "description": "WomenWarrior_912306",
    "title": "WomenWarrior_912306",
    "link_img": "https://live.staticflickr.com/65535/50041036663_4e85bed13e_o.jpg",
    "id_image": "WomenWarrior_912306",
    "count_view": 0
  },
  {
    "link_thumb": "https://live.staticflickr.com/65535/50040064107_7f96478a5f_n.jpg",
    "id_album": "-1610342324",
    "description": "Nebula_500525",
    "title": "Nebula_500525",
    "link_img": "https://live.staticflickr.com/65535/50040064107_191af60e5e_o.jpg",
    "id_image": "Nebula_500525",
    "count_view": 0
  },
  {
    "link_thumb": "https://live.staticflickr.com/65535/50041116581_d1c091c2a5_n.jpg",
    "id_album": "-1863373220",
    "description": "StarWars_107734",
    "title": "StarWars_107734",
    "link_img": "https://live.staticflickr.com/65535/50041116581_7ae12b008e_o.jpg",
    "id_image": "StarWars_107734",
    "count_view": 0
  },
  {
    "link_thumb": "https://live.staticflickr.com/65535/50039641882_90e92013b7_n.jpg",
    "id_album": "869545341",
    "description": "Astronaut_923963",
    "title": "Astronaut_923963",
    "link_img": "https://live.staticflickr.com/65535/50039641882_c7a78e4be5_o.jpg",
    "id_image": "Astronaut_923963",
    "count_view": 0
  },
  {
    "link_thumb": "https://live.staticflickr.com/65535/50039254998_af1e17e417_n.jpg",
    "id_album": "-1610342324",
    "description": "Nebula_529985",
    "title": "Nebula_529985",
    "link_img": "https://live.staticflickr.com/65535/50039254998_2d3810a2f2_o.jpg",
    "id_image": "Nebula_529985",
    "count_view": 0
  },
  {
    "link_thumb": "https://live.staticflickr.com/65535/50040188396_c951e8cf0a_n.jpg",
    "id_album": "-482547208",
    "description": "PostApocalyptic_106770",
    "title": "PostApocalyptic_106770",
    "link_img": "https://live.staticflickr.com/65535/50040188396_24a49a4bf9_o.jpg",
    "id_image": "PostApocalyptic_106770",
    "count_view": 0
  },
  {
    "link_thumb": "https://live.staticflickr.com/65535/50039907468_a9cee9c566_n.jpg",
    "id_album": "1613540653",
    "description": "Space_106826",
    "title": "Space_106826",
    "link_img": "https://live.staticflickr.com/65535/50039907468_de3bc5c831_o.jpg",
    "id_image": "Space_106826",
    "count_view": 0
  },
  {
    "link_thumb": "https://live.staticflickr.com/65535/50041529066_884e73609a_n.jpg",
    "id_album": "-1126835654",
    "description": "Women_395369",
    "title": "Women_395369",
    "link_img": "https://live.staticflickr.com/65535/50041529066_53dc30496c_o.jpg",
    "id_image": "Women_395369",
    "count_view": 0
  },
  {
    "link_thumb": "https://live.staticflickr.com/65535/50041026433_d3fee9b958_n.jpg",
    "id_album": "-1675918237",
    "description": "WomenWarrior_551721",
    "title": "WomenWarrior_551721",
    "link_img": "https://live.staticflickr.com/65535/50041026433_95ce8fb518_o.jpg",
    "id_image": "WomenWarrior_551721",
    "count_view": 0
  },
  {
    "link_thumb": "https://live.staticflickr.com/65535/50040784703_626a6fa13a_n.jpg",
    "id_album": "-221671103",
    "description": "Sun_180015",
    "title": "Sun_180015",
    "link_img": "https://live.staticflickr.com/65535/50040784703_8e9cbf30ec_o.jpg",
    "id_image": "Sun_180015",
    "count_view": 0
  },
  {
    "link_thumb": "https://live.staticflickr.com/65535/50041119177_0939035276_n.jpg",
    "id_album": "-1449720967",
    "description": "StarTrek_376988",
    "title": "StarTrek_376988",
    "link_img": "https://live.staticflickr.com/65535/50041119177_0ff35ca25a_o.jpg",
    "id_image": "StarTrek_376988",
    "count_view": 0
  },
  {
    "link_thumb": "https://live.staticflickr.com/65535/50038765513_a9c931dc5b_n.jpg",
    "id_album": "523598895",
    "description": "Artistic_208687",
    "title": "Artistic_208687",
    "link_img": "https://live.staticflickr.com/65535/50038765513_6037e79158_o.jpg",
    "id_image": "Artistic_208687",
    "count_view": 0
  },
  {
    "link_thumb": "https://live.staticflickr.com/65535/50041563741_5b21c625f9_n.jpg",
    "id_album": "-1675918237",
    "description": "WomenWarrior_283334",
    "title": "WomenWarrior_283334",
    "link_img": "https://live.staticflickr.com/65535/50041563741_5a8b211ee1_o.jpg",
    "id_image": "WomenWarrior_283334",
    "count_view": 0
  },
  {
    "link_thumb": "https://live.staticflickr.com/65535/50041590426_1cc438f0f6_n.jpg",
    "id_album": "-1675918237",
    "description": "WomenWarrior_920517",
    "title": "WomenWarrior_920517",
    "link_img": "https://live.staticflickr.com/65535/50041590426_5ebf193420_o.jpg",
    "id_image": "WomenWarrior_920517",
    "count_view": 0
  },
  {
    "link_thumb": "https://live.staticflickr.com/65535/50038989393_2e76e003f9_n.jpg",
    "id_album": "894679094",
    "description": "Collision_229334",
    "title": "Collision_229334",
    "link_img": "https://live.staticflickr.com/65535/50038989393_65ba25ccc1_o.jpg",
    "id_image": "Collision_229334",
    "count_view": 0
  },
  {
    "link_thumb": "https://live.staticflickr.com/65535/50039573927_c880ea8136_n.jpg",
    "id_album": "523598895",
    "description": "Artistic_205968",
    "title": "Artistic_205968",
    "link_img": "https://live.staticflickr.com/65535/50039573927_207891e34e_o.jpg",
    "id_image": "Artistic_205968",
    "count_view": 0
  },
  {
    "link_thumb": "https://live.staticflickr.com/65535/50040277576_dfabeefa1f_n.jpg",
    "id_album": "779690680",
    "description": "Robot_267709",
    "title": "Robot_267709",
    "link_img": "https://live.staticflickr.com/65535/50040277576_32845d8c24_o.jpg",
    "id_image": "Robot_267709",
    "count_view": 0
  },
  {
    "link_thumb": "https://live.staticflickr.com/65535/50039798761_95b4197085_n.jpg",
    "id_album": "-1610342324",
    "description": "Nebula_453086",
    "title": "Nebula_453086",
    "link_img": "https://live.staticflickr.com/65535/50039798761_5eec1daee7_o.jpg",
    "id_image": "Nebula_453086",
    "count_view": 0
  },
  {
    "link_thumb": "https://live.staticflickr.com/65535/50040254991_d9580e24d5_n.jpg",
    "id_album": "779690680",
    "description": "Robot_149264",
    "title": "Robot_149264",
    "link_img": "https://live.staticflickr.com/65535/50040254991_4848efa091_o.jpg",
    "id_image": "Robot_149264",
    "count_view": 0
  },
  {
    "link_thumb": "https://live.staticflickr.com/65535/50039772386_76823ea5f4_n.jpg",
    "id_album": "-1610342324",
    "description": "Nebula_220995",
    "title": "Nebula_220995",
    "link_img": "https://live.staticflickr.com/65535/50039772386_0181b673b4_o.jpg",
    "id_image": "Nebula_220995",
    "count_view": 0
  },
  {
    "link_thumb": "https://live.staticflickr.com/65535/50040442962_4ca930429e_n.jpg",
    "id_album": "376235057",
    "description": "Planetscape_614568",
    "title": "Planetscape_614568",
    "link_img": "https://live.staticflickr.com/65535/50040442962_27d9521b03_o.jpg",
    "id_image": "Planetscape_614568",
    "count_view": 0
  },
  {
    "link_thumb": "https://live.staticflickr.com/65535/50040521667_6dd3eb221b_n.jpg",
    "id_album": "779690680",
    "description": "Robot_167503",
    "title": "Robot_167503",
    "link_img": "https://live.staticflickr.com/65535/50040521667_1ddbbdcde6_o.jpg",
    "id_image": "Robot_167503",
    "count_view": 0
  },
  {
    "link_thumb": "https://live.staticflickr.com/65535/50040142417_007f5e830d_n.jpg",
    "id_album": "-1610342324",
    "description": "Nebula_500768",
    "title": "Nebula_500768",
    "link_img": "https://live.staticflickr.com/65535/50040142417_121004d94b_o.jpg",
    "id_image": "Nebula_500768",
    "count_view": 0
  },
  {
    "link_thumb": "https://live.staticflickr.com/65535/50039215313_3eba38ec0f_n.jpg",
    "id_album": "-1610342324",
    "description": "Nebula_179721",
    "title": "Nebula_179721",
    "link_img": "https://live.staticflickr.com/65535/50039215313_1bb7253b20_o.jpg",
    "id_image": "Nebula_179721",
    "count_view": 0
  },
  {
    "link_thumb": "https://live.staticflickr.com/65535/50039792406_1753eaf9c6_n.jpg",
    "id_album": "-1610342324",
    "description": "Nebula_397986",
    "title": "Nebula_397986",
    "link_img": "https://live.staticflickr.com/65535/50039792406_4a1b0eccc8_o.jpg",
    "id_image": "Nebula_397986",
    "count_view": 0
  },
  {
    "link_thumb": "https://live.staticflickr.com/65535/50038878878_31857c2fa2_n.jpg",
    "id_album": "406431601",
    "description": "Building_941589",
    "title": "Building_941589",
    "link_img": "https://live.staticflickr.com/65535/50038878878_01444709ba_o.jpg",
    "id_image": "Building_941589",
    "count_view": 0
  },
  {
    "link_thumb": "https://live.staticflickr.com/65535/50039497947_6116e7ddd0_n.jpg",
    "id_album": "-406145265",
    "description": "Aircraft_269232",
    "title": "Aircraft_269232",
    "link_img": "https://live.staticflickr.com/65535/50039497947_10750e8705_o.jpg",
    "id_image": "Aircraft_269232",
    "count_view": 0
  },
  {
    "link_thumb": "https://live.staticflickr.com/65535/50039222538_78200dc2c4_n.jpg",
    "id_album": "-1610342324",
    "description": "Nebula_220635",
    "title": "Nebula_220635",
    "link_img": "https://live.staticflickr.com/65535/50039222538_ddd62dd3b4_o.jpg",
    "id_image": "Nebula_220635",
    "count_view": 0
  },
  {
    "link_thumb": "https://live.staticflickr.com/65535/50039392701_5b7e472cfe_n.jpg",
    "id_album": "1187037014",
    "description": "Battle_112508",
    "title": "Battle_112508",
    "link_img": "https://live.staticflickr.com/65535/50039392701_c77d5a8a11_o.jpg",
    "id_image": "Battle_112508",
    "count_view": 0
  },
  {
    "link_thumb": "https://live.staticflickr.com/65535/50039798427_f136207562_n.jpg",
    "id_album": "894679094",
    "description": "Collision_192887",
    "title": "Collision_192887",
    "link_img": "https://live.staticflickr.com/65535/50039798427_c5ac94d265_o.jpg",
    "id_image": "Collision_192887",
    "count_view": 0
  },
  {
    "link_thumb": "https://live.staticflickr.com/65535/50038681923_eea6c18fa2_n.jpg",
    "id_album": "280884763",
    "description": "Abstract_286916",
    "title": "Abstract_286916",
    "link_img": "https://live.staticflickr.com/65535/50038681923_bef6f1b611_o.jpg",
    "id_image": "Abstract_286916",
    "count_view": 0
  },
  {
    "link_thumb": "https://live.staticflickr.com/65535/50039022278_254730c207_n.jpg",
    "id_album": "-1372247677",
    "description": "Cyberpunk_970426",
    "title": "Cyberpunk_970426",
    "link_img": "https://live.staticflickr.com/65535/50039022278_ef4cde0c3e_o.jpg",
    "id_image": "Cyberpunk_970426",
    "count_view": 0
  },
  {
    "link_thumb": "https://live.staticflickr.com/65535/50040611708_ce11666f95_n.jpg",
    "id_album": "-1863373220",
    "description": "StarWars_321366",
    "title": "StarWars_321366",
    "link_img": "https://live.staticflickr.com/65535/50040611708_5d20105e10_o.jpg",
    "id_image": "StarWars_321366",
    "count_view": 0
  },
  {
    "link_thumb": "https://live.staticflickr.com/65535/50039926978_c0fd6d5530_n.jpg",
    "id_album": "1613540653",
    "description": "Space_227839",
    "title": "Space_227839",
    "link_img": "https://live.staticflickr.com/65535/50039926978_6d01590ccd_o.jpg",
    "id_image": "Space_227839",
    "count_view": 0
  },
  {
    "link_thumb": "https://live.staticflickr.com/65535/50040523113_996c3a4a01_n.jpg",
    "id_album": "-1863373220",
    "description": "StarWars_1003732",
    "title": "StarWars_1003732",
    "link_img": "https://live.staticflickr.com/65535/50040523113_9b7499c483_o.jpg",
    "id_image": "StarWars_1003732",
    "count_view": 0
  },
  {
    "link_thumb": "https://live.staticflickr.com/65535/50039887922_8afe9b2960_n.jpg",
    "id_album": "1204249541",
    "description": "Galaxy_172925",
    "title": "Galaxy_172925",
    "link_img": "https://live.staticflickr.com/65535/50039887922_210d4aa4a2_o.jpg",
    "id_image": "Galaxy_172925",
    "count_view": 0
  },
  {
    "link_thumb": "https://live.staticflickr.com/65535/50039502312_900975e3cf_n.jpg",
    "id_album": "-406145265",
    "description": "Aircraft_403620",
    "title": "Aircraft_403620",
    "link_img": "https://live.staticflickr.com/65535/50039502312_a3c1c51f0c_o.jpg",
    "id_image": "Aircraft_403620",
    "count_view": 0
  },
  {
    "link_thumb": "https://live.staticflickr.com/65535/50040058142_eef760f430_n.jpg",
    "id_album": "-1610342324",
    "description": "Nebula_418579",
    "title": "Nebula_418579",
    "link_img": "https://live.staticflickr.com/65535/50040058142_1b611c0cf2_o.jpg",
    "id_image": "Nebula_418579",
    "count_view": 0
  },
  {
    "link_thumb": "https://live.staticflickr.com/65535/50039840071_3e1b57f89a_n.jpg",
    "id_album": "-1610342324",
    "description": "Nebula_814609",
    "title": "Nebula_814609",
    "link_img": "https://live.staticflickr.com/65535/50039840071_85fcc32ddf_o.jpg",
    "id_image": "Nebula_814609",
    "count_view": 0
  },
  {
    "link_thumb": "https://live.staticflickr.com/65535/50038849063_e9bcfb381b_n.jpg",
    "id_album": "1187037014",
    "description": "Battle_239021",
    "title": "Battle_239021",
    "link_img": "https://live.staticflickr.com/65535/50038849063_d67abedac6_o.jpg",
    "id_image": "Battle_239021",
    "count_view": 0
  },
  {
    "link_thumb": "https://live.staticflickr.com/65535/50040036107_fd249970d0_n.jpg",
    "id_album": "-1610342324",
    "description": "Nebula_22152",
    "title": "Nebula_22152",
    "link_img": "https://live.staticflickr.com/65535/50040036107_31c3edec81_o.jpg",
    "id_image": "Nebula_22152",
    "count_view": 0
  },
  {
    "link_thumb": "https://live.staticflickr.com/65535/50041025273_9b748c8396_n.jpg",
    "id_album": "-1675918237",
    "description": "WomenWarrior_534418",
    "title": "WomenWarrior_534418",
    "link_img": "https://live.staticflickr.com/65535/50041025273_8660d4e476_o.jpg",
    "id_image": "WomenWarrior_534418",
    "count_view": 0
  },
  {
    "link_thumb": "https://live.staticflickr.com/65535/50040004086_b838615ef9_n.jpg",
    "id_album": "1443611160",
    "description": "PlanetRise_369752",
    "title": "PlanetRise_369752",
    "link_img": "https://live.staticflickr.com/65535/50040004086_f1bccdbf3b_o.jpg",
    "id_image": "PlanetRise_369752",
    "count_view": 0
  },
  {
    "link_thumb": "https://live.staticflickr.com/65535/50039145573_da6f6d7c46_n.jpg",
    "id_album": "1402713104",
    "description": "Landscape_559164",
    "title": "Landscape_559164",
    "link_img": "https://live.staticflickr.com/65535/50039145573_a4e8912a56_o.jpg",
    "id_image": "Landscape_559164",
    "count_view": 0
  },
  {
    "link_thumb": "https://live.staticflickr.com/65535/50039637941_3b6e57a917_n.jpg",
    "id_album": "1204249541",
    "description": "Galaxy_479494",
    "title": "Galaxy_479494",
    "link_img": "https://live.staticflickr.com/65535/50039637941_b9800085fd_o.jpg",
    "id_image": "Galaxy_479494",
    "count_view": 0
  },
  {
    "link_thumb": "https://live.staticflickr.com/65535/50039278691_e0bc2692a1_n.jpg",
    "id_album": "-419633230",
    "description": "Apocalyptic_117055",
    "title": "Apocalyptic_117055",
    "link_img": "https://live.staticflickr.com/65535/50039278691_5bdf59e847_o.jpg",
    "id_image": "Apocalyptic_117055",
    "count_view": 0
  },
  {
    "link_thumb": "https://live.staticflickr.com/65535/50039683603_f299db939b_n.jpg",
    "id_album": "-482547208",
    "description": "PostApocalyptic_977198",
    "title": "PostApocalyptic_977198",
    "link_img": "https://live.staticflickr.com/65535/50039683603_2699327a2b_o.jpg",
    "id_image": "PostApocalyptic_977198",
    "count_view": 0
  },
  {
    "link_thumb": "https://live.staticflickr.com/65535/50040749992_b3b1d09777_n.jpg",
    "id_album": "1613540653",
    "description": "Space_286641",
    "title": "Space_286641",
    "link_img": "https://live.staticflickr.com/65535/50040749992_d732e3e0c9_o.jpg",
    "id_image": "Space_286641",
    "count_view": 0
  },
  {
    "link_thumb": "https://live.staticflickr.com/65535/50041684857_e5c0056f3e_n.jpg",
    "id_album": "2020068132",
    "description": "Vehicle_954002",
    "title": "Vehicle_954002",
    "link_img": "https://live.staticflickr.com/65535/50041684857_7561568e3d_o.jpg",
    "id_image": "Vehicle_954002",
    "count_view": 0
  },
  {
    "link_thumb": "https://live.staticflickr.com/65535/50039391771_23c24e9842_n.jpg",
    "id_album": "869545341",
    "description": "Astronaut_994629",
    "title": "Astronaut_994629",
    "link_img": "https://live.staticflickr.com/65535/50039391771_f57cf1fa06_o.jpg",
    "id_image": "Astronaut_994629",
    "count_view": 0
  },
  {
    "link_thumb": "https://live.staticflickr.com/65535/50038718143_a93aced6ed_n.jpg",
    "id_album": "849020728",
    "description": "Alien_464335",
    "title": "Alien_464335",
    "link_img": "https://live.staticflickr.com/65535/50038718143_47643e613b_o.jpg",
    "id_image": "Alien_464335",
    "count_view": 0
  },
  {
    "link_thumb": "https://live.staticflickr.com/65535/50039229148_cae736a20f_n.jpg",
    "id_album": "-1610342324",
    "description": "Nebula_264704",
    "title": "Nebula_264704",
    "link_img": "https://live.staticflickr.com/65535/50039229148_cb14a59e85_o.jpg",
    "id_image": "Nebula_264704",
    "count_view": 0
  },
  {
    "link_thumb": "https://live.staticflickr.com/65535/50040043342_cc483293c1_n.jpg",
    "id_album": "-1610342324",
    "description": "Nebula_266266",
    "title": "Nebula_266266",
    "link_img": "https://live.staticflickr.com/65535/50040043342_fc7bacfbbe_o.jpg",
    "id_image": "Nebula_266266",
    "count_view": 0
  },
  {
    "link_thumb": "https://live.staticflickr.com/65535/50040428806_66a8ded474_n.jpg",
    "id_album": "779690680",
    "description": "Robot_931799",
    "title": "Robot_931799",
    "link_img": "https://live.staticflickr.com/65535/50040428806_5e600eb5e0_o.jpg",
    "id_image": "Robot_931799",
    "count_view": 0
  },
  {
    "link_thumb": "https://live.staticflickr.com/65535/50039270908_c5035f0767_n.jpg",
    "id_album": "-1610342324",
    "description": "Nebula_66953",
    "title": "Nebula_66953",
    "link_img": "https://live.staticflickr.com/65535/50039270908_c7a58d43a8_o.jpg",
    "id_image": "Nebula_66953",
    "count_view": 0
  },
  {
    "link_thumb": "https://live.staticflickr.com/65535/50039937717_3b451ec3af_n.jpg",
    "id_album": "1402713104",
    "description": "Landscape_311326",
    "title": "Landscape_311326",
    "link_img": "https://live.staticflickr.com/65535/50039937717_599547c66d_o.jpg",
    "id_image": "Landscape_311326",
    "count_view": 0
  },
  {
    "link_thumb": "https://live.staticflickr.com/65535/50039410941_27e0b117b3_n.jpg",
    "id_album": "-1780971522",
    "description": "Biohazard_189834",
    "title": "Biohazard_189834",
    "link_img": "https://live.staticflickr.com/65535/50039410941_11d852306e_o.jpg",
    "id_image": "Biohazard_189834",
    "count_view": 0
  },
  {
    "link_thumb": "https://live.staticflickr.com/65535/50041207251_b2df69f473_n.jpg",
    "id_album": "-1863373220",
    "description": "StarWars_667417",
    "title": "StarWars_667417",
    "link_img": "https://live.staticflickr.com/65535/50041207251_1e9b2510e8_o.jpg",
    "id_image": "StarWars_667417",
    "count_view": 0
  },
  {
    "link_thumb": "https://live.staticflickr.com/65535/50040055147_edc9332bfd_n.jpg",
    "id_album": "-1610342324",
    "description": "Nebula_397249",
    "title": "Nebula_397249",
    "link_img": "https://live.staticflickr.com/65535/50040055147_223ab811e6_o.jpg",
    "id_image": "Nebula_397249",
    "count_view": 0
  },
  {
    "link_thumb": "https://live.staticflickr.com/65535/50040817153_60b476ef59_n.jpg",
    "id_album": "2020068132",
    "description": "Vehicle_1011724",
    "title": "Vehicle_1011724",
    "link_img": "https://live.staticflickr.com/65535/50040817153_c463822ea1_o.jpg",
    "id_image": "Vehicle_1011724",
    "count_view": 0
  },
  {
    "link_thumb": "https://live.staticflickr.com/65535/50039925201_601517c1f1_n.jpg",
    "id_album": "395161030",
    "description": "Planet_29231",
    "title": "Planet_29231",
    "link_img": "https://live.staticflickr.com/65535/50039925201_2ef109abe6_o.jpg",
    "id_image": "Planet_29231",
    "count_view": 0
  },
  {
    "link_thumb": "https://live.staticflickr.com/65535/50040728587_ee062071db_n.jpg",
    "id_album": "1613540653",
    "description": "Space_112721",
    "title": "Space_112721",
    "link_img": "https://live.staticflickr.com/65535/50040728587_dd0847f4e4_o.jpg",
    "id_image": "Space_112721",
    "count_view": 0
  },
  {
    "link_thumb": "https://live.staticflickr.com/65535/50040415156_7cfd2254fb_n.jpg",
    "id_album": "779690680",
    "description": "Robot_917208",
    "title": "Robot_917208",
    "link_img": "https://live.staticflickr.com/65535/50040415156_c50e4ed898_o.jpg",
    "id_image": "Robot_917208",
    "count_view": 0
  },
  {
    "link_thumb": "https://live.staticflickr.com/65535/50040715203_334792ba40_n.jpg",
    "id_album": "-1587696329",
    "description": "Stars_457024",
    "title": "Stars_457024",
    "link_img": "https://live.staticflickr.com/65535/50040715203_734a3bc9cd_o.jpg",
    "id_image": "Stars_457024",
    "count_view": 0
  },
  {
    "link_thumb": "https://live.staticflickr.com/65535/50040696598_d196710b37_n.jpg",
    "id_album": "-1863373220",
    "description": "StarWars_980563",
    "title": "StarWars_980563",
    "link_img": "https://live.staticflickr.com/65535/50040696598_252e3600ec_o.jpg",
    "id_image": "StarWars_980563",
    "count_view": 0
  },
  {
    "link_thumb": "https://live.staticflickr.com/65535/50039627611_b6e86245df_n.jpg",
    "id_album": "1204249541",
    "description": "Galaxy_225945",
    "title": "Galaxy_225945",
    "link_img": "https://live.staticflickr.com/65535/50039627611_878b6deded_o.jpg",
    "id_image": "Galaxy_225945",
    "count_view": 0
  },
  {
    "link_thumb": "https://live.staticflickr.com/65535/50040670242_66e0a7aeb7_n.jpg",
    "id_album": "779690680",
    "description": "Robot_909550",
    "title": "Robot_909550",
    "link_img": "https://live.staticflickr.com/65535/50040670242_c7183a6df8_o.jpg",
    "id_image": "Robot_909550",
    "count_view": 0
  },
  {
    "link_thumb": "https://live.staticflickr.com/65535/50040393267_b5f7311272_n.jpg",
    "id_album": "-1102314093",
    "description": "Planets_708879",
    "title": "Planets_708879",
    "link_img": "https://live.staticflickr.com/65535/50040393267_0cac1f6c0f_o.jpg",
    "id_image": "Planets_708879",
    "count_view": 0
  },
  {
    "link_thumb": "https://live.staticflickr.com/65535/50039295718_035cfb1ac7_n.jpg",
    "id_album": "-1610342324",
    "description": "Nebula_864570",
    "title": "Nebula_864570",
    "link_img": "https://live.staticflickr.com/65535/50039295718_18b1f45c9a_o.jpg",
    "id_image": "Nebula_864570",
    "count_view": 0
  },
  {
    "link_thumb": "https://live.staticflickr.com/65535/50039753546_6417e682a1_n.jpg",
    "id_album": "416351698",
    "description": "Moon_177576",
    "title": "Moon_177576",
    "link_img": "https://live.staticflickr.com/65535/50039753546_c3ed6aaedf_o.jpg",
    "id_image": "Moon_177576",
    "count_view": 0
  },
  {
    "link_thumb": "https://live.staticflickr.com/65535/50039512691_d05eafa97d_n.jpg",
    "id_album": "-1964113117",
    "description": "City_884373",
    "title": "City_884373",
    "link_img": "https://live.staticflickr.com/65535/50039512691_d35fd2bf82_o.jpg",
    "id_image": "City_884373",
    "count_view": 0
  },
  {
    "link_thumb": "https://live.staticflickr.com/65535/50038699558_3841090b75_n.jpg",
    "id_album": "849020728",
    "description": "Alien_155208",
    "title": "Alien_155208",
    "link_img": "https://live.staticflickr.com/65535/50038699558_ebd22c481f_o.jpg",
    "id_image": "Alien_155208",
    "count_view": 0
  },
  {
    "link_thumb": "https://live.staticflickr.com/65535/50038719408_c996e970fa_n.jpg",
    "id_album": "849020728",
    "description": "Alien_482025",
    "title": "Alien_482025",
    "link_img": "https://live.staticflickr.com/65535/50038719408_1b293df4d7_o.jpg",
    "id_image": "Alien_482025",
    "count_view": 0
  },
  {
    "link_thumb": "https://live.staticflickr.com/65535/50040087357_9d3438747f_n.jpg",
    "id_album": "-1610342324",
    "description": "Nebula_702855",
    "title": "Nebula_702855",
    "link_img": "https://live.staticflickr.com/65535/50040087357_087383030c_o.jpg",
    "id_image": "Nebula_702855",
    "count_view": 0
  },
  {
    "link_thumb": "https://live.staticflickr.com/65535/50039683503_13776077eb_n.jpg",
    "id_album": "-482547208",
    "description": "PostApocalyptic_977112",
    "title": "PostApocalyptic_977112",
    "link_img": "https://live.staticflickr.com/65535/50039683503_baa35c4ec0_o.jpg",
    "id_image": "PostApocalyptic_977112",
    "count_view": 0
  },
  {
    "link_thumb": "https://live.staticflickr.com/65535/50039687552_ed07c947d4_n.jpg",
    "id_album": "406431601",
    "description": "Building_873147",
    "title": "Building_873147",
    "link_img": "https://live.staticflickr.com/65535/50039687552_41047c2368_o.jpg",
    "id_image": "Building_873147",
    "count_view": 0
  },
  {
    "link_thumb": "https://live.staticflickr.com/65535/50039413876_1cfa99f95c_n.jpg",
    "id_album": "-1780971522",
    "description": "Biohazard_371301",
    "title": "Biohazard_371301",
    "link_img": "https://live.staticflickr.com/65535/50039413876_976b6d1b34_o.jpg",
    "id_image": "Biohazard_371301",
    "count_view": 0
  },
  {
    "link_thumb": "https://live.staticflickr.com/65535/50041002208_5e98d4a6e6_n.jpg",
    "id_album": "-1675918237",
    "description": "WomenWarrior_152278",
    "title": "WomenWarrior_152278",
    "link_img": "https://live.staticflickr.com/65535/50041002208_4f0d182df0_o.jpg",
    "id_image": "WomenWarrior_152278",
    "count_view": 0
  },
  {
    "link_thumb": "https://live.staticflickr.com/65535/50039466846_5d02bb58cf_n.jpg",
    "id_album": "-1964113117",
    "description": "City_382242",
    "title": "City_382242",
    "link_img": "https://live.staticflickr.com/65535/50039466846_8d7be91220_o.jpg",
    "id_image": "City_382242",
    "count_view": 0
  },
  {
    "link_thumb": "https://live.staticflickr.com/65535/50039994677_0af103918c_n.jpg",
    "id_album": "-1388385651",
    "description": "MilkyWay_308365",
    "title": "MilkyWay_308365",
    "link_img": "https://live.staticflickr.com/65535/50039994677_4912721877_o.jpg",
    "id_image": "MilkyWay_308365",
    "count_view": 0
  },
  {
    "link_thumb": "https://live.staticflickr.com/65535/50039251316_b697f4c5f9_n.jpg",
    "id_album": "849020728",
    "description": "Alien_187019",
    "title": "Alien_187019",
    "link_img": "https://live.staticflickr.com/65535/50039251316_abbba787cc_o.jpg",
    "id_image": "Alien_187019",
    "count_view": 0
  },
  {
    "link_thumb": "https://live.staticflickr.com/65535/50039869998_b42f714dc2_n.jpg",
    "id_album": "779690680",
    "description": "Robot_928585",
    "title": "Robot_928585",
    "link_img": "https://live.staticflickr.com/65535/50039869998_5a8bdb883f_o.jpg",
    "id_image": "Robot_928585",
    "count_view": 0
  },
  {
    "link_thumb": "https://live.staticflickr.com/65535/50040284303_a92fb152d8_n.jpg",
    "id_album": "-1449720967",
    "description": "StarTrek_327165",
    "title": "StarTrek_327165",
    "link_img": "https://live.staticflickr.com/65535/50040284303_a55d586106_o.jpg",
    "id_image": "StarTrek_327165",
    "count_view": 0
  },
  {
    "link_thumb": "https://live.staticflickr.com/65535/50039100058_eb956c3c88_n.jpg",
    "id_album": "1204249541",
    "description": "Galaxy_607095",
    "title": "Galaxy_607095",
    "link_img": "https://live.staticflickr.com/65535/50039100058_0bcc2d5fd1_o.jpg",
    "id_image": "Galaxy_607095",
    "count_view": 0
  },
  {
    "link_thumb": "https://live.staticflickr.com/65535/50040191016_732a15bdcf_n.jpg",
    "id_album": "-482547208",
    "description": "PostApocalyptic_157308",
    "title": "PostApocalyptic_157308",
    "link_img": "https://live.staticflickr.com/65535/50040191016_a9f085f483_o.jpg",
    "id_image": "PostApocalyptic_157308",
    "count_view": 0
  },
  {
    "link_thumb": "https://live.staticflickr.com/65535/50039159053_b339d649f2_n.jpg",
    "id_album": "1402713104",
    "description": "Landscape_80660",
    "title": "Landscape_80660",
    "link_img": "https://live.staticflickr.com/65535/50039159053_3302981f3f_o.jpg",
    "id_image": "Landscape_80660",
    "count_view": 0
  },
  {
    "link_thumb": "https://live.staticflickr.com/65535/50041196911_0cdfc2cf81_n.jpg",
    "id_album": "-1863373220",
    "description": "StarWars_584833",
    "title": "StarWars_584833",
    "link_img": "https://live.staticflickr.com/65535/50041196911_628197da34_o.jpg",
    "id_image": "StarWars_584833",
    "count_view": 0
  },
  {
    "link_thumb": "https://live.staticflickr.com/65535/50040176602_263716400b_n.jpg",
    "id_album": "395161030",
    "description": "Planet_182569",
    "title": "Planet_182569",
    "link_img": "https://live.staticflickr.com/65535/50040176602_27322675b3_o.jpg",
    "id_image": "Planet_182569",
    "count_view": 0
  },
  {
    "link_thumb": "https://live.staticflickr.com/65535/50039294133_5e97a0bae9_n.jpg",
    "id_album": "-1610342324",
    "description": "Nebula_843076",
    "title": "Nebula_843076",
    "link_img": "https://live.staticflickr.com/65535/50039294133_f2a894e390_o.jpg",
    "id_image": "Nebula_843076",
    "count_view": 0
  },
  {
    "link_thumb": "https://live.staticflickr.com/65535/50041417716_306a5c73bb_n.jpg",
    "id_album": "2020068132",
    "description": "Vehicle_883354",
    "title": "Vehicle_883354",
    "link_img": "https://live.staticflickr.com/65535/50041417716_5fe9f098d1_o.jpg",
    "id_image": "Vehicle_883354",
    "count_view": 0
  },
  {
    "link_thumb": "https://live.staticflickr.com/65535/50039837656_e4aa0f975e_n.jpg",
    "id_album": "-1610342324",
    "description": "Nebula_792649",
    "title": "Nebula_792649",
    "link_img": "https://live.staticflickr.com/65535/50039837656_5fa5819399_o.jpg",
    "id_image": "Nebula_792649",
    "count_view": 0
  },
  {
    "link_thumb": "https://live.staticflickr.com/65535/50041629317_f5ae289678_n.jpg",
    "id_album": "-1177476763",
    "description": "Sunrise_464101",
    "title": "Sunrise_464101",
    "link_img": "https://live.staticflickr.com/65535/50041629317_4aac5c40f0_o.jpg",
    "id_image": "Sunrise_464101",
    "count_view": 0
  },
  {
    "link_thumb": "https://live.staticflickr.com/65535/50040507156_1cd05fd48a_n.jpg",
    "id_album": "1613540653",
    "description": "Space_438211",
    "title": "Space_438211",
    "link_img": "https://live.staticflickr.com/65535/50040507156_723a4a265c_o.jpg",
    "id_image": "Space_438211",
    "count_view": 0
  },
  {
    "link_thumb": "https://live.staticflickr.com/65535/50038823588_547b890969_n.jpg",
    "id_album": "869545341",
    "description": "Astronaut_857741",
    "title": "Astronaut_857741",
    "link_img": "https://live.staticflickr.com/65535/50038823588_42592b09b1_o.jpg",
    "id_image": "Astronaut_857741",
    "count_view": 0
  },
  {
    "link_thumb": "https://live.staticflickr.com/65535/50040225046_bd147899e6_n.jpg",
    "id_album": "-482547208",
    "description": "PostApocalyptic_794903",
    "title": "PostApocalyptic_794903",
    "link_img": "https://live.staticflickr.com/65535/50040225046_59916547e8_o.jpg",
    "id_image": "PostApocalyptic_794903",
    "count_view": 0
  },
  {
    "link_thumb": "https://live.staticflickr.com/65535/50039703168_05333d16ba_n.jpg",
    "id_album": "779690680",
    "description": "Robot_153445",
    "title": "Robot_153445",
    "link_img": "https://live.staticflickr.com/65535/50039703168_1a309fcf98_o.jpg",
    "id_image": "Robot_153445",
    "count_view": 0
  },
  {
    "link_thumb": "https://live.staticflickr.com/65535/50040033542_b1fa33ed44_n.jpg",
    "id_album": "-1610342324",
    "description": "Nebula_210500",
    "title": "Nebula_210500",
    "link_img": "https://live.staticflickr.com/65535/50040033542_c012560e1d_o.jpg",
    "id_image": "Nebula_210500",
    "count_view": 0
  },
  {
    "link_thumb": "https://live.staticflickr.com/65535/50040066152_58229be646_n.jpg",
    "id_album": "-1610342324",
    "description": "Nebula_505516",
    "title": "Nebula_505516",
    "link_img": "https://live.staticflickr.com/65535/50040066152_914ba7d824_o.jpg",
    "id_image": "Nebula_505516",
    "count_view": 0
  },
  {
    "link_thumb": "https://live.staticflickr.com/65535/50040699392_91c4e3c18b_n.jpg",
    "id_album": "779690680",
    "description": "Robot_940954",
    "title": "Robot_940954",
    "link_img": "https://live.staticflickr.com/65535/50040699392_2d734af1a7_o.jpg",
    "id_image": "Robot_940954",
    "count_view": 0
  },
  {
    "link_thumb": "https://live.staticflickr.com/65535/50040099126_708e2924c3_n.jpg",
    "id_album": "-1102314093",
    "description": "Planets_363080",
    "title": "Planets_363080",
    "link_img": "https://live.staticflickr.com/65535/50040099126_dbe7436f6c_o.jpg",
    "id_image": "Planets_363080",
    "count_view": 0
  },
  {
    "link_thumb": "https://live.staticflickr.com/65535/50039989788_f922d1e884_n.jpg",
    "id_album": "1613540653",
    "description": "Space_822481",
    "title": "Space_822481",
    "link_img": "https://live.staticflickr.com/65535/50039989788_f0700fea1e_o.jpg",
    "id_image": "Space_822481",
    "count_view": 0
  },
  {
    "link_thumb": "https://live.staticflickr.com/65535/50040678167_2454d196c7_n.jpg",
    "id_album": "779690680",
    "description": "Robot_915580",
    "title": "Robot_915580",
    "link_img": "https://live.staticflickr.com/65535/50040678167_87f81c20f2_o.jpg",
    "id_image": "Robot_915580",
    "count_view": 0
  },
  {
    "link_thumb": "https://live.staticflickr.com/65535/50039574312_ab925016de_n.jpg",
    "id_album": "523598895",
    "description": "Artistic_206213",
    "title": "Artistic_206213",
    "link_img": "https://live.staticflickr.com/65535/50039574312_b68c5c4c7f_o.jpg",
    "id_image": "Artistic_206213",
    "count_view": 0
  },
  {
    "link_thumb": "https://live.staticflickr.com/65535/50039106738_f97c4fb2c0_n.jpg",
    "id_album": "1204249541",
    "description": "Galaxy_921904",
    "title": "Galaxy_921904",
    "link_img": "https://live.staticflickr.com/65535/50039106738_7e5f6903a3_o.jpg",
    "id_image": "Galaxy_921904",
    "count_view": 0
  },
  {
    "link_thumb": "https://live.staticflickr.com/65535/50040817888_2639998c75_n.jpg",
    "id_album": "2020068132",
    "description": "Vehicle_118042",
    "title": "Vehicle_118042",
    "link_img": "https://live.staticflickr.com/65535/50040817888_4454d8f6ae_o.jpg",
    "id_image": "Vehicle_118042",
    "count_view": 0
  },
  {
    "link_thumb": "https://live.staticflickr.com/65535/50040164797_c99fe2de83_n.jpg",
    "id_album": "395161030",
    "description": "Planet_1004883",
    "title": "Planet_1004883",
    "link_img": "https://live.staticflickr.com/65535/50040164797_eee4f66aa2_o.jpg",
    "id_image": "Planet_1004883",
    "count_view": 0
  },
  {
    "link_thumb": "https://live.staticflickr.com/65535/50039635746_eafc1c1558_n.jpg",
    "id_album": "1204249541",
    "description": "Galaxy_441064",
    "title": "Galaxy_441064",
    "link_img": "https://live.staticflickr.com/65535/50039635746_c28c226a6a_o.jpg",
    "id_image": "Galaxy_441064",
    "count_view": 0
  },
  {
    "link_thumb": "https://live.staticflickr.com/65535/50040741487_d70e318d38_n.jpg",
    "id_album": "1613540653",
    "description": "Space_192893",
    "title": "Space_192893",
    "link_img": "https://live.staticflickr.com/65535/50040741487_e93591f548_o.jpg",
    "id_image": "Space_192893",
    "count_view": 0
  },
  {
    "link_thumb": "https://live.staticflickr.com/65535/50041554092_27c3cd6730_n.jpg",
    "id_album": "1267121215",
    "description": "Steampunk_184480",
    "title": "Steampunk_184480",
    "link_img": "https://live.staticflickr.com/65535/50041554092_1f9d033136_o.jpg",
    "id_image": "Steampunk_184480",
    "count_view": 0
  },
  {
    "link_thumb": "https://live.staticflickr.com/65535/50039938007_5dbff39c0f_n.jpg",
    "id_album": "1402713104",
    "description": "Landscape_314143",
    "title": "Landscape_314143",
    "link_img": "https://live.staticflickr.com/65535/50039938007_46857b28db_o.jpg",
    "id_image": "Landscape_314143",
    "count_view": 0
  },
  {
    "link_thumb": "https://live.staticflickr.com/65535/50041217966_01dd46151b_n.jpg",
    "id_album": "-1863373220",
    "description": "StarWars_711088",
    "title": "StarWars_711088",
    "link_img": "https://live.staticflickr.com/65535/50041217966_10b209133b_o.jpg",
    "id_image": "StarWars_711088",
    "count_view": 0
  },
  {
    "link_thumb": "https://live.staticflickr.com/65535/50038688558_5fab51a413_n.jpg",
    "id_album": "-406145265",
    "description": "Aircraft_269313",
    "title": "Aircraft_269313",
    "link_img": "https://live.staticflickr.com/65535/50038688558_b0b0dd0107_o.jpg",
    "id_image": "Aircraft_269313",
    "count_view": 0
  },
  {
    "link_thumb": "https://live.staticflickr.com/65535/50038728568_ae39649ff0_n.jpg",
    "id_album": "849020728",
    "description": "Alien_910952",
    "title": "Alien_910952",
    "link_img": "https://live.staticflickr.com/65535/50038728568_c1a2d3038d_o.jpg",
    "id_image": "Alien_910952",
    "count_view": 0
  },
  {
    "link_thumb": "https://live.staticflickr.com/65535/50039393996_2cc5d2490b_n.jpg",
    "id_album": "1187037014",
    "description": "Battle_152686",
    "title": "Battle_152686",
    "link_img": "https://live.staticflickr.com/65535/50039393996_1d409ebb37_o.jpg",
    "id_image": "Battle_152686",
    "count_view": 0
  },
  {
    "link_thumb": "https://live.staticflickr.com/65535/50039912652_4c511c8038_n.jpg",
    "id_album": "1204249541",
    "description": "Galaxy_608333",
    "title": "Galaxy_608333",
    "link_img": "https://live.staticflickr.com/65535/50039912652_3a9405acc2_o.jpg",
    "id_image": "Galaxy_608333",
    "count_view": 0
  },
  {
    "link_thumb": "https://live.staticflickr.com/65535/50040238816_74b6576306_n.jpg",
    "id_album": "-839602625",
    "description": "Predator_27651",
    "title": "Predator_27651",
    "link_img": "https://live.staticflickr.com/65535/50040238816_36fc3fce1d_o.jpg",
    "id_image": "Predator_27651",
    "count_view": 0
  },
  {
    "link_thumb": "https://live.staticflickr.com/65535/50040121692_be4e62fef4_n.jpg",
    "id_album": "-1610342324",
    "description": "Nebula_957879",
    "title": "Nebula_957879",
    "link_img": "https://live.staticflickr.com/65535/50040121692_c1ea33f56d_o.jpg",
    "id_image": "Nebula_957879",
    "count_view": 0
  },
  {
    "link_thumb": "https://live.staticflickr.com/65535/50039994417_feb75076c0_n.jpg",
    "id_album": "-1388385651",
    "description": "MilkyWay_153318",
    "title": "MilkyWay_153318",
    "link_img": "https://live.staticflickr.com/65535/50039994417_0033894f23_o.jpg",
    "id_image": "MilkyWay_153318",
    "count_view": 0
  },
  {
    "link_thumb": "https://live.staticflickr.com/65535/50038767243_141f34b2a3_n.jpg",
    "id_album": "523598895",
    "description": "Artistic_214924",
    "title": "Artistic_214924",
    "link_img": "https://live.staticflickr.com/65535/50038767243_84459953db_o.jpg",
    "id_image": "Artistic_214924",
    "count_view": 0
  },
  {
    "link_thumb": "https://live.staticflickr.com/65535/50040451191_f48591f7ba_n.jpg",
    "id_album": "779690680",
    "description": "Robot_964437",
    "title": "Robot_964437",
    "link_img": "https://live.staticflickr.com/65535/50040451191_b4d9998f71_o.jpg",
    "id_image": "Robot_964437",
    "count_view": 0
  },
  {
    "link_thumb": "https://live.staticflickr.com/65535/50040627751_1606c3d360_n.jpg",
    "id_album": "2130067313",
    "description": "Spaceship_286775",
    "title": "Spaceship_286775",
    "link_img": "https://live.staticflickr.com/65535/50040627751_b08d5770e7_o.jpg",
    "id_image": "Spaceship_286775",
    "count_view": 0
  },
  {
    "link_thumb": "https://live.staticflickr.com/65535/50039256508_79d6285497_n.jpg",
    "id_album": "-1610342324",
    "description": "Nebula_544016",
    "title": "Nebula_544016",
    "link_img": "https://live.staticflickr.com/65535/50039256508_478eae3335_o.jpg",
    "id_image": "Nebula_544016",
    "count_view": 0
  },
  {
    "link_thumb": "https://live.staticflickr.com/65535/50040656263_39c431d137_n.jpg",
    "id_album": "-1863373220",
    "description": "StarWars_669720",
    "title": "StarWars_669720",
    "link_img": "https://live.staticflickr.com/65535/50040656263_8eb4ba5060_o.jpg",
    "id_image": "StarWars_669720",
    "count_view": 0
  },
  {
    "link_thumb": "https://live.staticflickr.com/65535/50039355338_cb43afdc57_n.jpg",
    "id_album": "395161030",
    "description": "Planet_129689",
    "title": "Planet_129689",
    "link_img": "https://live.staticflickr.com/65535/50039355338_3b207e4c69_o.jpg",
    "id_image": "Planet_129689",
    "count_view": 0
  },
  {
    "link_thumb": "https://live.staticflickr.com/65535/50040280222_bdfb188618_n.jpg",
    "id_album": "1443611160",
    "description": "PlanetRise_951499",
    "title": "PlanetRise_951499",
    "link_img": "https://live.staticflickr.com/65535/50040280222_9c74659fb6_o.jpg",
    "id_image": "PlanetRise_951499",
    "count_view": 0
  },
  {
    "link_thumb": "https://live.staticflickr.com/65535/50038731898_98db688388_n.jpg",
    "id_album": "-419633230",
    "description": "Apocalyptic_175390",
    "title": "Apocalyptic_175390",
    "link_img": "https://live.staticflickr.com/65535/50038731898_8bd51d7488_o.jpg",
    "id_image": "Apocalyptic_175390",
    "count_view": 0
  },
  {
    "link_thumb": "https://live.staticflickr.com/65535/50038931213_81fc6acdb1_n.jpg",
    "id_album": "-1964113117",
    "description": "City_573552",
    "title": "City_573552",
    "link_img": "https://live.staticflickr.com/65535/50038931213_75689472a6_o.jpg",
    "id_image": "City_573552",
    "count_view": 0
  },
  {
    "link_thumb": "https://live.staticflickr.com/65535/50039683917_bd3a02ee5d_n.jpg",
    "id_album": "406431601",
    "description": "Building_344266",
    "title": "Building_344266",
    "link_img": "https://live.staticflickr.com/65535/50039683917_9bb148289b_o.jpg",
    "id_image": "Building_344266",
    "count_view": 0
  },
  {
    "link_thumb": "https://live.staticflickr.com/65535/50040298947_6bfb3b0494_n.jpg",
    "id_album": "814701616",
    "description": "PlanetaryRing_514552",
    "title": "PlanetaryRing_514552",
    "link_img": "https://live.staticflickr.com/65535/50040298947_e0d0d78fb2_o.jpg",
    "id_image": "PlanetaryRing_514552",
    "count_view": 0
  },
  {
    "link_thumb": "https://live.staticflickr.com/65535/50038963063_308171d183_n.jpg",
    "id_album": "-1964113117",
    "description": "City_878302",
    "title": "City_878302",
    "link_img": "https://live.staticflickr.com/65535/50038963063_9f00e507d5_o.jpg",
    "id_image": "City_878302",
    "count_view": 0
  },
  {
    "link_thumb": "https://live.staticflickr.com/65535/50039892393_1d6b366433_n.jpg",
    "id_album": "779690680",
    "description": "Robot_959169",
    "title": "Robot_959169",
    "link_img": "https://live.staticflickr.com/65535/50039892393_69cd244856_o.jpg",
    "id_image": "Robot_959169",
    "count_view": 0
  },
  {
    "link_thumb": "https://live.staticflickr.com/65535/50041700552_815a0f6826_n.jpg",
    "id_album": "-1261420436",
    "description": "Warrior_238424",
    "title": "Warrior_238424",
    "link_img": "https://live.staticflickr.com/65535/50041700552_cf751f55bb_o.jpg",
    "id_image": "Warrior_238424",
    "count_view": 0
  },
  {
    "link_thumb": "https://live.staticflickr.com/65535/50039216113_f3c52dfa02_n.jpg",
    "id_album": "-1610342324",
    "description": "Nebula_179735",
    "title": "Nebula_179735",
    "link_img": "https://live.staticflickr.com/65535/50039216113_e07000b150_o.jpg",
    "id_image": "Nebula_179735",
    "count_view": 0
  },
  {
    "link_thumb": "https://live.staticflickr.com/65535/50039857658_93a43e64a8_n.jpg",
    "id_album": "779690680",
    "description": "Robot_914418",
    "title": "Robot_914418",
    "link_img": "https://live.staticflickr.com/65535/50039857658_33a1bef088_o.jpg",
    "id_image": "Robot_914418",
    "count_view": 0
  },
  {
    "link_thumb": "https://live.staticflickr.com/65535/50041275236_4915b67719_n.jpg",
    "id_album": "-1587696329",
    "description": "Stars_548436",
    "title": "Stars_548436",
    "link_img": "https://live.staticflickr.com/65535/50041275236_b4b60f4916_o.jpg",
    "id_image": "Stars_548436",
    "count_view": 0
  },
  {
    "link_thumb": "https://live.staticflickr.com/65535/50040298001_7cf81c54e2_n.jpg",
    "id_album": "779690680",
    "description": "Robot_375790",
    "title": "Robot_375790",
    "link_img": "https://live.staticflickr.com/65535/50040298001_6f69a2eb31_o.jpg",
    "id_image": "Robot_375790",
    "count_view": 0
  },
  {
    "link_thumb": "https://live.staticflickr.com/65535/50040325082_8f058fa292_n.jpg",
    "id_album": "-1102314093",
    "description": "Planets_222333",
    "title": "Planets_222333",
    "link_img": "https://live.staticflickr.com/65535/50040325082_2563d53b63_o.jpg",
    "id_image": "Planets_222333",
    "count_view": 0
  },
  {
    "link_thumb": "https://live.staticflickr.com/65535/50041297751_95e5ffc1fd_n.jpg",
    "id_album": "1267121215",
    "description": "Steampunk_190593",
    "title": "Steampunk_190593",
    "link_img": "https://live.staticflickr.com/65535/50041297751_a700c86c2a_o.jpg",
    "id_image": "Steampunk_190593",
    "count_view": 0
  },
  {
    "link_thumb": "https://live.staticflickr.com/65535/50040416802_b19915cb50_n.jpg",
    "id_album": "376235057",
    "description": "Planetscape_1009887",
    "title": "Planetscape_1009887",
    "link_img": "https://live.staticflickr.com/65535/50040416802_48018e620b_o.jpg",
    "id_image": "Planetscape_1009887",
    "count_view": 0
  },
  {
    "link_thumb": "https://live.staticflickr.com/65535/50040545467_9f3fe0a46e_n.jpg",
    "id_album": "779690680",
    "description": "Robot_283424",
    "title": "Robot_283424",
    "link_img": "https://live.staticflickr.com/65535/50040545467_6d66a0518f_o.jpg",
    "id_image": "Robot_283424",
    "count_view": 0
  },
  {
    "link_thumb": "https://live.staticflickr.com/65535/50040364732_3de065b040_n.jpg",
    "id_album": "-1102314093",
    "description": "Planets_364385",
    "title": "Planets_364385",
    "link_img": "https://live.staticflickr.com/65535/50040364732_ce7bc45fae_o.jpg",
    "id_image": "Planets_364385",
    "count_view": 0
  },
  {
    "link_thumb": "https://live.staticflickr.com/65535/50039932193_8864912259_n.jpg",
    "id_album": "1613540653",
    "description": "Space_286946",
    "title": "Space_286946",
    "link_img": "https://live.staticflickr.com/65535/50039932193_e837491b76_o.jpg",
    "id_image": "Space_286946",
    "count_view": 0
  },
  {
    "link_thumb": "https://live.staticflickr.com/65535/50039678456_58254897a2_n.jpg",
    "id_album": "1402713104",
    "description": "Landscape_331034",
    "title": "Landscape_331034",
    "link_img": "https://live.staticflickr.com/65535/50039678456_e98c5339d8_o.jpg",
    "id_image": "Landscape_331034",
    "count_view": 0
  },
  {
    "link_thumb": "https://live.staticflickr.com/65535/50040650897_f8473343d1_n.jpg",
    "id_album": "779690680",
    "description": "Robot_875302",
    "title": "Robot_875302",
    "link_img": "https://live.staticflickr.com/65535/50040650897_4418f00c2c_o.jpg",
    "id_image": "Robot_875302",
    "count_view": 0
  },
  {
    "link_thumb": "https://live.staticflickr.com/65535/50039752581_b10a63cba1_n.jpg",
    "id_album": "-1388385651",
    "description": "MilkyWay_928833",
    "title": "MilkyWay_928833",
    "link_img": "https://live.staticflickr.com/65535/50039752581_e611a49e0f_o.jpg",
    "id_image": "MilkyWay_928833",
    "count_view": 0
  },
  {
    "link_thumb": "https://live.staticflickr.com/65535/50039834361_3f8ea82b2e_n.jpg",
    "id_album": "-1610342324",
    "description": "Nebula_772695",
    "title": "Nebula_772695",
    "link_img": "https://live.staticflickr.com/65535/50039834361_b2a6855abc_o.jpg",
    "id_image": "Nebula_772695",
    "count_view": 0
  },
  {
    "link_thumb": "https://live.staticflickr.com/65535/50039899107_2a471c957d_n.jpg",
    "id_album": "1204249541",
    "description": "Galaxy_453073",
    "title": "Galaxy_453073",
    "link_img": "https://live.staticflickr.com/65535/50039899107_eb8cde141e_o.jpg",
    "id_image": "Galaxy_453073",
    "count_view": 0
  },
  {
    "link_thumb": "https://live.staticflickr.com/65535/50040115386_f63a693e41_n.jpg",
    "id_album": "-1102314093",
    "description": "Planets_436890",
    "title": "Planets_436890",
    "link_img": "https://live.staticflickr.com/65535/50040115386_bb2d8554ea_o.jpg",
    "id_image": "Planets_436890",
    "count_view": 0
  },
  {
    "link_thumb": "https://live.staticflickr.com/65535/50040530471_e0d531acaa_n.jpg",
    "id_album": "1613540653",
    "description": "Space_694467",
    "title": "Space_694467",
    "link_img": "https://live.staticflickr.com/65535/50040530471_4a1440dbea_o.jpg",
    "id_image": "Space_694467",
    "count_view": 0
  },
  {
    "link_thumb": "https://live.staticflickr.com/65535/50039763967_a3f17f2859_n.jpg",
    "id_album": "-1964113117",
    "description": "City_856858",
    "title": "City_856858",
    "link_img": "https://live.staticflickr.com/65535/50039763967_1bcb7146a6_o.jpg",
    "id_image": "City_856858",
    "count_view": 0
  },
  {
    "link_thumb": "https://live.staticflickr.com/65535/50040211761_be9b44e981_n.jpg",
    "id_album": "-482547208",
    "description": "PostApocalyptic_51666",
    "title": "PostApocalyptic_51666",
    "link_img": "https://live.staticflickr.com/65535/50040211761_841e4e442b_o.jpg",
    "id_image": "PostApocalyptic_51666",
    "count_view": 0
  },
  {
    "link_thumb": "https://live.staticflickr.com/65535/50040002151_4a15fd6d51_n.jpg",
    "id_album": "1443611160",
    "description": "PlanetRise_337274",
    "title": "PlanetRise_337274",
    "link_img": "https://live.staticflickr.com/65535/50040002151_792d5328b3_o.jpg",
    "id_image": "PlanetRise_337274",
    "count_view": 0
  },
  {
    "link_thumb": "https://live.staticflickr.com/65535/50039962562_d182dbf0da_n.jpg",
    "id_album": "1402713104",
    "description": "Landscape_677164",
    "title": "Landscape_677164",
    "link_img": "https://live.staticflickr.com/65535/50039962562_209e69b3f2_o.jpg",
    "id_image": "Landscape_677164",
    "count_view": 0
  },
  {
    "link_thumb": "https://live.staticflickr.com/65535/50039834971_9b290757ef_n.jpg",
    "id_album": "-1610342324",
    "description": "Nebula_77308",
    "title": "Nebula_77308",
    "link_img": "https://live.staticflickr.com/65535/50039834971_e2501c9372_o.jpg",
    "id_image": "Nebula_77308",
    "count_view": 0
  },
  {
    "link_thumb": "https://live.staticflickr.com/65535/50041325101_ac8d31aedb_n.jpg",
    "id_album": "1267121215",
    "description": "Steampunk_655447",
    "title": "Steampunk_655447",
    "link_img": "https://live.staticflickr.com/65535/50041325101_fbe50a6bb3_o.jpg",
    "id_image": "Steampunk_655447",
    "count_view": 0
  },
  {
    "link_thumb": "https://live.staticflickr.com/65535/50038749868_9708c2fe2e_n.jpg",
    "id_album": "523598895",
    "description": "Artistic_152413",
    "title": "Artistic_152413",
    "link_img": "https://live.staticflickr.com/65535/50038749868_b016d9757c_o.jpg",
    "id_image": "Artistic_152413",
    "count_view": 0
  },
  {
    "link_thumb": "https://live.staticflickr.com/65535/50041246411_f9bc4afb0a_n.jpg",
    "id_album": "-1863373220",
    "description": "StarWars_973298",
    "title": "StarWars_973298",
    "link_img": "https://live.staticflickr.com/65535/50041246411_f5e4dc9de7_o.jpg",
    "id_image": "StarWars_973298",
    "count_view": 0
  },
  {
    "link_thumb": "https://live.staticflickr.com/65535/50040432261_e60d0b39ec_n.jpg",
    "id_album": "779690680",
    "description": "Robot_936220",
    "title": "Robot_936220",
    "link_img": "https://live.staticflickr.com/65535/50040432261_f51f96eaa7_o.jpg",
    "id_image": "Robot_936220",
    "count_view": 0
  },
  {
    "link_thumb": "https://live.staticflickr.com/65535/50039543796_4be481e34b_n.jpg",
    "id_album": "894679094",
    "description": "Collision_78688",
    "title": "Collision_78688",
    "link_img": "https://live.staticflickr.com/65535/50039543796_a64ab81bcb_o.jpg",
    "id_image": "Collision_78688",
    "count_view": 0
  },
  {
    "link_thumb": "https://live.staticflickr.com/65535/50039566187_bb0cae0cfc_n.jpg",
    "id_album": "523598895",
    "description": "Artistic_175695",
    "title": "Artistic_175695",
    "link_img": "https://live.staticflickr.com/65535/50039566187_1d6a0962af_o.jpg",
    "id_image": "Artistic_175695",
    "count_view": 0
  },
  {
    "link_thumb": "https://live.staticflickr.com/65535/50038738103_2cf552aa28_n.jpg",
    "id_album": "-419633230",
    "description": "Apocalyptic_678101",
    "title": "Apocalyptic_678101",
    "link_img": "https://live.staticflickr.com/65535/50038738103_94aa5ba697_o.jpg",
    "id_image": "Apocalyptic_678101",
    "count_view": 0
  },
  {
    "link_thumb": "https://live.staticflickr.com/65535/50041390587_f7f91c66f4_n.jpg",
    "id_album": "-1863373220",
    "description": "StarWars_205601",
    "title": "StarWars_205601",
    "link_img": "https://live.staticflickr.com/65535/50041390587_bb11a95dfc_o.jpg",
    "id_image": "StarWars_205601",
    "count_view": 0
  },
  {
    "link_thumb": "https://live.staticflickr.com/65535/50039680917_acbe8ff7ec_n.jpg",
    "id_album": "-1780971522",
    "description": "Biohazard_57385",
    "title": "Biohazard_57385",
    "link_img": "https://live.staticflickr.com/65535/50039680917_286a5ae8fe_o.jpg",
    "id_image": "Biohazard_57385",
    "count_view": 0
  },
  {
    "link_thumb": "https://live.staticflickr.com/65535/50039626637_39ca6981a0_n.jpg",
    "id_album": "869545341",
    "description": "Astronaut_702076",
    "title": "Astronaut_702076",
    "link_img": "https://live.staticflickr.com/65535/50039626637_7a79a37ce9_o.jpg",
    "id_image": "Astronaut_702076",
    "count_view": 0
  },
  {
    "link_thumb": "https://live.staticflickr.com/65535/50039876968_18a57cd24a_n.jpg",
    "id_album": "779690680",
    "description": "Robot_934612",
    "title": "Robot_934612",
    "link_img": "https://live.staticflickr.com/65535/50039876968_d1bcfbda2c_o.jpg",
    "id_image": "Robot_934612",
    "count_view": 0
  },
  {
    "link_thumb": "https://live.staticflickr.com/65535/50040473282_e2d2af799c_n.jpg",
    "id_album": "-482547208",
    "description": "PostApocalyptic_359528",
    "title": "PostApocalyptic_359528",
    "link_img": "https://live.staticflickr.com/65535/50040473282_9356f44ac2_o.jpg",
    "id_image": "PostApocalyptic_359528",
    "count_view": 0
  },
  {
    "link_thumb": "https://live.staticflickr.com/65535/50039663242_eb7d862795_n.jpg",
    "id_album": "1187037014",
    "description": "Battle_304903",
    "title": "Battle_304903",
    "link_img": "https://live.staticflickr.com/65535/50039663242_4285e78999_o.jpg",
    "id_image": "Battle_304903",
    "count_view": 0
  },
  {
    "link_thumb": "https://live.staticflickr.com/65535/50040395091_f865f50c00_n.jpg",
    "id_album": "779690680",
    "description": "Robot_887980",
    "title": "Robot_887980",
    "link_img": "https://live.staticflickr.com/65535/50040395091_5458e30cea_o.jpg",
    "id_image": "Robot_887980",
    "count_view": 0
  },
  {
    "link_thumb": "https://live.staticflickr.com/65535/50040286291_8801fe2e2f_n.jpg",
    "id_album": "779690680",
    "description": "Robot_309938",
    "title": "Robot_309938",
    "link_img": "https://live.staticflickr.com/65535/50040286291_a716077d49_o.jpg",
    "id_image": "Robot_309938",
    "count_view": 0
  },
  {
    "link_thumb": "https://live.staticflickr.com/65535/50039717691_1584aea667_n.jpg",
    "id_album": "1402713104",
    "description": "Landscape_881834",
    "title": "Landscape_881834",
    "link_img": "https://live.staticflickr.com/65535/50039717691_0110ed1f92_o.jpg",
    "id_image": "Landscape_881834",
    "count_view": 0
  },
  {
    "link_thumb": "https://live.staticflickr.com/65535/50041589527_8f72bf6a05_n.jpg",
    "id_album": "1267121215",
    "description": "Steampunk_695773",
    "title": "Steampunk_695773",
    "link_img": "https://live.staticflickr.com/65535/50041589527_39e8be2f44_o.jpg",
    "id_image": "Steampunk_695773",
    "count_view": 0
  },
  {
    "link_thumb": "https://live.staticflickr.com/65535/50039598272_0b4d29ea31_n.jpg",
    "id_album": "523598895",
    "description": "Artistic_447890",
    "title": "Artistic_447890",
    "link_img": "https://live.staticflickr.com/65535/50039598272_2569fd55ce_o.jpg",
    "id_image": "Artistic_447890",
    "count_view": 0
  },
  {
    "link_thumb": "https://live.staticflickr.com/65535/50039812338_90b23430ed_n.jpg",
    "id_album": "779690680",
    "description": "Robot_763233",
    "title": "Robot_763233",
    "link_img": "https://live.staticflickr.com/65535/50039812338_0538a5e033_o.jpg",
    "id_image": "Robot_763233",
    "count_view": 0
  },
  {
    "link_thumb": "https://live.staticflickr.com/65535/50041542851_41a031f902_n.jpg",
    "id_album": "-1126835654",
    "description": "Women_615461",
    "title": "Women_615461",
    "link_img": "https://live.staticflickr.com/65535/50041542851_12ab918f9c_o.jpg",
    "id_image": "Women_615461",
    "count_view": 0
  },
  {
    "link_thumb": "https://live.staticflickr.com/65535/50039928601_cf909eaae5_n.jpg",
    "id_album": "395161030",
    "description": "Planet_330177",
    "title": "Planet_330177",
    "link_img": "https://live.staticflickr.com/65535/50039928601_50a02232be_o.jpg",
    "id_image": "Planet_330177",
    "count_view": 0
  },
  {
    "link_thumb": "https://live.staticflickr.com/65535/50039071333_d017f84a0e_n.jpg",
    "id_album": "2104507156",
    "description": "Fantasy_316509",
    "title": "Fantasy_316509",
    "link_img": "https://live.staticflickr.com/65535/50039071333_d23a805d76_o.jpg",
    "id_image": "Fantasy_316509",
    "count_view": 0
  },
  {
    "link_thumb": "https://live.staticflickr.com/65535/50040752742_a04cbb89b2_n.jpg",
    "id_album": "1613540653",
    "description": "Space_287004",
    "title": "Space_287004",
    "link_img": "https://live.staticflickr.com/65535/50040752742_92ae3d72b1_o.jpg",
    "id_image": "Space_287004",
    "count_view": 0
  },
  {
    "link_thumb": "https://live.staticflickr.com/65535/50039924767_8931af4167_n.jpg",
    "id_album": "1402713104",
    "description": "Landscape_159470",
    "title": "Landscape_159470",
    "link_img": "https://live.staticflickr.com/65535/50039924767_8a9d95535a_o.jpg",
    "id_image": "Landscape_159470",
    "count_view": 0
  },
  {
    "link_thumb": "https://live.staticflickr.com/65535/50040040542_1941e0d5b4_n.jpg",
    "id_album": "-1610342324",
    "description": "Nebula_252923",
    "title": "Nebula_252923",
    "link_img": "https://live.staticflickr.com/65535/50040040542_c29cf00e15_o.jpg",
    "id_image": "Nebula_252923",
    "count_view": 0
  },
  {
    "link_thumb": "https://live.staticflickr.com/65535/50038879778_018990a8ea_n.jpg",
    "id_album": "406431601",
    "description": "Building_958301",
    "title": "Building_958301",
    "link_img": "https://live.staticflickr.com/65535/50038879778_8ca1f51139_o.jpg",
    "id_image": "Building_958301",
    "count_view": 0
  },
  {
    "link_thumb": "https://live.staticflickr.com/65535/50039960677_2f119de046_n.jpg",
    "id_album": "1402713104",
    "description": "Landscape_641974",
    "title": "Landscape_641974",
    "link_img": "https://live.staticflickr.com/65535/50039960677_6cff6fc8d8_o.jpg",
    "id_image": "Landscape_641974",
    "count_view": 0
  },
  {
    "link_thumb": "https://live.staticflickr.com/65535/50040254846_306a980d24_n.jpg",
    "id_album": "779690680",
    "description": "Robot_146639",
    "title": "Robot_146639",
    "link_img": "https://live.staticflickr.com/65535/50040254846_749b8f1e88_o.jpg",
    "id_image": "Robot_146639",
    "count_view": 0
  },
  {
    "link_thumb": "https://live.staticflickr.com/65535/50039569558_36c895c848_n.jpg",
    "id_album": "-1102314093",
    "description": "Planets_511225",
    "title": "Planets_511225",
    "link_img": "https://live.staticflickr.com/65535/50039569558_79d4602b00_o.jpg",
    "id_image": "Planets_511225",
    "count_view": 0
  },
  {
    "link_thumb": "https://live.staticflickr.com/65535/50041573897_d351be8e93_n.jpg",
    "id_album": "1267121215",
    "description": "Steampunk_291142",
    "title": "Steampunk_291142",
    "link_img": "https://live.staticflickr.com/65535/50041573897_e8d93ab351_o.jpg",
    "id_image": "Steampunk_291142",
    "count_view": 0
  },
  {
    "link_thumb": "https://live.staticflickr.com/65535/50040846273_4d3319749f_n.jpg",
    "id_album": "2020068132",
    "description": "Vehicle_427318",
    "title": "Vehicle_427318",
    "link_img": "https://live.staticflickr.com/65535/50040846273_4ddc264315_o.jpg",
    "id_image": "Vehicle_427318",
    "count_view": 0
  },
  {
    "link_thumb": "https://live.staticflickr.com/65535/50039624873_98f4293153_n.jpg",
    "id_album": "376235057",
    "description": "Planetscape_531444",
    "title": "Planetscape_531444",
    "link_img": "https://live.staticflickr.com/65535/50039624873_48e2e179f1_o.jpg",
    "id_image": "Planetscape_531444",
    "count_view": 0
  },
  {
    "link_thumb": "https://live.staticflickr.com/65535/50040117033_4f9cae898b_n.jpg",
    "id_album": "2130067313",
    "description": "Spaceship_377029",
    "title": "Spaceship_377029",
    "link_img": "https://live.staticflickr.com/65535/50040117033_d37dee069b_o.jpg",
    "id_image": "Spaceship_377029",
    "count_view": 0
  },
  {
    "link_thumb": "https://live.staticflickr.com/65535/50040636288_a2b4c83ffa_n.jpg",
    "id_album": "-1863373220",
    "description": "StarWars_517138",
    "title": "StarWars_517138",
    "link_img": "https://live.staticflickr.com/65535/50040636288_10b35d50c4_o.jpg",
    "id_image": "StarWars_517138",
    "count_view": 0
  },
  {
    "link_thumb": "https://live.staticflickr.com/65535/50039531502_4008696eff_n.jpg",
    "id_album": "849020728",
    "description": "Alien_540795",
    "title": "Alien_540795",
    "link_img": "https://live.staticflickr.com/65535/50039531502_3e605133dd_o.jpg",
    "id_image": "Alien_540795",
    "count_view": 0
  },
  {
    "link_thumb": "https://live.staticflickr.com/65535/50038763823_fa7c7b53af_n.jpg",
    "id_album": "523598895",
    "description": "Artistic_203606",
    "title": "Artistic_203606",
    "link_img": "https://live.staticflickr.com/65535/50038763823_7cb2d9d2f9_o.jpg",
    "id_image": "Artistic_203606",
    "count_view": 0
  },
  {
    "link_thumb": "https://live.staticflickr.com/65535/50038906793_44291829a3_n.jpg",
    "id_album": "-1964113117",
    "description": "City_265068",
    "title": "City_265068",
    "link_img": "https://live.staticflickr.com/65535/50038906793_43b369d428_o.jpg",
    "id_image": "City_265068",
    "count_view": 0
  },
  {
    "link_thumb": "https://live.staticflickr.com/65535/50038862808_32f6d8b9a7_n.jpg",
    "id_album": "-1780971522",
    "description": "Biohazard_18630",
    "title": "Biohazard_18630",
    "link_img": "https://live.staticflickr.com/65535/50038862808_ea821355c8_o.jpg",
    "id_image": "Biohazard_18630",
    "count_view": 0
  },
  {
    "link_thumb": "https://live.staticflickr.com/65535/50040705223_3be11fa734_n.jpg",
    "id_album": "-1587696329",
    "description": "Stars_193004",
    "title": "Stars_193004",
    "link_img": "https://live.staticflickr.com/65535/50040705223_8074034397_o.jpg",
    "id_image": "Stars_193004",
    "count_view": 0
  },
  {
    "link_thumb": "https://live.staticflickr.com/65535/50039937943_1a07729414_n.jpg",
    "id_album": "1613540653",
    "description": "Space_324651",
    "title": "Space_324651",
    "link_img": "https://live.staticflickr.com/65535/50039937943_3d47690cc3_o.jpg",
    "id_image": "Space_324651",
    "count_view": 0
  },
  {
    "link_thumb": "https://live.staticflickr.com/65535/50038950193_80f9b744fd_n.jpg",
    "id_album": "-1964113117",
    "description": "City_806776",
    "title": "City_806776",
    "link_img": "https://live.staticflickr.com/65535/50038950193_1ec14bba7c_o.jpg",
    "id_image": "City_806776",
    "count_view": 0
  },
  {
    "link_thumb": "https://live.staticflickr.com/65535/50041436532_5fa4366a71_n.jpg",
    "id_album": "-1863373220",
    "description": "StarWars_382008",
    "title": "StarWars_382008",
    "link_img": "https://live.staticflickr.com/65535/50041436532_f0db220b66_o.jpg",
    "id_image": "StarWars_382008",
    "count_view": 0
  },
  {
    "link_thumb": "https://live.staticflickr.com/65535/50039652952_4d8fb09989_n.jpg",
    "id_album": "869545341",
    "description": "Astronaut_987715",
    "title": "Astronaut_987715",
    "link_img": "https://live.staticflickr.com/65535/50039652952_4d8426db51_o.jpg",
    "id_image": "Astronaut_987715",
    "count_view": 0
  },
  {
    "link_thumb": "https://live.staticflickr.com/65535/50039218103_d35c428187_n.jpg",
    "id_album": "-1610342324",
    "description": "Nebula_198230",
    "title": "Nebula_198230",
    "link_img": "https://live.staticflickr.com/65535/50039218103_6465e5b6c1_o.jpg",
    "id_image": "Nebula_198230",
    "count_view": 0
  },
  {
    "link_thumb": "https://live.staticflickr.com/65535/50039879332_677638388d_n.jpg",
    "id_album": "2104507156",
    "description": "Fantasy_162713",
    "title": "Fantasy_162713",
    "link_img": "https://live.staticflickr.com/65535/50039879332_9441f0ff7b_o.jpg",
    "id_image": "Fantasy_162713",
    "count_view": 0
  },
  {
    "link_thumb": "https://live.staticflickr.com/65535/50039489946_827f6934fe_n.jpg",
    "id_album": "-1964113117",
    "description": "City_701040",
    "title": "City_701040",
    "link_img": "https://live.staticflickr.com/65535/50039489946_01f16ee265_o.jpg",
    "id_image": "City_701040",
    "count_view": 0
  },
  {
    "link_thumb": "https://live.staticflickr.com/65535/50038812548_0bc4ea5655_n.jpg",
    "id_album": "869545341",
    "description": "Astronaut_602157",
    "title": "Astronaut_602157",
    "link_img": "https://live.staticflickr.com/65535/50038812548_e353cb0c45_o.jpg",
    "id_image": "Astronaut_602157",
    "count_view": 0
  },
  {
    "link_thumb": "https://live.staticflickr.com/65535/50041700912_d413469871_n.jpg",
    "id_album": "-1261420436",
    "description": "Warrior_248663",
    "title": "Warrior_248663",
    "link_img": "https://live.staticflickr.com/65535/50041700912_a924d4822c_o.jpg",
    "id_image": "Warrior_248663",
    "count_view": 0
  },
  {
    "link_thumb": "https://live.staticflickr.com/65535/50040085927_d654532440_n.jpg",
    "id_album": "-1610342324",
    "description": "Nebula_689583",
    "title": "Nebula_689583",
    "link_img": "https://live.staticflickr.com/65535/50040085927_271894aa9f_o.jpg",
    "id_image": "Nebula_689583",
    "count_view": 0
  },
  {
    "link_thumb": "https://live.staticflickr.com/65535/50041413836_d334e04a81_n.jpg",
    "id_album": "2020068132",
    "description": "Vehicle_749561",
    "title": "Vehicle_749561",
    "link_img": "https://live.staticflickr.com/65535/50041413836_28c0c1f2a6_o.jpg",
    "id_image": "Vehicle_749561",
    "count_view": 0
  },
  {
    "link_thumb": "https://live.staticflickr.com/65535/50040405616_aa499aca4a_n.jpg",
    "id_album": "779690680",
    "description": "Robot_909549",
    "title": "Robot_909549",
    "link_img": "https://live.staticflickr.com/65535/50040405616_863990d946_o.jpg",
    "id_image": "Robot_909549",
    "count_view": 0
  },
  {
    "link_thumb": "https://live.staticflickr.com/65535/50039421471_4bfd39ee46_n.jpg",
    "id_album": "406431601",
    "description": "Building_309918",
    "title": "Building_309918",
    "link_img": "https://live.staticflickr.com/65535/50039421471_ce450275c1_o.jpg",
    "id_image": "Building_309918",
    "count_view": 0
  },
  {
    "link_thumb": "https://live.staticflickr.com/65535/50039975098_6ca3b01679_n.jpg",
    "id_album": "1613540653",
    "description": "Space_694462",
    "title": "Space_694462",
    "link_img": "https://live.staticflickr.com/65535/50039975098_607277d088_o.jpg",
    "id_image": "Space_694462",
    "count_view": 0
  },
  {
    "link_thumb": "https://live.staticflickr.com/65535/50040890022_e09b7845a6_n.jpg",
    "id_album": "2130067313",
    "description": "Spaceship_284576",
    "title": "Spaceship_284576",
    "link_img": "https://live.staticflickr.com/65535/50040890022_31c67c1b8d_o.jpg",
    "id_image": "Spaceship_284576",
    "count_view": 0
  },
  {
    "link_thumb": "https://live.staticflickr.com/65535/50039375571_dc324bf557_n.jpg",
    "id_album": "869545341",
    "description": "Astronaut_884352",
    "title": "Astronaut_884352",
    "link_img": "https://live.staticflickr.com/65535/50039375571_247f626198_o.jpg",
    "id_image": "Astronaut_884352",
    "count_view": 0
  },
  {
    "link_thumb": "https://live.staticflickr.com/65535/50039149188_0fceaab9b7_n.jpg",
    "id_album": "1402713104",
    "description": "Landscape_665168",
    "title": "Landscape_665168",
    "link_img": "https://live.staticflickr.com/65535/50039149188_296f5051cb_o.jpg",
    "id_image": "Landscape_665168",
    "count_view": 0
  },
  {
    "link_thumb": "https://live.staticflickr.com/65535/50040814188_07b1399204_n.jpg",
    "id_album": "-1177476763",
    "description": "Sunrise_674912",
    "title": "Sunrise_674912",
    "link_img": "https://live.staticflickr.com/65535/50040814188_552d0a2dbb_o.jpg",
    "id_image": "Sunrise_674912",
    "count_view": 0
  },
  {
    "link_thumb": "https://live.staticflickr.com/65535/50039550522_d6e93a591b_n.jpg",
    "id_album": "-419633230",
    "description": "Apocalyptic_957398",
    "title": "Apocalyptic_957398",
    "link_img": "https://live.staticflickr.com/65535/50039550522_ba1f665785_o.jpg",
    "id_image": "Apocalyptic_957398",
    "count_view": 0
  },
  {
    "link_thumb": "https://live.staticflickr.com/65535/50040782973_cea07782ac_n.jpg",
    "id_album": "-221671103",
    "description": "Sun_106265",
    "title": "Sun_106265",
    "link_img": "https://live.staticflickr.com/65535/50040782973_79779d8a65_o.jpg",
    "id_image": "Sun_106265",
    "count_view": 0
  },
  {
    "link_thumb": "https://live.staticflickr.com/65535/50039858683_8d3dc5fe65_n.jpg",
    "id_album": "779690680",
    "description": "Robot_915571",
    "title": "Robot_915571",
    "link_img": "https://live.staticflickr.com/65535/50039858683_5e470e33f9_o.jpg",
    "id_image": "Robot_915571",
    "count_view": 0
  },
  {
    "link_thumb": "https://live.staticflickr.com/65535/50038926463_511b3a6d4f_n.jpg",
    "id_album": "-1964113117",
    "description": "City_527911",
    "title": "City_527911",
    "link_img": "https://live.staticflickr.com/65535/50038926463_9e5746a003_o.jpg",
    "id_image": "City_527911",
    "count_view": 0
  },
  {
    "link_thumb": "https://live.staticflickr.com/65535/50041449031_4f6fc4cf77_n.jpg",
    "id_album": "-1261420436",
    "description": "Warrior_331577",
    "title": "Warrior_331577",
    "link_img": "https://live.staticflickr.com/65535/50041449031_7b777b345d_o.jpg",
    "id_image": "Warrior_331577",
    "count_view": 0
  },
  {
    "link_thumb": "https://live.staticflickr.com/65535/50038885663_416f6703df_n.jpg",
    "id_album": "-1964113117",
    "description": "City_145242",
    "title": "City_145242",
    "link_img": "https://live.staticflickr.com/65535/50038885663_35b2595cbc_o.jpg",
    "id_image": "City_145242",
    "count_view": 0
  },
  {
    "link_thumb": "https://live.staticflickr.com/65535/50038948558_5b85134c00_n.jpg",
    "id_album": "-1964113117",
    "description": "City_782596",
    "title": "City_782596",
    "link_img": "https://live.staticflickr.com/65535/50038948558_481178fece_o.jpg",
    "id_image": "City_782596",
    "count_view": 0
  },
  {
    "link_thumb": "https://live.staticflickr.com/65535/50041591096_089ec76658_n.jpg",
    "id_album": "-1675918237",
    "description": "WomenWarrior_928517",
    "title": "WomenWarrior_928517",
    "link_img": "https://live.staticflickr.com/65535/50041591096_8507b5c78f_o.jpg",
    "id_image": "WomenWarrior_928517",
    "count_view": 0
  },
  {
    "link_thumb": "https://live.staticflickr.com/65535/50040921203_ceea12e6de_n.jpg",
    "id_album": "-1261420436",
    "description": "Warrior_592237",
    "title": "Warrior_592237",
    "link_img": "https://live.staticflickr.com/65535/50040921203_aba037acdd_o.jpg",
    "id_image": "Warrior_592237",
    "count_view": 0
  },
  {
    "link_thumb": "https://live.staticflickr.com/65535/50039102983_3cd1ecc87f_n.jpg",
    "id_album": "1204249541",
    "description": "Galaxy_744904",
    "title": "Galaxy_744904",
    "link_img": "https://live.staticflickr.com/65535/50039102983_6868b5ce55_o.jpg",
    "id_image": "Galaxy_744904",
    "count_view": 0
  },
  {
    "link_thumb": "https://live.staticflickr.com/65535/50041178056_c865857b68_n.jpg",
    "id_album": "-1863373220",
    "description": "StarWars_411412",
    "title": "StarWars_411412",
    "link_img": "https://live.staticflickr.com/65535/50041178056_b87ac830e3_o.jpg",
    "id_image": "StarWars_411412",
    "count_view": 0
  },
  {
    "link_thumb": "https://live.staticflickr.com/65535/50040800632_3584066838_n.jpg",
    "id_album": "1613540653",
    "description": "Space_746369",
    "title": "Space_746369",
    "link_img": "https://live.staticflickr.com/65535/50040800632_c58c49e58b_o.jpg",
    "id_image": "Space_746369",
    "count_view": 0
  },
  {
    "link_thumb": "https://live.staticflickr.com/65535/50040418751_8b8ee7c638_n.jpg",
    "id_album": "779690680",
    "description": "Robot_922858",
    "title": "Robot_922858",
    "link_img": "https://live.staticflickr.com/65535/50040418751_8166db540e_o.jpg",
    "id_image": "Robot_922858",
    "count_view": 0
  },
  {
    "link_thumb": "https://live.staticflickr.com/65535/50041591326_3b263aeaa9_n.jpg",
    "id_album": "-1675918237",
    "description": "WomenWarrior_932181",
    "title": "WomenWarrior_932181",
    "link_img": "https://live.staticflickr.com/65535/50041591326_68a2ce4cae_o.jpg",
    "id_image": "WomenWarrior_932181",
    "count_view": 0
  }
]