[
  {
    "total_img": 0,
    "number_page": 0,
    "title": "Landscape",
    "tag": "Landscape,",
    "description": "Landscape",
    "link_thumb": "https://live.staticflickr.com/65535/50039658226_eaa2bf4b8d_n.jpg",
    "id_album": "1402713104",
    "total_view": 234
  }
]