[
  {
    "total_img": 122,
    "number_page": 1,
    "title": "Spaceship",
    "tag": "Spaceship,",
    "description": "Spaceship",
    "link_thumb": "https://live.staticflickr.com/65535/50040014458_23bb36e9b4_n.jpg",
    "id_album": "2130067313",
    "total_view": 122
  },
  {
    "total_img": 48,
    "number_page": 1,
    "title": "Building",
    "tag": "Building,",
    "description": "Building",
    "link_thumb": "https://live.staticflickr.com/65535/50038871783_6598792974_n.jpg",
    "id_album": "406431601",
    "total_view": 48
  },
  {
    "total_img": 221,
    "number_page": 2,
    "title": "Galaxy",
    "tag": "Galaxy,",
    "description": "Galaxy",
    "link_thumb": "https://live.staticflickr.com/65535/50039623611_283cc89fb9_n.jpg",
    "id_album": "1204249541",
    "total_view": 221
  },
  {
    "total_img": 50,
    "number_page": 1,
    "title": "Cyborg",
    "tag": "Cyborg,",
    "description": "Cyborg",
    "link_thumb": "https://live.staticflickr.com/65535/50039025743_a40a0c7867_n.jpg",
    "id_album": "829169633",
    "total_view": 50
  },
  {
    "total_img": 7,
    "number_page": 1,
    "title": "Space Station",
    "tag": "Space Station,",
    "description": "Space Station",
    "link_thumb": "https://live.staticflickr.com/65535/50040556351_14a6b22076_n.jpg",
    "id_album": "-1532370292",
    "total_view": 7
  },
  {
    "total_img": 529,
    "number_page": 3,
    "title": "Robot",
    "tag": "Robot,",
    "description": "Robot",
    "link_thumb": "https://live.staticflickr.com/65535/50040247571_d5a6a49a25_n.jpg",
    "id_album": "779690680",
    "total_view": 529
  },
  {
    "total_img": 52,
    "number_page": 1,
    "title": "Apocalyptic",
    "tag": "Apocalyptic,",
    "description": "Apocalyptic",
    "link_thumb": "https://live.staticflickr.com/65535/50038730893_f627ac0246_n.jpg",
    "id_album": "-419633230",
    "total_view": 52
  },
  {
    "total_img": 210,
    "number_page": 2,
    "title": "Artistic",
    "tag": "Artistic,",
    "description": "Artistic",
    "link_thumb": "https://live.staticflickr.com/65535/50039553217_04f8c828ed_n.jpg",
    "id_album": "523598895",
    "total_view": 210
  },
  {
    "total_img": 93,
    "number_page": 1,
    "title": "Post Apocalyptic",
    "tag": "Post Apocalyptic,",
    "description": "Post Apocalyptic",
    "link_thumb": "https://live.staticflickr.com/65535/50040187356_0aa9aea747_n.jpg",
    "id_album": "-482547208",
    "total_view": 93
  },
  {
    "total_img": 32,
    "number_page": 1,
    "title": "Predator",
    "tag": "Predator,",
    "description": "Predator",
    "link_thumb": "https://live.staticflickr.com/65535/50040501532_e119287726_n.jpg",
    "id_album": "-839602625",
    "total_view": 32
  },
  {
    "total_img": 32,
    "number_page": 1,
    "title": "Sun",
    "tag": "Sun,",
    "description": "Sun",
    "link_thumb": "https://live.staticflickr.com/65535/50041337606_67241e2bc4_n.jpg",
    "id_album": "-221671103",
    "total_view": 32
  },
  {
    "total_img": 17,
    "number_page": 1,
    "title": "Cyberpunk",
    "tag": "Cyberpunk,",
    "description": "Cyberpunk",
    "link_thumb": "https://live.staticflickr.com/65535/50039012128_9d92b4ba4c_n.jpg",
    "id_album": "-1372247677",
    "total_view": 17
  },
  {
    "total_img": 36,
    "number_page": 1,
    "title": "Sunrise",
    "tag": "Sunrise,",
    "description": "Sunrise",
    "link_thumb": "https://live.staticflickr.com/65535/50040802088_db00d8f7a3_n.jpg",
    "id_album": "-1177476763",
    "total_view": 36
  },
  {
    "total_img": 58,
    "number_page": 1,
    "title": "Collision",
    "tag": "Collision,",
    "description": "Collision",
    "link_thumb": "https://live.staticflickr.com/65535/50038987188_2c644638be_n.jpg",
    "id_album": "894679094",
    "total_view": 58
  },
  {
    "total_img": 165,
    "number_page": 1,
    "title": "Astronaut",
    "tag": "Astronaut,",
    "description": "Astronaut",
    "link_thumb": "https://live.staticflickr.com/65535/50039347916_c0bb4fbf1a_n.jpg",
    "id_album": "869545341",
    "total_view": 165
  },
  {
    "total_img": 189,
    "number_page": 1,
    "title": "Space",
    "tag": "Space,",
    "description": "Space",
    "link_thumb": "https://live.staticflickr.com/65535/50040725792_13c1fcff0a_n.jpg",
    "id_album": "1613540653",
    "total_view": 189
  },
  {
    "total_img": 60,
    "number_page": 1,
    "title": "Milky Way",
    "tag": "Milky Way,",
    "description": "Milky Way",
    "link_thumb": "https://live.staticflickr.com/65535/50039181093_54a34dd311_n.jpg",
    "id_album": "-1388385651",
    "total_view": 60
  },
  {
    "total_img": 37,
    "number_page": 1,
    "title": "Women",
    "tag": "Women,",
    "description": "Women",
    "link_thumb": "https://live.staticflickr.com/65535/50040960723_0b72e6a1dc_n.jpg",
    "id_album": "-1126835654",
    "total_view": 37
  },
  {
    "total_img": 120,
    "number_page": 1,
    "title": "Warrior",
    "tag": "Warrior,",
    "description": "Warrior",
    "link_thumb": "https://live.staticflickr.com/65535/50041692782_259fe6ecfa_n.jpg",
    "id_album": "-1261420436",
    "total_view": 120
  },
  {
    "total_img": 78,
    "number_page": 1,
    "title": "Planetscape",
    "tag": "Planetscape,",
    "description": "Planetscape",
    "link_thumb": "https://live.staticflickr.com/65535/50040416802_b19915cb50_n.jpg",
    "id_album": "376235057",
    "total_view": 78
  },
  {
    "total_img": 28,
    "number_page": 1,
    "title": "Other",
    "tag": "Other,",
    "description": "Other",
    "link_thumb": "https://live.staticflickr.com/65535/50039859741_041770b567_n.jpg",
    "id_album": "-1862561193",
    "total_view": 28
  },
  {
    "total_img": 502,
    "number_page": 3,
    "title": "Nebula",
    "tag": "Nebula,",
    "description": "Nebula",
    "link_thumb": "https://live.staticflickr.com/65535/50040023112_3e4705693c_n.jpg",
    "id_album": "-1610342324",
    "total_view": 502
  },
  {
    "total_img": 358,
    "number_page": 2,
    "title": "City",
    "tag": "City,",
    "description": "City",
    "link_thumb": "https://live.staticflickr.com/65535/50039692672_bf57dbaf6a_n.jpg",
    "id_album": "-1964113117",
    "total_view": 358
  },
  {
    "total_img": 25,
    "number_page": 1,
    "title": "Abstract",
    "tag": "Abstract,",
    "description": "Abstract",
    "link_thumb": "https://live.staticflickr.com/65535/50038679073_dfa488d1dd_n.jpg",
    "id_album": "280884763",
    "total_view": 25
  },
  {
    "total_img": 176,
    "number_page": 1,
    "title": "Planets",
    "tag": "Planets,",
    "description": "Planets",
    "link_thumb": "https://live.staticflickr.com/65535/50040044176_a3a75d7fdf_n.jpg",
    "id_album": "-1102314093",
    "total_view": 176
  },
  {
    "total_img": 201,
    "number_page": 2,
    "title": "Star Wars",
    "tag": "Star Wars,",
    "description": "Star Wars",
    "link_thumb": "https://live.staticflickr.com/65535/50040523113_996c3a4a01_n.jpg",
    "id_album": "-1863373220",
    "total_view": 201
  },
  {
    "total_img": 49,
    "number_page": 1,
    "title": "Biohazard",
    "tag": "Biohazard,",
    "description": "Biohazard",
    "link_thumb": "https://live.staticflickr.com/65535/50039410471_c97a3fb773_n.jpg",
    "id_album": "-1780971522",
    "total_view": 49
  },
  {
    "total_img": 20,
    "number_page": 1,
    "title": "Moon",
    "tag": "Moon,",
    "description": "Moon",
    "link_thumb": "https://live.staticflickr.com/65535/50040016792_48bcf7e5e6_n.jpg",
    "id_album": "416351698",
    "total_view": 20
  },
  {
    "total_img": 114,
    "number_page": 1,
    "title": "Alien",
    "tag": "Alien,",
    "description": "Alien",
    "link_thumb": "https://live.staticflickr.com/65535/50038695848_04d9d31be0_n.jpg",
    "id_album": "849020728",
    "total_view": 114
  },
  {
    "total_img": 71,
    "number_page": 1,
    "title": "Women Warrior",
    "tag": "Women Warrior,",
    "description": "Women Warrior",
    "link_thumb": "https://live.staticflickr.com/65535/50041000348_25b9f37980_n.jpg",
    "id_album": "-1675918237",
    "total_view": 71
  },
  {
    "total_img": 87,
    "number_page": 1,
    "title": "Vehicle",
    "tag": "Vehicle,",
    "description": "Vehicle",
    "link_thumb": "https://live.staticflickr.com/65535/50040817153_60b476ef59_n.jpg",
    "id_album": "2020068132",
    "total_view": 87
  },
  {
    "total_img": 8,
    "number_page": 1,
    "title": "People",
    "tag": "People,",
    "description": "People",
    "link_thumb": "https://live.staticflickr.com/65535/50040157967_e89f00ac2d_n.jpg",
    "id_album": "1896531081",
    "total_view": 8
  },
  {
    "total_img": 100,
    "number_page": 1,
    "title": "Battle",
    "tag": "Battle,",
    "description": "Battle",
    "link_thumb": "https://live.staticflickr.com/65535/50039655407_b52355070e_n.jpg",
    "id_album": "1187037014",
    "total_view": 100
  },
  {
    "total_img": 23,
    "number_page": 1,
    "title": "Explosion",
    "tag": "Explosion,",
    "description": "Explosion",
    "link_thumb": "https://live.staticflickr.com/65535/50039869332_e869156669_n.jpg",
    "id_album": "651930207",
    "total_view": 23
  },
  {
    "total_img": 30,
    "number_page": 1,
    "title": "Fantasy",
    "tag": "Fantasy,",
    "description": "Fantasy",
    "link_thumb": "https://live.staticflickr.com/65535/50039876802_4b8271fb3b_n.jpg",
    "id_album": "2104507156",
    "total_view": 30
  },
  {
    "total_img": 63,
    "number_page": 1,
    "title": "Steampunk",
    "tag": "Steampunk,",
    "description": "Steampunk",
    "link_thumb": "https://live.staticflickr.com/65535/50040731063_5c8ccabdd5_n.jpg",
    "id_album": "1267121215",
    "total_view": 63
  },
  {
    "total_img": 234,
    "number_page": 2,
    "title": "Landscape",
    "tag": "Landscape,",
    "description": "Landscape",
    "link_thumb": "https://live.staticflickr.com/65535/50039658226_eaa2bf4b8d_n.jpg",
    "id_album": "1402713104",
    "total_view": 234
  },
  {
    "total_img": 25,
    "number_page": 1,
    "title": "Planetary Ring",
    "tag": "Planetary Ring,",
    "description": "Planetary Ring",
    "link_thumb": "https://live.staticflickr.com/65535/50040280777_69139bd607_n.jpg",
    "id_album": "814701616",
    "total_view": 25
  },
  {
    "total_img": 48,
    "number_page": 1,
    "title": "Aircraft",
    "tag": "Aircraft,",
    "description": "Aircraft",
    "link_thumb": "https://live.staticflickr.com/65535/50039495872_204e1043d7_n.jpg",
    "id_album": "-406145265",
    "total_view": 48
  },
  {
    "total_img": 43,
    "number_page": 1,
    "title": "Planet Rise",
    "tag": "Planet Rise,",
    "description": "Planet Rise",
    "link_thumb": "https://live.staticflickr.com/65535/50039996046_e56066bfdb_n.jpg",
    "id_album": "1443611160",
    "total_view": 43
  },
  {
    "total_img": 51,
    "number_page": 1,
    "title": "Creature",
    "tag": "Creature,",
    "description": "Creature",
    "link_thumb": "https://live.staticflickr.com/65535/50038998338_62811ce04b_n.jpg",
    "id_album": "-437872736",
    "total_view": 51
  },
  {
    "total_img": 190,
    "number_page": 1,
    "title": "Planet",
    "tag": "Planet,",
    "description": "Planet",
    "link_thumb": "https://live.staticflickr.com/65535/50040164417_aa351d236f_n.jpg",
    "id_album": "395161030",
    "total_view": 190
  },
  {
    "total_img": 61,
    "number_page": 1,
    "title": "Stars",
    "tag": "Stars,",
    "description": "Stars",
    "link_thumb": "https://live.staticflickr.com/65535/50041256911_864efd6e6b_n.jpg",
    "id_album": "-1587696329",
    "total_view": 61
  },
  {
    "total_img": 26,
    "number_page": 1,
    "title": "Star Trek",
    "tag": "Star Trek,",
    "description": "Star Trek",
    "link_thumb": "https://live.staticflickr.com/65535/50040246168_f937beb9e3_n.jpg",
    "id_album": "-1449720967",
    "total_view": 26
  }
]