[
  {
    "link_thumb": "https://live.staticflickr.com/65535/50041624522_491abaff18_n.jpg",
    "id_album": "-1177476763",
    "description": "Sunrise_357522",
    "title": "Sunrise_357522",
    "link_img": "https://live.staticflickr.com/65535/50041624522_87d3695889_o.jpg",
    "id_image": "Sunrise_357522",
    "count_view": 0
  },
  {
    "link_thumb": "https://live.staticflickr.com/65535/50039623611_283cc89fb9_n.jpg",
    "id_album": "1204249541",
    "description": "Galaxy_1006931",
    "title": "Galaxy_1006931",
    "link_img": "https://live.staticflickr.com/65535/50039623611_2e06dbaa88_o.jpg",
    "id_image": "Galaxy_1006931",
    "count_view": 0
  },
  {
    "link_thumb": "https://live.staticflickr.com/65535/50038915028_b61b2ae425_n.jpg",
    "id_album": "-1964113117",
    "description": "City_331642",
    "title": "City_331642",
    "link_img": "https://live.staticflickr.com/65535/50038915028_cecd0f16a6_o.jpg",
    "id_image": "City_331642",
    "count_view": 0
  },
  {
    "link_thumb": "https://live.staticflickr.com/65535/50038800108_8ce68af357_n.jpg",
    "id_album": "869545341",
    "description": "Astronaut_1008982",
    "title": "Astronaut_1008982",
    "link_img": "https://live.staticflickr.com/65535/50038800108_7a9e1ff028_o.jpg",
    "id_image": "Astronaut_1008982",
    "count_view": 0
  },
  {
    "link_thumb": "https://live.staticflickr.com/65535/50040068822_21f2fbeefb_n.jpg",
    "id_album": "-1610342324",
    "description": "Nebula_533835",
    "title": "Nebula_533835",
    "link_img": "https://live.staticflickr.com/65535/50040068822_87d6d935be_o.jpg",
    "id_image": "Nebula_533835",
    "count_view": 0
  },
  {
    "link_thumb": "https://live.staticflickr.com/65535/50041587797_295928b428_n.jpg",
    "id_album": "1267121215",
    "description": "Steampunk_655449",
    "title": "Steampunk_655449",
    "link_img": "https://live.staticflickr.com/65535/50041587797_b97622ae17_o.jpg",
    "id_image": "Steampunk_655449",
    "count_view": 0
  },
  {
    "link_thumb": "https://live.staticflickr.com/65535/50040359692_3af6edb0bd_n.jpg",
    "id_album": "-1102314093",
    "description": "Planets_356662",
    "title": "Planets_356662",
    "link_img": "https://live.staticflickr.com/65535/50040359692_2b10d4db02_o.jpg",
    "id_image": "Planets_356662",
    "count_view": 0
  },
  {
    "link_thumb": "https://live.staticflickr.com/65535/50040399677_b89af3f3cf_n.jpg",
    "id_album": "-1102314093",
    "description": "Planets_78685",
    "title": "Planets_78685",
    "link_img": "https://live.staticflickr.com/65535/50040399677_09316be076_o.jpg",
    "id_image": "Planets_78685",
    "count_view": 0
  },
  {
    "link_thumb": "https://live.staticflickr.com/65535/50039259513_472e8e6af0_n.jpg",
    "id_album": "-1610342324",
    "description": "Nebula_555596",
    "title": "Nebula_555596",
    "link_img": "https://live.staticflickr.com/65535/50039259513_2a671824c3_o.jpg",
    "id_image": "Nebula_555596",
    "count_view": 0
  },
  {
    "link_thumb": "https://live.staticflickr.com/65535/50040657162_3800ae30c4_n.jpg",
    "id_album": "779690680",
    "description": "Robot_884809",
    "title": "Robot_884809",
    "link_img": "https://live.staticflickr.com/65535/50040657162_79cb073feb_o.jpg",
    "id_image": "Robot_884809",
    "count_view": 0
  },
  {
    "link_thumb": "https://live.staticflickr.com/65535/50039116188_51d5b85989_n.jpg",
    "id_album": "1402713104",
    "description": "Landscape_219088",
    "title": "Landscape_219088",
    "link_img": "https://live.staticflickr.com/65535/50039116188_e1a06faa4e_o.jpg",
    "id_image": "Landscape_219088",
    "count_view": 0
  },
  {
    "link_thumb": "https://live.staticflickr.com/65535/50039812338_90b23430ed_n.jpg",
    "id_album": "779690680",
    "description": "Robot_763233",
    "title": "Robot_763233",
    "link_img": "https://live.staticflickr.com/65535/50039812338_0538a5e033_o.jpg",
    "id_image": "Robot_763233",
    "count_view": 0
  },
  {
    "link_thumb": "https://live.staticflickr.com/65535/50040977812_32b5f93e0b_n.jpg",
    "id_album": "2130067313",
    "description": "Spaceship_552094",
    "title": "Spaceship_552094",
    "link_img": "https://live.staticflickr.com/65535/50040977812_574e950736_o.jpg",
    "id_image": "Spaceship_552094",
    "count_view": 0
  },
  {
    "link_thumb": "https://live.staticflickr.com/65535/50039651632_f012d80a13_n.jpg",
    "id_album": "869545341",
    "description": "Astronaut_977917",
    "title": "Astronaut_977917",
    "link_img": "https://live.staticflickr.com/65535/50039651632_0c0b3727ec_o.jpg",
    "id_image": "Astronaut_977917",
    "count_view": 0
  },
  {
    "link_thumb": "https://live.staticflickr.com/65535/50040211182_af69918bc0_n.jpg",
    "id_album": "395161030",
    "description": "Planet_394375",
    "title": "Planet_394375",
    "link_img": "https://live.staticflickr.com/65535/50040211182_5f21907844_o.jpg",
    "id_image": "Planet_394375",
    "count_view": 0
  },
  {
    "link_thumb": "https://live.staticflickr.com/65535/50040608412_d3bcd075dd_n.jpg",
    "id_album": "779690680",
    "description": "Robot_615943",
    "title": "Robot_615943",
    "link_img": "https://live.staticflickr.com/65535/50040608412_b58e06f639_o.jpg",
    "id_image": "Robot_615943",
    "count_view": 0
  },
  {
    "link_thumb": "https://live.staticflickr.com/65535/50040257961_bf8405c8f1_n.jpg",
    "id_album": "779690680",
    "description": "Robot_173456",
    "title": "Robot_173456",
    "link_img": "https://live.staticflickr.com/65535/50040257961_319fdb7d66_o.jpg",
    "id_image": "Robot_173456",
    "count_view": 0
  },
  {
    "link_thumb": "https://live.staticflickr.com/65535/50039592757_6354181898_n.jpg",
    "id_album": "523598895",
    "description": "Artistic_353782",
    "title": "Artistic_353782",
    "link_img": "https://live.staticflickr.com/65535/50039592757_c3e10ca174_o.jpg",
    "id_image": "Artistic_353782",
    "count_view": 0
  },
  {
    "link_thumb": "https://live.staticflickr.com/65535/50039972647_6c9230f4f0_n.jpg",
    "id_album": "1402713104",
    "description": "Landscape_83497",
    "title": "Landscape_83497",
    "link_img": "https://live.staticflickr.com/65535/50039972647_8ef947aa43_o.jpg",
    "id_image": "Landscape_83497",
    "count_view": 0
  },
  {
    "link_thumb": "https://live.staticflickr.com/65535/50039238526_10ee3d34eb_n.jpg",
    "id_album": "-406145265",
    "description": "Aircraft_341273",
    "title": "Aircraft_341273",
    "link_img": "https://live.staticflickr.com/65535/50039238526_f8cf477f01_o.jpg",
    "id_image": "Aircraft_341273",
    "count_view": 0
  },
  {
    "link_thumb": "https://live.staticflickr.com/65535/50038731508_e34f7dcbcd_n.jpg",
    "id_album": "-419633230",
    "description": "Apocalyptic_159570",
    "title": "Apocalyptic_159570",
    "link_img": "https://live.staticflickr.com/65535/50038731508_8b4d2503b9_o.jpg",
    "id_image": "Apocalyptic_159570",
    "count_view": 0
  },
  {
    "link_thumb": "https://live.staticflickr.com/65535/50038826893_3b48e23432_n.jpg",
    "id_album": "869545341",
    "description": "Astronaut_865987",
    "title": "Astronaut_865987",
    "link_img": "https://live.staticflickr.com/65535/50038826893_a7bc4c89c8_o.jpg",
    "id_image": "Astronaut_865987",
    "count_view": 0
  },
  {
    "link_thumb": "https://live.staticflickr.com/65535/50041035193_38318f7b53_n.jpg",
    "id_album": "-1675918237",
    "description": "WomenWarrior_867370",
    "title": "WomenWarrior_867370",
    "link_img": "https://live.staticflickr.com/65535/50041035193_e8508eeede_o.jpg",
    "id_image": "WomenWarrior_867370",
    "count_view": 0
  },
  {
    "link_thumb": "https://live.staticflickr.com/65535/50039931432_944165b709_n.jpg",
    "id_album": "1402713104",
    "description": "Landscape_262822",
    "title": "Landscape_262822",
    "link_img": "https://live.staticflickr.com/65535/50039931432_e8764087ab_o.jpg",
    "id_image": "Landscape_262822",
    "count_view": 0
  },
  {
    "link_thumb": "https://live.staticflickr.com/65535/50039447036_f2c0c2c122_n.jpg",
    "id_album": "-1964113117",
    "description": "City_213563",
    "title": "City_213563",
    "link_img": "https://live.staticflickr.com/65535/50039447036_61a03a201e_o.jpg",
    "id_image": "City_213563",
    "count_view": 0
  },
  {
    "link_thumb": "https://live.staticflickr.com/65535/50038996103_7b8c71927e_n.jpg",
    "id_album": "894679094",
    "description": "Collision_920770",
    "title": "Collision_920770",
    "link_img": "https://live.staticflickr.com/65535/50038996103_d459aa3720_o.jpg",
    "id_image": "Collision_920770",
    "count_view": 0
  },
  {
    "link_thumb": "https://live.staticflickr.com/65535/50039960422_74bdbfb36f_n.jpg",
    "id_album": "1402713104",
    "description": "Landscape_640451",
    "title": "Landscape_640451",
    "link_img": "https://live.staticflickr.com/65535/50039960422_5d24f72f22_o.jpg",
    "id_image": "Landscape_640451",
    "count_view": 0
  },
  {
    "link_thumb": "https://live.staticflickr.com/65535/50039841023_344c5db0c6_n.jpg",
    "id_album": "779690680",
    "description": "Robot_886631",
    "title": "Robot_886631",
    "link_img": "https://live.staticflickr.com/65535/50039841023_2141924e95_o.jpg",
    "id_image": "Robot_886631",
    "count_view": 0
  },
  {
    "link_thumb": "https://live.staticflickr.com/65535/50039496662_1137b48f9a_n.jpg",
    "id_album": "-406145265",
    "description": "Aircraft_155754",
    "title": "Aircraft_155754",
    "link_img": "https://live.staticflickr.com/65535/50039496662_8da75c198f_o.jpg",
    "id_image": "Aircraft_155754",
    "count_view": 0
  },
  {
    "link_thumb": "https://live.staticflickr.com/65535/50040105557_18ed79ac67_n.jpg",
    "id_album": "-1610342324",
    "description": "Nebula_825559",
    "title": "Nebula_825559",
    "link_img": "https://live.staticflickr.com/65535/50040105557_6c85c59395_o.jpg",
    "id_image": "Nebula_825559",
    "count_view": 0
  },
  {
    "link_thumb": "https://live.staticflickr.com/65535/50040222852_744ee7804c_n.jpg",
    "id_album": "395161030",
    "description": "Planet_539302",
    "title": "Planet_539302",
    "link_img": "https://live.staticflickr.com/65535/50040222852_d874893703_o.jpg",
    "id_image": "Planet_539302",
    "count_view": 0
  },
  {
    "link_thumb": "https://live.staticflickr.com/65535/50041456896_c3ec73b2c6_n.jpg",
    "id_album": "-1261420436",
    "description": "Warrior_393973",
    "title": "Warrior_393973",
    "link_img": "https://live.staticflickr.com/65535/50041456896_76b06bb9ce_o.jpg",
    "id_image": "Warrior_393973",
    "count_view": 0
  },
  {
    "link_thumb": "https://live.staticflickr.com/65535/50038749868_9708c2fe2e_n.jpg",
    "id_album": "523598895",
    "description": "Artistic_152413",
    "title": "Artistic_152413",
    "link_img": "https://live.staticflickr.com/65535/50038749868_b016d9757c_o.jpg",
    "id_image": "Artistic_152413",
    "count_view": 0
  },
  {
    "link_thumb": "https://live.staticflickr.com/65535/50039253788_93e937322c_n.jpg",
    "id_album": "-1610342324",
    "description": "Nebula_514526",
    "title": "Nebula_514526",
    "link_img": "https://live.staticflickr.com/65535/50039253788_00fe70f308_o.jpg",
    "id_image": "Nebula_514526",
    "count_view": 0
  },
  {
    "link_thumb": "https://live.staticflickr.com/65535/50039846988_84a1e253ca_n.jpg",
    "id_album": "779690680",
    "description": "Robot_901629",
    "title": "Robot_901629",
    "link_img": "https://live.staticflickr.com/65535/50039846988_d23d9026c0_o.jpg",
    "id_image": "Robot_901629",
    "count_view": 0
  },
  {
    "link_thumb": "https://live.staticflickr.com/65535/50038879778_018990a8ea_n.jpg",
    "id_album": "406431601",
    "description": "Building_958301",
    "title": "Building_958301",
    "link_img": "https://live.staticflickr.com/65535/50038879778_8ca1f51139_o.jpg",
    "id_image": "Building_958301",
    "count_view": 0
  },
  {
    "link_thumb": "https://live.staticflickr.com/65535/50038839928_3331fe48cf_n.jpg",
    "id_album": "869545341",
    "description": "Astronaut_971385",
    "title": "Astronaut_971385",
    "link_img": "https://live.staticflickr.com/65535/50038839928_d46362994b_o.jpg",
    "id_image": "Astronaut_971385",
    "count_view": 0
  },
  {
    "link_thumb": "https://live.staticflickr.com/65535/50040155941_ef93ef93ea_n.jpg",
    "id_album": "376235057",
    "description": "Planetscape_286866",
    "title": "Planetscape_286866",
    "link_img": "https://live.staticflickr.com/65535/50040155941_c704df78ab_o.jpg",
    "id_image": "Planetscape_286866",
    "count_view": 0
  },
  {
    "link_thumb": "https://live.staticflickr.com/65535/50038854778_ce6fe0f324_n.jpg",
    "id_album": "1187037014",
    "description": "Battle_528305",
    "title": "Battle_528305",
    "link_img": "https://live.staticflickr.com/65535/50038854778_7a331d936b_o.jpg",
    "id_image": "Battle_528305",
    "count_view": 0
  },
  {
    "link_thumb": "https://live.staticflickr.com/65535/50039241761_a77380eed0_n.jpg",
    "id_album": "-406145265",
    "description": "Aircraft_866069",
    "title": "Aircraft_866069",
    "link_img": "https://live.staticflickr.com/65535/50039241761_706a00b32e_o.jpg",
    "id_image": "Aircraft_866069",
    "count_view": 0
  },
  {
    "link_thumb": "https://live.staticflickr.com/65535/50039360141_271e03bc19_n.jpg",
    "id_album": "869545341",
    "description": "Astronaut_591948",
    "title": "Astronaut_591948",
    "link_img": "https://live.staticflickr.com/65535/50039360141_bcf6c72a38_o.jpg",
    "id_image": "Astronaut_591948",
    "count_view": 0
  },
  {
    "link_thumb": "https://live.staticflickr.com/65535/50038895013_f0be286115_n.jpg",
    "id_album": "-1964113117",
    "description": "City_205966",
    "title": "City_205966",
    "link_img": "https://live.staticflickr.com/65535/50038895013_b836af654a_o.jpg",
    "id_image": "City_205966",
    "count_view": 0
  },
  {
    "link_thumb": "https://live.staticflickr.com/65535/50039261276_41f15e10bd_n.jpg",
    "id_album": "849020728",
    "description": "Alien_347653",
    "title": "Alien_347653",
    "link_img": "https://live.staticflickr.com/65535/50039261276_f5a17d9d75_o.jpg",
    "id_image": "Alien_347653",
    "count_view": 0
  },
  {
    "link_thumb": "https://live.staticflickr.com/65535/50039651048_2176817459_n.jpg",
    "id_album": "-482547208",
    "description": "PostApocalyptic_271481",
    "title": "PostApocalyptic_271481",
    "link_img": "https://live.staticflickr.com/65535/50039651048_47354b32be_o.jpg",
    "id_image": "PostApocalyptic_271481",
    "count_view": 0
  },
  {
    "link_thumb": "https://live.staticflickr.com/65535/50041246411_f9bc4afb0a_n.jpg",
    "id_album": "-1863373220",
    "description": "StarWars_973298",
    "title": "StarWars_973298",
    "link_img": "https://live.staticflickr.com/65535/50041246411_f5e4dc9de7_o.jpg",
    "id_image": "StarWars_973298",
    "count_view": 0
  },
  {
    "link_thumb": "https://live.staticflickr.com/65535/50039244861_31265efe67_n.jpg",
    "id_album": "849020728",
    "description": "Alien_116320",
    "title": "Alien_116320",
    "link_img": "https://live.staticflickr.com/65535/50039244861_f588ed1233_o.jpg",
    "id_image": "Alien_116320",
    "count_view": 0
  },
  {
    "link_thumb": "https://live.staticflickr.com/65535/50040194251_bc3bac2981_n.jpg",
    "id_album": "-482547208",
    "description": "PostApocalyptic_201817",
    "title": "PostApocalyptic_201817",
    "link_img": "https://live.staticflickr.com/65535/50040194251_dfb4110be5_o.jpg",
    "id_image": "PostApocalyptic_201817",
    "count_view": 0
  },
  {
    "link_thumb": "https://live.staticflickr.com/65535/50041848252_5e08623c96_n.jpg",
    "id_album": "-1675918237",
    "description": "WomenWarrior_715632",
    "title": "WomenWarrior_715632",
    "link_img": "https://live.staticflickr.com/65535/50041848252_97e118d151_o.jpg",
    "id_image": "WomenWarrior_715632",
    "count_view": 0
  },
  {
    "link_thumb": "https://live.staticflickr.com/65535/50041692782_259fe6ecfa_n.jpg",
    "id_album": "-1261420436",
    "description": "Warrior_112335",
    "title": "Warrior_112335",
    "link_img": "https://live.staticflickr.com/65535/50041692782_5e6e66a611_o.jpg",
    "id_image": "Warrior_112335",
    "count_view": 0
  },
  {
    "link_thumb": "https://live.staticflickr.com/65535/50040107802_9420c59c77_n.jpg",
    "id_album": "-1610342324",
    "description": "Nebula_843862",
    "title": "Nebula_843862",
    "link_img": "https://live.staticflickr.com/65535/50040107802_f75a34e81f_o.jpg",
    "id_image": "Nebula_843862",
    "count_view": 0
  },
  {
    "link_thumb": "https://live.staticflickr.com/65535/50040753187_906bb131bf_n.jpg",
    "id_album": "1613540653",
    "description": "Space_287067",
    "title": "Space_287067",
    "link_img": "https://live.staticflickr.com/65535/50040753187_7ebbd6e1b3_o.jpg",
    "id_image": "Space_287067",
    "count_view": 0
  },
  {
    "link_thumb": "https://live.staticflickr.com/65535/50039262546_62e5101cc0_n.jpg",
    "id_album": "849020728",
    "description": "Alien_394364",
    "title": "Alien_394364",
    "link_img": "https://live.staticflickr.com/65535/50039262546_470a3ffa7d_o.jpg",
    "id_image": "Alien_394364",
    "count_view": 0
  },
  {
    "link_thumb": "https://live.staticflickr.com/65535/50039706982_52379b907e_n.jpg",
    "id_album": "-1964113117",
    "description": "City_208208",
    "title": "City_208208",
    "link_img": "https://live.staticflickr.com/65535/50039706982_efe1795eac_o.jpg",
    "id_image": "City_208208",
    "count_view": 0
  },
  {
    "link_thumb": "https://live.staticflickr.com/65535/50040100787_04dcbe62b5_n.jpg",
    "id_album": "-1610342324",
    "description": "Nebula_789217",
    "title": "Nebula_789217",
    "link_img": "https://live.staticflickr.com/65535/50040100787_c2242aed3c_o.jpg",
    "id_image": "Nebula_789217",
    "count_view": 0
  },
  {
    "link_thumb": "https://live.staticflickr.com/65535/50039665897_6885fbc034_n.jpg",
    "id_album": "1187037014",
    "description": "Battle_559693",
    "title": "Battle_559693",
    "link_img": "https://live.staticflickr.com/65535/50039665897_8b0263f727_o.jpg",
    "id_image": "Battle_559693",
    "count_view": 0
  },
  {
    "link_thumb": "https://live.staticflickr.com/65535/50040033542_b1fa33ed44_n.jpg",
    "id_album": "-1610342324",
    "description": "Nebula_210500",
    "title": "Nebula_210500",
    "link_img": "https://live.staticflickr.com/65535/50040033542_c012560e1d_o.jpg",
    "id_image": "Nebula_210500",
    "count_view": 0
  },
  {
    "link_thumb": "https://live.staticflickr.com/65535/50040050137_50a3453056_n.jpg",
    "id_album": "-1610342324",
    "description": "Nebula_314910",
    "title": "Nebula_314910",
    "link_img": "https://live.staticflickr.com/65535/50040050137_bb92c33810_o.jpg",
    "id_image": "Nebula_314910",
    "count_view": 0
  },
  {
    "link_thumb": "https://live.staticflickr.com/65535/50039013688_12decfa0eb_n.jpg",
    "id_album": "-1372247677",
    "description": "Cyberpunk_779618",
    "title": "Cyberpunk_779618",
    "link_img": "https://live.staticflickr.com/65535/50039013688_570a4568ab_o.jpg",
    "id_image": "Cyberpunk_779618",
    "count_view": 0
  },
  {
    "link_thumb": "https://live.staticflickr.com/65535/50040651762_224a9fd542_n.jpg",
    "id_album": "779690680",
    "description": "Robot_877233",
    "title": "Robot_877233",
    "link_img": "https://live.staticflickr.com/65535/50040651762_deeaf78401_o.jpg",
    "id_image": "Robot_877233",
    "count_view": 0
  },
  {
    "link_thumb": "https://live.staticflickr.com/65535/50039369868_1e6c3b2e35_n.jpg",
    "id_album": "395161030",
    "description": "Planet_206087",
    "title": "Planet_206087",
    "link_img": "https://live.staticflickr.com/65535/50039369868_2c81d7a794_o.jpg",
    "id_image": "Planet_206087",
    "count_view": 0
  },
  {
    "link_thumb": "https://live.staticflickr.com/65535/50039234906_a1539fd695_n.jpg",
    "id_album": "-406145265",
    "description": "Aircraft_267619",
    "title": "Aircraft_267619",
    "link_img": "https://live.staticflickr.com/65535/50039234906_4b44e9e698_o.jpg",
    "id_image": "Aircraft_267619",
    "count_view": 0
  },
  {
    "link_thumb": "https://live.staticflickr.com/65535/50039752581_b10a63cba1_n.jpg",
    "id_album": "-1388385651",
    "description": "MilkyWay_928833",
    "title": "MilkyWay_928833",
    "link_img": "https://live.staticflickr.com/65535/50039752581_e611a49e0f_o.jpg",
    "id_image": "MilkyWay_928833",
    "count_view": 0
  },
  {
    "link_thumb": "https://live.staticflickr.com/65535/50040259887_252cb8651a_n.jpg",
    "id_album": "1443611160",
    "description": "PlanetRise_148105",
    "title": "PlanetRise_148105",
    "link_img": "https://live.staticflickr.com/65535/50040259887_dec4774388_o.jpg",
    "id_image": "PlanetRise_148105",
    "count_view": 0
  },
  {
    "link_thumb": "https://live.staticflickr.com/65535/50039539687_ddc55c7817_n.jpg",
    "id_album": "849020728",
    "description": "Alien_941433",
    "title": "Alien_941433",
    "link_img": "https://live.staticflickr.com/65535/50039539687_86cacf4b57_o.jpg",
    "id_image": "Alien_941433",
    "count_view": 0
  },
  {
    "link_thumb": "https://live.staticflickr.com/65535/50039357121_076d3abe58_n.jpg",
    "id_album": "869545341",
    "description": "Astronaut_548678",
    "title": "Astronaut_548678",
    "link_img": "https://live.staticflickr.com/65535/50039357121_4335462e92_o.jpg",
    "id_image": "Astronaut_548678",
    "count_view": 0
  },
  {
    "link_thumb": "https://live.staticflickr.com/65535/50040752877_a32626a2d9_n.jpg",
    "id_album": "1613540653",
    "description": "Space_287043",
    "title": "Space_287043",
    "link_img": "https://live.staticflickr.com/65535/50040752877_7cc0bb4da7_o.jpg",
    "id_image": "Space_287043",
    "count_view": 0
  },
  {
    "link_thumb": "https://live.staticflickr.com/65535/50040158467_7932484ac2_n.jpg",
    "id_album": "1896531081",
    "description": "People_305750",
    "title": "People_305750",
    "link_img": "https://live.staticflickr.com/65535/50040158467_6033d55eae_o.jpg",
    "id_image": "People_305750",
    "count_view": 0
  },
  {
    "link_thumb": "https://live.staticflickr.com/65535/50040654621_8b8d2111e9_n.jpg",
    "id_album": "2130067313",
    "description": "Spaceship_329512",
    "title": "Spaceship_329512",
    "link_img": "https://live.staticflickr.com/65535/50040654621_c85a61aaac_o.jpg",
    "id_image": "Spaceship_329512",
    "count_view": 0
  },
  {
    "link_thumb": "https://live.staticflickr.com/65535/50039445591_29a59cbd2b_n.jpg",
    "id_album": "-1964113117",
    "description": "City_209618",
    "title": "City_209618",
    "link_img": "https://live.staticflickr.com/65535/50039445591_5ef55a2e97_o.jpg",
    "id_image": "City_209618",
    "count_view": 0
  },
  {
    "link_thumb": "https://live.staticflickr.com/65535/50039250181_66e483f09a_n.jpg",
    "id_album": "849020728",
    "description": "Alien_181504",
    "title": "Alien_181504",
    "link_img": "https://live.staticflickr.com/65535/50039250181_d1c59bd2bd_o.jpg",
    "id_image": "Alien_181504",
    "count_view": 0
  },
  {
    "link_thumb": "https://live.staticflickr.com/65535/50040309097_fcd5e525b3_n.jpg",
    "id_album": "-1102314093",
    "description": "Planets_109387",
    "title": "Planets_109387",
    "link_img": "https://live.staticflickr.com/65535/50040309097_dc520b5dcc_o.jpg",
    "id_image": "Planets_109387",
    "count_view": 0
  },
  {
    "link_thumb": "https://live.staticflickr.com/65535/50039259683_b807926190_n.jpg",
    "id_album": "-1610342324",
    "description": "Nebula_555597",
    "title": "Nebula_555597",
    "link_img": "https://live.staticflickr.com/65535/50039259683_55e06fd956_o.jpg",
    "id_image": "Nebula_555597",
    "count_view": 0
  },
  {
    "link_thumb": "https://live.staticflickr.com/65535/50039400751_839b79e7b1_n.jpg",
    "id_album": "1187037014",
    "description": "Battle_312152",
    "title": "Battle_312152",
    "link_img": "https://live.staticflickr.com/65535/50039400751_a65957653c_o.jpg",
    "id_image": "Battle_312152",
    "count_view": 0
  },
  {
    "link_thumb": "https://live.staticflickr.com/65535/50040391301_01bf14ca18_n.jpg",
    "id_album": "779690680",
    "description": "Robot_883158",
    "title": "Robot_883158",
    "link_img": "https://live.staticflickr.com/65535/50040391301_cfa42aed30_o.jpg",
    "id_image": "Robot_883158",
    "count_view": 0
  },
  {
    "link_thumb": "https://live.staticflickr.com/65535/50038897253_811bae18b1_n.jpg",
    "id_album": "-1964113117",
    "description": "City_213494",
    "title": "City_213494",
    "link_img": "https://live.staticflickr.com/65535/50038897253_8ca54efdb3_o.jpg",
    "id_image": "City_213494",
    "count_view": 0
  },
  {
    "link_thumb": "https://live.staticflickr.com/65535/50040571567_37c3b9d85e_n.jpg",
    "id_album": "779690680",
    "description": "Robot_423178",
    "title": "Robot_423178",
    "link_img": "https://live.staticflickr.com/65535/50040571567_4714004f1c_o.jpg",
    "id_image": "Robot_423178",
    "count_view": 0
  },
  {
    "link_thumb": "https://live.staticflickr.com/65535/50041566282_dd8d917598_n.jpg",
    "id_album": "1267121215",
    "description": "Steampunk_236458",
    "title": "Steampunk_236458",
    "link_img": "https://live.staticflickr.com/65535/50041566282_d7c05eaa0a_o.jpg",
    "id_image": "Steampunk_236458",
    "count_view": 0
  },
  {
    "link_thumb": "https://live.staticflickr.com/65535/50038836298_04dbd351b3_n.jpg",
    "id_album": "869545341",
    "description": "Astronaut_957394",
    "title": "Astronaut_957394",
    "link_img": "https://live.staticflickr.com/65535/50038836298_dda7a3be0c_o.jpg",
    "id_image": "Astronaut_957394",
    "count_view": 0
  },
  {
    "link_thumb": "https://live.staticflickr.com/65535/50040301541_106e35beaa_n.jpg",
    "id_album": "779690680",
    "description": "Robot_396916",
    "title": "Robot_396916",
    "link_img": "https://live.staticflickr.com/65535/50040301541_d09ef59efe_o.jpg",
    "id_image": "Robot_396916",
    "count_view": 0
  },
  {
    "link_thumb": "https://live.staticflickr.com/65535/50038868178_056266e835_n.jpg",
    "id_album": "-1780971522",
    "description": "Biohazard_566062",
    "title": "Biohazard_566062",
    "link_img": "https://live.staticflickr.com/65535/50038868178_59e96c3e1c_o.jpg",
    "id_image": "Biohazard_566062",
    "count_view": 0
  },
  {
    "link_thumb": "https://live.staticflickr.com/65535/50040896073_cf7a0c860c_n.jpg",
    "id_album": "-1261420436",
    "description": "Warrior_336315",
    "title": "Warrior_336315",
    "link_img": "https://live.staticflickr.com/65535/50040896073_1dd2690d12_o.jpg",
    "id_image": "Warrior_336315",
    "count_view": 0
  },
  {
    "link_thumb": "https://live.staticflickr.com/65535/50040788678_cedc6584cf_n.jpg",
    "id_album": "-221671103",
    "description": "Sun_245941",
    "title": "Sun_245941",
    "link_img": "https://live.staticflickr.com/65535/50040788678_a35b16c174_o.jpg",
    "id_image": "Sun_245941",
    "count_view": 0
  },
  {
    "link_thumb": "https://live.staticflickr.com/65535/50039222538_78200dc2c4_n.jpg",
    "id_album": "-1610342324",
    "description": "Nebula_220635",
    "title": "Nebula_220635",
    "link_img": "https://live.staticflickr.com/65535/50039222538_ddd62dd3b4_o.jpg",
    "id_image": "Nebula_220635",
    "count_view": 0
  },
  {
    "link_thumb": "https://live.staticflickr.com/65535/50039291546_17e05e5747_n.jpg",
    "id_album": "523598895",
    "description": "Artistic_104388",
    "title": "Artistic_104388",
    "link_img": "https://live.staticflickr.com/65535/50039291546_a048058784_o.jpg",
    "id_image": "Artistic_104388",
    "count_view": 0
  },
  {
    "link_thumb": "https://live.staticflickr.com/65535/50040344992_1be4094a48_n.jpg",
    "id_album": "-1102314093",
    "description": "Planets_32584",
    "title": "Planets_32584",
    "link_img": "https://live.staticflickr.com/65535/50040344992_cc8f427e07_o.jpg",
    "id_image": "Planets_32584",
    "count_view": 0
  },
  {
    "link_thumb": "https://live.staticflickr.com/65535/50039183803_4b66855098_n.jpg",
    "id_album": "-1388385651",
    "description": "MilkyWay_555449",
    "title": "MilkyWay_555449",
    "link_img": "https://live.staticflickr.com/65535/50039183803_26df7aec03_o.jpg",
    "id_image": "MilkyWay_555449",
    "count_view": 0
  },
  {
    "link_thumb": "https://live.staticflickr.com/65535/50038729513_2a2001d0df_n.jpg",
    "id_album": "849020728",
    "description": "Alien_928553",
    "title": "Alien_928553",
    "link_img": "https://live.staticflickr.com/65535/50038729513_d8b8d94b0d_o.jpg",
    "id_image": "Alien_928553",
    "count_view": 0
  },
  {
    "link_thumb": "https://live.staticflickr.com/65535/50039709751_009f17491f_n.jpg",
    "id_album": "1402713104",
    "description": "Landscape_843155",
    "title": "Landscape_843155",
    "link_img": "https://live.staticflickr.com/65535/50039709751_a4f10d15e3_o.jpg",
    "id_image": "Landscape_843155",
    "count_view": 0
  },
  {
    "link_thumb": "https://live.staticflickr.com/65535/50040069587_d3c18c6f6e_n.jpg",
    "id_album": "-1610342324",
    "description": "Nebula_545898",
    "title": "Nebula_545898",
    "link_img": "https://live.staticflickr.com/65535/50040069587_237c521937_o.jpg",
    "id_image": "Nebula_545898",
    "count_view": 0
  },
  {
    "link_thumb": "https://live.staticflickr.com/65535/50039683641_b0da3ccf11_n.jpg",
    "id_album": "1402713104",
    "description": "Landscape_374873",
    "title": "Landscape_374873",
    "link_img": "https://live.staticflickr.com/65535/50039683641_c36dfc380a_o.jpg",
    "id_image": "Landscape_374873",
    "count_view": 0
  },
  {
    "link_thumb": "https://live.staticflickr.com/65535/50039583331_06522fb2f4_n.jpg",
    "id_album": "829169633",
    "description": "Cyborg_265063",
    "title": "Cyborg_265063",
    "link_img": "https://live.staticflickr.com/65535/50039583331_bea7fb02ed_o.jpg",
    "id_image": "Cyborg_265063",
    "count_view": 0
  },
  {
    "link_thumb": "https://live.staticflickr.com/65535/50039900597_77ef833d80_n.jpg",
    "id_album": "1204249541",
    "description": "Galaxy_485802",
    "title": "Galaxy_485802",
    "link_img": "https://live.staticflickr.com/65535/50039900597_68bb6aa4cd_o.jpg",
    "id_image": "Galaxy_485802",
    "count_view": 0
  },
  {
    "link_thumb": "https://live.staticflickr.com/65535/50041613927_2a0b8a04d3_n.jpg",
    "id_album": "-221671103",
    "description": "Sun_551154",
    "title": "Sun_551154",
    "link_img": "https://live.staticflickr.com/65535/50041613927_075bd4829e_o.jpg",
    "id_image": "Sun_551154",
    "count_view": 0
  },
  {
    "link_thumb": "https://live.staticflickr.com/65535/50039224763_9efa737f00_n.jpg",
    "id_album": "-1610342324",
    "description": "Nebula_239999",
    "title": "Nebula_239999",
    "link_img": "https://live.staticflickr.com/65535/50039224763_abc0238128_o.jpg",
    "id_image": "Nebula_239999",
    "count_view": 0
  },
  {
    "link_thumb": "https://live.staticflickr.com/65535/50039838066_a6c399ae5a_n.jpg",
    "id_album": "-1610342324",
    "description": "Nebula_795901",
    "title": "Nebula_795901",
    "link_img": "https://live.staticflickr.com/65535/50039838066_9e21328a3e_o.jpg",
    "id_image": "Nebula_795901",
    "count_view": 0
  },
  {
    "link_thumb": "https://live.staticflickr.com/65535/50039552432_b9f08e0a74_n.jpg",
    "id_album": "-419633230",
    "description": "Apocalyptic_997968",
    "title": "Apocalyptic_997968",
    "link_img": "https://live.staticflickr.com/65535/50039552432_4002d7efe0_o.jpg",
    "id_image": "Apocalyptic_997968",
    "count_view": 0
  },
  {
    "link_thumb": "https://live.staticflickr.com/65535/50039316366_135e3d9ce4_n.jpg",
    "id_album": "523598895",
    "description": "Artistic_220485",
    "title": "Artistic_220485",
    "link_img": "https://live.staticflickr.com/65535/50039316366_e75c97f956_o.jpg",
    "id_image": "Artistic_220485",
    "count_view": 0
  },
  {
    "link_thumb": "https://live.staticflickr.com/65535/50039118238_7ffba91d1c_n.jpg",
    "id_album": "1402713104",
    "description": "Landscape_252924",
    "title": "Landscape_252924",
    "link_img": "https://live.staticflickr.com/65535/50039118238_d5c269d636_o.jpg",
    "id_image": "Landscape_252924",
    "count_view": 0
  },
  {
    "link_thumb": "https://live.staticflickr.com/65535/50041446046_3f04f449db_n.jpg",
    "id_album": "-1261420436",
    "description": "Warrior_313857",
    "title": "Warrior_313857",
    "link_img": "https://live.staticflickr.com/65535/50041446046_9312e351db_o.jpg",
    "id_image": "Warrior_313857",
    "count_view": 0
  },
  {
    "link_thumb": "https://live.staticflickr.com/65535/50039645047_b260e20d66_n.jpg",
    "id_album": "869545341",
    "description": "Astronaut_931830",
    "title": "Astronaut_931830",
    "link_img": "https://live.staticflickr.com/65535/50039645047_6a6378b1e4_o.jpg",
    "id_image": "Astronaut_931830",
    "count_view": 0
  },
  {
    "link_thumb": "https://live.staticflickr.com/65535/50038926378_9c8e9c282e_n.jpg",
    "id_album": "-1964113117",
    "description": "City_527907",
    "title": "City_527907",
    "link_img": "https://live.staticflickr.com/65535/50038926378_ba02af5fac_o.jpg",
    "id_image": "City_527907",
    "count_view": 0
  },
  {
    "link_thumb": "https://live.staticflickr.com/65535/50040337791_6dbcf594d3_n.jpg",
    "id_album": "779690680",
    "description": "Robot_587353",
    "title": "Robot_587353",
    "link_img": "https://live.staticflickr.com/65535/50040337791_f7c0cddaec_o.jpg",
    "id_image": "Robot_587353",
    "count_view": 0
  },
  {
    "link_thumb": "https://live.staticflickr.com/65535/50039358126_f4f3b47977_n.jpg",
    "id_album": "869545341",
    "description": "Astronaut_567012",
    "title": "Astronaut_567012",
    "link_img": "https://live.staticflickr.com/65535/50039358126_1d9aa996f4_o.jpg",
    "id_image": "Astronaut_567012",
    "count_view": 0
  },
  {
    "link_thumb": "https://live.staticflickr.com/65535/50039236076_435d2d1de9_n.jpg",
    "id_album": "-406145265",
    "description": "Aircraft_269540",
    "title": "Aircraft_269540",
    "link_img": "https://live.staticflickr.com/65535/50039236076_377f9f5640_o.jpg",
    "id_image": "Aircraft_269540",
    "count_view": 0
  },
  {
    "link_thumb": "https://live.staticflickr.com/65535/50039580366_5588f45d7d_n.jpg",
    "id_album": "829169633",
    "description": "Cyborg_187721",
    "title": "Cyborg_187721",
    "link_img": "https://live.staticflickr.com/65535/50039580366_f812e1e118_o.jpg",
    "id_image": "Cyborg_187721",
    "count_view": 0
  },
  {
    "link_thumb": "https://live.staticflickr.com/65535/50039677751_57738f8333_n.jpg",
    "id_album": "1402713104",
    "description": "Landscape_330244",
    "title": "Landscape_330244",
    "link_img": "https://live.staticflickr.com/65535/50039677751_241bdb131d_o.jpg",
    "id_image": "Landscape_330244",
    "count_view": 0
  },
  {
    "link_thumb": "https://live.staticflickr.com/65535/50039926472_1d75582d97_n.jpg",
    "id_album": "1402713104",
    "description": "Landscape_178341",
    "title": "Landscape_178341",
    "link_img": "https://live.staticflickr.com/65535/50039926472_6cc1e2a5af_o.jpg",
    "id_image": "Landscape_178341",
    "count_view": 0
  },
  {
    "link_thumb": "https://live.staticflickr.com/65535/50041547042_495c6001bf_n.jpg",
    "id_album": "-1587696329",
    "description": "Stars_947554",
    "title": "Stars_947554",
    "link_img": "https://live.staticflickr.com/65535/50041547042_b1822768e8_o.jpg",
    "id_image": "Stars_947554",
    "count_view": 0
  },
  {
    "link_thumb": "https://live.staticflickr.com/65535/50038916423_3743de74bb_n.jpg",
    "id_album": "-1964113117",
    "description": "City_345696",
    "title": "City_345696",
    "link_img": "https://live.staticflickr.com/65535/50038916423_e509f31ba1_o.jpg",
    "id_image": "City_345696",
    "count_view": 0
  },
  {
    "link_thumb": "https://live.staticflickr.com/65535/50039625263_993f79b79c_n.jpg",
    "id_album": "376235057",
    "description": "Planetscape_559145",
    "title": "Planetscape_559145",
    "link_img": "https://live.staticflickr.com/65535/50039625263_83c0774ed9_o.jpg",
    "id_image": "Planetscape_559145",
    "count_view": 0
  },
  {
    "link_thumb": "https://live.staticflickr.com/65535/50039423908_cf1b8f8b65_n.jpg",
    "id_album": "395161030",
    "description": "Planet_717757",
    "title": "Planet_717757",
    "link_img": "https://live.staticflickr.com/65535/50039423908_79f8be1352_o.jpg",
    "id_image": "Planet_717757",
    "count_view": 0
  },
  {
    "link_thumb": "https://live.staticflickr.com/65535/50039929942_98b16fd58c_n.jpg",
    "id_album": "1402713104",
    "description": "Landscape_239777",
    "title": "Landscape_239777",
    "link_img": "https://live.staticflickr.com/65535/50039929942_141b297993_o.jpg",
    "id_image": "Landscape_239777",
    "count_view": 0
  },
  {
    "link_thumb": "https://live.staticflickr.com/65535/50039081373_9b93fd464f_n.jpg",
    "id_album": "1204249541",
    "description": "Galaxy_308301",
    "title": "Galaxy_308301",
    "link_img": "https://live.staticflickr.com/65535/50039081373_7024b729e8_o.jpg",
    "id_image": "Galaxy_308301",
    "count_view": 0
  },
  {
    "link_thumb": "https://live.staticflickr.com/65535/50039756406_df22c0b5f7_n.jpg",
    "id_album": "416351698",
    "description": "Moon_480018",
    "title": "Moon_480018",
    "link_img": "https://live.staticflickr.com/65535/50039756406_8c8e21edc2_o.jpg",
    "id_image": "Moon_480018",
    "count_view": 0
  },
  {
    "link_thumb": "https://live.staticflickr.com/65535/50040327112_6a7678301a_n.jpg",
    "id_album": "-1102314093",
    "description": "Planets_237553",
    "title": "Planets_237553",
    "link_img": "https://live.staticflickr.com/65535/50040327112_697a3a18a1_o.jpg",
    "id_image": "Planets_237553",
    "count_view": 0
  },
  {
    "link_thumb": "https://live.staticflickr.com/65535/50039004508_ea7821afd2_n.jpg",
    "id_album": "-437872736",
    "description": "Creature_333367",
    "title": "Creature_333367",
    "link_img": "https://live.staticflickr.com/65535/50039004508_4210796a9f_o.jpg",
    "id_image": "Creature_333367",
    "count_view": 0
  },
  {
    "link_thumb": "https://live.staticflickr.com/65535/50039267331_48d6a2da4c_n.jpg",
    "id_album": "849020728",
    "description": "Alien_484817",
    "title": "Alien_484817",
    "link_img": "https://live.staticflickr.com/65535/50039267331_88c8da3768_o.jpg",
    "id_image": "Alien_484817",
    "count_view": 0
  },
  {
    "link_thumb": "https://live.staticflickr.com/65535/50041442527_f81dff17bc_n.jpg",
    "id_album": "-1863373220",
    "description": "StarWars_429294",
    "title": "StarWars_429294",
    "link_img": "https://live.staticflickr.com/65535/50041442527_7d034c47a5_o.jpg",
    "id_image": "StarWars_429294",
    "count_view": 0
  },
  {
    "link_thumb": "https://live.staticflickr.com/65535/50039234493_cffe493308_n.jpg",
    "id_album": "-1610342324",
    "description": "Nebula_291470",
    "title": "Nebula_291470",
    "link_img": "https://live.staticflickr.com/65535/50039234493_9cedf6692e_o.jpg",
    "id_image": "Nebula_291470",
    "count_view": 0
  },
  {
    "link_thumb": "https://live.staticflickr.com/65535/50039685302_34ba0eab2d_n.jpg",
    "id_album": "406431601",
    "description": "Building_692305",
    "title": "Building_692305",
    "link_img": "https://live.staticflickr.com/65535/50039685302_e6e191ceef_o.jpg",
    "id_image": "Building_692305",
    "count_view": 0
  },
  {
    "link_thumb": "https://live.staticflickr.com/65535/50039075483_f7ef8d773b_n.jpg",
    "id_album": "1204249541",
    "description": "Galaxy_155639",
    "title": "Galaxy_155639",
    "link_img": "https://live.staticflickr.com/65535/50039075483_1199cc5d07_o.jpg",
    "id_image": "Galaxy_155639",
    "count_view": 0
  },
  {
    "link_thumb": "https://live.staticflickr.com/65535/50039657276_f20bedf3bf_n.jpg",
    "id_album": "1204249541",
    "description": "Galaxy_975252",
    "title": "Galaxy_975252",
    "link_img": "https://live.staticflickr.com/65535/50039657276_fee79fc4a5_o.jpg",
    "id_image": "Galaxy_975252",
    "count_view": 0
  },
  {
    "link_thumb": "https://live.staticflickr.com/65535/50039271391_17aa0ba07b_n.jpg",
    "id_album": "849020728",
    "description": "Alien_599877",
    "title": "Alien_599877",
    "link_img": "https://live.staticflickr.com/65535/50039271391_2e6a81543e_o.jpg",
    "id_image": "Alien_599877",
    "count_view": 0
  },
  {
    "link_thumb": "https://live.staticflickr.com/65535/50039962217_14d889ae0d_n.jpg",
    "id_album": "1402713104",
    "description": "Landscape_675208",
    "title": "Landscape_675208",
    "link_img": "https://live.staticflickr.com/65535/50039962217_91f56a1c05_o.jpg",
    "id_image": "Landscape_675208",
    "count_view": 0
  },
  {
    "link_thumb": "https://live.staticflickr.com/65535/50040433697_13c391efd5_n.jpg",
    "id_album": "376235057",
    "description": "Planetscape_376297",
    "title": "Planetscape_376297",
    "link_img": "https://live.staticflickr.com/65535/50040433697_ef3b9f2ea2_o.jpg",
    "id_image": "Planetscape_376297",
    "count_view": 0
  },
  {
    "link_thumb": "https://live.staticflickr.com/65535/50039660656_b1967767fe_n.jpg",
    "id_album": "1402713104",
    "description": "Landscape_146032",
    "title": "Landscape_146032",
    "link_img": "https://live.staticflickr.com/65535/50039660656_f0bcc06d6d_o.jpg",
    "id_image": "Landscape_146032",
    "count_view": 0
  },
  {
    "link_thumb": "https://live.staticflickr.com/65535/50039654571_53c5c625a7_n.jpg",
    "id_album": "1204249541",
    "description": "Galaxy_86678",
    "title": "Galaxy_86678",
    "link_img": "https://live.staticflickr.com/65535/50039654571_325b45ba47_o.jpg",
    "id_image": "Galaxy_86678",
    "count_view": 0
  },
  {
    "link_thumb": "https://live.staticflickr.com/65535/50039965658_8385b85254_n.jpg",
    "id_album": "1613540653",
    "description": "Space_659468",
    "title": "Space_659468",
    "link_img": "https://live.staticflickr.com/65535/50039965658_f71722f6e0_o.jpg",
    "id_image": "Space_659468",
    "count_view": 0
  },
  {
    "link_thumb": "https://live.staticflickr.com/65535/50040031312_58808e6021_n.jpg",
    "id_album": "-1610342324",
    "description": "Nebula_199821",
    "title": "Nebula_199821",
    "link_img": "https://live.staticflickr.com/65535/50040031312_e35046ee12_o.jpg",
    "id_image": "Nebula_199821",
    "count_view": 0
  },
  {
    "link_thumb": "https://live.staticflickr.com/65535/50039214478_500a70d7ae_n.jpg",
    "id_album": "-1610342324",
    "description": "Nebula_171806",
    "title": "Nebula_171806",
    "link_img": "https://live.staticflickr.com/65535/50039214478_92087ca612_o.jpg",
    "id_image": "Nebula_171806",
    "count_view": 0
  },
  {
    "link_thumb": "https://live.staticflickr.com/65535/50039390306_8a1211f1b5_n.jpg",
    "id_album": "869545341",
    "description": "Astronaut_990251",
    "title": "Astronaut_990251",
    "link_img": "https://live.staticflickr.com/65535/50039390306_338e9e6814_o.jpg",
    "id_image": "Astronaut_990251",
    "count_view": 0
  },
  {
    "link_thumb": "https://live.staticflickr.com/65535/50040172226_c86ba5044b_n.jpg",
    "id_album": "376235057",
    "description": "Planetscape_419635",
    "title": "Planetscape_419635",
    "link_img": "https://live.staticflickr.com/65535/50040172226_0dc57714ec_o.jpg",
    "id_image": "Planetscape_419635",
    "count_view": 0
  },
  {
    "link_thumb": "https://live.staticflickr.com/65535/50041679587_3197bf43b7_n.jpg",
    "id_album": "2020068132",
    "description": "Vehicle_874023",
    "title": "Vehicle_874023",
    "link_img": "https://live.staticflickr.com/65535/50041679587_a54f58ae3e_o.jpg",
    "id_image": "Vehicle_874023",
    "count_view": 0
  },
  {
    "link_thumb": "https://live.staticflickr.com/65535/50039919987_4d293cbc9a_n.jpg",
    "id_album": "1204249541",
    "description": "Galaxy_947087",
    "title": "Galaxy_947087",
    "link_img": "https://live.staticflickr.com/65535/50039919987_2525fe6667_o.jpg",
    "id_image": "Galaxy_947087",
    "count_view": 0
  },
  {
    "link_thumb": "https://live.staticflickr.com/65535/50039338636_e23444dfe0_n.jpg",
    "id_album": "523598895",
    "description": "Artistic_547511",
    "title": "Artistic_547511",
    "link_img": "https://live.staticflickr.com/65535/50039338636_1f23890212_o.jpg",
    "id_image": "Artistic_547511",
    "count_view": 0
  },
  {
    "link_thumb": "https://live.staticflickr.com/65535/50040115831_3ffc6895e1_n.jpg",
    "id_album": "-1102314093",
    "description": "Planets_439169",
    "title": "Planets_439169",
    "link_img": "https://live.staticflickr.com/65535/50040115831_11b882951d_o.jpg",
    "id_image": "Planets_439169",
    "count_view": 0
  },
  {
    "link_thumb": "https://live.staticflickr.com/65535/50040557651_9c419337e9_n.jpg",
    "id_album": "-1532370292",
    "description": "SpaceStation_425727",
    "title": "SpaceStation_425727",
    "link_img": "https://live.staticflickr.com/65535/50040557651_8edd4e62f6_o.jpg",
    "id_image": "SpaceStation_425727",
    "count_view": 0
  },
  {
    "link_thumb": "https://live.staticflickr.com/65535/50038926938_10337b0f24_n.jpg",
    "id_album": "-1964113117",
    "description": "City_527928",
    "title": "City_527928",
    "link_img": "https://live.staticflickr.com/65535/50038926938_1dca574598_o.jpg",
    "id_image": "City_527928",
    "count_view": 0
  },
  {
    "link_thumb": "https://live.staticflickr.com/65535/50040190697_e1198dc976_n.jpg",
    "id_album": "395161030",
    "description": "Planet_316710",
    "title": "Planet_316710",
    "link_img": "https://live.staticflickr.com/65535/50040190697_6d64c2e9e1_o.jpg",
    "id_image": "Planet_316710",
    "count_view": 0
  },
  {
    "link_thumb": "https://live.staticflickr.com/65535/50039311566_038ac5c7e2_n.jpg",
    "id_album": "523598895",
    "description": "Artistic_202209",
    "title": "Artistic_202209",
    "link_img": "https://live.staticflickr.com/65535/50039311566_3d9eb0210e_o.jpg",
    "id_image": "Artistic_202209",
    "count_view": 0
  },
  {
    "link_thumb": "https://live.staticflickr.com/65535/50038836763_d1f858cd67_n.jpg",
    "id_album": "869545341",
    "description": "Astronaut_957433",
    "title": "Astronaut_957433",
    "link_img": "https://live.staticflickr.com/65535/50038836763_5d6c3a48f4_o.jpg",
    "id_image": "Astronaut_957433",
    "count_view": 0
  },
  {
    "link_thumb": "https://live.staticflickr.com/65535/50039257418_02d86f17fc_n.jpg",
    "id_album": "-1610342324",
    "description": "Nebula_548119",
    "title": "Nebula_548119",
    "link_img": "https://live.staticflickr.com/65535/50039257418_6113ac2e32_o.jpg",
    "id_image": "Nebula_548119",
    "count_view": 0
  },
  {
    "link_thumb": "https://live.staticflickr.com/65535/50038738103_2cf552aa28_n.jpg",
    "id_album": "-419633230",
    "description": "Apocalyptic_678101",
    "title": "Apocalyptic_678101",
    "link_img": "https://live.staticflickr.com/65535/50038738103_94aa5ba697_o.jpg",
    "id_image": "Apocalyptic_678101",
    "count_view": 0
  },
  {
    "link_thumb": "https://live.staticflickr.com/65535/50041415182_bfc9efac1f_n.jpg",
    "id_album": "-1863373220",
    "description": "StarWars_238888",
    "title": "StarWars_238888",
    "link_img": "https://live.staticflickr.com/65535/50041415182_47061c5cc8_o.jpg",
    "id_image": "StarWars_238888",
    "count_view": 0
  },
  {
    "link_thumb": "https://live.staticflickr.com/65535/50040474326_143fc64e99_n.jpg",
    "id_album": "1613540653",
    "description": "Space_180938",
    "title": "Space_180938",
    "link_img": "https://live.staticflickr.com/65535/50040474326_d0abfd4255_o.jpg",
    "id_image": "Space_180938",
    "count_view": 0
  },
  {
    "link_thumb": "https://live.staticflickr.com/65535/50041012657_a6ac3d1f1c_n.jpg",
    "id_album": "2130067313",
    "description": "Spaceship_785328",
    "title": "Spaceship_785328",
    "link_img": "https://live.staticflickr.com/65535/50041012657_85fee80942_o.jpg",
    "id_image": "Spaceship_785328",
    "count_view": 0
  },
  {
    "link_thumb": "https://live.staticflickr.com/65535/50040100707_acface6235_n.jpg",
    "id_album": "-1610342324",
    "description": "Nebula_78849",
    "title": "Nebula_78849",
    "link_img": "https://live.staticflickr.com/65535/50040100707_fb0a85bdd4_o.jpg",
    "id_image": "Nebula_78849",
    "count_view": 0
  },
  {
    "link_thumb": "https://live.staticflickr.com/65535/50039822786_a2d41b30d8_n.jpg",
    "id_album": "-1610342324",
    "description": "Nebula_687242",
    "title": "Nebula_687242",
    "link_img": "https://live.staticflickr.com/65535/50039822786_f5cf946704_o.jpg",
    "id_image": "Nebula_687242",
    "count_view": 0
  },
  {
    "link_thumb": "https://live.staticflickr.com/65535/50040741362_b0e241b18d_n.jpg",
    "id_album": "1613540653",
    "description": "Space_192889",
    "title": "Space_192889",
    "link_img": "https://live.staticflickr.com/65535/50040741362_403dac0a45_o.jpg",
    "id_image": "Space_192889",
    "count_view": 0
  },
  {
    "link_thumb": "https://live.staticflickr.com/65535/50038810753_4fd44f4910_n.jpg",
    "id_album": "869545341",
    "description": "Astronaut_587343",
    "title": "Astronaut_587343",
    "link_img": "https://live.staticflickr.com/65535/50038810753_ac4bb1828b_o.jpg",
    "id_image": "Astronaut_587343",
    "count_view": 0
  },
  {
    "link_thumb": "https://live.staticflickr.com/65535/50040296216_3093f12733_n.jpg",
    "id_album": "779690680",
    "description": "Robot_367646",
    "title": "Robot_367646",
    "link_img": "https://live.staticflickr.com/65535/50040296216_f36bf00854_o.jpg",
    "id_image": "Robot_367646",
    "count_view": 0
  },
  {
    "link_thumb": "https://live.staticflickr.com/65535/50038866418_ea82d2e570_n.jpg",
    "id_album": "-1780971522",
    "description": "Biohazard_494276",
    "title": "Biohazard_494276",
    "link_img": "https://live.staticflickr.com/65535/50038866418_19708d22f8_o.jpg",
    "id_image": "Biohazard_494276",
    "count_view": 0
  },
  {
    "link_thumb": "https://live.staticflickr.com/65535/50039690172_e7ac279400_n.jpg",
    "id_album": "406431601",
    "description": "Building_938829",
    "title": "Building_938829",
    "link_img": "https://live.staticflickr.com/65535/50039690172_b47a2b3c8a_o.jpg",
    "id_image": "Building_938829",
    "count_view": 0
  },
  {
    "link_thumb": "https://live.staticflickr.com/65535/50039584301_f21e10ce79_n.jpg",
    "id_album": "829169633",
    "description": "Cyborg_283335",
    "title": "Cyborg_283335",
    "link_img": "https://live.staticflickr.com/65535/50039584301_6e7ee521f2_o.jpg",
    "id_image": "Cyborg_283335",
    "count_view": 0
  },
  {
    "link_thumb": "https://live.staticflickr.com/65535/50041706152_9b9df7bdbc_n.jpg",
    "id_album": "-1261420436",
    "description": "Warrior_283601",
    "title": "Warrior_283601",
    "link_img": "https://live.staticflickr.com/65535/50041706152_b332401af9_o.jpg",
    "id_image": "Warrior_283601",
    "count_view": 0
  },
  {
    "link_thumb": "https://live.staticflickr.com/65535/50039477816_4c3a1d8591_n.jpg",
    "id_album": "-1964113117",
    "description": "City_552303",
    "title": "City_552303",
    "link_img": "https://live.staticflickr.com/65535/50039477816_399524efb0_o.jpg",
    "id_image": "City_552303",
    "count_view": 0
  },
  {
    "link_thumb": "https://live.staticflickr.com/65535/50039662162_eed41f84ef_n.jpg",
    "id_album": "1187037014",
    "description": "Battle_284536",
    "title": "Battle_284536",
    "link_img": "https://live.staticflickr.com/65535/50039662162_4d56091484_o.jpg",
    "id_image": "Battle_284536",
    "count_view": 0
  },
  {
    "link_thumb": "https://live.staticflickr.com/65535/50041325101_ac8d31aedb_n.jpg",
    "id_album": "1267121215",
    "description": "Steampunk_655447",
    "title": "Steampunk_655447",
    "link_img": "https://live.staticflickr.com/65535/50041325101_fbe50a6bb3_o.jpg",
    "id_image": "Steampunk_655447",
    "count_view": 0
  },
  {
    "link_thumb": "https://live.staticflickr.com/65535/50039490492_9ca622def0_n.jpg",
    "id_album": "280884763",
    "description": "Abstract_229060",
    "title": "Abstract_229060",
    "link_img": "https://live.staticflickr.com/65535/50039490492_dc71ae5c00_o.jpg",
    "id_image": "Abstract_229060",
    "count_view": 0
  },
  {
    "link_thumb": "https://live.staticflickr.com/65535/50040427351_3b93c2a17c_n.jpg",
    "id_album": "779690680",
    "description": "Robot_930300",
    "title": "Robot_930300",
    "link_img": "https://live.staticflickr.com/65535/50040427351_c3951669d5_o.jpg",
    "id_image": "Robot_930300",
    "count_view": 0
  },
  {
    "link_thumb": "https://live.staticflickr.com/65535/50040079132_9157a4d09c_n.jpg",
    "id_album": "-1610342324",
    "description": "Nebula_594998",
    "title": "Nebula_594998",
    "link_img": "https://live.staticflickr.com/65535/50040079132_8598831e71_o.jpg",
    "id_image": "Nebula_594998",
    "count_view": 0
  },
  {
    "link_thumb": "https://live.staticflickr.com/65535/50039437436_453617a0d2_n.jpg",
    "id_album": "-1964113117",
    "description": "City_157265",
    "title": "City_157265",
    "link_img": "https://live.staticflickr.com/65535/50039437436_d85b4ab25e_o.jpg",
    "id_image": "City_157265",
    "count_view": 0
  },
  {
    "link_thumb": "https://live.staticflickr.com/65535/50039224548_278f4b912c_n.jpg",
    "id_album": "-1610342324",
    "description": "Nebula_2353",
    "title": "Nebula_2353",
    "link_img": "https://live.staticflickr.com/65535/50039224548_d275388e63_o.jpg",
    "id_image": "Nebula_2353",
    "count_view": 0
  },
  {
    "link_thumb": "https://live.staticflickr.com/65535/50039598272_0b4d29ea31_n.jpg",
    "id_album": "523598895",
    "description": "Artistic_447890",
    "title": "Artistic_447890",
    "link_img": "https://live.staticflickr.com/65535/50039598272_2569fd55ce_o.jpg",
    "id_image": "Artistic_447890",
    "count_view": 0
  },
  {
    "link_thumb": "https://live.staticflickr.com/65535/50038749058_5e91a05202_n.jpg",
    "id_album": "523598895",
    "description": "Artistic_151369",
    "title": "Artistic_151369",
    "link_img": "https://live.staticflickr.com/65535/50038749058_2076c7780c_o.jpg",
    "id_image": "Artistic_151369",
    "count_view": 0
  },
  {
    "link_thumb": "https://live.staticflickr.com/65535/50038993988_3ca0653db4_n.jpg",
    "id_album": "894679094",
    "description": "Collision_669906",
    "title": "Collision_669906",
    "link_img": "https://live.staticflickr.com/65535/50038993988_2132aa18f1_o.jpg",
    "id_image": "Collision_669906",
    "count_view": 0
  },
  {
    "link_thumb": "https://live.staticflickr.com/65535/50039093088_9273a4c136_n.jpg",
    "id_album": "1204249541",
    "description": "Galaxy_550127",
    "title": "Galaxy_550127",
    "link_img": "https://live.staticflickr.com/65535/50039093088_04ab6a15e5_o.jpg",
    "id_image": "Galaxy_550127",
    "count_view": 0
  },
  {
    "link_thumb": "https://live.staticflickr.com/65535/50040931743_df1bb59b12_n.jpg",
    "id_album": "-1261420436",
    "description": "Warrior_713593",
    "title": "Warrior_713593",
    "link_img": "https://live.staticflickr.com/65535/50040931743_b8c2903c06_o.jpg",
    "id_image": "Warrior_713593",
    "count_view": 0
  },
  {
    "link_thumb": "https://live.staticflickr.com/65535/50040518482_7934920ae7_n.jpg",
    "id_album": "779690680",
    "description": "Robot_12910",
    "title": "Robot_12910",
    "link_img": "https://live.staticflickr.com/65535/50040518482_4208bf7ab2_o.jpg",
    "id_image": "Robot_12910",
    "count_view": 0
  },
  {
    "link_thumb": "https://live.staticflickr.com/65535/50040699392_91c4e3c18b_n.jpg",
    "id_album": "779690680",
    "description": "Robot_940954",
    "title": "Robot_940954",
    "link_img": "https://live.staticflickr.com/65535/50040699392_2d734af1a7_o.jpg",
    "id_image": "Robot_940954",
    "count_view": 0
  },
  {
    "link_thumb": "https://live.staticflickr.com/65535/50039963001_39e6a4c9d7_n.jpg",
    "id_album": "395161030",
    "description": "Planet_559146",
    "title": "Planet_559146",
    "link_img": "https://live.staticflickr.com/65535/50039963001_90f54857e2_o.jpg",
    "id_image": "Planet_559146",
    "count_view": 0
  },
  {
    "link_thumb": "https://live.staticflickr.com/65535/50040777626_7a2c0206d1_n.jpg",
    "id_album": "2130067313",
    "description": "Spaceship_972703",
    "title": "Spaceship_972703",
    "link_img": "https://live.staticflickr.com/65535/50040777626_8c39ee6428_o.jpg",
    "id_image": "Spaceship_972703",
    "count_view": 0
  },
  {
    "link_thumb": "https://live.staticflickr.com/65535/50040258808_bfd440e3fe_n.jpg",
    "id_album": "-1449720967",
    "description": "StarTrek_258592",
    "title": "StarTrek_258592",
    "link_img": "https://live.staticflickr.com/65535/50040258808_27e0db1efd_o.jpg",
    "id_image": "StarTrek_258592",
    "count_view": 0
  },
  {
    "link_thumb": "https://live.staticflickr.com/65535/50040034967_8e7b12ee86_n.jpg",
    "id_album": "-1610342324",
    "description": "Nebula_217753",
    "title": "Nebula_217753",
    "link_img": "https://live.staticflickr.com/65535/50040034967_ba64db5a17_o.jpg",
    "id_image": "Nebula_217753",
    "count_view": 0
  },
  {
    "link_thumb": "https://live.staticflickr.com/65535/50041035043_42ebabeff4_n.jpg",
    "id_album": "-1675918237",
    "description": "WomenWarrior_849366",
    "title": "WomenWarrior_849366",
    "link_img": "https://live.staticflickr.com/65535/50041035043_0c2d31a4df_o.jpg",
    "id_image": "WomenWarrior_849366",
    "count_view": 0
  },
  {
    "link_thumb": "https://live.staticflickr.com/65535/50039879283_fa3ebb8bb9_n.jpg",
    "id_album": "779690680",
    "description": "Robot_937810",
    "title": "Robot_937810",
    "link_img": "https://live.staticflickr.com/65535/50039879283_7ecfd142d9_o.jpg",
    "id_image": "Robot_937810",
    "count_view": 0
  },
  {
    "link_thumb": "https://live.staticflickr.com/65535/50038784683_695071f981_n.jpg",
    "id_album": "523598895",
    "description": "Artistic_388044",
    "title": "Artistic_388044",
    "link_img": "https://live.staticflickr.com/65535/50038784683_1d8175e7f4_o.jpg",
    "id_image": "Artistic_388044",
    "count_view": 0
  },
  {
    "link_thumb": "https://live.staticflickr.com/65535/50039582511_523098457b_n.jpg",
    "id_album": "829169633",
    "description": "Cyborg_239897",
    "title": "Cyborg_239897",
    "link_img": "https://live.staticflickr.com/65535/50039582511_6b7fdc7fb4_o.jpg",
    "id_image": "Cyborg_239897",
    "count_view": 0
  },
  {
    "link_thumb": "https://live.staticflickr.com/65535/50041257401_d0de399e58_n.jpg",
    "id_album": "-1587696329",
    "description": "Stars_175264",
    "title": "Stars_175264",
    "link_img": "https://live.staticflickr.com/65535/50041257401_33d426ae88_o.jpg",
    "id_image": "Stars_175264",
    "count_view": 0
  },
  {
    "link_thumb": "https://live.staticflickr.com/65535/50040225088_42e25a738d_n.jpg",
    "id_album": "2130067313",
    "description": "Spaceship_972709",
    "title": "Spaceship_972709",
    "link_img": "https://live.staticflickr.com/65535/50040225088_9b0ebf31e4_o.jpg",
    "id_image": "Spaceship_972709",
    "count_view": 0
  },
  {
    "link_thumb": "https://live.staticflickr.com/65535/50039905047_e76c72a7b1_n.jpg",
    "id_album": "1204249541",
    "description": "Galaxy_549920",
    "title": "Galaxy_549920",
    "link_img": "https://live.staticflickr.com/65535/50039905047_ab886a458d_o.jpg",
    "id_image": "Galaxy_549920",
    "count_view": 0
  },
  {
    "link_thumb": "https://live.staticflickr.com/65535/50039495186_6c612f2636_n.jpg",
    "id_album": "-1964113117",
    "description": "City_750010",
    "title": "City_750010",
    "link_img": "https://live.staticflickr.com/65535/50039495186_d25d19e942_o.jpg",
    "id_image": "City_750010",
    "count_view": 0
  },
  {
    "link_thumb": "https://live.staticflickr.com/65535/50041636947_2c21045c8d_n.jpg",
    "id_album": "2020068132",
    "description": "Vehicle_178453",
    "title": "Vehicle_178453",
    "link_img": "https://live.staticflickr.com/65535/50041636947_21389bde36_o.jpg",
    "id_image": "Vehicle_178453",
    "count_view": 0
  },
  {
    "link_thumb": "https://live.staticflickr.com/65535/50039005868_3f7113c53e_n.jpg",
    "id_album": "-437872736",
    "description": "Creature_372781",
    "title": "Creature_372781",
    "link_img": "https://live.staticflickr.com/65535/50039005868_3d30f29d99_o.jpg",
    "id_image": "Creature_372781",
    "count_view": 0
  },
  {
    "link_thumb": "https://live.staticflickr.com/65535/50040082407_de9cdb05bc_n.jpg",
    "id_album": "-1610342324",
    "description": "Nebula_64873",
    "title": "Nebula_64873",
    "link_img": "https://live.staticflickr.com/65535/50040082407_bb7aed7356_o.jpg",
    "id_image": "Nebula_64873",
    "count_view": 0
  },
  {
    "link_thumb": "https://live.staticflickr.com/65535/50039705278_55e6b83aa3_n.jpg",
    "id_album": "779690680",
    "description": "Robot_173373",
    "title": "Robot_173373",
    "link_img": "https://live.staticflickr.com/65535/50039705278_844f7fea72_o.jpg",
    "id_image": "Robot_173373",
    "count_view": 0
  },
  {
    "link_thumb": "https://live.staticflickr.com/65535/50040562717_13a48edb0f_n.jpg",
    "id_album": "779690680",
    "description": "Robot_379829",
    "title": "Robot_379829",
    "link_img": "https://live.staticflickr.com/65535/50040562717_ef2b2db8d1_o.jpg",
    "id_image": "Robot_379829",
    "count_view": 0
  },
  {
    "link_thumb": "https://live.staticflickr.com/65535/50038996693_2132cb67a1_n.jpg",
    "id_album": "894679094",
    "description": "Collision_956722",
    "title": "Collision_956722",
    "link_img": "https://live.staticflickr.com/65535/50038996693_bc0e78b175_o.jpg",
    "id_image": "Collision_956722",
    "count_view": 0
  },
  {
    "link_thumb": "https://live.staticflickr.com/65535/50039962887_c90c77e180_n.jpg",
    "id_album": "1402713104",
    "description": "Landscape_677212",
    "title": "Landscape_677212",
    "link_img": "https://live.staticflickr.com/65535/50039962887_a430e5c517_o.jpg",
    "id_image": "Landscape_677212",
    "count_view": 0
  },
  {
    "link_thumb": "https://live.staticflickr.com/65535/50039524162_2d979546ec_n.jpg",
    "id_album": "849020728",
    "description": "Alien_393630",
    "title": "Alien_393630",
    "link_img": "https://live.staticflickr.com/65535/50039524162_087d8bb5b0_o.jpg",
    "id_image": "Alien_393630",
    "count_view": 0
  },
  {
    "link_thumb": "https://live.staticflickr.com/65535/50039244668_2d51bd5e94_n.jpg",
    "id_album": "-1610342324",
    "description": "Nebula_415271",
    "title": "Nebula_415271",
    "link_img": "https://live.staticflickr.com/65535/50039244668_63bcb45f1e_o.jpg",
    "id_image": "Nebula_415271",
    "count_view": 0
  },
  {
    "link_thumb": "https://live.staticflickr.com/65535/50040223032_a95f688fa6_n.jpg",
    "id_album": "395161030",
    "description": "Planet_546603",
    "title": "Planet_546603",
    "link_img": "https://live.staticflickr.com/65535/50040223032_d02cdd0868_o.jpg",
    "id_image": "Planet_546603",
    "count_view": 0
  },
  {
    "link_thumb": "https://live.staticflickr.com/65535/50041521887_87b3a99770_n.jpg",
    "id_album": "-1587696329",
    "description": "Stars_192660",
    "title": "Stars_192660",
    "link_img": "https://live.staticflickr.com/65535/50041521887_92274e4066_o.jpg",
    "id_image": "Stars_192660",
    "count_view": 0
  },
  {
    "link_thumb": "https://live.staticflickr.com/65535/50041436532_5fa4366a71_n.jpg",
    "id_album": "-1863373220",
    "description": "StarWars_382008",
    "title": "StarWars_382008",
    "link_img": "https://live.staticflickr.com/65535/50041436532_f0db220b66_o.jpg",
    "id_image": "StarWars_382008",
    "count_view": 0
  },
  {
    "link_thumb": "https://live.staticflickr.com/65535/50039256968_c69ba70e40_n.jpg",
    "id_album": "-1610342324",
    "description": "Nebula_546083",
    "title": "Nebula_546083",
    "link_img": "https://live.staticflickr.com/65535/50039256968_714f141a92_o.jpg",
    "id_image": "Nebula_546083",
    "count_view": 0
  },
  {
    "link_thumb": "https://live.staticflickr.com/65535/50040708088_f74e41e4c7_n.jpg",
    "id_album": "-1587696329",
    "description": "Stars_291490",
    "title": "Stars_291490",
    "link_img": "https://live.staticflickr.com/65535/50040708088_f8caf08022_o.jpg",
    "id_image": "Stars_291490",
    "count_view": 0
  },
  {
    "link_thumb": "https://live.staticflickr.com/65535/50040068273_c813fec39b_n.jpg",
    "id_album": "2130067313",
    "description": "Spaceship_278841",
    "title": "Spaceship_278841",
    "link_img": "https://live.staticflickr.com/65535/50040068273_371abe0cd2_o.jpg",
    "id_image": "Spaceship_278841",
    "count_view": 0
  },
  {
    "link_thumb": "https://live.staticflickr.com/65535/50040340496_76acf16636_n.jpg",
    "id_album": "779690680",
    "description": "Robot_592381",
    "title": "Robot_592381",
    "link_img": "https://live.staticflickr.com/65535/50040340496_f7faef1e2c_o.jpg",
    "id_image": "Robot_592381",
    "count_view": 0
  },
  {
    "link_thumb": "https://live.staticflickr.com/65535/50041667387_3f6f7c909b_n.jpg",
    "id_album": "2020068132",
    "description": "Vehicle_590989",
    "title": "Vehicle_590989",
    "link_img": "https://live.staticflickr.com/65535/50041667387_c62f481277_o.jpg",
    "id_image": "Vehicle_590989",
    "count_view": 0
  },
  {
    "link_thumb": "https://live.staticflickr.com/65535/50040402231_169df02474_n.jpg",
    "id_album": "779690680",
    "description": "Robot_906338",
    "title": "Robot_906338",
    "link_img": "https://live.staticflickr.com/65535/50040402231_56fb6af091_o.jpg",
    "id_image": "Robot_906338",
    "count_view": 0
  },
  {
    "link_thumb": "https://live.staticflickr.com/65535/50039364861_71cb004e4b_n.jpg",
    "id_album": "869545341",
    "description": "Astronaut_720121",
    "title": "Astronaut_720121",
    "link_img": "https://live.staticflickr.com/65535/50039364861_71ba57c24c_o.jpg",
    "id_image": "Astronaut_720121",
    "count_view": 0
  },
  {
    "link_thumb": "https://live.staticflickr.com/65535/50040499822_9c9c1d7a44_n.jpg",
    "id_album": "-482547208",
    "description": "PostApocalyptic_969091",
    "title": "PostApocalyptic_969091",
    "link_img": "https://live.staticflickr.com/65535/50040499822_9cee81a89c_o.jpg",
    "id_image": "PostApocalyptic_969091",
    "count_view": 0
  },
  {
    "link_thumb": "https://live.staticflickr.com/65535/50039957666_9b858296a4_n.jpg",
    "id_album": "395161030",
    "description": "Planet_533952",
    "title": "Planet_533952",
    "link_img": "https://live.staticflickr.com/65535/50039957666_102822f0c0_o.jpg",
    "id_image": "Planet_533952",
    "count_view": 0
  },
  {
    "link_thumb": "https://live.staticflickr.com/65535/50039590263_bd87b9fa37_n.jpg",
    "id_album": "-1102314093",
    "description": "Planets_83612",
    "title": "Planets_83612",
    "link_img": "https://live.staticflickr.com/65535/50039590263_e3d64edcac_o.jpg",
    "id_image": "Planets_83612",
    "count_view": 0
  },
  {
    "link_thumb": "https://live.staticflickr.com/65535/50040457227_7020203860_n.jpg",
    "id_album": "-482547208",
    "description": "PostApocalyptic_1741",
    "title": "PostApocalyptic_1741",
    "link_img": "https://live.staticflickr.com/65535/50040457227_68ece818a5_o.jpg",
    "id_image": "PostApocalyptic_1741",
    "count_view": 0
  },
  {
    "link_thumb": "https://live.staticflickr.com/65535/50041284241_f895027b11_n.jpg",
    "id_album": "-1587696329",
    "description": "Stars_956500",
    "title": "Stars_956500",
    "link_img": "https://live.staticflickr.com/65535/50041284241_2eb4a3c529_o.jpg",
    "id_image": "Stars_956500",
    "count_view": 0
  },
  {
    "link_thumb": "https://live.staticflickr.com/65535/50039507062_e422f401e9_n.jpg",
    "id_album": "849020728",
    "description": "Alien_120337",
    "title": "Alien_120337",
    "link_img": "https://live.staticflickr.com/65535/50039507062_2051e8b2b5_o.jpg",
    "id_image": "Alien_120337",
    "count_view": 0
  },
  {
    "link_thumb": "https://live.staticflickr.com/65535/50039098633_5606f04523_n.jpg",
    "id_album": "1204249541",
    "description": "Galaxy_606741",
    "title": "Galaxy_606741",
    "link_img": "https://live.staticflickr.com/65535/50039098633_3266e95d70_o.jpg",
    "id_image": "Galaxy_606741",
    "count_view": 0
  },
  {
    "link_thumb": "https://live.staticflickr.com/65535/50039623438_6bb0f8af0b_n.jpg",
    "id_album": "376235057",
    "description": "Planetscape_502982",
    "title": "Planetscape_502982",
    "link_img": "https://live.staticflickr.com/65535/50039623438_54e77dc030_o.jpg",
    "id_image": "Planetscape_502982",
    "count_view": 0
  },
  {
    "link_thumb": "https://live.staticflickr.com/65535/50040201116_ebaa161e1e_n.jpg",
    "id_album": "-482547208",
    "description": "PostApocalyptic_242903",
    "title": "PostApocalyptic_242903",
    "link_img": "https://live.staticflickr.com/65535/50040201116_9a30b52438_o.jpg",
    "id_image": "PostApocalyptic_242903",
    "count_view": 0
  },
  {
    "link_thumb": "https://live.staticflickr.com/65535/50038853853_7aa21fd2b4_n.jpg",
    "id_album": "1187037014",
    "description": "Battle_399891",
    "title": "Battle_399891",
    "link_img": "https://live.staticflickr.com/65535/50038853853_032b01ed74_o.jpg",
    "id_image": "Battle_399891",
    "count_view": 0
  },
  {
    "link_thumb": "https://live.staticflickr.com/65535/50039728651_4d88852d50_n.jpg",
    "id_album": "1402713104",
    "description": "Landscape_972110",
    "title": "Landscape_972110",
    "link_img": "https://live.staticflickr.com/65535/50039728651_6ab694c831_o.jpg",
    "id_image": "Landscape_972110",
    "count_view": 0
  },
  {
    "link_thumb": "https://live.staticflickr.com/65535/50040333782_6941eea99d_n.jpg",
    "id_album": "-1102314093",
    "description": "Planets_274644",
    "title": "Planets_274644",
    "link_img": "https://live.staticflickr.com/65535/50040333782_d84d83c1cf_o.jpg",
    "id_image": "Planets_274644",
    "count_view": 0
  },
  {
    "link_thumb": "https://live.staticflickr.com/65535/50040807622_5df400d8e0_n.jpg",
    "id_album": "1613540653",
    "description": "Space_822462",
    "title": "Space_822462",
    "link_img": "https://live.staticflickr.com/65535/50040807622_8f3e4666d0_o.jpg",
    "id_image": "Space_822462",
    "count_view": 0
  },
  {
    "link_thumb": "https://live.staticflickr.com/65535/50039790232_6d6812ae80_n.jpg",
    "id_album": "-1964113117",
    "description": "City_962967",
    "title": "City_962967",
    "link_img": "https://live.staticflickr.com/65535/50039790232_2bac71de3a_o.jpg",
    "id_image": "City_962967",
    "count_view": 0
  },
  {
    "link_thumb": "https://live.staticflickr.com/65535/50039655133_b4cc6d9963_n.jpg",
    "id_album": "-482547208",
    "description": "PostApocalyptic_337385",
    "title": "PostApocalyptic_337385",
    "link_img": "https://live.staticflickr.com/65535/50039655133_136d8bb3a0_o.jpg",
    "id_image": "PostApocalyptic_337385",
    "count_view": 0
  },
  {
    "link_thumb": "https://live.staticflickr.com/65535/50038969613_3c4c5e4962_n.jpg",
    "id_album": "-1964113117",
    "description": "City_906132",
    "title": "City_906132",
    "link_img": "https://live.staticflickr.com/65535/50038969613_18a1b1c9d4_o.jpg",
    "id_image": "City_906132",
    "count_view": 0
  },
  {
    "link_thumb": "https://live.staticflickr.com/65535/50040496122_3bdd189e9b_n.jpg",
    "id_album": "-482547208",
    "description": "PostApocalyptic_924331",
    "title": "PostApocalyptic_924331",
    "link_img": "https://live.staticflickr.com/65535/50040496122_f7a3afa551_o.jpg",
    "id_image": "PostApocalyptic_924331",
    "count_view": 0
  },
  {
    "link_thumb": "https://live.staticflickr.com/65535/50039654676_8927c9f1e6_n.jpg",
    "id_album": "1204249541",
    "description": "Galaxy_868969",
    "title": "Galaxy_868969",
    "link_img": "https://live.staticflickr.com/65535/50039654676_bb99960356_o.jpg",
    "id_image": "Galaxy_868969",
    "count_view": 0
  },
  {
    "link_thumb": "https://live.staticflickr.com/65535/50041375016_07acdb7ca5_n.jpg",
    "id_album": "2020068132",
    "description": "Vehicle_178452",
    "title": "Vehicle_178452",
    "link_img": "https://live.staticflickr.com/65535/50041375016_113e6d5951_o.jpg",
    "id_image": "Vehicle_178452",
    "count_view": 0
  },
  {
    "link_thumb": "https://live.staticflickr.com/65535/50041368422_607bc09ee5_n.jpg",
    "id_album": "779690680",
    "description": "Robot_994832",
    "title": "Robot_994832",
    "link_img": "https://live.staticflickr.com/65535/50041368422_8990297b5f_o.jpg",
    "id_image": "Robot_994832",
    "count_view": 0
  },
  {
    "link_thumb": "https://live.staticflickr.com/65535/50039851273_f55b51a7b6_n.jpg",
    "id_album": "779690680",
    "description": "Robot_907940",
    "title": "Robot_907940",
    "link_img": "https://live.staticflickr.com/65535/50039851273_248483de52_o.jpg",
    "id_image": "Robot_907940",
    "count_view": 0
  },
  {
    "link_thumb": "https://live.staticflickr.com/65535/50040119946_253784c744_n.jpg",
    "id_album": "-1102314093",
    "description": "Planets_516889",
    "title": "Planets_516889",
    "link_img": "https://live.staticflickr.com/65535/50040119946_8685ff4e1c_o.jpg",
    "id_image": "Planets_516889",
    "count_view": 0
  },
  {
    "link_thumb": "https://live.staticflickr.com/65535/50039344236_9315a41515_n.jpg",
    "id_album": "523598895",
    "description": "Artistic_732814",
    "title": "Artistic_732814",
    "link_img": "https://live.staticflickr.com/65535/50039344236_89137c7bf0_o.jpg",
    "id_image": "Artistic_732814",
    "count_view": 0
  },
  {
    "link_thumb": "https://live.staticflickr.com/65535/50039744212_299cfd8944_n.jpg",
    "id_album": "-1964113117",
    "description": "City_616579",
    "title": "City_616579",
    "link_img": "https://live.staticflickr.com/65535/50039744212_8caae0a7a8_o.jpg",
    "id_image": "City_616579",
    "count_view": 0
  },
  {
    "link_thumb": "https://live.staticflickr.com/65535/50040981027_c141330611_n.jpg",
    "id_album": "2130067313",
    "description": "Spaceship_559786",
    "title": "Spaceship_559786",
    "link_img": "https://live.staticflickr.com/65535/50040981027_5301c13489_o.jpg",
    "id_image": "Spaceship_559786",
    "count_view": 0
  },
  {
    "link_thumb": "https://live.staticflickr.com/65535/50039701061_54ac8d779a_n.jpg",
    "id_album": "1402713104",
    "description": "Landscape_706882",
    "title": "Landscape_706882",
    "link_img": "https://live.staticflickr.com/65535/50039701061_a66d9b9ab3_o.jpg",
    "id_image": "Landscape_706882",
    "count_view": 0
  },
  {
    "link_thumb": "https://live.staticflickr.com/65535/50039161918_88e68403bd_n.jpg",
    "id_album": "1402713104",
    "description": "Landscape_852572",
    "title": "Landscape_852572",
    "link_img": "https://live.staticflickr.com/65535/50039161918_eb11bc834c_o.jpg",
    "id_image": "Landscape_852572",
    "count_view": 0
  },
  {
    "link_thumb": "https://live.staticflickr.com/65535/50039765501_b1b0477455_n.jpg",
    "id_album": "-1610342324",
    "description": "Nebula_179726",
    "title": "Nebula_179726",
    "link_img": "https://live.staticflickr.com/65535/50039765501_ded994b099_o.jpg",
    "id_image": "Nebula_179726",
    "count_view": 0
  },
  {
    "link_thumb": "https://live.staticflickr.com/65535/50039919571_0ae7771486_n.jpg",
    "id_album": "395161030",
    "description": "Planet_217475",
    "title": "Planet_217475",
    "link_img": "https://live.staticflickr.com/65535/50039919571_8b859d1238_o.jpg",
    "id_image": "Planet_217475",
    "count_view": 0
  },
  {
    "link_thumb": "https://live.staticflickr.com/65535/50039772998_64e2eaa24c_n.jpg",
    "id_album": "779690680",
    "description": "Robot_497238",
    "title": "Robot_497238",
    "link_img": "https://live.staticflickr.com/65535/50039772998_ff1b156713_o.jpg",
    "id_image": "Robot_497238",
    "count_view": 0
  },
  {
    "link_thumb": "https://live.staticflickr.com/65535/50038753598_d37929b860_n.jpg",
    "id_album": "523598895",
    "description": "Artistic_169308",
    "title": "Artistic_169308",
    "link_img": "https://live.staticflickr.com/65535/50038753598_ca8ac3547c_o.jpg",
    "id_image": "Artistic_169308",
    "count_view": 0
  },
  {
    "link_thumb": "https://live.staticflickr.com/65535/50039950851_919666e7d3_n.jpg",
    "id_album": "395161030",
    "description": "Planet_463782",
    "title": "Planet_463782",
    "link_img": "https://live.staticflickr.com/65535/50039950851_e501d330c6_o.jpg",
    "id_image": "Planet_463782",
    "count_view": 0
  },
  {
    "link_thumb": "https://live.staticflickr.com/65535/50039131428_2c034d92f0_n.jpg",
    "id_album": "1402713104",
    "description": "Landscape_341730",
    "title": "Landscape_341730",
    "link_img": "https://live.staticflickr.com/65535/50039131428_73d977111c_o.jpg",
    "id_image": "Landscape_341730",
    "count_view": 0
  },
  {
    "link_thumb": "https://live.staticflickr.com/65535/50039251168_6878286ff0_n.jpg",
    "id_album": "-1610342324",
    "description": "Nebula_500527",
    "title": "Nebula_500527",
    "link_img": "https://live.staticflickr.com/65535/50039251168_a8009f25c9_o.jpg",
    "id_image": "Nebula_500527",
    "count_view": 0
  },
  {
    "link_thumb": "https://live.staticflickr.com/65535/50040155381_0145e2797d_n.jpg",
    "id_album": "376235057",
    "description": "Planetscape_284410",
    "title": "Planetscape_284410",
    "link_img": "https://live.staticflickr.com/65535/50040155381_4d711a724f_o.jpg",
    "id_image": "Planetscape_284410",
    "count_view": 0
  },
  {
    "link_thumb": "https://live.staticflickr.com/65535/50039512691_d05eafa97d_n.jpg",
    "id_album": "-1964113117",
    "description": "City_884373",
    "title": "City_884373",
    "link_img": "https://live.staticflickr.com/65535/50039512691_d35fd2bf82_o.jpg",
    "id_image": "City_884373",
    "count_view": 0
  },
  {
    "link_thumb": "https://live.staticflickr.com/65535/50040351241_38058f7c80_n.jpg",
    "id_album": "779690680",
    "description": "Robot_649110",
    "title": "Robot_649110",
    "link_img": "https://live.staticflickr.com/65535/50040351241_004cc04465_o.jpg",
    "id_image": "Robot_649110",
    "count_view": 0
  },
  {
    "link_thumb": "https://live.staticflickr.com/65535/50039901021_227e03504a_n.jpg",
    "id_album": "395161030",
    "description": "Planet_1004884",
    "title": "Planet_1004884",
    "link_img": "https://live.staticflickr.com/65535/50039901021_809b33bb08_o.jpg",
    "id_image": "Planet_1004884",
    "count_view": 0
  },
  {
    "link_thumb": "https://live.staticflickr.com/65535/50039604612_7d36edcd04_n.jpg",
    "id_album": "523598895",
    "description": "Artistic_712985",
    "title": "Artistic_712985",
    "link_img": "https://live.staticflickr.com/65535/50039604612_bf9185c40a_o.jpg",
    "id_image": "Artistic_712985",
    "count_view": 0
  },
  {
    "link_thumb": "https://live.staticflickr.com/65535/50040888238_62d05700f4_n.jpg",
    "id_album": "-1261420436",
    "description": "Warrior_280872",
    "title": "Warrior_280872",
    "link_img": "https://live.staticflickr.com/65535/50040888238_5bcfe9429d_o.jpg",
    "id_image": "Warrior_280872",
    "count_view": 0
  },
  {
    "link_thumb": "https://live.staticflickr.com/65535/50039855492_f8cc35f7ef_n.jpg",
    "id_album": "829169633",
    "description": "Cyborg_547371",
    "title": "Cyborg_547371",
    "link_img": "https://live.staticflickr.com/65535/50039855492_dc958a0396_o.jpg",
    "id_image": "Cyborg_547371",
    "count_view": 0
  },
  {
    "link_thumb": "https://live.staticflickr.com/65535/50038731208_ce6ef590e4_n.jpg",
    "id_album": "-419633230",
    "description": "Apocalyptic_145957",
    "title": "Apocalyptic_145957",
    "link_img": "https://live.staticflickr.com/65535/50038731208_0f259713f9_o.jpg",
    "id_image": "Apocalyptic_145957",
    "count_view": 0
  },
  {
    "link_thumb": "https://live.staticflickr.com/65535/50041447716_d5df0f6461_n.jpg",
    "id_album": "-1261420436",
    "description": "Warrior_326039",
    "title": "Warrior_326039",
    "link_img": "https://live.staticflickr.com/65535/50041447716_d87650ac38_o.jpg",
    "id_image": "Warrior_326039",
    "count_view": 0
  },
  {
    "link_thumb": "https://live.staticflickr.com/65535/50040240766_c45f7f363e_n.jpg",
    "id_album": "-839602625",
    "description": "Predator_333755",
    "title": "Predator_333755",
    "link_img": "https://live.staticflickr.com/65535/50040240766_50eec543dc_o.jpg",
    "id_image": "Predator_333755",
    "count_view": 0
  },
  {
    "link_thumb": "https://live.staticflickr.com/65535/50038836408_fe014bf5e0_n.jpg",
    "id_album": "869545341",
    "description": "Astronaut_957397",
    "title": "Astronaut_957397",
    "link_img": "https://live.staticflickr.com/65535/50038836408_19183c80a8_o.jpg",
    "id_image": "Astronaut_957397",
    "count_view": 0
  },
  {
    "link_thumb": "https://live.staticflickr.com/65535/50040821777_cff0433310_n.jpg",
    "id_album": "-1532370292",
    "description": "SpaceStation_266621",
    "title": "SpaceStation_266621",
    "link_img": "https://live.staticflickr.com/65535/50040821777_a7f1d5dd7a_o.jpg",
    "id_image": "SpaceStation_266621",
    "count_view": 0
  },
  {
    "link_thumb": "https://live.staticflickr.com/65535/50039607112_95b5a6d751_n.jpg",
    "id_album": "523598895",
    "description": "Artistic_857266",
    "title": "Artistic_857266",
    "link_img": "https://live.staticflickr.com/65535/50039607112_1b7fba34c7_o.jpg",
    "id_image": "Artistic_857266",
    "count_view": 0
  },
  {
    "link_thumb": "https://live.staticflickr.com/65535/50040015061_57813fd94a_n.jpg",
    "id_album": "1443611160",
    "description": "PlanetRise_79231",
    "title": "PlanetRise_79231",
    "link_img": "https://live.staticflickr.com/65535/50040015061_92d4cd086e_o.jpg",
    "id_image": "PlanetRise_79231",
    "count_view": 0
  },
  {
    "link_thumb": "https://live.staticflickr.com/65535/50039633796_af539bcf27_n.jpg",
    "id_album": "1204249541",
    "description": "Galaxy_427241",
    "title": "Galaxy_427241",
    "link_img": "https://live.staticflickr.com/65535/50039633796_8ace2040d6_o.jpg",
    "id_image": "Galaxy_427241",
    "count_view": 0
  },
  {
    "link_thumb": "https://live.staticflickr.com/65535/50040435282_d7ddb374cf_n.jpg",
    "id_album": "376235057",
    "description": "Planetscape_383294",
    "title": "Planetscape_383294",
    "link_img": "https://live.staticflickr.com/65535/50040435282_617a5e9243_o.jpg",
    "id_image": "Planetscape_383294",
    "count_view": 0
  },
  {
    "link_thumb": "https://live.staticflickr.com/65535/50039686906_bf14e49223_n.jpg",
    "id_album": "1402713104",
    "description": "Landscape_409690",
    "title": "Landscape_409690",
    "link_img": "https://live.staticflickr.com/65535/50039686906_f2c3b0c0f9_o.jpg",
    "id_image": "Landscape_409690",
    "count_view": 0
  },
  {
    "link_thumb": "https://live.staticflickr.com/65535/50039919783_b56c278657_n.jpg",
    "id_album": "1613540653",
    "description": "Space_180954",
    "title": "Space_180954",
    "link_img": "https://live.staticflickr.com/65535/50039919783_813e4f88c9_o.jpg",
    "id_image": "Space_180954",
    "count_view": 0
  },
  {
    "link_thumb": "https://live.staticflickr.com/65535/50040762247_05992692fd_n.jpg",
    "id_album": "1613540653",
    "description": "Space_345414",
    "title": "Space_345414",
    "link_img": "https://live.staticflickr.com/65535/50040762247_6999ffbb5b_o.jpg",
    "id_image": "Space_345414",
    "count_view": 0
  },
  {
    "link_thumb": "https://live.staticflickr.com/65535/50039613841_1092ac979d_n.jpg",
    "id_album": "651930207",
    "description": "Explosion_995433",
    "title": "Explosion_995433",
    "link_img": "https://live.staticflickr.com/65535/50039613841_f23ea79c1c_o.jpg",
    "id_image": "Explosion_995433",
    "count_view": 0
  },
  {
    "link_thumb": "https://live.staticflickr.com/65535/50040811703_5b70b510c3_n.jpg",
    "id_album": "-1177476763",
    "description": "Sunrise_429129",
    "title": "Sunrise_429129",
    "link_img": "https://live.staticflickr.com/65535/50040811703_79b6768797_o.jpg",
    "id_image": "Sunrise_429129",
    "count_view": 0
  },
  {
    "link_thumb": "https://live.staticflickr.com/65535/50040678992_7f68d4b037_n.jpg",
    "id_album": "779690680",
    "description": "Robot_917205",
    "title": "Robot_917205",
    "link_img": "https://live.staticflickr.com/65535/50040678992_2eae86ec95_o.jpg",
    "id_image": "Robot_917205",
    "count_view": 0
  },
  {
    "link_thumb": "https://live.staticflickr.com/65535/50039415863_4d8a822821_n.jpg",
    "id_album": "395161030",
    "description": "Planet_567134",
    "title": "Planet_567134",
    "link_img": "https://live.staticflickr.com/65535/50039415863_3c388a3965_o.jpg",
    "id_image": "Planet_567134",
    "count_view": 0
  },
  {
    "link_thumb": "https://live.staticflickr.com/65535/50040563196_02acc03050_n.jpg",
    "id_album": "-1532370292",
    "description": "SpaceStation_776575",
    "title": "SpaceStation_776575",
    "link_img": "https://live.staticflickr.com/65535/50040563196_1e2168327e_o.jpg",
    "id_image": "SpaceStation_776575",
    "count_view": 0
  },
  {
    "link_thumb": "https://live.staticflickr.com/65535/50039340623_d136006509_n.jpg",
    "id_album": "-1862561193",
    "description": "Other_318732",
    "title": "Other_318732",
    "link_img": "https://live.staticflickr.com/65535/50039340623_238ae849f7_o.jpg",
    "id_image": "Other_318732",
    "count_view": 0
  },
  {
    "link_thumb": "https://live.staticflickr.com/65535/50040245391_629f756284_n.jpg",
    "id_album": "-839602625",
    "description": "Predator_551711",
    "title": "Predator_551711",
    "link_img": "https://live.staticflickr.com/65535/50040245391_56e3614f12_o.jpg",
    "id_image": "Predator_551711",
    "count_view": 0
  },
  {
    "link_thumb": "https://live.staticflickr.com/65535/50039180248_fbc528a886_n.jpg",
    "id_album": "1402713104",
    "description": "Landscape_989276",
    "title": "Landscape_989276",
    "link_img": "https://live.staticflickr.com/65535/50039180248_fd10524880_o.jpg",
    "id_image": "Landscape_989276",
    "count_view": 0
  },
  {
    "link_thumb": "https://live.staticflickr.com/65535/50040089836_21545a399d_n.jpg",
    "id_album": "-1102314093",
    "description": "Planets_347227",
    "title": "Planets_347227",
    "link_img": "https://live.staticflickr.com/65535/50040089836_b6b907eaa1_o.jpg",
    "id_image": "Planets_347227",
    "count_view": 0
  },
  {
    "link_thumb": "https://live.staticflickr.com/65535/50040696693_08e8c87cf1_n.jpg",
    "id_album": "-1863373220",
    "description": "StarWars_980564",
    "title": "StarWars_980564",
    "link_img": "https://live.staticflickr.com/65535/50040696693_f839fe2d5a_o.jpg",
    "id_image": "StarWars_980564",
    "count_view": 0
  },
  {
    "link_thumb": "https://live.staticflickr.com/65535/50040829273_89316a3e19_n.jpg",
    "id_album": "2020068132",
    "description": "Vehicle_285211",
    "title": "Vehicle_285211",
    "link_img": "https://live.staticflickr.com/65535/50040829273_522bd7b837_o.jpg",
    "id_image": "Vehicle_285211",
    "count_view": 0
  },
  {
    "link_thumb": "https://live.staticflickr.com/65535/50040541077_47865b2419_n.jpg",
    "id_album": "779690680",
    "description": "Robot_264068",
    "title": "Robot_264068",
    "link_img": "https://live.staticflickr.com/65535/50040541077_e0e51772f3_o.jpg",
    "id_image": "Robot_264068",
    "count_view": 0
  },
  {
    "link_thumb": "https://live.staticflickr.com/65535/50039472801_77208730d2_n.jpg",
    "id_album": "-1964113117",
    "description": "City_489400",
    "title": "City_489400",
    "link_img": "https://live.staticflickr.com/65535/50039472801_1695aa1174_o.jpg",
    "id_image": "City_489400",
    "count_view": 0
  },
  {
    "link_thumb": "https://live.staticflickr.com/65535/50040247682_ca11c7de8f_n.jpg",
    "id_album": "395161030",
    "description": "Planet_926468",
    "title": "Planet_926468",
    "link_img": "https://live.staticflickr.com/65535/50040247682_08395c9580_o.jpg",
    "id_image": "Planet_926468",
    "count_view": 0
  },
  {
    "link_thumb": "https://live.staticflickr.com/65535/50038750433_64d01feaca_n.jpg",
    "id_album": "523598895",
    "description": "Artistic_153707",
    "title": "Artistic_153707",
    "link_img": "https://live.staticflickr.com/65535/50038750433_161bc5b021_o.jpg",
    "id_image": "Artistic_153707",
    "count_view": 0
  },
  {
    "link_thumb": "https://live.staticflickr.com/65535/50040170956_feb4bea691_n.jpg",
    "id_album": "376235057",
    "description": "Planetscape_384301",
    "title": "Planetscape_384301",
    "link_img": "https://live.staticflickr.com/65535/50040170956_be66a43688_o.jpg",
    "id_image": "Planetscape_384301",
    "count_view": 0
  },
  {
    "link_thumb": "https://live.staticflickr.com/65535/50039743358_47b1064f5f_n.jpg",
    "id_album": "779690680",
    "description": "Robot_368193",
    "title": "Robot_368193",
    "link_img": "https://live.staticflickr.com/65535/50039743358_1e86cb3e8a_o.jpg",
    "id_image": "Robot_368193",
    "count_view": 0
  },
  {
    "link_thumb": "https://live.staticflickr.com/65535/50039658641_9fe4db5a60_n.jpg",
    "id_album": "1402713104",
    "description": "Landscape_106830",
    "title": "Landscape_106830",
    "link_img": "https://live.staticflickr.com/65535/50039658641_03c40d528b_o.jpg",
    "id_image": "Landscape_106830",
    "count_view": 0
  },
  {
    "link_thumb": "https://live.staticflickr.com/65535/50039988213_0c1bb94def_n.jpg",
    "id_album": "1613540653",
    "description": "Space_822456",
    "title": "Space_822456",
    "link_img": "https://live.staticflickr.com/65535/50039988213_af63c25a55_o.jpg",
    "id_image": "Space_822456",
    "count_view": 0
  },
  {
    "link_thumb": "https://live.staticflickr.com/65535/50039787391_b2d8cb877a_n.jpg",
    "id_album": "-1610342324",
    "description": "Nebula_357577",
    "title": "Nebula_357577",
    "link_img": "https://live.staticflickr.com/65535/50039787391_9e2be356b7_o.jpg",
    "id_image": "Nebula_357577",
    "count_view": 0
  },
  {
    "link_thumb": "https://live.staticflickr.com/65535/50039631687_7461c53a77_n.jpg",
    "id_album": "869545341",
    "description": "Astronaut_848687",
    "title": "Astronaut_848687",
    "link_img": "https://live.staticflickr.com/65535/50039631687_79211002ed_o.jpg",
    "id_image": "Astronaut_848687",
    "count_view": 0
  },
  {
    "link_thumb": "https://live.staticflickr.com/65535/50039246718_4a85ab897b_n.jpg",
    "id_album": "-1610342324",
    "description": "Nebula_432766",
    "title": "Nebula_432766",
    "link_img": "https://live.staticflickr.com/65535/50039246718_358a05aef8_o.jpg",
    "id_image": "Nebula_432766",
    "count_view": 0
  },
  {
    "link_thumb": "https://live.staticflickr.com/65535/50039395206_2948d9cc40_n.jpg",
    "id_album": "1187037014",
    "description": "Battle_173806",
    "title": "Battle_173806",
    "link_img": "https://live.staticflickr.com/65535/50039395206_f65349ac5a_o.jpg",
    "id_image": "Battle_173806",
    "count_view": 0
  },
  {
    "link_thumb": "https://live.staticflickr.com/65535/50038898438_13d5511b22_n.jpg",
    "id_album": "-1964113117",
    "description": "City_214300",
    "title": "City_214300",
    "link_img": "https://live.staticflickr.com/65535/50038898438_efe9b0f30c_o.jpg",
    "id_image": "City_214300",
    "count_view": 0
  },
  {
    "link_thumb": "https://live.staticflickr.com/65535/50039125068_0ea5fe407e_n.jpg",
    "id_album": "1402713104",
    "description": "Landscape_310678",
    "title": "Landscape_310678",
    "link_img": "https://live.staticflickr.com/65535/50039125068_33b5f347a1_o.jpg",
    "id_image": "Landscape_310678",
    "count_view": 0
  },
  {
    "link_thumb": "https://live.staticflickr.com/65535/50039639191_e68bc2a175_n.jpg",
    "id_album": "1204249541",
    "description": "Galaxy_526201",
    "title": "Galaxy_526201",
    "link_img": "https://live.staticflickr.com/65535/50039639191_eafba9de9f_o.jpg",
    "id_image": "Galaxy_526201",
    "count_view": 0
  },
  {
    "link_thumb": "https://live.staticflickr.com/65535/50039275803_32483a594f_n.jpg",
    "id_album": "-1610342324",
    "description": "Nebula_705340",
    "title": "Nebula_705340",
    "link_img": "https://live.staticflickr.com/65535/50039275803_7f866733cc_o.jpg",
    "id_image": "Nebula_705340",
    "count_view": 0
  },
  {
    "link_thumb": "https://live.staticflickr.com/65535/50038911668_d1f8d28102_n.jpg",
    "id_album": "-1964113117",
    "description": "City_297913",
    "title": "City_297913",
    "link_img": "https://live.staticflickr.com/65535/50038911668_a1f12360f3_o.jpg",
    "id_image": "City_297913",
    "count_view": 0
  },
  {
    "link_thumb": "https://live.staticflickr.com/65535/50040171917_75406aec22_n.jpg",
    "id_album": "395161030",
    "description": "Planet_167856",
    "title": "Planet_167856",
    "link_img": "https://live.staticflickr.com/65535/50040171917_30a8881d3a_o.jpg",
    "id_image": "Planet_167856",
    "count_view": 0
  },
  {
    "link_thumb": "https://live.staticflickr.com/65535/50039316101_f254138103_n.jpg",
    "id_album": "523598895",
    "description": "Artistic_220349",
    "title": "Artistic_220349",
    "link_img": "https://live.staticflickr.com/65535/50039316101_4c923e41ac_o.jpg",
    "id_image": "Artistic_220349",
    "count_view": 0
  },
  {
    "link_thumb": "https://live.staticflickr.com/65535/50039684993_d792f9bb07_n.jpg",
    "id_album": "-839602625",
    "description": "Predator_174171",
    "title": "Predator_174171",
    "link_img": "https://live.staticflickr.com/65535/50039684993_fd7659e34f_o.jpg",
    "id_image": "Predator_174171",
    "count_view": 0
  },
  {
    "link_thumb": "https://live.staticflickr.com/65535/50039854168_b76ec4131e_n.jpg",
    "id_album": "779690680",
    "description": "Robot_910948",
    "title": "Robot_910948",
    "link_img": "https://live.staticflickr.com/65535/50039854168_67707b7d77_o.jpg",
    "id_image": "Robot_910948",
    "count_view": 0
  },
  {
    "link_thumb": "https://live.staticflickr.com/65535/50040034782_d6d8711061_n.jpg",
    "id_album": "-1610342324",
    "description": "Nebula_216925",
    "title": "Nebula_216925",
    "link_img": "https://live.staticflickr.com/65535/50040034782_9ca8990d04_o.jpg",
    "id_image": "Nebula_216925",
    "count_view": 0
  },
  {
    "link_thumb": "https://live.staticflickr.com/65535/50041221606_63cd139acb_n.jpg",
    "id_album": "-1863373220",
    "description": "StarWars_757812",
    "title": "StarWars_757812",
    "link_img": "https://live.staticflickr.com/65535/50041221606_2f946b9c67_o.jpg",
    "id_image": "StarWars_757812",
    "count_view": 0
  },
  {
    "link_thumb": "https://live.staticflickr.com/65535/50039299923_f921864955_n.jpg",
    "id_album": "-1610342324",
    "description": "Nebula_882498",
    "title": "Nebula_882498",
    "link_img": "https://live.staticflickr.com/65535/50039299923_b0eed2a3d7_o.jpg",
    "id_image": "Nebula_882498",
    "count_view": 0
  },
  {
    "link_thumb": "https://live.staticflickr.com/65535/50039863998_7610c22de6_n.jpg",
    "id_album": "779690680",
    "description": "Robot_921711",
    "title": "Robot_921711",
    "link_img": "https://live.staticflickr.com/65535/50039863998_bd7760e48b_o.jpg",
    "id_image": "Robot_921711",
    "count_view": 0
  },
  {
    "link_thumb": "https://live.staticflickr.com/65535/50039545051_252dcfaf14_n.jpg",
    "id_album": "894679094",
    "description": "Collision_957418",
    "title": "Collision_957418",
    "link_img": "https://live.staticflickr.com/65535/50039545051_c222cb5c3a_o.jpg",
    "id_image": "Collision_957418",
    "count_view": 0
  },
  {
    "link_thumb": "https://live.staticflickr.com/65535/50039827363_34ae1256c8_n.jpg",
    "id_album": "779690680",
    "description": "Robot_870404",
    "title": "Robot_870404",
    "link_img": "https://live.staticflickr.com/65535/50039827363_d48e862911_o.jpg",
    "id_image": "Robot_870404",
    "count_view": 0
  },
  {
    "link_thumb": "https://live.staticflickr.com/65535/50039647956_fba04de01a_n.jpg",
    "id_album": "1204249541",
    "description": "Galaxy_600406",
    "title": "Galaxy_600406",
    "link_img": "https://live.staticflickr.com/65535/50039647956_a6f008dfc1_o.jpg",
    "id_image": "Galaxy_600406",
    "count_view": 0
  },
  {
    "link_thumb": "https://live.staticflickr.com/65535/50041295486_4e59330704_n.jpg",
    "id_album": "1267121215",
    "description": "Steampunk_190407",
    "title": "Steampunk_190407",
    "link_img": "https://live.staticflickr.com/65535/50041295486_69c01222c7_o.jpg",
    "id_image": "Steampunk_190407",
    "count_view": 0
  },
  {
    "link_thumb": "https://live.staticflickr.com/65535/50040087912_5ecdb7b08a_n.jpg",
    "id_album": "-1610342324",
    "description": "Nebula_704888",
    "title": "Nebula_704888",
    "link_img": "https://live.staticflickr.com/65535/50040087912_1e7db24569_o.jpg",
    "id_image": "Nebula_704888",
    "count_view": 0
  },
  {
    "link_thumb": "https://live.staticflickr.com/65535/50038999178_5d0a41eb3b_n.jpg",
    "id_album": "-437872736",
    "description": "Creature_232439",
    "title": "Creature_232439",
    "link_img": "https://live.staticflickr.com/65535/50038999178_230a9cb878_o.jpg",
    "id_image": "Creature_232439",
    "count_view": 0
  },
  {
    "link_thumb": "https://live.staticflickr.com/65535/50039533601_a4ebab99d3_n.jpg",
    "id_album": "-1964113117",
    "description": "City_996269",
    "title": "City_996269",
    "link_img": "https://live.staticflickr.com/65535/50039533601_00c2598760_o.jpg",
    "id_image": "City_996269",
    "count_view": 0
  },
  {
    "link_thumb": "https://live.staticflickr.com/65535/50039582048_f3f4fe5375_n.jpg",
    "id_album": "-1102314093",
    "description": "Planets_75642",
    "title": "Planets_75642",
    "link_img": "https://live.staticflickr.com/65535/50039582048_9a9eb641c9_o.jpg",
    "id_image": "Planets_75642",
    "count_view": 0
  },
  {
    "link_thumb": "https://live.staticflickr.com/65535/50039073203_8fb920ac07_n.jpg",
    "id_album": "2104507156",
    "description": "Fantasy_848977",
    "title": "Fantasy_848977",
    "link_img": "https://live.staticflickr.com/65535/50039073203_6d52c23114_o.jpg",
    "id_image": "Fantasy_848977",
    "count_view": 0
  },
  {
    "link_thumb": "https://live.staticflickr.com/65535/50041638192_65b7f5f552_n.jpg",
    "id_album": "2020068132",
    "description": "Vehicle_192943",
    "title": "Vehicle_192943",
    "link_img": "https://live.staticflickr.com/65535/50041638192_680655783d_o.jpg",
    "id_image": "Vehicle_192943",
    "count_view": 0
  }
]