[
  {
    "link_thumb": "https://live.staticflickr.com/65535/50039287176_19abcdd680_n.jpg",
    "id_album": "-419633230",
    "description": "Apocalyptic_716245",
    "title": "Apocalyptic_716245",
    "link_img": "https://live.staticflickr.com/65535/50039287176_15c40e686d_o.jpg",
    "id_image": "Apocalyptic_716245",
    "count_view": 0
  },
  {
    "link_thumb": "https://live.staticflickr.com/65535/50038858543_08cbca9a6e_n.jpg",
    "id_album": "1187037014",
    "description": "Battle_706879",
    "title": "Battle_706879",
    "link_img": "https://live.staticflickr.com/65535/50038858543_c8c2952924_o.jpg",
    "id_image": "Battle_706879",
    "count_view": 0
  },
  {
    "link_thumb": "https://live.staticflickr.com/65535/50039437436_453617a0d2_n.jpg",
    "id_album": "-1964113117",
    "description": "City_157265",
    "title": "City_157265",
    "link_img": "https://live.staticflickr.com/65535/50039437436_d85b4ab25e_o.jpg",
    "id_image": "City_157265",
    "count_view": 0
  },
  {
    "link_thumb": "https://live.staticflickr.com/65535/50039569682_12971dbe36_n.jpg",
    "id_album": "523598895",
    "description": "Artistic_187833",
    "title": "Artistic_187833",
    "link_img": "https://live.staticflickr.com/65535/50039569682_107c0ca2c9_o.jpg",
    "id_image": "Artistic_187833",
    "count_view": 0
  },
  {
    "link_thumb": "https://live.staticflickr.com/65535/50038930838_5c29acabab_n.jpg",
    "id_album": "-1964113117",
    "description": "City_567085",
    "title": "City_567085",
    "link_img": "https://live.staticflickr.com/65535/50038930838_6d497b0e8e_o.jpg",
    "id_image": "City_567085",
    "count_view": 0
  },
  {
    "link_thumb": "https://live.staticflickr.com/65535/50040744897_fca21fe1c2_n.jpg",
    "id_album": "1613540653",
    "description": "Space_218839",
    "title": "Space_218839",
    "link_img": "https://live.staticflickr.com/65535/50040744897_e0c4173615_o.jpg",
    "id_image": "Space_218839",
    "count_view": 0
  },
  {
    "link_thumb": "https://live.staticflickr.com/65535/50038725658_434f282407_n.jpg",
    "id_album": "849020728",
    "description": "Alien_709717",
    "title": "Alien_709717",
    "link_img": "https://live.staticflickr.com/65535/50038725658_beea5bb32c_o.jpg",
    "id_image": "Alien_709717",
    "count_view": 0
  },
  {
    "link_thumb": "https://live.staticflickr.com/65535/50038862808_32f6d8b9a7_n.jpg",
    "id_album": "-1780971522",
    "description": "Biohazard_18630",
    "title": "Biohazard_18630",
    "link_img": "https://live.staticflickr.com/65535/50038862808_ea821355c8_o.jpg",
    "id_image": "Biohazard_18630",
    "count_view": 0
  },
  {
    "link_thumb": "https://live.staticflickr.com/65535/50039351943_8ed6cf43fa_n.jpg",
    "id_album": "395161030",
    "description": "Planet_1007217",
    "title": "Planet_1007217",
    "link_img": "https://live.staticflickr.com/65535/50039351943_05117fc99e_o.jpg",
    "id_image": "Planet_1007217",
    "count_view": 0
  },
  {
    "link_thumb": "https://live.staticflickr.com/65535/50041563741_5b21c625f9_n.jpg",
    "id_album": "-1675918237",
    "description": "WomenWarrior_283334",
    "title": "WomenWarrior_283334",
    "link_img": "https://live.staticflickr.com/65535/50041563741_5a8b211ee1_o.jpg",
    "id_image": "WomenWarrior_283334",
    "count_view": 0
  },
  {
    "link_thumb": "https://live.staticflickr.com/65535/50041636947_2c21045c8d_n.jpg",
    "id_album": "2020068132",
    "description": "Vehicle_178453",
    "title": "Vehicle_178453",
    "link_img": "https://live.staticflickr.com/65535/50041636947_21389bde36_o.jpg",
    "id_image": "Vehicle_178453",
    "count_view": 0
  },
  {
    "link_thumb": "https://live.staticflickr.com/65535/50039572413_0c3297aa80_n.jpg",
    "id_album": "-1102314093",
    "description": "Planets_533830",
    "title": "Planets_533830",
    "link_img": "https://live.staticflickr.com/65535/50039572413_1b99664f2d_o.jpg",
    "id_image": "Planets_533830",
    "count_view": 0
  },
  {
    "link_thumb": "https://live.staticflickr.com/65535/50039355338_cb43afdc57_n.jpg",
    "id_album": "395161030",
    "description": "Planet_129689",
    "title": "Planet_129689",
    "link_img": "https://live.staticflickr.com/65535/50039355338_3b207e4c69_o.jpg",
    "id_image": "Planet_129689",
    "count_view": 0
  },
  {
    "link_thumb": "https://live.staticflickr.com/65535/50040480341_2e0da3644e_n.jpg",
    "id_album": "1613540653",
    "description": "Space_217630",
    "title": "Space_217630",
    "link_img": "https://live.staticflickr.com/65535/50040480341_81dcf91143_o.jpg",
    "id_image": "Space_217630",
    "count_view": 0
  },
  {
    "link_thumb": "https://live.staticflickr.com/65535/50039255418_5e7e9a4c31_n.jpg",
    "id_album": "-1610342324",
    "description": "Nebula_533759",
    "title": "Nebula_533759",
    "link_img": "https://live.staticflickr.com/65535/50039255418_a9ed149704_o.jpg",
    "id_image": "Nebula_533759",
    "count_view": 0
  },
  {
    "link_thumb": "https://live.staticflickr.com/65535/50039287306_4f13052824_n.jpg",
    "id_album": "-419633230",
    "description": "Apocalyptic_728474",
    "title": "Apocalyptic_728474",
    "link_img": "https://live.staticflickr.com/65535/50039287306_62bcae0d77_o.jpg",
    "id_image": "Apocalyptic_728474",
    "count_view": 0
  },
  {
    "link_thumb": "https://live.staticflickr.com/65535/50039854168_b76ec4131e_n.jpg",
    "id_album": "779690680",
    "description": "Robot_910948",
    "title": "Robot_910948",
    "link_img": "https://live.staticflickr.com/65535/50039854168_67707b7d77_o.jpg",
    "id_image": "Robot_910948",
    "count_view": 0
  },
  {
    "link_thumb": "https://live.staticflickr.com/65535/50038746058_9c6b474123_n.jpg",
    "id_album": "523598895",
    "description": "Artistic_115150",
    "title": "Artistic_115150",
    "link_img": "https://live.staticflickr.com/65535/50038746058_3209216a41_o.jpg",
    "id_image": "Artistic_115150",
    "count_view": 0
  },
  {
    "link_thumb": "https://live.staticflickr.com/65535/50040520286_bfe730115c_n.jpg",
    "id_album": "1613540653",
    "description": "Space_659465",
    "title": "Space_659465",
    "link_img": "https://live.staticflickr.com/65535/50040520286_491d92e827_o.jpg",
    "id_image": "Space_659465",
    "count_view": 0
  },
  {
    "link_thumb": "https://live.staticflickr.com/65535/50039308383_9453ddbb75_n.jpg",
    "id_album": "-1610342324",
    "description": "Nebula_957881",
    "title": "Nebula_957881",
    "link_img": "https://live.staticflickr.com/65535/50039308383_6cba99f4e0_o.jpg",
    "id_image": "Nebula_957881",
    "count_view": 0
  },
  {
    "link_thumb": "https://live.staticflickr.com/65535/50041620177_835444a20e_n.jpg",
    "id_album": "-1177476763",
    "description": "Sunrise_201123",
    "title": "Sunrise_201123",
    "link_img": "https://live.staticflickr.com/65535/50041620177_38cae4512b_o.jpg",
    "id_image": "Sunrise_201123",
    "count_view": 0
  },
  {
    "link_thumb": "https://live.staticflickr.com/65535/50041741777_c9bd4f5fb6_n.jpg",
    "id_album": "-1261420436",
    "description": "Warrior_608178",
    "title": "Warrior_608178",
    "link_img": "https://live.staticflickr.com/65535/50041741777_a29d584382_o.jpg",
    "id_image": "Warrior_608178",
    "count_view": 0
  },
  {
    "link_thumb": "https://live.staticflickr.com/65535/50039989598_b42d60fb95_n.jpg",
    "id_album": "1613540653",
    "description": "Space_822480",
    "title": "Space_822480",
    "link_img": "https://live.staticflickr.com/65535/50039989598_81164bc11d_o.jpg",
    "id_image": "Space_822480",
    "count_view": 0
  },
  {
    "link_thumb": "https://live.staticflickr.com/65535/50040252846_61b724538f_n.jpg",
    "id_album": "779690680",
    "description": "Robot_115817",
    "title": "Robot_115817",
    "link_img": "https://live.staticflickr.com/65535/50040252846_3e2a9460b1_o.jpg",
    "id_image": "Robot_115817",
    "count_view": 0
  },
  {
    "link_thumb": "https://live.staticflickr.com/65535/50040776776_b328e02d00_n.jpg",
    "id_album": "2130067313",
    "description": "Spaceship_972168",
    "title": "Spaceship_972168",
    "link_img": "https://live.staticflickr.com/65535/50040776776_eba15d9d76_o.jpg",
    "id_image": "Spaceship_972168",
    "count_view": 0
  },
  {
    "link_thumb": "https://live.staticflickr.com/65535/50039953697_ca47cbfe8c_n.jpg",
    "id_album": "1402713104",
    "description": "Landscape_480025",
    "title": "Landscape_480025",
    "link_img": "https://live.staticflickr.com/65535/50039953697_3d2f0529ce_o.jpg",
    "id_image": "Landscape_480025",
    "count_view": 0
  },
  {
    "link_thumb": "https://live.staticflickr.com/65535/50038942843_15b4322392_n.jpg",
    "id_album": "-1964113117",
    "description": "City_711407",
    "title": "City_711407",
    "link_img": "https://live.staticflickr.com/65535/50038942843_c8dc3a691e_o.jpg",
    "id_image": "City_711407",
    "count_view": 0
  },
  {
    "link_thumb": "https://live.staticflickr.com/65535/50041391786_ce8c83050b_n.jpg",
    "id_album": "2020068132",
    "description": "Vehicle_343994",
    "title": "Vehicle_343994",
    "link_img": "https://live.staticflickr.com/65535/50041391786_f04c29c0b4_o.jpg",
    "id_image": "Vehicle_343994",
    "count_view": 0
  },
  {
    "link_thumb": "https://live.staticflickr.com/65535/50041221691_b92bb05451_n.jpg",
    "id_album": "-1863373220",
    "description": "StarWars_76383",
    "title": "StarWars_76383",
    "link_img": "https://live.staticflickr.com/65535/50041221691_6d0be3ec2d_o.jpg",
    "id_image": "StarWars_76383",
    "count_view": 0
  },
  {
    "link_thumb": "https://live.staticflickr.com/65535/50040545467_9f3fe0a46e_n.jpg",
    "id_album": "779690680",
    "description": "Robot_283424",
    "title": "Robot_283424",
    "link_img": "https://live.staticflickr.com/65535/50040545467_6d66a0518f_o.jpg",
    "id_image": "Robot_283424",
    "count_view": 0
  },
  {
    "link_thumb": "https://live.staticflickr.com/65535/50039232348_d74b4b3d65_n.jpg",
    "id_album": "-1610342324",
    "description": "Nebula_286361",
    "title": "Nebula_286361",
    "link_img": "https://live.staticflickr.com/65535/50039232348_ff8b90bf49_o.jpg",
    "id_image": "Nebula_286361",
    "count_view": 0
  },
  {
    "link_thumb": "https://live.staticflickr.com/65535/50039278481_4fec0bf99b_n.jpg",
    "id_album": "849020728",
    "description": "Alien_996736",
    "title": "Alien_996736",
    "link_img": "https://live.staticflickr.com/65535/50039278481_8a1ee6cc84_o.jpg",
    "id_image": "Alien_996736",
    "count_view": 0
  },
  {
    "link_thumb": "https://live.staticflickr.com/65535/50040717536_46e8d5bc09_n.jpg",
    "id_album": "2130067313",
    "description": "Spaceship_563565",
    "title": "Spaceship_563565",
    "link_img": "https://live.staticflickr.com/65535/50040717536_d32ba9ea86_o.jpg",
    "id_image": "Spaceship_563565",
    "count_view": 0
  },
  {
    "link_thumb": "https://live.staticflickr.com/65535/50039288728_5b3e526fcc_n.jpg",
    "id_album": "-1610342324",
    "description": "Nebula_792977",
    "title": "Nebula_792977",
    "link_img": "https://live.staticflickr.com/65535/50039288728_bc52857de5_o.jpg",
    "id_image": "Nebula_792977",
    "count_view": 0
  },
  {
    "link_thumb": "https://live.staticflickr.com/65535/50039861596_b7bbbfb1f1_n.jpg",
    "id_album": "-1862561193",
    "description": "Other_145921",
    "title": "Other_145921",
    "link_img": "https://live.staticflickr.com/65535/50039861596_16990c0fc8_o.jpg",
    "id_image": "Other_145921",
    "count_view": 0
  },
  {
    "link_thumb": "https://live.staticflickr.com/65535/50039257273_585ecc3012_n.jpg",
    "id_album": "-1610342324",
    "description": "Nebula_548005",
    "title": "Nebula_548005",
    "link_img": "https://live.staticflickr.com/65535/50039257273_39d11deea9_o.jpg",
    "id_image": "Nebula_548005",
    "count_view": 0
  },
  {
    "link_thumb": "https://live.staticflickr.com/65535/50038966173_5782166d37_n.jpg",
    "id_album": "-1964113117",
    "description": "City_894321",
    "title": "City_894321",
    "link_img": "https://live.staticflickr.com/65535/50038966173_71c9f148ce_o.jpg",
    "id_image": "City_894321",
    "count_view": 0
  },
  {
    "link_thumb": "https://live.staticflickr.com/65535/50041524277_c24b229d14_n.jpg",
    "id_album": "-1587696329",
    "description": "Stars_268324",
    "title": "Stars_268324",
    "link_img": "https://live.staticflickr.com/65535/50041524277_40af40c21a_o.jpg",
    "id_image": "Stars_268324",
    "count_view": 0
  },
  {
    "link_thumb": "https://live.staticflickr.com/65535/50039516293_9c8bdce52e_n.jpg",
    "id_album": "-1102314093",
    "description": "Planets_249556",
    "title": "Planets_249556",
    "link_img": "https://live.staticflickr.com/65535/50039516293_8cc7866bdd_o.jpg",
    "id_image": "Planets_249556",
    "count_view": 0
  },
  {
    "link_thumb": "https://live.staticflickr.com/65535/50039412001_f9748f26a2_n.jpg",
    "id_album": "-1780971522",
    "description": "Biohazard_300094",
    "title": "Biohazard_300094",
    "link_img": "https://live.staticflickr.com/65535/50039412001_455d6f90a6_o.jpg",
    "id_image": "Biohazard_300094",
    "count_view": 0
  },
  {
    "link_thumb": "https://live.staticflickr.com/65535/50039641261_687ed7df93_n.jpg",
    "id_album": "1204249541",
    "description": "Galaxy_543989",
    "title": "Galaxy_543989",
    "link_img": "https://live.staticflickr.com/65535/50039641261_704fae0705_o.jpg",
    "id_image": "Galaxy_543989",
    "count_view": 0
  },
  {
    "link_thumb": "https://live.staticflickr.com/65535/50039435343_79ebb3e140_n.jpg",
    "id_album": "395161030",
    "description": "Planet_941745",
    "title": "Planet_941745",
    "link_img": "https://live.staticflickr.com/65535/50039435343_1734836a16_o.jpg",
    "id_image": "Planet_941745",
    "count_view": 0
  },
  {
    "link_thumb": "https://live.staticflickr.com/65535/50039809611_843324bb07_n.jpg",
    "id_album": "-1610342324",
    "description": "Nebula_555941",
    "title": "Nebula_555941",
    "link_img": "https://live.staticflickr.com/65535/50039809611_a391ed91d2_o.jpg",
    "id_image": "Nebula_555941",
    "count_view": 0
  },
  {
    "link_thumb": "https://live.staticflickr.com/65535/50038866368_60e3788223_n.jpg",
    "id_album": "-1780971522",
    "description": "Biohazard_494275",
    "title": "Biohazard_494275",
    "link_img": "https://live.staticflickr.com/65535/50038866368_7c1822af8f_o.jpg",
    "id_image": "Biohazard_494275",
    "count_view": 0
  },
  {
    "link_thumb": "https://live.staticflickr.com/65535/50041353587_ef39fbae3f_n.jpg",
    "id_album": "-1863373220",
    "description": "StarWars_107504",
    "title": "StarWars_107504",
    "link_img": "https://live.staticflickr.com/65535/50041353587_f1cc577a44_o.jpg",
    "id_image": "StarWars_107504",
    "count_view": 0
  },
  {
    "link_thumb": "https://live.staticflickr.com/65535/50039644811_fce9ecfe0f_n.jpg",
    "id_album": "1204249541",
    "description": "Galaxy_585163",
    "title": "Galaxy_585163",
    "link_img": "https://live.staticflickr.com/65535/50039644811_3b740e6923_o.jpg",
    "id_image": "Galaxy_585163",
    "count_view": 0
  },
  {
    "link_thumb": "https://live.staticflickr.com/65535/50038940478_3db020d6dc_n.jpg",
    "id_album": "-1964113117",
    "description": "City_694107",
    "title": "City_694107",
    "link_img": "https://live.staticflickr.com/65535/50038940478_28f04d2dd3_o.jpg",
    "id_image": "City_694107",
    "count_view": 0
  },
  {
    "link_thumb": "https://live.staticflickr.com/65535/50039195753_93834bf4ed_n.jpg",
    "id_album": "-1388385651",
    "description": "MilkyWay_719146",
    "title": "MilkyWay_719146",
    "link_img": "https://live.staticflickr.com/65535/50039195753_def8f75cbc_o.jpg",
    "id_image": "MilkyWay_719146",
    "count_view": 0
  },
  {
    "link_thumb": "https://live.staticflickr.com/65535/50039082588_37f557ddf0_n.jpg",
    "id_album": "1204249541",
    "description": "Galaxy_369509",
    "title": "Galaxy_369509",
    "link_img": "https://live.staticflickr.com/65535/50039082588_2786c73b7e_o.jpg",
    "id_image": "Galaxy_369509",
    "count_view": 0
  },
  {
    "link_thumb": "https://live.staticflickr.com/65535/50039000358_25b3337d7e_n.jpg",
    "id_album": "-437872736",
    "description": "Creature_282527",
    "title": "Creature_282527",
    "link_img": "https://live.staticflickr.com/65535/50039000358_d1205a310f_o.jpg",
    "id_image": "Creature_282527",
    "count_view": 0
  },
  {
    "link_thumb": "https://live.staticflickr.com/65535/50039925201_601517c1f1_n.jpg",
    "id_album": "395161030",
    "description": "Planet_29231",
    "title": "Planet_29231",
    "link_img": "https://live.staticflickr.com/65535/50039925201_2ef109abe6_o.jpg",
    "id_image": "Planet_29231",
    "count_view": 0
  },
  {
    "link_thumb": "https://live.staticflickr.com/65535/50038854668_c4567ea432_n.jpg",
    "id_album": "1187037014",
    "description": "Battle_528292",
    "title": "Battle_528292",
    "link_img": "https://live.staticflickr.com/65535/50038854668_2fc31f9bdd_o.jpg",
    "id_image": "Battle_528292",
    "count_view": 0
  },
  {
    "link_thumb": "https://live.staticflickr.com/65535/50040277226_8f1b681232_n.jpg",
    "id_album": "779690680",
    "description": "Robot_267586",
    "title": "Robot_267586",
    "link_img": "https://live.staticflickr.com/65535/50040277226_af3e5fa2cc_o.jpg",
    "id_image": "Robot_267586",
    "count_view": 0
  },
  {
    "link_thumb": "https://live.staticflickr.com/65535/50040344992_1be4094a48_n.jpg",
    "id_album": "-1102314093",
    "description": "Planets_32584",
    "title": "Planets_32584",
    "link_img": "https://live.staticflickr.com/65535/50040344992_cc8f427e07_o.jpg",
    "id_image": "Planets_32584",
    "count_view": 0
  },
  {
    "link_thumb": "https://live.staticflickr.com/65535/50039687552_ed07c947d4_n.jpg",
    "id_album": "406431601",
    "description": "Building_873147",
    "title": "Building_873147",
    "link_img": "https://live.staticflickr.com/65535/50039687552_41047c2368_o.jpg",
    "id_image": "Building_873147",
    "count_view": 0
  },
  {
    "link_thumb": "https://live.staticflickr.com/65535/50040041017_61866a9120_n.jpg",
    "id_album": "-1610342324",
    "description": "Nebula_2537",
    "title": "Nebula_2537",
    "link_img": "https://live.staticflickr.com/65535/50040041017_34965cece1_o.jpg",
    "id_image": "Nebula_2537",
    "count_view": 0
  },
  {
    "link_thumb": "https://live.staticflickr.com/65535/50039835161_045746440b_n.jpg",
    "id_album": "-1610342324",
    "description": "Nebula_77316",
    "title": "Nebula_77316",
    "link_img": "https://live.staticflickr.com/65535/50039835161_56d24d7d99_o.jpg",
    "id_image": "Nebula_77316",
    "count_view": 0
  },
  {
    "link_thumb": "https://live.staticflickr.com/65535/50041388652_952c09fc2c_n.jpg",
    "id_album": "-1863373220",
    "description": "StarWars_195358",
    "title": "StarWars_195358",
    "link_img": "https://live.staticflickr.com/65535/50041388652_9efbf2a39d_o.jpg",
    "id_image": "StarWars_195358",
    "count_view": 0
  },
  {
    "link_thumb": "https://live.staticflickr.com/65535/50041179866_87006da4c2_n.jpg",
    "id_album": "-1863373220",
    "description": "StarWars_438735",
    "title": "StarWars_438735",
    "link_img": "https://live.staticflickr.com/65535/50041179866_c21b62a264_o.jpg",
    "id_image": "StarWars_438735",
    "count_view": 0
  },
  {
    "link_thumb": "https://live.staticflickr.com/65535/50040282971_1f4e7127c5_n.jpg",
    "id_album": "779690680",
    "description": "Robot_292396",
    "title": "Robot_292396",
    "link_img": "https://live.staticflickr.com/65535/50040282971_e878097de8_o.jpg",
    "id_image": "Robot_292396",
    "count_view": 0
  },
  {
    "link_thumb": "https://live.staticflickr.com/65535/50039419181_7a225039e8_n.jpg",
    "id_album": "-1780971522",
    "description": "Biohazard_577358",
    "title": "Biohazard_577358",
    "link_img": "https://live.staticflickr.com/65535/50039419181_de17edbd4d_o.jpg",
    "id_image": "Biohazard_577358",
    "count_view": 0
  },
  {
    "link_thumb": "https://live.staticflickr.com/65535/50039879183_83ebfbed65_n.jpg",
    "id_album": "779690680",
    "description": "Robot_937809",
    "title": "Robot_937809",
    "link_img": "https://live.staticflickr.com/65535/50039879183_374dd64cf0_o.jpg",
    "id_image": "Robot_937809",
    "count_view": 0
  },
  {
    "link_thumb": "https://live.staticflickr.com/65535/50039368811_0ba717d319_n.jpg",
    "id_album": "869545341",
    "description": "Astronaut_852644",
    "title": "Astronaut_852644",
    "link_img": "https://live.staticflickr.com/65535/50039368811_51b7958fff_o.jpg",
    "id_image": "Astronaut_852644",
    "count_view": 0
  },
  {
    "link_thumb": "https://live.staticflickr.com/65535/50039311946_75e49eacb1_n.jpg",
    "id_album": "523598895",
    "description": "Artistic_204793",
    "title": "Artistic_204793",
    "link_img": "https://live.staticflickr.com/65535/50039311946_e9e099f858_o.jpg",
    "id_image": "Artistic_204793",
    "count_view": 0
  },
  {
    "link_thumb": "https://live.staticflickr.com/65535/50039372561_8545cea783_n.jpg",
    "id_album": "869545341",
    "description": "Astronaut_857747",
    "title": "Astronaut_857747",
    "link_img": "https://live.staticflickr.com/65535/50039372561_5d3e19c018_o.jpg",
    "id_image": "Astronaut_857747",
    "count_view": 0
  },
  {
    "link_thumb": "https://live.staticflickr.com/65535/50040258208_aff9de630c_n.jpg",
    "id_album": "-1449720967",
    "description": "StarTrek_256668",
    "title": "StarTrek_256668",
    "link_img": "https://live.staticflickr.com/65535/50040258208_a8f1556d6d_o.jpg",
    "id_image": "StarTrek_256668",
    "count_view": 0
  },
  {
    "link_thumb": "https://live.staticflickr.com/65535/50039692663_9b978aa57d_n.jpg",
    "id_album": "-839602625",
    "description": "Predator_499118",
    "title": "Predator_499118",
    "link_img": "https://live.staticflickr.com/65535/50039692663_12bc2e21f7_o.jpg",
    "id_image": "Predator_499118",
    "count_view": 0
  },
  {
    "link_thumb": "https://live.staticflickr.com/65535/50040151226_b2443b22ca_n.jpg",
    "id_album": "-1102314093",
    "description": "Planets_957523",
    "title": "Planets_957523",
    "link_img": "https://live.staticflickr.com/65535/50040151226_b6881721ce_o.jpg",
    "id_image": "Planets_957523",
    "count_view": 0
  },
  {
    "link_thumb": "https://live.staticflickr.com/65535/50039397176_db2da79073_n.jpg",
    "id_album": "1187037014",
    "description": "Battle_244227",
    "title": "Battle_244227",
    "link_img": "https://live.staticflickr.com/65535/50039397176_3f2cbdd588_o.jpg",
    "id_image": "Battle_244227",
    "count_view": 0
  },
  {
    "link_thumb": "https://live.staticflickr.com/65535/50041438147_7477c36315_n.jpg",
    "id_album": "-1863373220",
    "description": "StarWars_389121",
    "title": "StarWars_389121",
    "link_img": "https://live.staticflickr.com/65535/50041438147_d9f9d6621b_o.jpg",
    "id_image": "StarWars_389121",
    "count_view": 0
  },
  {
    "link_thumb": "https://live.staticflickr.com/65535/50041331981_9e815b08f8_n.jpg",
    "id_album": "1267121215",
    "description": "Steampunk_858543",
    "title": "Steampunk_858543",
    "link_img": "https://live.staticflickr.com/65535/50041331981_e818b6d85b_o.jpg",
    "id_image": "Steampunk_858543",
    "count_view": 0
  },
  {
    "link_thumb": "https://live.staticflickr.com/65535/50040191017_c4701877a3_n.jpg",
    "id_album": "395161030",
    "description": "Planet_320548",
    "title": "Planet_320548",
    "link_img": "https://live.staticflickr.com/65535/50040191017_aedb5e8f67_o.jpg",
    "id_image": "Planet_320548",
    "count_view": 0
  },
  {
    "link_thumb": "https://live.staticflickr.com/65535/50041359041_db098e2756_n.jpg",
    "id_album": "-1177476763",
    "description": "Sunrise_217987",
    "title": "Sunrise_217987",
    "link_img": "https://live.staticflickr.com/65535/50041359041_42032a7c67_o.jpg",
    "id_image": "Sunrise_217987",
    "count_view": 0
  },
  {
    "link_thumb": "https://live.staticflickr.com/65535/50039892393_1d6b366433_n.jpg",
    "id_album": "779690680",
    "description": "Robot_959169",
    "title": "Robot_959169",
    "link_img": "https://live.staticflickr.com/65535/50039892393_69cd244856_o.jpg",
    "id_image": "Robot_959169",
    "count_view": 0
  },
  {
    "link_thumb": "https://live.staticflickr.com/65535/50041716882_c3a240f1f1_n.jpg",
    "id_album": "-1261420436",
    "description": "Warrior_377831",
    "title": "Warrior_377831",
    "link_img": "https://live.staticflickr.com/65535/50041716882_db2504c770_o.jpg",
    "id_image": "Warrior_377831",
    "count_view": 0
  },
  {
    "link_thumb": "https://live.staticflickr.com/65535/50038839168_b76ac3e5ea_n.jpg",
    "id_album": "869545341",
    "description": "Astronaut_969760",
    "title": "Astronaut_969760",
    "link_img": "https://live.staticflickr.com/65535/50038839168_9e51f392b3_o.jpg",
    "id_image": "Astronaut_969760",
    "count_view": 0
  },
  {
    "link_thumb": "https://live.staticflickr.com/65535/50039464973_0fbc948aa7_n.jpg",
    "id_album": "1443611160",
    "description": "PlanetRise_82376",
    "title": "PlanetRise_82376",
    "link_img": "https://live.staticflickr.com/65535/50039464973_ed826871e3_o.jpg",
    "id_image": "PlanetRise_82376",
    "count_view": 0
  },
  {
    "link_thumb": "https://live.staticflickr.com/65535/50040866708_436a52379e_n.jpg",
    "id_album": "2020068132",
    "description": "Vehicle_929323",
    "title": "Vehicle_929323",
    "link_img": "https://live.staticflickr.com/65535/50040866708_844cc89aeb_o.jpg",
    "id_image": "Vehicle_929323",
    "count_view": 0
  },
  {
    "link_thumb": "https://live.staticflickr.com/65535/50038993503_eeef56a677_n.jpg",
    "id_album": "894679094",
    "description": "Collision_517482",
    "title": "Collision_517482",
    "link_img": "https://live.staticflickr.com/65535/50038993503_cca1719472_o.jpg",
    "id_image": "Collision_517482",
    "count_view": 0
  },
  {
    "link_thumb": "https://live.staticflickr.com/65535/50039607266_0b28ca3ebe_n.jpg",
    "id_album": "651930207",
    "description": "Explosion_127961",
    "title": "Explosion_127961",
    "link_img": "https://live.staticflickr.com/65535/50039607266_1b25afd6d5_o.jpg",
    "id_image": "Explosion_127961",
    "count_view": 0
  },
  {
    "link_thumb": "https://live.staticflickr.com/65535/50039729398_02c3b897fe_n.jpg",
    "id_album": "779690680",
    "description": "Robot_286476",
    "title": "Robot_286476",
    "link_img": "https://live.staticflickr.com/65535/50039729398_eb0edd3a9c_o.jpg",
    "id_image": "Robot_286476",
    "count_view": 0
  },
  {
    "link_thumb": "https://live.staticflickr.com/65535/50039465546_9dd8379783_n.jpg",
    "id_album": "-1964113117",
    "description": "City_354870",
    "title": "City_354870",
    "link_img": "https://live.staticflickr.com/65535/50039465546_3cf3c6faaa_o.jpg",
    "id_image": "City_354870",
    "count_view": 0
  },
  {
    "link_thumb": "https://live.staticflickr.com/65535/50041638192_65b7f5f552_n.jpg",
    "id_album": "2020068132",
    "description": "Vehicle_192943",
    "title": "Vehicle_192943",
    "link_img": "https://live.staticflickr.com/65535/50041638192_680655783d_o.jpg",
    "id_image": "Vehicle_192943",
    "count_view": 0
  },
  {
    "link_thumb": "https://live.staticflickr.com/65535/50039854858_178d876b28_n.jpg",
    "id_album": "779690680",
    "description": "Robot_911874",
    "title": "Robot_911874",
    "link_img": "https://live.staticflickr.com/65535/50039854858_72659f2f56_o.jpg",
    "id_image": "Robot_911874",
    "count_view": 0
  },
  {
    "link_thumb": "https://live.staticflickr.com/65535/50041574461_699d2d5bfd_n.jpg",
    "id_album": "-1675918237",
    "description": "WomenWarrior_410152",
    "title": "WomenWarrior_410152",
    "link_img": "https://live.staticflickr.com/65535/50041574461_e442702eb4_o.jpg",
    "id_image": "WomenWarrior_410152",
    "count_view": 0
  },
  {
    "link_thumb": "https://live.staticflickr.com/65535/50039749942_0d07082189_n.jpg",
    "id_album": "-1964113117",
    "description": "City_681632",
    "title": "City_681632",
    "link_img": "https://live.staticflickr.com/65535/50039749942_c8bcce54f1_o.jpg",
    "id_image": "City_681632",
    "count_view": 0
  },
  {
    "link_thumb": "https://live.staticflickr.com/65535/50039499067_68c9594ef5_n.jpg",
    "id_album": "-406145265",
    "description": "Aircraft_327270",
    "title": "Aircraft_327270",
    "link_img": "https://live.staticflickr.com/65535/50039499067_33da993d2f_o.jpg",
    "id_image": "Aircraft_327270",
    "count_view": 0
  },
  {
    "link_thumb": "https://live.staticflickr.com/65535/50038842008_b22ccc7928_n.jpg",
    "id_album": "869545341",
    "description": "Astronaut_985948",
    "title": "Astronaut_985948",
    "link_img": "https://live.staticflickr.com/65535/50038842008_47ee383acf_o.jpg",
    "id_image": "Astronaut_985948",
    "count_view": 0
  },
  {
    "link_thumb": "https://live.staticflickr.com/65535/50040428806_66a8ded474_n.jpg",
    "id_album": "779690680",
    "description": "Robot_931799",
    "title": "Robot_931799",
    "link_img": "https://live.staticflickr.com/65535/50040428806_5e600eb5e0_o.jpg",
    "id_image": "Robot_931799",
    "count_view": 0
  },
  {
    "link_thumb": "https://live.staticflickr.com/65535/50040042503_6e2433f607_n.jpg",
    "id_album": "2130067313",
    "description": "Spaceship_195156",
    "title": "Spaceship_195156",
    "link_img": "https://live.staticflickr.com/65535/50040042503_dc4f3bf7d9_o.jpg",
    "id_image": "Spaceship_195156",
    "count_view": 0
  },
  {
    "link_thumb": "https://live.staticflickr.com/65535/50041257401_d0de399e58_n.jpg",
    "id_album": "-1587696329",
    "description": "Stars_175264",
    "title": "Stars_175264",
    "link_img": "https://live.staticflickr.com/65535/50041257401_33d426ae88_o.jpg",
    "id_image": "Stars_175264",
    "count_view": 0
  },
  {
    "link_thumb": "https://live.staticflickr.com/65535/50039351748_e229d0d649_n.jpg",
    "id_album": "395161030",
    "description": "Planet_1005774",
    "title": "Planet_1005774",
    "link_img": "https://live.staticflickr.com/65535/50039351748_322371f792_o.jpg",
    "id_image": "Planet_1005774",
    "count_view": 0
  },
  {
    "link_thumb": "https://live.staticflickr.com/65535/50039818227_a672b8016f_n.jpg",
    "id_album": "-437872736",
    "description": "Creature_410085",
    "title": "Creature_410085",
    "link_img": "https://live.staticflickr.com/65535/50039818227_6867bf3aaa_o.jpg",
    "id_image": "Creature_410085",
    "count_view": 0
  },
  {
    "link_thumb": "https://live.staticflickr.com/65535/50040471921_487797ff8c_n.jpg",
    "id_album": "1613540653",
    "description": "Space_172125",
    "title": "Space_172125",
    "link_img": "https://live.staticflickr.com/65535/50040471921_7b787a1698_o.jpg",
    "id_image": "Space_172125",
    "count_view": 0
  },
  {
    "link_thumb": "https://live.staticflickr.com/65535/50038950808_b938bd4643_n.jpg",
    "id_album": "-1964113117",
    "description": "City_816704",
    "title": "City_816704",
    "link_img": "https://live.staticflickr.com/65535/50038950808_c35b658f58_o.jpg",
    "id_image": "City_816704",
    "count_view": 0
  },
  {
    "link_thumb": "https://live.staticflickr.com/65535/50039660976_09abfcef3a_n.jpg",
    "id_album": "1402713104",
    "description": "Landscape_151181",
    "title": "Landscape_151181",
    "link_img": "https://live.staticflickr.com/65535/50039660976_fe25dbff0c_o.jpg",
    "id_image": "Landscape_151181",
    "count_view": 0
  },
  {
    "link_thumb": "https://live.staticflickr.com/65535/50039582337_ea279e0b64_n.jpg",
    "id_album": "523598895",
    "description": "Artistic_229145",
    "title": "Artistic_229145",
    "link_img": "https://live.staticflickr.com/65535/50039582337_26a273301c_o.jpg",
    "id_image": "Artistic_229145",
    "count_view": 0
  },
  {
    "link_thumb": "https://live.staticflickr.com/65535/50039357641_19f6e66e65_n.jpg",
    "id_album": "869545341",
    "description": "Astronaut_557605",
    "title": "Astronaut_557605",
    "link_img": "https://live.staticflickr.com/65535/50039357641_9b0ea19074_o.jpg",
    "id_image": "Astronaut_557605",
    "count_view": 0
  },
  {
    "link_thumb": "https://live.staticflickr.com/65535/50039627676_d56f7d14f0_n.jpg",
    "id_album": "1204249541",
    "description": "Galaxy_234006",
    "title": "Galaxy_234006",
    "link_img": "https://live.staticflickr.com/65535/50039627676_689c82df54_o.jpg",
    "id_image": "Galaxy_234006",
    "count_view": 0
  },
  {
    "link_thumb": "https://live.staticflickr.com/65535/50041358676_d86a31f644_n.jpg",
    "id_album": "-1177476763",
    "description": "Sunrise_216121",
    "title": "Sunrise_216121",
    "link_img": "https://live.staticflickr.com/65535/50041358676_9207fc8b76_o.jpg",
    "id_image": "Sunrise_216121",
    "count_view": 0
  },
  {
    "link_thumb": "https://live.staticflickr.com/65535/50041563377_7cee198df0_n.jpg",
    "id_album": "1267121215",
    "description": "Steampunk_21623",
    "title": "Steampunk_21623",
    "link_img": "https://live.staticflickr.com/65535/50041563377_5e8fd5d829_o.jpg",
    "id_image": "Steampunk_21623",
    "count_view": 0
  },
  {
    "link_thumb": "https://live.staticflickr.com/65535/50039587961_3f355c2d5f_n.jpg",
    "id_album": "829169633",
    "description": "Cyborg_384607",
    "title": "Cyborg_384607",
    "link_img": "https://live.staticflickr.com/65535/50039587961_b05f35c376_o.jpg",
    "id_image": "Cyborg_384607",
    "count_view": 0
  },
  {
    "link_thumb": "https://live.staticflickr.com/65535/50038934443_0fa63bfcde_n.jpg",
    "id_album": "-1964113117",
    "description": "City_649146",
    "title": "City_649146",
    "link_img": "https://live.staticflickr.com/65535/50038934443_494983d6c7_o.jpg",
    "id_image": "City_649146",
    "count_view": 0
  },
  {
    "link_thumb": "https://live.staticflickr.com/65535/50040222631_3d0e4d4f07_n.jpg",
    "id_album": "-482547208",
    "description": "PostApocalyptic_740042",
    "title": "PostApocalyptic_740042",
    "link_img": "https://live.staticflickr.com/65535/50040222631_52975cbe87_o.jpg",
    "id_image": "PostApocalyptic_740042",
    "count_view": 0
  },
  {
    "link_thumb": "https://live.staticflickr.com/65535/50039781086_a1c7b96aaa_n.jpg",
    "id_album": "-1610342324",
    "description": "Nebula_283889",
    "title": "Nebula_283889",
    "link_img": "https://live.staticflickr.com/65535/50039781086_665fa3d32c_o.jpg",
    "id_image": "Nebula_283889",
    "count_view": 0
  },
  {
    "link_thumb": "https://live.staticflickr.com/65535/50040376246_1da39238a5_n.jpg",
    "id_album": "779690680",
    "description": "Robot_857302",
    "title": "Robot_857302",
    "link_img": "https://live.staticflickr.com/65535/50040376246_0d06366074_o.jpg",
    "id_image": "Robot_857302",
    "count_view": 0
  },
  {
    "link_thumb": "https://live.staticflickr.com/65535/50040412641_b2a3ef2789_n.jpg",
    "id_album": "779690680",
    "description": "Robot_915573",
    "title": "Robot_915573",
    "link_img": "https://live.staticflickr.com/65535/50040412641_d9b5769d04_o.jpg",
    "id_image": "Robot_915573",
    "count_view": 0
  },
  {
    "link_thumb": "https://live.staticflickr.com/65535/50040510142_8b46392e08_n.jpg",
    "id_album": "-839602625",
    "description": "Predator_599866",
    "title": "Predator_599866",
    "link_img": "https://live.staticflickr.com/65535/50040510142_ff45d0b257_o.jpg",
    "id_image": "Predator_599866",
    "count_view": 0
  },
  {
    "link_thumb": "https://live.staticflickr.com/65535/50038886143_3a47dd3760_n.jpg",
    "id_album": "-1964113117",
    "description": "City_145430",
    "title": "City_145430",
    "link_img": "https://live.staticflickr.com/65535/50038886143_47014d32b6_o.jpg",
    "id_image": "City_145430",
    "count_view": 0
  },
  {
    "link_thumb": "https://live.staticflickr.com/65535/50041357191_9a4ab5fc53_n.jpg",
    "id_album": "-1177476763",
    "description": "Sunrise_121799",
    "title": "Sunrise_121799",
    "link_img": "https://live.staticflickr.com/65535/50041357191_e198a55752_o.jpg",
    "id_image": "Sunrise_121799",
    "count_view": 0
  },
  {
    "link_thumb": "https://live.staticflickr.com/65535/50041256911_864efd6e6b_n.jpg",
    "id_album": "-1587696329",
    "description": "Stars_171521",
    "title": "Stars_171521",
    "link_img": "https://live.staticflickr.com/65535/50041256911_9a927e06f2_o.jpg",
    "id_image": "Stars_171521",
    "count_view": 0
  },
  {
    "link_thumb": "https://live.staticflickr.com/65535/50039703068_b81521f01d_n.jpg",
    "id_album": "779690680",
    "description": "Robot_152156",
    "title": "Robot_152156",
    "link_img": "https://live.staticflickr.com/65535/50039703068_ba76896543_o.jpg",
    "id_image": "Robot_152156",
    "count_view": 0
  },
  {
    "link_thumb": "https://live.staticflickr.com/65535/50038943553_7ce4d43c88_n.jpg",
    "id_album": "-1964113117",
    "description": "City_712330",
    "title": "City_712330",
    "link_img": "https://live.staticflickr.com/65535/50038943553_43e9e36e40_o.jpg",
    "id_image": "City_712330",
    "count_view": 0
  },
  {
    "link_thumb": "https://live.staticflickr.com/65535/50039112828_c4702433c8_n.jpg",
    "id_album": "1402713104",
    "description": "Landscape_163743",
    "title": "Landscape_163743",
    "link_img": "https://live.staticflickr.com/65535/50039112828_d21aa72912_o.jpg",
    "id_image": "Landscape_163743",
    "count_view": 0
  },
  {
    "link_thumb": "https://live.staticflickr.com/65535/50039954937_e5ded77b84_n.jpg",
    "id_album": "1402713104",
    "description": "Landscape_523833",
    "title": "Landscape_523833",
    "link_img": "https://live.staticflickr.com/65535/50039954937_c83acc8263_o.jpg",
    "id_image": "Landscape_523833",
    "count_view": 0
  },
  {
    "link_thumb": "https://live.staticflickr.com/65535/50039895852_a23cb0ba54_n.jpg",
    "id_album": "1204249541",
    "description": "Galaxy_421608",
    "title": "Galaxy_421608",
    "link_img": "https://live.staticflickr.com/65535/50039895852_de2ea326e4_o.jpg",
    "id_image": "Galaxy_421608",
    "count_view": 0
  },
  {
    "link_thumb": "https://live.staticflickr.com/65535/50039789722_7cce967f17_n.jpg",
    "id_album": "-1964113117",
    "description": "City_958305",
    "title": "City_958305",
    "link_img": "https://live.staticflickr.com/65535/50039789722_6a3592cc65_o.jpg",
    "id_image": "City_958305",
    "count_view": 0
  },
  {
    "link_thumb": "https://live.staticflickr.com/65535/50040205481_132e3d57e1_n.jpg",
    "id_album": "-482547208",
    "description": "PostApocalyptic_314445",
    "title": "PostApocalyptic_314445",
    "link_img": "https://live.staticflickr.com/65535/50040205481_99cd6ecaef_o.jpg",
    "id_image": "PostApocalyptic_314445",
    "count_view": 0
  },
  {
    "link_thumb": "https://live.staticflickr.com/65535/50041456896_c3ec73b2c6_n.jpg",
    "id_album": "-1261420436",
    "description": "Warrior_393973",
    "title": "Warrior_393973",
    "link_img": "https://live.staticflickr.com/65535/50041456896_76b06bb9ce_o.jpg",
    "id_image": "Warrior_393973",
    "count_view": 0
  },
  {
    "link_thumb": "https://live.staticflickr.com/65535/50039699328_7d65019a63_n.jpg",
    "id_album": "779690680",
    "description": "Robot_112626",
    "title": "Robot_112626",
    "link_img": "https://live.staticflickr.com/65535/50039699328_2753831782_o.jpg",
    "id_image": "Robot_112626",
    "count_view": 0
  },
  {
    "link_thumb": "https://live.staticflickr.com/65535/50039638646_f05385b8b6_n.jpg",
    "id_album": "1204249541",
    "description": "Galaxy_506593",
    "title": "Galaxy_506593",
    "link_img": "https://live.staticflickr.com/65535/50039638646_67c6b16e53_o.jpg",
    "id_image": "Galaxy_506593",
    "count_view": 0
  },
  {
    "link_thumb": "https://live.staticflickr.com/65535/50038854778_ce6fe0f324_n.jpg",
    "id_album": "1187037014",
    "description": "Battle_528305",
    "title": "Battle_528305",
    "link_img": "https://live.staticflickr.com/65535/50038854778_7a331d936b_o.jpg",
    "id_image": "Battle_528305",
    "count_view": 0
  },
  {
    "link_thumb": "https://live.staticflickr.com/65535/50039616311_abcc17ef0c_n.jpg",
    "id_album": "2104507156",
    "description": "Fantasy_162699",
    "title": "Fantasy_162699",
    "link_img": "https://live.staticflickr.com/65535/50039616311_ea6e924d00_o.jpg",
    "id_image": "Fantasy_162699",
    "count_view": 0
  },
  {
    "link_thumb": "https://live.staticflickr.com/65535/50039171863_165cb1d4b7_n.jpg",
    "id_album": "1402713104",
    "description": "Landscape_906964",
    "title": "Landscape_906964",
    "link_img": "https://live.staticflickr.com/65535/50039171863_2e92502b1c_o.jpg",
    "id_image": "Landscape_906964",
    "count_view": 0
  },
  {
    "link_thumb": "https://live.staticflickr.com/65535/50039633796_af539bcf27_n.jpg",
    "id_album": "1204249541",
    "description": "Galaxy_427241",
    "title": "Galaxy_427241",
    "link_img": "https://live.staticflickr.com/65535/50039633796_8ace2040d6_o.jpg",
    "id_image": "Galaxy_427241",
    "count_view": 0
  },
  {
    "link_thumb": "https://live.staticflickr.com/65535/50038766653_06cac5a4e7_n.jpg",
    "id_album": "523598895",
    "description": "Artistic_211323",
    "title": "Artistic_211323",
    "link_img": "https://live.staticflickr.com/65535/50038766653_802c237498_o.jpg",
    "id_image": "Artistic_211323",
    "count_view": 0
  },
  {
    "link_thumb": "https://live.staticflickr.com/65535/50040489261_863227a024_n.jpg",
    "id_album": "1613540653",
    "description": "Space_287069",
    "title": "Space_287069",
    "link_img": "https://live.staticflickr.com/65535/50040489261_1f1062cd62_o.jpg",
    "id_image": "Space_287069",
    "count_view": 0
  },
  {
    "link_thumb": "https://live.staticflickr.com/65535/50040390101_8cf1922a4d_n.jpg",
    "id_album": "779690680",
    "description": "Robot_880056",
    "title": "Robot_880056",
    "link_img": "https://live.staticflickr.com/65535/50040390101_2a5b78967c_o.jpg",
    "id_image": "Robot_880056",
    "count_view": 0
  },
  {
    "link_thumb": "https://live.staticflickr.com/65535/50039947261_762afe8259_n.jpg",
    "id_album": "395161030",
    "description": "Planet_413994",
    "title": "Planet_413994",
    "link_img": "https://live.staticflickr.com/65535/50039947261_7e4deae1ec_o.jpg",
    "id_image": "Planet_413994",
    "count_view": 0
  },
  {
    "link_thumb": "https://live.staticflickr.com/65535/50038697088_ca2e1faf7e_n.jpg",
    "id_album": "849020728",
    "description": "Alien_112136",
    "title": "Alien_112136",
    "link_img": "https://live.staticflickr.com/65535/50038697088_8c706f416a_o.jpg",
    "id_image": "Alien_112136",
    "count_view": 0
  },
  {
    "link_thumb": "https://live.staticflickr.com/65535/50039190868_2355a81eb0_n.jpg",
    "id_album": "-1388385651",
    "description": "MilkyWay_687245",
    "title": "MilkyWay_687245",
    "link_img": "https://live.staticflickr.com/65535/50039190868_01fe78c341_o.jpg",
    "id_image": "MilkyWay_687245",
    "count_view": 0
  },
  {
    "link_thumb": "https://live.staticflickr.com/65535/50039380941_efc7222aec_n.jpg",
    "id_album": "869545341",
    "description": "Astronaut_924285",
    "title": "Astronaut_924285",
    "link_img": "https://live.staticflickr.com/65535/50039380941_fbeb0bc960_o.jpg",
    "id_image": "Astronaut_924285",
    "count_view": 0
  },
  {
    "link_thumb": "https://live.staticflickr.com/65535/50039243841_295484508c_n.jpg",
    "id_album": "849020728",
    "description": "Alien_108189",
    "title": "Alien_108189",
    "link_img": "https://live.staticflickr.com/65535/50039243841_6c1cb2b5a1_o.jpg",
    "id_image": "Alien_108189",
    "count_view": 0
  },
  {
    "link_thumb": "https://live.staticflickr.com/65535/50039380016_437222e5f8_n.jpg",
    "id_album": "869545341",
    "description": "Astronaut_923968",
    "title": "Astronaut_923968",
    "link_img": "https://live.staticflickr.com/65535/50039380016_e60728d6fa_o.jpg",
    "id_image": "Astronaut_923968",
    "count_view": 0
  },
  {
    "link_thumb": "https://live.staticflickr.com/65535/50038932323_395c873226_n.jpg",
    "id_album": "-1964113117",
    "description": "City_616564",
    "title": "City_616564",
    "link_img": "https://live.staticflickr.com/65535/50038932323_a47a04c04b_o.jpg",
    "id_image": "City_616564",
    "count_view": 0
  },
  {
    "link_thumb": "https://live.staticflickr.com/65535/50040524608_2074ca5324_n.jpg",
    "id_album": "-1863373220",
    "description": "StarWars_1006252",
    "title": "StarWars_1006252",
    "link_img": "https://live.staticflickr.com/65535/50040524608_7a21ce260d_o.jpg",
    "id_image": "StarWars_1006252",
    "count_view": 0
  },
  {
    "link_thumb": "https://live.staticflickr.com/65535/50041587797_295928b428_n.jpg",
    "id_album": "1267121215",
    "description": "Steampunk_655449",
    "title": "Steampunk_655449",
    "link_img": "https://live.staticflickr.com/65535/50041587797_b97622ae17_o.jpg",
    "id_image": "Steampunk_655449",
    "count_view": 0
  },
  {
    "link_thumb": "https://live.staticflickr.com/65535/50038906183_cc5f9dfd57_n.jpg",
    "id_album": "-1964113117",
    "description": "City_263391",
    "title": "City_263391",
    "link_img": "https://live.staticflickr.com/65535/50038906183_d5f90db801_o.jpg",
    "id_image": "City_263391",
    "count_view": 0
  },
  {
    "link_thumb": "https://live.staticflickr.com/65535/50040249642_f4bd86296f_n.jpg",
    "id_album": "395161030",
    "description": "Planet_944011",
    "title": "Planet_944011",
    "link_img": "https://live.staticflickr.com/65535/50040249642_c2f29bf419_o.jpg",
    "id_image": "Planet_944011",
    "count_view": 0
  },
  {
    "link_thumb": "https://live.staticflickr.com/65535/50041498526_6b4df8c911_n.jpg",
    "id_album": "-1261420436",
    "description": "Warrior_992793",
    "title": "Warrior_992793",
    "link_img": "https://live.staticflickr.com/65535/50041498526_1e9bb80b8a_o.jpg",
    "id_image": "Warrior_992793",
    "count_view": 0
  },
  {
    "link_thumb": "https://live.staticflickr.com/65535/50040113671_d537c478f9_n.jpg",
    "id_album": "-1102314093",
    "description": "Planets_426127",
    "title": "Planets_426127",
    "link_img": "https://live.staticflickr.com/65535/50040113671_d1cdd7fc6d_o.jpg",
    "id_image": "Planets_426127",
    "count_view": 0
  },
  {
    "link_thumb": "https://live.staticflickr.com/65535/50039709587_f82e5926b3_n.jpg",
    "id_album": "-1964113117",
    "description": "City_214299",
    "title": "City_214299",
    "link_img": "https://live.staticflickr.com/65535/50039709587_4709dbcbf1_o.jpg",
    "id_image": "City_214299",
    "count_view": 0
  },
  {
    "link_thumb": "https://live.staticflickr.com/65535/50040466151_108a787aa8_n.jpg",
    "id_album": "1613540653",
    "description": "Space_121052",
    "title": "Space_121052",
    "link_img": "https://live.staticflickr.com/65535/50040466151_deabf30a8c_o.jpg",
    "id_image": "Space_121052",
    "count_view": 0
  },
  {
    "link_thumb": "https://live.staticflickr.com/65535/50041845847_0ef8cd8134_n.jpg",
    "id_album": "-1675918237",
    "description": "WomenWarrior_603751",
    "title": "WomenWarrior_603751",
    "link_img": "https://live.staticflickr.com/65535/50041845847_461beb6118_o.jpg",
    "id_image": "WomenWarrior_603751",
    "count_view": 0
  },
  {
    "link_thumb": "https://live.staticflickr.com/65535/50040257717_45f6601cae_n.jpg",
    "id_album": "395161030",
    "description": "Planet_996487",
    "title": "Planet_996487",
    "link_img": "https://live.staticflickr.com/65535/50040257717_2038a61716_o.jpg",
    "id_image": "Planet_996487",
    "count_view": 0
  },
  {
    "link_thumb": "https://live.staticflickr.com/65535/50039779211_c1dfb67f93_n.jpg",
    "id_album": "-1610342324",
    "description": "Nebula_264729",
    "title": "Nebula_264729",
    "link_img": "https://live.staticflickr.com/65535/50039779211_7c23e60091_o.jpg",
    "id_image": "Nebula_264729",
    "count_view": 0
  },
  {
    "link_thumb": "https://live.staticflickr.com/65535/50040027672_54944249fb_n.jpg",
    "id_album": "-1610342324",
    "description": "Nebula_171930",
    "title": "Nebula_171930",
    "link_img": "https://live.staticflickr.com/65535/50040027672_27ed10c88f_o.jpg",
    "id_image": "Nebula_171930",
    "count_view": 0
  },
  {
    "link_thumb": "https://live.staticflickr.com/65535/50040387842_9dcedae910_n.jpg",
    "id_album": "-1102314093",
    "description": "Planets_533844",
    "title": "Planets_533844",
    "link_img": "https://live.staticflickr.com/65535/50040387842_2d3284f8f9_o.jpg",
    "id_image": "Planets_533844",
    "count_view": 0
  },
  {
    "link_thumb": "https://live.staticflickr.com/65535/50039843246_9ece353449_n.jpg",
    "id_album": "-1610342324",
    "description": "Nebula_842164",
    "title": "Nebula_842164",
    "link_img": "https://live.staticflickr.com/65535/50039843246_cac8c9c0c9_o.jpg",
    "id_image": "Nebula_842164",
    "count_view": 0
  },
  {
    "link_thumb": "https://live.staticflickr.com/65535/50038749058_5e91a05202_n.jpg",
    "id_album": "523598895",
    "description": "Artistic_151369",
    "title": "Artistic_151369",
    "link_img": "https://live.staticflickr.com/65535/50038749058_2076c7780c_o.jpg",
    "id_image": "Artistic_151369",
    "count_view": 0
  },
  {
    "link_thumb": "https://live.staticflickr.com/65535/50038838643_c142c234f3_n.jpg",
    "id_album": "869545341",
    "description": "Astronaut_967447",
    "title": "Astronaut_967447",
    "link_img": "https://live.staticflickr.com/65535/50038838643_b8b03c9360_o.jpg",
    "id_image": "Astronaut_967447",
    "count_view": 0
  },
  {
    "link_thumb": "https://live.staticflickr.com/65535/50040817153_60b476ef59_n.jpg",
    "id_album": "2020068132",
    "description": "Vehicle_1011724",
    "title": "Vehicle_1011724",
    "link_img": "https://live.staticflickr.com/65535/50040817153_c463822ea1_o.jpg",
    "id_image": "Vehicle_1011724",
    "count_view": 0
  },
  {
    "link_thumb": "https://live.staticflickr.com/65535/50039876802_4b8271fb3b_n.jpg",
    "id_album": "2104507156",
    "description": "Fantasy_151078",
    "title": "Fantasy_151078",
    "link_img": "https://live.staticflickr.com/65535/50039876802_611573c519_o.jpg",
    "id_image": "Fantasy_151078",
    "count_view": 0
  },
  {
    "link_thumb": "https://live.staticflickr.com/65535/50040227822_f4bef014f4_n.jpg",
    "id_album": "395161030",
    "description": "Planet_559154",
    "title": "Planet_559154",
    "link_img": "https://live.staticflickr.com/65535/50040227822_2e47cdec46_o.jpg",
    "id_image": "Planet_559154",
    "count_view": 0
  },
  {
    "link_thumb": "https://live.staticflickr.com/65535/50039643306_aaa0eccb64_n.jpg",
    "id_album": "1204249541",
    "description": "Galaxy_559143",
    "title": "Galaxy_559143",
    "link_img": "https://live.staticflickr.com/65535/50039643306_54fc035ac9_o.jpg",
    "id_image": "Galaxy_559143",
    "count_view": 0
  },
  {
    "link_thumb": "https://live.staticflickr.com/65535/50039238906_9d98d00270_n.jpg",
    "id_album": "-406145265",
    "description": "Aircraft_341283",
    "title": "Aircraft_341283",
    "link_img": "https://live.staticflickr.com/65535/50039238906_1f3d59a034_o.jpg",
    "id_image": "Aircraft_341283",
    "count_view": 0
  },
  {
    "link_thumb": "https://live.staticflickr.com/65535/50039608911_863d43db0b_n.jpg",
    "id_album": "651930207",
    "description": "Explosion_286853",
    "title": "Explosion_286853",
    "link_img": "https://live.staticflickr.com/65535/50039608911_233d608484_o.jpg",
    "id_image": "Explosion_286853",
    "count_view": 0
  },
  {
    "link_thumb": "https://live.staticflickr.com/65535/50039218103_d35c428187_n.jpg",
    "id_album": "-1610342324",
    "description": "Nebula_198230",
    "title": "Nebula_198230",
    "link_img": "https://live.staticflickr.com/65535/50039218103_6465e5b6c1_o.jpg",
    "id_image": "Nebula_198230",
    "count_view": 0
  },
  {
    "link_thumb": "https://live.staticflickr.com/65535/50040087961_a9ab6f44e7_n.jpg",
    "id_album": "-1102314093",
    "description": "Planets_34359",
    "title": "Planets_34359",
    "link_img": "https://live.staticflickr.com/65535/50040087961_2173244db9_o.jpg",
    "id_image": "Planets_34359",
    "count_view": 0
  },
  {
    "link_thumb": "https://live.staticflickr.com/65535/50039822658_61833177da_n.jpg",
    "id_album": "779690680",
    "description": "Robot_857297",
    "title": "Robot_857297",
    "link_img": "https://live.staticflickr.com/65535/50039822658_1af1e325ec_o.jpg",
    "id_image": "Robot_857297",
    "count_view": 0
  },
  {
    "link_thumb": "https://live.staticflickr.com/65535/50040963318_5f94f0d71d_n.jpg",
    "id_album": "-1126835654",
    "description": "Women_283781",
    "title": "Women_283781",
    "link_img": "https://live.staticflickr.com/65535/50040963318_392fdfd1ee_o.jpg",
    "id_image": "Women_283781",
    "count_view": 0
  },
  {
    "link_thumb": "https://live.staticflickr.com/65535/50039856321_83befceb7b_n.jpg",
    "id_album": "-1610342324",
    "description": "Nebula_935315",
    "title": "Nebula_935315",
    "link_img": "https://live.staticflickr.com/65535/50039856321_4f0853045d_o.jpg",
    "id_image": "Nebula_935315",
    "count_view": 0
  },
  {
    "link_thumb": "https://live.staticflickr.com/65535/50039501756_c8d72d593d_n.jpg",
    "id_album": "-1964113117",
    "description": "City_845866",
    "title": "City_845866",
    "link_img": "https://live.staticflickr.com/65535/50039501756_929229266e_o.jpg",
    "id_image": "City_845866",
    "count_view": 0
  },
  {
    "link_thumb": "https://live.staticflickr.com/65535/50039914352_bef13ed891_n.jpg",
    "id_album": "1204249541",
    "description": "Galaxy_689589",
    "title": "Galaxy_689589",
    "link_img": "https://live.staticflickr.com/65535/50039914352_90c1e634d5_o.jpg",
    "id_image": "Galaxy_689589",
    "count_view": 0
  },
  {
    "link_thumb": "https://live.staticflickr.com/65535/50039652952_4d8fb09989_n.jpg",
    "id_album": "869545341",
    "description": "Astronaut_987715",
    "title": "Astronaut_987715",
    "link_img": "https://live.staticflickr.com/65535/50039652952_4d8426db51_o.jpg",
    "id_image": "Astronaut_987715",
    "count_view": 0
  },
  {
    "link_thumb": "https://live.staticflickr.com/65535/50038844573_5cb0a0bca7_n.jpg",
    "id_album": "869545341",
    "description": "Astronaut_996885",
    "title": "Astronaut_996885",
    "link_img": "https://live.staticflickr.com/65535/50038844573_fe40d793de_o.jpg",
    "id_image": "Astronaut_996885",
    "count_view": 0
  },
  {
    "link_thumb": "https://live.staticflickr.com/65535/50039245426_0d752812e5_n.jpg",
    "id_album": "849020728",
    "description": "Alien_133339",
    "title": "Alien_133339",
    "link_img": "https://live.staticflickr.com/65535/50039245426_831d62c485_o.jpg",
    "id_image": "Alien_133339",
    "count_view": 0
  },
  {
    "link_thumb": "https://live.staticflickr.com/65535/50040725942_acc65e803e_n.jpg",
    "id_album": "1613540653",
    "description": "Space_1010552",
    "title": "Space_1010552",
    "link_img": "https://live.staticflickr.com/65535/50040725942_d0f631a701_o.jpg",
    "id_image": "Space_1010552",
    "count_view": 0
  },
  {
    "link_thumb": "https://live.staticflickr.com/65535/50039892592_8436b2fc71_n.jpg",
    "id_album": "1204249541",
    "description": "Galaxy_287054",
    "title": "Galaxy_287054",
    "link_img": "https://live.staticflickr.com/65535/50039892592_0b8d0f75b6_o.jpg",
    "id_image": "Galaxy_287054",
    "count_view": 0
  },
  {
    "link_thumb": "https://live.staticflickr.com/65535/50039375368_77e90053a8_n.jpg",
    "id_album": "395161030",
    "description": "Planet_287007",
    "title": "Planet_287007",
    "link_img": "https://live.staticflickr.com/65535/50039375368_1f0d52b35b_o.jpg",
    "id_image": "Planet_287007",
    "count_view": 0
  },
  {
    "link_thumb": "https://live.staticflickr.com/65535/50040239696_78de1d087c_n.jpg",
    "id_album": "-839602625",
    "description": "Predator_309515",
    "title": "Predator_309515",
    "link_img": "https://live.staticflickr.com/65535/50040239696_4f944e67b2_o.jpg",
    "id_image": "Predator_309515",
    "count_view": 0
  },
  {
    "link_thumb": "https://live.staticflickr.com/65535/50040415036_e1d8375185_n.jpg",
    "id_album": "779690680",
    "description": "Robot_917207",
    "title": "Robot_917207",
    "link_img": "https://live.staticflickr.com/65535/50040415036_c1917a5a1a_o.jpg",
    "id_image": "Robot_917207",
    "count_view": 0
  },
  {
    "link_thumb": "https://live.staticflickr.com/65535/50039344466_a9c05e609f_n.jpg",
    "id_album": "523598895",
    "description": "Artistic_740043",
    "title": "Artistic_740043",
    "link_img": "https://live.staticflickr.com/65535/50039344466_b857f21353_o.jpg",
    "id_image": "Artistic_740043",
    "count_view": 0
  },
  {
    "link_thumb": "https://live.staticflickr.com/65535/50040694203_32e9e48062_n.jpg",
    "id_album": "-1863373220",
    "description": "StarWars_980502",
    "title": "StarWars_980502",
    "link_img": "https://live.staticflickr.com/65535/50040694203_f3453b2d1c_o.jpg",
    "id_image": "StarWars_980502",
    "count_view": 0
  },
  {
    "link_thumb": "https://live.staticflickr.com/65535/50039527303_142051c6f5_n.jpg",
    "id_album": "-1102314093",
    "description": "Planets_287037",
    "title": "Planets_287037",
    "link_img": "https://live.staticflickr.com/65535/50039527303_04c276833e_o.jpg",
    "id_image": "Planets_287037",
    "count_view": 0
  },
  {
    "link_thumb": "https://live.staticflickr.com/65535/50039148758_841122936a_n.jpg",
    "id_album": "1402713104",
    "description": "Landscape_650217",
    "title": "Landscape_650217",
    "link_img": "https://live.staticflickr.com/65535/50039148758_bd45c469a1_o.jpg",
    "id_image": "Landscape_650217",
    "count_view": 0
  },
  {
    "link_thumb": "https://live.staticflickr.com/65535/50039629922_73bf3b2918_n.jpg",
    "id_album": "869545341",
    "description": "Astronaut_801382",
    "title": "Astronaut_801382",
    "link_img": "https://live.staticflickr.com/65535/50039629922_83a3c844f7_o.jpg",
    "id_image": "Astronaut_801382",
    "count_view": 0
  },
  {
    "link_thumb": "https://live.staticflickr.com/65535/50040502167_9bbd67299c_n.jpg",
    "id_album": "-839602625",
    "description": "Predator_177845",
    "title": "Predator_177845",
    "link_img": "https://live.staticflickr.com/65535/50040502167_3b501d8a8a_o.jpg",
    "id_image": "Predator_177845",
    "count_view": 0
  },
  {
    "link_thumb": "https://live.staticflickr.com/65535/50039236163_e868ef5301_n.jpg",
    "id_album": "-1610342324",
    "description": "Nebula_309974",
    "title": "Nebula_309974",
    "link_img": "https://live.staticflickr.com/65535/50039236163_7088d3cede_o.jpg",
    "id_image": "Nebula_309974",
    "count_view": 0
  },
  {
    "link_thumb": "https://live.staticflickr.com/65535/50040307717_573766253a_n.jpg",
    "id_album": "-1102314093",
    "description": "Planets_106277",
    "title": "Planets_106277",
    "link_img": "https://live.staticflickr.com/65535/50040307717_6dbe18efbb_o.jpg",
    "id_image": "Planets_106277",
    "count_view": 0
  },
  {
    "link_thumb": "https://live.staticflickr.com/65535/50040782973_cea07782ac_n.jpg",
    "id_album": "-221671103",
    "description": "Sun_106265",
    "title": "Sun_106265",
    "link_img": "https://live.staticflickr.com/65535/50040782973_79779d8a65_o.jpg",
    "id_image": "Sun_106265",
    "count_view": 0
  },
  {
    "link_thumb": "https://live.staticflickr.com/65535/50039268928_0d1d58f80e_n.jpg",
    "id_album": "-1610342324",
    "description": "Nebula_609709",
    "title": "Nebula_609709",
    "link_img": "https://live.staticflickr.com/65535/50039268928_5edf369b8e_o.jpg",
    "id_image": "Nebula_609709",
    "count_view": 0
  },
  {
    "link_thumb": "https://live.staticflickr.com/65535/50039656251_d5015d87b5_n.jpg",
    "id_album": "1204249541",
    "description": "Galaxy_941744",
    "title": "Galaxy_941744",
    "link_img": "https://live.staticflickr.com/65535/50039656251_b84293e5d4_o.jpg",
    "id_image": "Galaxy_941744",
    "count_view": 0
  },
  {
    "link_thumb": "https://live.staticflickr.com/65535/50041041537_837bd96295_n.jpg",
    "id_album": "2130067313",
    "description": "Spaceship_972704",
    "title": "Spaceship_972704",
    "link_img": "https://live.staticflickr.com/65535/50041041537_2670fb3cfa_o.jpg",
    "id_image": "Spaceship_972704",
    "count_view": 0
  },
  {
    "link_thumb": "https://live.staticflickr.com/65535/50039785381_4a3678d350_n.jpg",
    "id_album": "-1610342324",
    "description": "Nebula_309390",
    "title": "Nebula_309390",
    "link_img": "https://live.staticflickr.com/65535/50039785381_33bb8f4b96_o.jpg",
    "id_image": "Nebula_309390",
    "count_view": 0
  },
  {
    "link_thumb": "https://live.staticflickr.com/65535/50040363257_0bc2d39a7b_n.jpg",
    "id_album": "-1102314093",
    "description": "Planets_363096",
    "title": "Planets_363096",
    "link_img": "https://live.staticflickr.com/65535/50040363257_3665368aaf_o.jpg",
    "id_image": "Planets_363096",
    "count_view": 0
  },
  {
    "link_thumb": "https://live.staticflickr.com/65535/50039844313_452374ce22_n.jpg",
    "id_album": "779690680",
    "description": "Robot_894436",
    "title": "Robot_894436",
    "link_img": "https://live.staticflickr.com/65535/50039844313_5cdd645ff1_o.jpg",
    "id_image": "Robot_894436",
    "count_view": 0
  },
  {
    "link_thumb": "https://live.staticflickr.com/65535/50039256508_79d6285497_n.jpg",
    "id_album": "-1610342324",
    "description": "Nebula_544016",
    "title": "Nebula_544016",
    "link_img": "https://live.staticflickr.com/65535/50039256508_478eae3335_o.jpg",
    "id_image": "Nebula_544016",
    "count_view": 0
  },
  {
    "link_thumb": "https://live.staticflickr.com/65535/50041501387_603bd73c22_n.jpg",
    "id_album": "-1863373220",
    "description": "StarWars_902709",
    "title": "StarWars_902709",
    "link_img": "https://live.staticflickr.com/65535/50041501387_fc8dc326a2_o.jpg",
    "id_image": "StarWars_902709",
    "count_view": 0
  },
  {
    "link_thumb": "https://live.staticflickr.com/65535/50039102353_0fb9a9bca0_n.jpg",
    "id_album": "1204249541",
    "description": "Galaxy_72067",
    "title": "Galaxy_72067",
    "link_img": "https://live.staticflickr.com/65535/50039102353_ac835dce6a_o.jpg",
    "id_image": "Galaxy_72067",
    "count_view": 0
  },
  {
    "link_thumb": "https://live.staticflickr.com/65535/50040378522_80f4ab4e2a_n.jpg",
    "id_album": "-1102314093",
    "description": "Planets_428363",
    "title": "Planets_428363",
    "link_img": "https://live.staticflickr.com/65535/50040378522_cfc25e30fe_o.jpg",
    "id_image": "Planets_428363",
    "count_view": 0
  },
  {
    "link_thumb": "https://live.staticflickr.com/65535/50041716207_2a5d85db84_n.jpg",
    "id_album": "-1261420436",
    "description": "Warrior_373914",
    "title": "Warrior_373914",
    "link_img": "https://live.staticflickr.com/65535/50041716207_426664449c_o.jpg",
    "id_image": "Warrior_373914",
    "count_view": 0
  },
  {
    "link_thumb": "https://live.staticflickr.com/65535/50038948688_a0d795b177_n.jpg",
    "id_album": "-1964113117",
    "description": "City_784095",
    "title": "City_784095",
    "link_img": "https://live.staticflickr.com/65535/50038948688_1b10df14a3_o.jpg",
    "id_image": "City_784095",
    "count_view": 0
  },
  {
    "link_thumb": "https://live.staticflickr.com/65535/50040934578_03ea8aa7f6_n.jpg",
    "id_album": "-1261420436",
    "description": "Warrior_81859",
    "title": "Warrior_81859",
    "link_img": "https://live.staticflickr.com/65535/50040934578_90ccc88a79_o.jpg",
    "id_image": "Warrior_81859",
    "count_view": 0
  },
  {
    "link_thumb": "https://live.staticflickr.com/65535/50039243428_f62a5c208a_n.jpg",
    "id_album": "-1610342324",
    "description": "Nebula_399991",
    "title": "Nebula_399991",
    "link_img": "https://live.staticflickr.com/65535/50039243428_dcd04ff1e0_o.jpg",
    "id_image": "Nebula_399991",
    "count_view": 0
  },
  {
    "link_thumb": "https://live.staticflickr.com/65535/50039171583_34aacbe682_n.jpg",
    "id_album": "1402713104",
    "description": "Landscape_906139",
    "title": "Landscape_906139",
    "link_img": "https://live.staticflickr.com/65535/50039171583_4c3a6c9d69_o.jpg",
    "id_image": "Landscape_906139",
    "count_view": 0
  },
  {
    "link_thumb": "https://live.staticflickr.com/65535/50041616952_36a93e0928_n.jpg",
    "id_album": "-221671103",
    "description": "Sun_709935",
    "title": "Sun_709935",
    "link_img": "https://live.staticflickr.com/65535/50041616952_cfa3052446_o.jpg",
    "id_image": "Sun_709935",
    "count_view": 0
  },
  {
    "link_thumb": "https://live.staticflickr.com/65535/50040779802_9c562cf6d6_n.jpg",
    "id_album": "1613540653",
    "description": "Space_577980",
    "title": "Space_577980",
    "link_img": "https://live.staticflickr.com/65535/50040779802_7339767d17_o.jpg",
    "id_image": "Space_577980",
    "count_view": 0
  },
  {
    "link_thumb": "https://live.staticflickr.com/65535/50039230808_22655d0fee_n.jpg",
    "id_album": "-1610342324",
    "description": "Nebula_277936",
    "title": "Nebula_277936",
    "link_img": "https://live.staticflickr.com/65535/50039230808_96b98844b0_o.jpg",
    "id_image": "Nebula_277936",
    "count_view": 0
  },
  {
    "link_thumb": "https://live.staticflickr.com/65535/50040473282_e2d2af799c_n.jpg",
    "id_album": "-482547208",
    "description": "PostApocalyptic_359528",
    "title": "PostApocalyptic_359528",
    "link_img": "https://live.staticflickr.com/65535/50040473282_9356f44ac2_o.jpg",
    "id_image": "PostApocalyptic_359528",
    "count_view": 0
  },
  {
    "link_thumb": "https://live.staticflickr.com/65535/50040741362_b0e241b18d_n.jpg",
    "id_album": "1613540653",
    "description": "Space_192889",
    "title": "Space_192889",
    "link_img": "https://live.staticflickr.com/65535/50040741362_403dac0a45_o.jpg",
    "id_image": "Space_192889",
    "count_view": 0
  },
  {
    "link_thumb": "https://live.staticflickr.com/65535/50038744443_9e0d1e166b_n.jpg",
    "id_album": "523598895",
    "description": "Artistic_105989",
    "title": "Artistic_105989",
    "link_img": "https://live.staticflickr.com/65535/50038744443_0fc2962983_o.jpg",
    "id_image": "Artistic_105989",
    "count_view": 0
  },
  {
    "link_thumb": "https://live.staticflickr.com/65535/50039772273_41c9710e63_n.jpg",
    "id_album": "779690680",
    "description": "Robot_489388",
    "title": "Robot_489388",
    "link_img": "https://live.staticflickr.com/65535/50039772273_fe204afb37_o.jpg",
    "id_image": "Robot_489388",
    "count_view": 0
  },
  {
    "link_thumb": "https://live.staticflickr.com/65535/50039342901_59f3d55cfd_n.jpg",
    "id_album": "523598895",
    "description": "Artistic_712822",
    "title": "Artistic_712822",
    "link_img": "https://live.staticflickr.com/65535/50039342901_1b87507f30_o.jpg",
    "id_image": "Artistic_712822",
    "count_view": 0
  },
  {
    "link_thumb": "https://live.staticflickr.com/65535/50041754197_3969bb6de9_n.jpg",
    "id_album": "-1261420436",
    "description": "Warrior_877706",
    "title": "Warrior_877706",
    "link_img": "https://live.staticflickr.com/65535/50041754197_6d231afc99_o.jpg",
    "id_image": "Warrior_877706",
    "count_view": 0
  },
  {
    "link_thumb": "https://live.staticflickr.com/65535/50040525872_6fcb82711f_n.jpg",
    "id_album": "779690680",
    "description": "Robot_187163",
    "title": "Robot_187163",
    "link_img": "https://live.staticflickr.com/65535/50040525872_1c5f0711c6_o.jpg",
    "id_image": "Robot_187163",
    "count_view": 0
  },
  {
    "link_thumb": "https://live.staticflickr.com/65535/50039679863_66a41b60e9_n.jpg",
    "id_album": "-482547208",
    "description": "PostApocalyptic_941238",
    "title": "PostApocalyptic_941238",
    "link_img": "https://live.staticflickr.com/65535/50039679863_62529091e1_o.jpg",
    "id_image": "PostApocalyptic_941238",
    "count_view": 0
  },
  {
    "link_thumb": "https://live.staticflickr.com/65535/50040414831_c92cd4d2bb_n.jpg",
    "id_album": "779690680",
    "description": "Robot_917206",
    "title": "Robot_917206",
    "link_img": "https://live.staticflickr.com/65535/50040414831_df5b4d2287_o.jpg",
    "id_image": "Robot_917206",
    "count_view": 0
  },
  {
    "link_thumb": "https://live.staticflickr.com/65535/50040325237_26a1067750_n.jpg",
    "id_album": "-1102314093",
    "description": "Planets_22375",
    "title": "Planets_22375",
    "link_img": "https://live.staticflickr.com/65535/50040325237_4fe4a29c54_o.jpg",
    "id_image": "Planets_22375",
    "count_view": 0
  },
  {
    "link_thumb": "https://live.staticflickr.com/65535/50040549872_eea889a3d7_n.jpg",
    "id_album": "779690680",
    "description": "Robot_309455",
    "title": "Robot_309455",
    "link_img": "https://live.staticflickr.com/65535/50040549872_152c55883b_o.jpg",
    "id_image": "Robot_309455",
    "count_view": 0
  },
  {
    "link_thumb": "https://live.staticflickr.com/65535/50039700858_1c1e12f69a_n.jpg",
    "id_album": "779690680",
    "description": "Robot_11985",
    "title": "Robot_11985",
    "link_img": "https://live.staticflickr.com/65535/50039700858_6df23dc55a_o.jpg",
    "id_image": "Robot_11985",
    "count_view": 0
  },
  {
    "link_thumb": "https://live.staticflickr.com/65535/50039940503_bc4fe3ff49_n.jpg",
    "id_album": "1613540653",
    "description": "Space_330680",
    "title": "Space_330680",
    "link_img": "https://live.staticflickr.com/65535/50039940503_101877ea2a_o.jpg",
    "id_image": "Space_330680",
    "count_view": 0
  },
  {
    "link_thumb": "https://live.staticflickr.com/65535/50039759782_85a85e8165_n.jpg",
    "id_album": "-1964113117",
    "description": "City_793615",
    "title": "City_793615",
    "link_img": "https://live.staticflickr.com/65535/50039759782_3b535ab60a_o.jpg",
    "id_image": "City_793615",
    "count_view": 0
  },
  {
    "link_thumb": "https://live.staticflickr.com/65535/50039834361_3f8ea82b2e_n.jpg",
    "id_album": "-1610342324",
    "description": "Nebula_772695",
    "title": "Nebula_772695",
    "link_img": "https://live.staticflickr.com/65535/50039834361_b2a6855abc_o.jpg",
    "id_image": "Nebula_772695",
    "count_view": 0
  },
  {
    "link_thumb": "https://live.staticflickr.com/65535/50039433301_24b6aaedc2_n.jpg",
    "id_album": "-1964113117",
    "description": "City_115838",
    "title": "City_115838",
    "link_img": "https://live.staticflickr.com/65535/50039433301_376300abe1_o.jpg",
    "id_image": "City_115838",
    "count_view": 0
  },
  {
    "link_thumb": "https://live.staticflickr.com/65535/50039546387_27d1e0dd8a_n.jpg",
    "id_album": "-419633230",
    "description": "Apocalyptic_528593",
    "title": "Apocalyptic_528593",
    "link_img": "https://live.staticflickr.com/65535/50039546387_972f664ae8_o.jpg",
    "id_image": "Apocalyptic_528593",
    "count_view": 0
  },
  {
    "link_thumb": "https://live.staticflickr.com/65535/50039677611_1e754ab363_n.jpg",
    "id_album": "1402713104",
    "description": "Landscape_329823",
    "title": "Landscape_329823",
    "link_img": "https://live.staticflickr.com/65535/50039677611_c2155cb890_o.jpg",
    "id_image": "Landscape_329823",
    "count_view": 0
  },
  {
    "link_thumb": "https://live.staticflickr.com/65535/50038871963_54039a5527_n.jpg",
    "id_album": "406431601",
    "description": "Building_209401",
    "title": "Building_209401",
    "link_img": "https://live.staticflickr.com/65535/50038871963_b62fbc703b_o.jpg",
    "id_image": "Building_209401",
    "count_view": 0
  },
  {
    "link_thumb": "https://live.staticflickr.com/65535/50039839253_7740ed4ae6_n.jpg",
    "id_album": "779690680",
    "description": "Robot_883173",
    "title": "Robot_883173",
    "link_img": "https://live.staticflickr.com/65535/50039839253_6a061fdf51_o.jpg",
    "id_image": "Robot_883173",
    "count_view": 0
  },
  {
    "link_thumb": "https://live.staticflickr.com/65535/50039752581_b10a63cba1_n.jpg",
    "id_album": "-1388385651",
    "description": "MilkyWay_928833",
    "title": "MilkyWay_928833",
    "link_img": "https://live.staticflickr.com/65535/50039752581_e611a49e0f_o.jpg",
    "id_image": "MilkyWay_928833",
    "count_view": 0
  },
  {
    "link_thumb": "https://live.staticflickr.com/65535/50039533066_a6c5a99ba8_n.jpg",
    "id_album": "-1964113117",
    "description": "City_992548",
    "title": "City_992548",
    "link_img": "https://live.staticflickr.com/65535/50039533066_9663cbe5bd_o.jpg",
    "id_image": "City_992548",
    "count_view": 0
  },
  {
    "link_thumb": "https://live.staticflickr.com/65535/50038891683_67db6f16f3_n.jpg",
    "id_album": "-1964113117",
    "description": "City_187729",
    "title": "City_187729",
    "link_img": "https://live.staticflickr.com/65535/50038891683_52d189aeed_o.jpg",
    "id_image": "City_187729",
    "count_view": 0
  },
  {
    "link_thumb": "https://live.staticflickr.com/65535/50040417956_e992bce8a8_n.jpg",
    "id_album": "779690680",
    "description": "Robot_921713",
    "title": "Robot_921713",
    "link_img": "https://live.staticflickr.com/65535/50040417956_7cdcc76808_o.jpg",
    "id_image": "Robot_921713",
    "count_view": 0
  },
  {
    "link_thumb": "https://live.staticflickr.com/65535/50039926978_c0fd6d5530_n.jpg",
    "id_album": "1613540653",
    "description": "Space_227839",
    "title": "Space_227839",
    "link_img": "https://live.staticflickr.com/65535/50039926978_6d01590ccd_o.jpg",
    "id_image": "Space_227839",
    "count_view": 0
  },
  {
    "link_thumb": "https://live.staticflickr.com/65535/50038751178_ebf3327305_n.jpg",
    "id_album": "523598895",
    "description": "Artistic_157865",
    "title": "Artistic_157865",
    "link_img": "https://live.staticflickr.com/65535/50038751178_7e95787cc6_o.jpg",
    "id_image": "Artistic_157865",
    "count_view": 0
  },
  {
    "link_thumb": "https://live.staticflickr.com/65535/50039905956_47da4daa2e_n.jpg",
    "id_album": "395161030",
    "description": "Planet_154024",
    "title": "Planet_154024",
    "link_img": "https://live.staticflickr.com/65535/50039905956_5740415e63_o.jpg",
    "id_image": "Planet_154024",
    "count_view": 0
  },
  {
    "link_thumb": "https://live.staticflickr.com/65535/50039357121_076d3abe58_n.jpg",
    "id_album": "869545341",
    "description": "Astronaut_548678",
    "title": "Astronaut_548678",
    "link_img": "https://live.staticflickr.com/65535/50039357121_4335462e92_o.jpg",
    "id_image": "Astronaut_548678",
    "count_view": 0
  },
  {
    "link_thumb": "https://live.staticflickr.com/65535/50039775206_95665748ea_n.jpg",
    "id_album": "-1610342324",
    "description": "Nebula_243346",
    "title": "Nebula_243346",
    "link_img": "https://live.staticflickr.com/65535/50039775206_0ae0d0f322_o.jpg",
    "id_image": "Nebula_243346",
    "count_view": 0
  },
  {
    "link_thumb": "https://live.staticflickr.com/65535/50039908971_a5a2289d67_n.jpg",
    "id_album": "395161030",
    "description": "Planet_173622",
    "title": "Planet_173622",
    "link_img": "https://live.staticflickr.com/65535/50039908971_36b47f1c0a_o.jpg",
    "id_image": "Planet_173622",
    "count_view": 0
  },
  {
    "link_thumb": "https://live.staticflickr.com/65535/50040123396_fc122e5cb3_n.jpg",
    "id_album": "-1102314093",
    "description": "Planets_533841",
    "title": "Planets_533841",
    "link_img": "https://live.staticflickr.com/65535/50040123396_e8f6a33330_o.jpg",
    "id_image": "Planets_533841",
    "count_view": 0
  },
  {
    "link_thumb": "https://live.staticflickr.com/65535/50039815966_fc54fc051f_n.jpg",
    "id_album": "-1610342324",
    "description": "Nebula_597561",
    "title": "Nebula_597561",
    "link_img": "https://live.staticflickr.com/65535/50039815966_7cb99e5f3f_o.jpg",
    "id_image": "Nebula_597561",
    "count_view": 0
  },
  {
    "link_thumb": "https://live.staticflickr.com/65535/50039389223_a8b9b5bd2f_n.jpg",
    "id_album": "395161030",
    "description": "Planet_370819",
    "title": "Planet_370819",
    "link_img": "https://live.staticflickr.com/65535/50039389223_af2d83ac5b_o.jpg",
    "id_image": "Planet_370819",
    "count_view": 0
  },
  {
    "link_thumb": "https://live.staticflickr.com/65535/50039582511_523098457b_n.jpg",
    "id_album": "829169633",
    "description": "Cyborg_239897",
    "title": "Cyborg_239897",
    "link_img": "https://live.staticflickr.com/65535/50039582511_6b7fdc7fb4_o.jpg",
    "id_image": "Cyborg_239897",
    "count_view": 0
  },
  {
    "link_thumb": "https://live.staticflickr.com/65535/50039766051_826ca7e10e_n.jpg",
    "id_album": "-1610342324",
    "description": "Nebula_179737",
    "title": "Nebula_179737",
    "link_img": "https://live.staticflickr.com/65535/50039766051_e46da0af52_o.jpg",
    "id_image": "Nebula_179737",
    "count_view": 0
  },
  {
    "link_thumb": "https://live.staticflickr.com/65535/50040716312_32d4464f15_n.jpg",
    "id_album": "779690680",
    "description": "Robot_972822",
    "title": "Robot_972822",
    "link_img": "https://live.staticflickr.com/65535/50040716312_81a46941d8_o.jpg",
    "id_image": "Robot_972822",
    "count_view": 0
  },
  {
    "link_thumb": "https://live.staticflickr.com/65535/50039766366_e91984c447_n.jpg",
    "id_album": "-1610342324",
    "description": "Nebula_182338",
    "title": "Nebula_182338",
    "link_img": "https://live.staticflickr.com/65535/50039766366_b6abb640a1_o.jpg",
    "id_image": "Nebula_182338",
    "count_view": 0
  },
  {
    "link_thumb": "https://live.staticflickr.com/65535/50039804522_76ab741652_n.jpg",
    "id_album": "894679094",
    "description": "Collision_676847",
    "title": "Collision_676847",
    "link_img": "https://live.staticflickr.com/65535/50039804522_1558d88d17_o.jpg",
    "id_image": "Collision_676847",
    "count_view": 0
  },
  {
    "link_thumb": "https://live.staticflickr.com/65535/50039680392_d83ca7b55e_n.jpg",
    "id_album": "-1780971522",
    "description": "Biohazard_568514",
    "title": "Biohazard_568514",
    "link_img": "https://live.staticflickr.com/65535/50039680392_2299e9c4de_o.jpg",
    "id_image": "Biohazard_568514",
    "count_view": 0
  },
  {
    "link_thumb": "https://live.staticflickr.com/65535/50040534327_86e49cbb1e_n.jpg",
    "id_album": "779690680",
    "description": "Robot_243468",
    "title": "Robot_243468",
    "link_img": "https://live.staticflickr.com/65535/50040534327_4232b5dd20_o.jpg",
    "id_image": "Robot_243468",
    "count_view": 0
  },
  {
    "link_thumb": "https://live.staticflickr.com/65535/50039950992_1464f5eee6_n.jpg",
    "id_album": "1402713104",
    "description": "Landscape_413241",
    "title": "Landscape_413241",
    "link_img": "https://live.staticflickr.com/65535/50039950992_69e39dcc4e_o.jpg",
    "id_image": "Landscape_413241",
    "count_view": 0
  },
  {
    "link_thumb": "https://live.staticflickr.com/65535/50040492482_1c7d85bd16_n.jpg",
    "id_album": "-482547208",
    "description": "PostApocalyptic_869203",
    "title": "PostApocalyptic_869203",
    "link_img": "https://live.staticflickr.com/65535/50040492482_1452a2ae51_o.jpg",
    "id_image": "PostApocalyptic_869203",
    "count_view": 0
  },
  {
    "link_thumb": "https://live.staticflickr.com/65535/50039546746_9fc9fbd481_n.jpg",
    "id_album": "-437872736",
    "description": "Creature_202487",
    "title": "Creature_202487",
    "link_img": "https://live.staticflickr.com/65535/50039546746_821e8e5bd0_o.jpg",
    "id_image": "Creature_202487",
    "count_view": 0
  },
  {
    "link_thumb": "https://live.staticflickr.com/65535/50039638267_ba056a40d7_n.jpg",
    "id_album": "869545341",
    "description": "Astronaut_878311",
    "title": "Astronaut_878311",
    "link_img": "https://live.staticflickr.com/65535/50039638267_ce77ee57bc_o.jpg",
    "id_image": "Astronaut_878311",
    "count_view": 0
  },
  {
    "link_thumb": "https://live.staticflickr.com/65535/50040638362_31351a3378_n.jpg",
    "id_album": "779690680",
    "description": "Robot_857285",
    "title": "Robot_857285",
    "link_img": "https://live.staticflickr.com/65535/50040638362_3503092af9_o.jpg",
    "id_image": "Robot_857285",
    "count_view": 0
  },
  {
    "link_thumb": "https://live.staticflickr.com/65535/50039805786_5cb66b8608_n.jpg",
    "id_album": "-1610342324",
    "description": "Nebula_540818",
    "title": "Nebula_540818",
    "link_img": "https://live.staticflickr.com/65535/50039805786_32806514ec_o.jpg",
    "id_image": "Nebula_540818",
    "count_view": 0
  },
  {
    "link_thumb": "https://live.staticflickr.com/65535/50041512482_8a7c819d2b_n.jpg",
    "id_album": "-1863373220",
    "description": "StarWars_980533",
    "title": "StarWars_980533",
    "link_img": "https://live.staticflickr.com/65535/50041512482_f038c8f5b7_o.jpg",
    "id_image": "StarWars_980533",
    "count_view": 0
  },
  {
    "link_thumb": "https://live.staticflickr.com/65535/50041216921_ab714b756f_n.jpg",
    "id_album": "-1863373220",
    "description": "StarWars_699576",
    "title": "StarWars_699576",
    "link_img": "https://live.staticflickr.com/65535/50041216921_20982b2721_o.jpg",
    "id_image": "StarWars_699576",
    "count_view": 0
  },
  {
    "link_thumb": "https://live.staticflickr.com/65535/50039556672_9639fc967c_n.jpg",
    "id_album": "523598895",
    "description": "Artistic_117405",
    "title": "Artistic_117405",
    "link_img": "https://live.staticflickr.com/65535/50039556672_fbd64df13f_o.jpg",
    "id_image": "Artistic_117405",
    "count_view": 0
  },
  {
    "link_thumb": "https://live.staticflickr.com/65535/50040084017_f5fce9eae9_n.jpg",
    "id_album": "-1610342324",
    "description": "Nebula_678913",
    "title": "Nebula_678913",
    "link_img": "https://live.staticflickr.com/65535/50040084017_4c25a83956_o.jpg",
    "id_image": "Nebula_678913",
    "count_view": 0
  },
  {
    "link_thumb": "https://live.staticflickr.com/65535/50039278163_c1663a747e_n.jpg",
    "id_album": "-1610342324",
    "description": "Nebula_738413",
    "title": "Nebula_738413",
    "link_img": "https://live.staticflickr.com/65535/50039278163_1de4cbb648_o.jpg",
    "id_image": "Nebula_738413",
    "count_view": 0
  }
]