[
  {
    "link_thumb": "https://live.staticflickr.com/65535/50041846522_1ec5cff7ac_n.jpg",
    "id_album": "-1675918237",
    "description": "WomenWarrior_609330",
    "title": "WomenWarrior_609330",
    "link_img": "https://live.staticflickr.com/65535/50041846522_5295e470d2_o.jpg",
    "id_image": "WomenWarrior_609330",
    "count_view": 0
  },
  {
    "link_thumb": "https://live.staticflickr.com/65535/50039495962_3ed909d434_n.jpg",
    "id_album": "-406145265",
    "description": "Aircraft_112473",
    "title": "Aircraft_112473",
    "link_img": "https://live.staticflickr.com/65535/50039495962_f531135e71_o.jpg",
    "id_image": "Aircraft_112473",
    "count_view": 0
  },
  {
    "link_thumb": "https://live.staticflickr.com/65535/50039282186_b3957cb1ac_n.jpg",
    "id_album": "-419633230",
    "description": "Apocalyptic_30257",
    "title": "Apocalyptic_30257",
    "link_img": "https://live.staticflickr.com/65535/50039282186_df8408378d_o.jpg",
    "id_image": "Apocalyptic_30257",
    "count_view": 0
  },
  {
    "link_thumb": "https://live.staticflickr.com/65535/50040736086_b688c504f8_n.jpg",
    "id_album": "2130067313",
    "description": "Spaceship_677168",
    "title": "Spaceship_677168",
    "link_img": "https://live.staticflickr.com/65535/50040736086_5fd2c5db72_o.jpg",
    "id_image": "Spaceship_677168",
    "count_view": 0
  },
  {
    "link_thumb": "https://live.staticflickr.com/65535/50039339306_8d45e436de_n.jpg",
    "id_album": "523598895",
    "description": "Artistic_563761",
    "title": "Artistic_563761",
    "link_img": "https://live.staticflickr.com/65535/50039339306_2666b2eab2_o.jpg",
    "id_image": "Artistic_563761",
    "count_view": 0
  },
  {
    "link_thumb": "https://live.staticflickr.com/65535/50039680013_996d9bbb9a_n.jpg",
    "id_album": "-482547208",
    "description": "PostApocalyptic_948245",
    "title": "PostApocalyptic_948245",
    "link_img": "https://live.staticflickr.com/65535/50039680013_65f255246e_o.jpg",
    "id_image": "PostApocalyptic_948245",
    "count_view": 0
  },
  {
    "link_thumb": "https://live.staticflickr.com/65535/50039662162_eed41f84ef_n.jpg",
    "id_album": "1187037014",
    "description": "Battle_284536",
    "title": "Battle_284536",
    "link_img": "https://live.staticflickr.com/65535/50039662162_4d56091484_o.jpg",
    "id_image": "Battle_284536",
    "count_view": 0
  },
  {
    "link_thumb": "https://live.staticflickr.com/65535/50039749942_0d07082189_n.jpg",
    "id_album": "-1964113117",
    "description": "City_681632",
    "title": "City_681632",
    "link_img": "https://live.staticflickr.com/65535/50039749942_c8bcce54f1_o.jpg",
    "id_image": "City_681632",
    "count_view": 0
  },
  {
    "link_thumb": "https://live.staticflickr.com/65535/50040438962_8b76da7a7b_n.jpg",
    "id_album": "376235057",
    "description": "Planetscape_502943",
    "title": "Planetscape_502943",
    "link_img": "https://live.staticflickr.com/65535/50040438962_57db432f4f_o.jpg",
    "id_image": "Planetscape_502943",
    "count_view": 0
  },
  {
    "link_thumb": "https://live.staticflickr.com/65535/50040182446_203b375be2_n.jpg",
    "id_album": "376235057",
    "description": "Planetscape_860677",
    "title": "Planetscape_860677",
    "link_img": "https://live.staticflickr.com/65535/50040182446_564dbe4e4f_o.jpg",
    "id_image": "Planetscape_860677",
    "count_view": 0
  },
  {
    "link_thumb": "https://live.staticflickr.com/65535/50040134511_88139c0339_n.jpg",
    "id_album": "-1102314093",
    "description": "Planets_77408",
    "title": "Planets_77408",
    "link_img": "https://live.staticflickr.com/65535/50040134511_0ee46cc8f0_o.jpg",
    "id_image": "Planets_77408",
    "count_view": 0
  },
  {
    "link_thumb": "https://live.staticflickr.com/65535/50038745233_ea95bb65e1_n.jpg",
    "id_album": "523598895",
    "description": "Artistic_109233",
    "title": "Artistic_109233",
    "link_img": "https://live.staticflickr.com/65535/50038745233_dfc89f2c99_o.jpg",
    "id_image": "Artistic_109233",
    "count_view": 0
  },
  {
    "link_thumb": "https://live.staticflickr.com/65535/50039996831_e0c44e867e_n.jpg",
    "id_album": "1443611160",
    "description": "PlanetRise_156344",
    "title": "PlanetRise_156344",
    "link_img": "https://live.staticflickr.com/65535/50039996831_7301281897_o.jpg",
    "id_image": "PlanetRise_156344",
    "count_view": 0
  },
  {
    "link_thumb": "https://live.staticflickr.com/65535/50038725658_434f282407_n.jpg",
    "id_album": "849020728",
    "description": "Alien_709717",
    "title": "Alien_709717",
    "link_img": "https://live.staticflickr.com/65535/50038725658_beea5bb32c_o.jpg",
    "id_image": "Alien_709717",
    "count_view": 0
  },
  {
    "link_thumb": "https://live.staticflickr.com/65535/50039639581_b45cf3f911_n.jpg",
    "id_album": "1204249541",
    "description": "Galaxy_527228",
    "title": "Galaxy_527228",
    "link_img": "https://live.staticflickr.com/65535/50039639581_bf6885060d_o.jpg",
    "id_image": "Galaxy_527228",
    "count_view": 0
  },
  {
    "link_thumb": "https://live.staticflickr.com/65535/50039550606_00aef11ab7_n.jpg",
    "id_album": "-437872736",
    "description": "Creature_316518",
    "title": "Creature_316518",
    "link_img": "https://live.staticflickr.com/65535/50039550606_372dd5e164_o.jpg",
    "id_image": "Creature_316518",
    "count_view": 0
  },
  {
    "link_thumb": "https://live.staticflickr.com/65535/50039592757_6354181898_n.jpg",
    "id_album": "523598895",
    "description": "Artistic_353782",
    "title": "Artistic_353782",
    "link_img": "https://live.staticflickr.com/65535/50039592757_c3e10ca174_o.jpg",
    "id_image": "Artistic_353782",
    "count_view": 0
  },
  {
    "link_thumb": "https://live.staticflickr.com/65535/50039491462_f44802d3c4_n.jpg",
    "id_album": "280884763",
    "description": "Abstract_286792",
    "title": "Abstract_286792",
    "link_img": "https://live.staticflickr.com/65535/50039491462_9ac75134d8_o.jpg",
    "id_image": "Abstract_286792",
    "count_view": 0
  },
  {
    "link_thumb": "https://live.staticflickr.com/65535/50041665037_9431a73e04_n.jpg",
    "id_album": "2020068132",
    "description": "Vehicle_542589",
    "title": "Vehicle_542589",
    "link_img": "https://live.staticflickr.com/65535/50041665037_d8b46f41f1_o.jpg",
    "id_image": "Vehicle_542589",
    "count_view": 0
  },
  {
    "link_thumb": "https://live.staticflickr.com/65535/50039635183_7039c8730b_n.jpg",
    "id_album": "376235057",
    "description": "Planetscape_959121",
    "title": "Planetscape_959121",
    "link_img": "https://live.staticflickr.com/65535/50039635183_62017d1465_o.jpg",
    "id_image": "Planetscape_959121",
    "count_view": 0
  },
  {
    "link_thumb": "https://live.staticflickr.com/65535/50040232246_66fe0d5084_n.jpg",
    "id_album": "-482547208",
    "description": "PostApocalyptic_940000",
    "title": "PostApocalyptic_940000",
    "link_img": "https://live.staticflickr.com/65535/50040232246_e72d170975_o.jpg",
    "id_image": "PostApocalyptic_940000",
    "count_view": 0
  },
  {
    "link_thumb": "https://live.staticflickr.com/65535/50039549957_7dbc76ba19_n.jpg",
    "id_album": "-419633230",
    "description": "Apocalyptic_938299",
    "title": "Apocalyptic_938299",
    "link_img": "https://live.staticflickr.com/65535/50039549957_8a3488035a_o.jpg",
    "id_image": "Apocalyptic_938299",
    "count_view": 0
  },
  {
    "link_thumb": "https://live.staticflickr.com/65535/50039701372_e9878ddb9d_n.jpg",
    "id_album": "-1964113117",
    "description": "City_166533",
    "title": "City_166533",
    "link_img": "https://live.staticflickr.com/65535/50039701372_73ed006f4a_o.jpg",
    "id_image": "City_166533",
    "count_view": 0
  },
  {
    "link_thumb": "https://live.staticflickr.com/65535/50039447036_f2c0c2c122_n.jpg",
    "id_album": "-1964113117",
    "description": "City_213563",
    "title": "City_213563",
    "link_img": "https://live.staticflickr.com/65535/50039447036_61a03a201e_o.jpg",
    "id_image": "City_213563",
    "count_view": 0
  },
  {
    "link_thumb": "https://live.staticflickr.com/65535/50039915807_3440870b0f_n.jpg",
    "id_album": "1204249541",
    "description": "Galaxy_746412",
    "title": "Galaxy_746412",
    "link_img": "https://live.staticflickr.com/65535/50039915807_055d3eec38_o.jpg",
    "id_image": "Galaxy_746412",
    "count_view": 0
  },
  {
    "link_thumb": "https://live.staticflickr.com/65535/50040787553_48e7b741ea_n.jpg",
    "id_album": "-221671103",
    "description": "Sun_234855",
    "title": "Sun_234855",
    "link_img": "https://live.staticflickr.com/65535/50040787553_95d77f427b_o.jpg",
    "id_image": "Sun_234855",
    "count_view": 0
  },
  {
    "link_thumb": "https://live.staticflickr.com/65535/50039937717_3b451ec3af_n.jpg",
    "id_album": "1402713104",
    "description": "Landscape_311326",
    "title": "Landscape_311326",
    "link_img": "https://live.staticflickr.com/65535/50039937717_599547c66d_o.jpg",
    "id_image": "Landscape_311326",
    "count_view": 0
  },
  {
    "link_thumb": "https://live.staticflickr.com/65535/50041677412_0526190a69_n.jpg",
    "id_album": "2020068132",
    "description": "Vehicle_779329",
    "title": "Vehicle_779329",
    "link_img": "https://live.staticflickr.com/65535/50041677412_3b4681d1b1_o.jpg",
    "id_image": "Vehicle_779329",
    "count_view": 0
  },
  {
    "link_thumb": "https://live.staticflickr.com/65535/50039696391_a9a75d223f_n.jpg",
    "id_album": "1402713104",
    "description": "Landscape_640392",
    "title": "Landscape_640392",
    "link_img": "https://live.staticflickr.com/65535/50039696391_090394a94e_o.jpg",
    "id_image": "Landscape_640392",
    "count_view": 0
  },
  {
    "link_thumb": "https://live.staticflickr.com/65535/50039384698_be5257c054_n.jpg",
    "id_album": "395161030",
    "description": "Planet_349928",
    "title": "Planet_349928",
    "link_img": "https://live.staticflickr.com/65535/50039384698_dd0e1c9315_o.jpg",
    "id_image": "Planet_349928",
    "count_view": 0
  },
  {
    "link_thumb": "https://live.staticflickr.com/65535/50039163473_98bc67cb1f_n.jpg",
    "id_album": "1402713104",
    "description": "Landscape_863903",
    "title": "Landscape_863903",
    "link_img": "https://live.staticflickr.com/65535/50039163473_07f3c27f69_o.jpg",
    "id_image": "Landscape_863903",
    "count_view": 0
  },
  {
    "link_thumb": "https://live.staticflickr.com/65535/50041027168_3753ca27e9_n.jpg",
    "id_album": "-1675918237",
    "description": "WomenWarrior_566289",
    "title": "WomenWarrior_566289",
    "link_img": "https://live.staticflickr.com/65535/50041027168_7af3fb8886_o.jpg",
    "id_image": "WomenWarrior_566289",
    "count_view": 0
  },
  {
    "link_thumb": "https://live.staticflickr.com/65535/50040699392_91c4e3c18b_n.jpg",
    "id_album": "779690680",
    "description": "Robot_940954",
    "title": "Robot_940954",
    "link_img": "https://live.staticflickr.com/65535/50040699392_2d734af1a7_o.jpg",
    "id_image": "Robot_940954",
    "count_view": 0
  },
  {
    "link_thumb": "https://live.staticflickr.com/65535/50038850393_e2736f1a6b_n.jpg",
    "id_album": "1187037014",
    "description": "Battle_265237",
    "title": "Battle_265237",
    "link_img": "https://live.staticflickr.com/65535/50038850393_b760154662_o.jpg",
    "id_image": "Battle_265237",
    "count_view": 0
  },
  {
    "link_thumb": "https://live.staticflickr.com/65535/50039469721_1a4b5a1c41_n.jpg",
    "id_album": "-1964113117",
    "description": "City_414109",
    "title": "City_414109",
    "link_img": "https://live.staticflickr.com/65535/50039469721_fba8685a0a_o.jpg",
    "id_image": "City_414109",
    "count_view": 0
  },
  {
    "link_thumb": "https://live.staticflickr.com/65535/50039439581_3d087a216d_n.jpg",
    "id_album": "-1964113117",
    "description": "City_174082",
    "title": "City_174082",
    "link_img": "https://live.staticflickr.com/65535/50039439581_438403b07e_o.jpg",
    "id_image": "City_174082",
    "count_view": 0
  },
  {
    "link_thumb": "https://live.staticflickr.com/65535/50039975098_6ca3b01679_n.jpg",
    "id_album": "1613540653",
    "description": "Space_694462",
    "title": "Space_694462",
    "link_img": "https://live.staticflickr.com/65535/50039975098_607277d088_o.jpg",
    "id_image": "Space_694462",
    "count_view": 0
  },
  {
    "link_thumb": "https://live.staticflickr.com/65535/50039209253_4a7a82f895_n.jpg",
    "id_album": "416351698",
    "description": "Moon_864936",
    "title": "Moon_864936",
    "link_img": "https://live.staticflickr.com/65535/50039209253_5f45f5260f_o.jpg",
    "id_image": "Moon_864936",
    "count_view": 0
  },
  {
    "link_thumb": "https://live.staticflickr.com/65535/50039729398_02c3b897fe_n.jpg",
    "id_album": "779690680",
    "description": "Robot_286476",
    "title": "Robot_286476",
    "link_img": "https://live.staticflickr.com/65535/50039729398_eb0edd3a9c_o.jpg",
    "id_image": "Robot_286476",
    "count_view": 0
  },
  {
    "link_thumb": "https://live.staticflickr.com/65535/50039564977_a0a8dafdec_n.jpg",
    "id_album": "523598895",
    "description": "Artistic_173232",
    "title": "Artistic_173232",
    "link_img": "https://live.staticflickr.com/65535/50039564977_5173348c25_o.jpg",
    "id_image": "Artistic_173232",
    "count_view": 0
  },
  {
    "link_thumb": "https://live.staticflickr.com/65535/50040553092_099596f516_n.jpg",
    "id_album": "779690680",
    "description": "Robot_322092",
    "title": "Robot_322092",
    "link_img": "https://live.staticflickr.com/65535/50040553092_8ecf91d1a7_o.jpg",
    "id_image": "Robot_322092",
    "count_view": 0
  },
  {
    "link_thumb": "https://live.staticflickr.com/65535/50040257961_bf8405c8f1_n.jpg",
    "id_album": "779690680",
    "description": "Robot_173456",
    "title": "Robot_173456",
    "link_img": "https://live.staticflickr.com/65535/50040257961_319fdb7d66_o.jpg",
    "id_image": "Robot_173456",
    "count_view": 0
  },
  {
    "link_thumb": "https://live.staticflickr.com/65535/50039781086_a1c7b96aaa_n.jpg",
    "id_album": "-1610342324",
    "description": "Nebula_283889",
    "title": "Nebula_283889",
    "link_img": "https://live.staticflickr.com/65535/50039781086_665fa3d32c_o.jpg",
    "id_image": "Nebula_283889",
    "count_view": 0
  },
  {
    "link_thumb": "https://live.staticflickr.com/65535/50039550201_aa0fdc5bec_n.jpg",
    "id_album": "-437872736",
    "description": "Creature_312151",
    "title": "Creature_312151",
    "link_img": "https://live.staticflickr.com/65535/50039550201_c9fede1478_o.jpg",
    "id_image": "Creature_312151",
    "count_view": 0
  },
  {
    "link_thumb": "https://live.staticflickr.com/65535/50038745888_1a00421379_n.jpg",
    "id_album": "523598895",
    "description": "Artistic_113784",
    "title": "Artistic_113784",
    "link_img": "https://live.staticflickr.com/65535/50038745888_f01f12b306_o.jpg",
    "id_image": "Artistic_113784",
    "count_view": 0
  },
  {
    "link_thumb": "https://live.staticflickr.com/65535/50039082913_d523f81c72_n.jpg",
    "id_album": "1204249541",
    "description": "Galaxy_385782",
    "title": "Galaxy_385782",
    "link_img": "https://live.staticflickr.com/65535/50039082913_560c42ff1e_o.jpg",
    "id_image": "Galaxy_385782",
    "count_view": 0
  },
  {
    "link_thumb": "https://live.staticflickr.com/65535/50038911668_d1f8d28102_n.jpg",
    "id_album": "-1964113117",
    "description": "City_297913",
    "title": "City_297913",
    "link_img": "https://live.staticflickr.com/65535/50038911668_a1f12360f3_o.jpg",
    "id_image": "City_297913",
    "count_view": 0
  },
  {
    "link_thumb": "https://live.staticflickr.com/65535/50041595117_cf20629f0b_n.jpg",
    "id_album": "1267121215",
    "description": "Steampunk_880778",
    "title": "Steampunk_880778",
    "link_img": "https://live.staticflickr.com/65535/50041595117_8c7ed6f5e9_o.jpg",
    "id_image": "Steampunk_880778",
    "count_view": 0
  },
  {
    "link_thumb": "https://live.staticflickr.com/65535/50039895387_f2628db708_n.jpg",
    "id_album": "1204249541",
    "description": "Galaxy_400642",
    "title": "Galaxy_400642",
    "link_img": "https://live.staticflickr.com/65535/50039895387_352f9a9aa0_o.jpg",
    "id_image": "Galaxy_400642",
    "count_view": 0
  },
  {
    "link_thumb": "https://live.staticflickr.com/65535/50039512043_6efefac8b7_n.jpg",
    "id_album": "-1102314093",
    "description": "Planets_225065",
    "title": "Planets_225065",
    "link_img": "https://live.staticflickr.com/65535/50039512043_14963ca174_o.jpg",
    "id_image": "Planets_225065",
    "count_view": 0
  },
  {
    "link_thumb": "https://live.staticflickr.com/65535/50039677727_dd477e0c53_n.jpg",
    "id_album": "-1780971522",
    "description": "Biohazard_494279",
    "title": "Biohazard_494279",
    "link_img": "https://live.staticflickr.com/65535/50039677727_5213f9f4f4_o.jpg",
    "id_image": "Biohazard_494279",
    "count_view": 0
  },
  {
    "link_thumb": "https://live.staticflickr.com/65535/50040088112_90f212da3d_n.jpg",
    "id_album": "-1610342324",
    "description": "Nebula_705310",
    "title": "Nebula_705310",
    "link_img": "https://live.staticflickr.com/65535/50040088112_6a1545ae21_o.jpg",
    "id_image": "Nebula_705310",
    "count_view": 0
  },
  {
    "link_thumb": "https://live.staticflickr.com/65535/50041591326_3b263aeaa9_n.jpg",
    "id_album": "-1675918237",
    "description": "WomenWarrior_932181",
    "title": "WomenWarrior_932181",
    "link_img": "https://live.staticflickr.com/65535/50041591326_68a2ce4cae_o.jpg",
    "id_image": "WomenWarrior_932181",
    "count_view": 0
  },
  {
    "link_thumb": "https://live.staticflickr.com/65535/50039868797_d7e2e7f908_n.jpg",
    "id_album": "829169633",
    "description": "Cyborg_964089",
    "title": "Cyborg_964089",
    "link_img": "https://live.staticflickr.com/65535/50039868797_5f1c1ab277_o.jpg",
    "id_image": "Cyborg_964089",
    "count_view": 0
  },
  {
    "link_thumb": "https://live.staticflickr.com/65535/50039763901_438919447f_n.jpg",
    "id_album": "-1610342324",
    "description": "Nebula_169803",
    "title": "Nebula_169803",
    "link_img": "https://live.staticflickr.com/65535/50039763901_b03d7c685e_o.jpg",
    "id_image": "Nebula_169803",
    "count_view": 0
  },
  {
    "link_thumb": "https://live.staticflickr.com/65535/50039956927_62e2ed043f_n.jpg",
    "id_album": "1402713104",
    "description": "Landscape_552105",
    "title": "Landscape_552105",
    "link_img": "https://live.staticflickr.com/65535/50039956927_07905ffb02_o.jpg",
    "id_image": "Landscape_552105",
    "count_view": 0
  },
  {
    "link_thumb": "https://live.staticflickr.com/65535/50039752996_0fbee80138_n.jpg",
    "id_album": "416351698",
    "description": "Moon_113990",
    "title": "Moon_113990",
    "link_img": "https://live.staticflickr.com/65535/50039752996_424e0dfc11_o.jpg",
    "id_image": "Moon_113990",
    "count_view": 0
  },
  {
    "link_thumb": "https://live.staticflickr.com/65535/50039838758_fef02c71ba_n.jpg",
    "id_album": "779690680",
    "description": "Robot_883162",
    "title": "Robot_883162",
    "link_img": "https://live.staticflickr.com/65535/50039838758_a4bfe445c5_o.jpg",
    "id_image": "Robot_883162",
    "count_view": 0
  },
  {
    "link_thumb": "https://live.staticflickr.com/65535/50039530871_6354d8ddaf_n.jpg",
    "id_album": "-1964113117",
    "description": "City_977581",
    "title": "City_977581",
    "link_img": "https://live.staticflickr.com/65535/50039530871_3cfa61ce23_o.jpg",
    "id_image": "City_977581",
    "count_view": 0
  },
  {
    "link_thumb": "https://live.staticflickr.com/65535/50039670556_e12e1a2c92_n.jpg",
    "id_album": "1402713104",
    "description": "Landscape_283783",
    "title": "Landscape_283783",
    "link_img": "https://live.staticflickr.com/65535/50039670556_4833786ae3_o.jpg",
    "id_image": "Landscape_283783",
    "count_view": 0
  },
  {
    "link_thumb": "https://live.staticflickr.com/65535/50041461577_6bbc1d190a_n.jpg",
    "id_album": "-1863373220",
    "description": "StarWars_590407",
    "title": "StarWars_590407",
    "link_img": "https://live.staticflickr.com/65535/50041461577_2f024fded0_o.jpg",
    "id_image": "StarWars_590407",
    "count_view": 0
  },
  {
    "link_thumb": "https://live.staticflickr.com/65535/50039901931_dda171acd5_n.jpg",
    "id_album": "395161030",
    "description": "Planet_1007779",
    "title": "Planet_1007779",
    "link_img": "https://live.staticflickr.com/65535/50039901931_afaa15b25c_o.jpg",
    "id_image": "Planet_1007779",
    "count_view": 0
  },
  {
    "link_thumb": "https://live.staticflickr.com/65535/50040561461_aa2a10c7ae_n.jpg",
    "id_album": "-1532370292",
    "description": "SpaceStation_669418",
    "title": "SpaceStation_669418",
    "link_img": "https://live.staticflickr.com/65535/50040561461_4d68259b2e_o.jpg",
    "id_image": "SpaceStation_669418",
    "count_view": 0
  },
  {
    "link_thumb": "https://live.staticflickr.com/65535/50040662993_9033c4193a_n.jpg",
    "id_album": "-1863373220",
    "description": "StarWars_696431",
    "title": "StarWars_696431",
    "link_img": "https://live.staticflickr.com/65535/50040662993_7299b95a91_o.jpg",
    "id_image": "StarWars_696431",
    "count_view": 0
  },
  {
    "link_thumb": "https://live.staticflickr.com/65535/50039875003_4ec5893069_n.jpg",
    "id_album": "779690680",
    "description": "Robot_931803",
    "title": "Robot_931803",
    "link_img": "https://live.staticflickr.com/65535/50039875003_8d817ba40f_o.jpg",
    "id_image": "Robot_931803",
    "count_view": 0
  },
  {
    "link_thumb": "https://live.staticflickr.com/65535/50039805657_7815d4268e_n.jpg",
    "id_album": "894679094",
    "description": "Collision_78653",
    "title": "Collision_78653",
    "link_img": "https://live.staticflickr.com/65535/50039805657_733b6692b3_o.jpg",
    "id_image": "Collision_78653",
    "count_view": 0
  },
  {
    "link_thumb": "https://live.staticflickr.com/65535/50041737677_708306d2bc_n.jpg",
    "id_album": "-1261420436",
    "description": "Warrior_585041",
    "title": "Warrior_585041",
    "link_img": "https://live.staticflickr.com/65535/50041737677_18c2bcb660_o.jpg",
    "id_image": "Warrior_585041",
    "count_view": 0
  },
  {
    "link_thumb": "https://live.staticflickr.com/65535/50039426531_b40cd9f3d5_n.jpg",
    "id_album": "406431601",
    "description": "Building_917439",
    "title": "Building_917439",
    "link_img": "https://live.staticflickr.com/65535/50039426531_39fd4329dc_o.jpg",
    "id_image": "Building_917439",
    "count_view": 0
  },
  {
    "link_thumb": "https://live.staticflickr.com/65535/50039839138_792fe4d6b7_n.jpg",
    "id_album": "779690680",
    "description": "Robot_883166",
    "title": "Robot_883166",
    "link_img": "https://live.staticflickr.com/65535/50039839138_cca667a97b_o.jpg",
    "id_image": "Robot_883166",
    "count_view": 0
  },
  {
    "link_thumb": "https://live.staticflickr.com/65535/50039372003_0840424668_n.jpg",
    "id_album": "395161030",
    "description": "Planet_248751",
    "title": "Planet_248751",
    "link_img": "https://live.staticflickr.com/65535/50039372003_be16860678_o.jpg",
    "id_image": "Planet_248751",
    "count_view": 0
  },
  {
    "link_thumb": "https://live.staticflickr.com/65535/50039988213_0c1bb94def_n.jpg",
    "id_album": "1613540653",
    "description": "Space_822456",
    "title": "Space_822456",
    "link_img": "https://live.staticflickr.com/65535/50039988213_af63c25a55_o.jpg",
    "id_image": "Space_822456",
    "count_view": 0
  },
  {
    "link_thumb": "https://live.staticflickr.com/65535/50039886927_db42a99c16_n.jpg",
    "id_album": "1204249541",
    "description": "Galaxy_110263",
    "title": "Galaxy_110263",
    "link_img": "https://live.staticflickr.com/65535/50039886927_9e288ca1d7_o.jpg",
    "id_image": "Galaxy_110263",
    "count_view": 0
  },
  {
    "link_thumb": "https://live.staticflickr.com/65535/50038873063_76496d0ef3_n.jpg",
    "id_album": "406431601",
    "description": "Building_405546",
    "title": "Building_405546",
    "link_img": "https://live.staticflickr.com/65535/50038873063_605146dc18_o.jpg",
    "id_image": "Building_405546",
    "count_view": 0
  },
  {
    "link_thumb": "https://live.staticflickr.com/65535/50039992632_90c4441156_n.jpg",
    "id_album": "1402713104",
    "description": "Landscape_979174",
    "title": "Landscape_979174",
    "link_img": "https://live.staticflickr.com/65535/50039992632_a47e47ba91_o.jpg",
    "id_image": "Landscape_979174",
    "count_view": 0
  },
  {
    "link_thumb": "https://live.staticflickr.com/65535/50039071333_d017f84a0e_n.jpg",
    "id_album": "2104507156",
    "description": "Fantasy_316509",
    "title": "Fantasy_316509",
    "link_img": "https://live.staticflickr.com/65535/50039071333_d23a805d76_o.jpg",
    "id_image": "Fantasy_316509",
    "count_view": 0
  },
  {
    "link_thumb": "https://live.staticflickr.com/65535/50039759811_fd00a1da3c_n.jpg",
    "id_album": "-1610342324",
    "description": "Nebula_1002681",
    "title": "Nebula_1002681",
    "link_img": "https://live.staticflickr.com/65535/50039759811_fc2ba21b9f_o.jpg",
    "id_image": "Nebula_1002681",
    "count_view": 0
  },
  {
    "link_thumb": "https://live.staticflickr.com/65535/50039491722_0280f80ffa_n.jpg",
    "id_album": "280884763",
    "description": "Abstract_286931",
    "title": "Abstract_286931",
    "link_img": "https://live.staticflickr.com/65535/50039491722_f271d3820b_o.jpg",
    "id_image": "Abstract_286931",
    "count_view": 0
  },
  {
    "link_thumb": "https://live.staticflickr.com/65535/50039490372_e72d04b25e_n.jpg",
    "id_album": "280884763",
    "description": "Abstract_222299",
    "title": "Abstract_222299",
    "link_img": "https://live.staticflickr.com/65535/50039490372_b85f937a76_o.jpg",
    "id_image": "Abstract_222299",
    "count_view": 0
  },
  {
    "link_thumb": "https://live.staticflickr.com/65535/50039099923_37169eca31_n.jpg",
    "id_album": "1204249541",
    "description": "Galaxy_606931",
    "title": "Galaxy_606931",
    "link_img": "https://live.staticflickr.com/65535/50039099923_613f9f7054_o.jpg",
    "id_image": "Galaxy_606931",
    "count_view": 0
  },
  {
    "link_thumb": "https://live.staticflickr.com/65535/50040815532_e28700d44e_n.jpg",
    "id_album": "1613540653",
    "description": "Space_914140",
    "title": "Space_914140",
    "link_img": "https://live.staticflickr.com/65535/50040815532_c457b72733_o.jpg",
    "id_image": "Space_914140",
    "count_view": 0
  },
  {
    "link_thumb": "https://live.staticflickr.com/65535/50040058347_d976ba9bee_n.jpg",
    "id_album": "-1610342324",
    "description": "Nebula_419970",
    "title": "Nebula_419970",
    "link_img": "https://live.staticflickr.com/65535/50040058347_3342a79549_o.jpg",
    "id_image": "Nebula_419970",
    "count_view": 0
  },
  {
    "link_thumb": "https://live.staticflickr.com/65535/50039909437_e2263a1674_n.jpg",
    "id_album": "1204249541",
    "description": "Galaxy_593259",
    "title": "Galaxy_593259",
    "link_img": "https://live.staticflickr.com/65535/50039909437_f23b6319c6_o.jpg",
    "id_image": "Galaxy_593259",
    "count_view": 0
  },
  {
    "link_thumb": "https://live.staticflickr.com/65535/50039684931_6d2ebf5c98_n.jpg",
    "id_album": "1402713104",
    "description": "Landscape_388048",
    "title": "Landscape_388048",
    "link_img": "https://live.staticflickr.com/65535/50039684931_0ae4b51bc3_o.jpg",
    "id_image": "Landscape_388048",
    "count_view": 0
  },
  {
    "link_thumb": "https://live.staticflickr.com/65535/50040000243_202e6c2300_n.jpg",
    "id_album": "1613540653",
    "description": "Space_957482",
    "title": "Space_957482",
    "link_img": "https://live.staticflickr.com/65535/50040000243_7051954d03_o.jpg",
    "id_image": "Space_957482",
    "count_view": 0
  },
  {
    "link_thumb": "https://live.staticflickr.com/65535/50038823588_547b890969_n.jpg",
    "id_album": "869545341",
    "description": "Astronaut_857741",
    "title": "Astronaut_857741",
    "link_img": "https://live.staticflickr.com/65535/50038823588_42592b09b1_o.jpg",
    "id_image": "Astronaut_857741",
    "count_view": 0
  },
  {
    "link_thumb": "https://live.staticflickr.com/65535/50039224973_bd7f49035d_n.jpg",
    "id_album": "-1610342324",
    "description": "Nebula_241680",
    "title": "Nebula_241680",
    "link_img": "https://live.staticflickr.com/65535/50039224973_981e3961af_o.jpg",
    "id_image": "Nebula_241680",
    "count_view": 0
  },
  {
    "link_thumb": "https://live.staticflickr.com/65535/50039549157_71b11dd497_n.jpg",
    "id_album": "-419633230",
    "description": "Apocalyptic_777057",
    "title": "Apocalyptic_777057",
    "link_img": "https://live.staticflickr.com/65535/50039549157_1683dbecf0_o.jpg",
    "id_image": "Apocalyptic_777057",
    "count_view": 0
  },
  {
    "link_thumb": "https://live.staticflickr.com/65535/50039739627_bf2bd9defe_n.jpg",
    "id_album": "-1964113117",
    "description": "City_550166",
    "title": "City_550166",
    "link_img": "https://live.staticflickr.com/65535/50039739627_4841f7527f_o.jpg",
    "id_image": "City_550166",
    "count_view": 0
  },
  {
    "link_thumb": "https://live.staticflickr.com/65535/50038996988_484ef61182_n.jpg",
    "id_album": "894679094",
    "description": "Collision_957519",
    "title": "Collision_957519",
    "link_img": "https://live.staticflickr.com/65535/50038996988_a31e848068_o.jpg",
    "id_image": "Collision_957519",
    "count_view": 0
  },
  {
    "link_thumb": "https://live.staticflickr.com/65535/50038808458_81bb64571e_n.jpg",
    "id_album": "869545341",
    "description": "Astronaut_534555",
    "title": "Astronaut_534555",
    "link_img": "https://live.staticflickr.com/65535/50038808458_01433161c0_o.jpg",
    "id_image": "Astronaut_534555",
    "count_view": 0
  },
  {
    "link_thumb": "https://live.staticflickr.com/65535/50040225046_bd147899e6_n.jpg",
    "id_album": "-482547208",
    "description": "PostApocalyptic_794903",
    "title": "PostApocalyptic_794903",
    "link_img": "https://live.staticflickr.com/65535/50040225046_59916547e8_o.jpg",
    "id_image": "PostApocalyptic_794903",
    "count_view": 0
  },
  {
    "link_thumb": "https://live.staticflickr.com/65535/50040802088_db00d8f7a3_n.jpg",
    "id_album": "-1177476763",
    "description": "Sunrise_104848",
    "title": "Sunrise_104848",
    "link_img": "https://live.staticflickr.com/65535/50040802088_d140b337f7_o.jpg",
    "id_image": "Sunrise_104848",
    "count_view": 0
  },
  {
    "link_thumb": "https://live.staticflickr.com/65535/50039540402_94e11433f0_n.jpg",
    "id_album": "849020728",
    "description": "Alien_988499",
    "title": "Alien_988499",
    "link_img": "https://live.staticflickr.com/65535/50039540402_48ec219847_o.jpg",
    "id_image": "Alien_988499",
    "count_view": 0
  },
  {
    "link_thumb": "https://live.staticflickr.com/65535/50041638192_65b7f5f552_n.jpg",
    "id_album": "2020068132",
    "description": "Vehicle_192943",
    "title": "Vehicle_192943",
    "link_img": "https://live.staticflickr.com/65535/50041638192_680655783d_o.jpg",
    "id_image": "Vehicle_192943",
    "count_view": 0
  },
  {
    "link_thumb": "https://live.staticflickr.com/65535/50041359041_db098e2756_n.jpg",
    "id_album": "-1177476763",
    "description": "Sunrise_217987",
    "title": "Sunrise_217987",
    "link_img": "https://live.staticflickr.com/65535/50041359041_42032a7c67_o.jpg",
    "id_image": "Sunrise_217987",
    "count_view": 0
  },
  {
    "link_thumb": "https://live.staticflickr.com/65535/50039997066_387b70944c_n.jpg",
    "id_album": "1443611160",
    "description": "PlanetRise_177495",
    "title": "PlanetRise_177495",
    "link_img": "https://live.staticflickr.com/65535/50039997066_be2eea0a14_o.jpg",
    "id_image": "PlanetRise_177495",
    "count_view": 0
  },
  {
    "link_thumb": "https://live.staticflickr.com/65535/50039333721_edc65baf9e_n.jpg",
    "id_album": "523598895",
    "description": "Artistic_397573",
    "title": "Artistic_397573",
    "link_img": "https://live.staticflickr.com/65535/50039333721_98972a8b1e_o.jpg",
    "id_image": "Artistic_397573",
    "count_view": 0
  },
  {
    "link_thumb": "https://live.staticflickr.com/65535/50040779802_9c562cf6d6_n.jpg",
    "id_album": "1613540653",
    "description": "Space_577980",
    "title": "Space_577980",
    "link_img": "https://live.staticflickr.com/65535/50040779802_7339767d17_o.jpg",
    "id_image": "Space_577980",
    "count_view": 0
  },
  {
    "link_thumb": "https://live.staticflickr.com/65535/50040247682_ca11c7de8f_n.jpg",
    "id_album": "395161030",
    "description": "Planet_926468",
    "title": "Planet_926468",
    "link_img": "https://live.staticflickr.com/65535/50040247682_08395c9580_o.jpg",
    "id_image": "Planet_926468",
    "count_view": 0
  },
  {
    "link_thumb": "https://live.staticflickr.com/65535/50040828848_83378202cc_n.jpg",
    "id_album": "2020068132",
    "description": "Vehicle_271142",
    "title": "Vehicle_271142",
    "link_img": "https://live.staticflickr.com/65535/50040828848_0755b1ed6b_o.jpg",
    "id_image": "Vehicle_271142",
    "count_view": 0
  },
  {
    "link_thumb": "https://live.staticflickr.com/65535/50039646867_fd5082eae5_n.jpg",
    "id_album": "869545341",
    "description": "Astronaut_957347",
    "title": "Astronaut_957347",
    "link_img": "https://live.staticflickr.com/65535/50039646867_27999c2455_o.jpg",
    "id_image": "Astronaut_957347",
    "count_view": 0
  },
  {
    "link_thumb": "https://live.staticflickr.com/65535/50039274396_8ecaeef163_n.jpg",
    "id_album": "849020728",
    "description": "Alien_841211",
    "title": "Alien_841211",
    "link_img": "https://live.staticflickr.com/65535/50039274396_b79a027d0b_o.jpg",
    "id_image": "Alien_841211",
    "count_view": 0
  },
  {
    "link_thumb": "https://live.staticflickr.com/65535/50040646276_1248a7e528_n.jpg",
    "id_album": "2130067313",
    "description": "Spaceship_314362",
    "title": "Spaceship_314362",
    "link_img": "https://live.staticflickr.com/65535/50040646276_61e0b0bbc9_o.jpg",
    "id_image": "Spaceship_314362",
    "count_view": 0
  },
  {
    "link_thumb": "https://live.staticflickr.com/65535/50038910103_fc89dcfcf1_n.jpg",
    "id_album": "-1964113117",
    "description": "City_284838",
    "title": "City_284838",
    "link_img": "https://live.staticflickr.com/65535/50038910103_7246d253b1_o.jpg",
    "id_image": "City_284838",
    "count_view": 0
  },
  {
    "link_thumb": "https://live.staticflickr.com/65535/50041035043_42ebabeff4_n.jpg",
    "id_album": "-1675918237",
    "description": "WomenWarrior_849366",
    "title": "WomenWarrior_849366",
    "link_img": "https://live.staticflickr.com/65535/50041035043_0c2d31a4df_o.jpg",
    "id_image": "WomenWarrior_849366",
    "count_view": 0
  },
  {
    "link_thumb": "https://live.staticflickr.com/65535/50041422771_1b607aaf7a_n.jpg",
    "id_album": "2020068132",
    "description": "Vehicle_955936",
    "title": "Vehicle_955936",
    "link_img": "https://live.staticflickr.com/65535/50041422771_389dd09114_o.jpg",
    "id_image": "Vehicle_955936",
    "count_view": 0
  },
  {
    "link_thumb": "https://live.staticflickr.com/65535/50039249443_77f4c8ce0a_n.jpg",
    "id_album": "-1610342324",
    "description": "Nebula_44996",
    "title": "Nebula_44996",
    "link_img": "https://live.staticflickr.com/65535/50039249443_fe3dee12bb_o.jpg",
    "id_image": "Nebula_44996",
    "count_view": 0
  },
  {
    "link_thumb": "https://live.staticflickr.com/65535/50039599041_f4c7def22f_n.jpg",
    "id_album": "829169633",
    "description": "Cyborg_602369",
    "title": "Cyborg_602369",
    "link_img": "https://live.staticflickr.com/65535/50039599041_106fd64832_o.jpg",
    "id_image": "Cyborg_602369",
    "count_view": 0
  },
  {
    "link_thumb": "https://live.staticflickr.com/65535/50040425491_5f6449827a_n.jpg",
    "id_album": "779690680",
    "description": "Robot_928639",
    "title": "Robot_928639",
    "link_img": "https://live.staticflickr.com/65535/50040425491_08fbc1b27f_o.jpg",
    "id_image": "Robot_928639",
    "count_view": 0
  },
  {
    "link_thumb": "https://live.staticflickr.com/65535/50040780583_91e1cf5629_n.jpg",
    "id_album": "1267121215",
    "description": "Steampunk_913612",
    "title": "Steampunk_913612",
    "link_img": "https://live.staticflickr.com/65535/50040780583_c6b9ea018a_o.jpg",
    "id_image": "Steampunk_913612",
    "count_view": 0
  },
  {
    "link_thumb": "https://live.staticflickr.com/65535/50040232757_1ea87d82cb_n.jpg",
    "id_album": "395161030",
    "description": "Planet_63318",
    "title": "Planet_63318",
    "link_img": "https://live.staticflickr.com/65535/50040232757_c736f8e528_o.jpg",
    "id_image": "Planet_63318",
    "count_view": 0
  },
  {
    "link_thumb": "https://live.staticflickr.com/65535/50040227387_60721d45f7_n.jpg",
    "id_album": "395161030",
    "description": "Planet_559142",
    "title": "Planet_559142",
    "link_img": "https://live.staticflickr.com/65535/50040227387_c4fd0eb29b_o.jpg",
    "id_image": "Planet_559142",
    "count_view": 0
  },
  {
    "link_thumb": "https://live.staticflickr.com/65535/50040116002_eace02ddda_n.jpg",
    "id_album": "-1610342324",
    "description": "Nebula_916210",
    "title": "Nebula_916210",
    "link_img": "https://live.staticflickr.com/65535/50040116002_c0e18612c0_o.jpg",
    "id_image": "Nebula_916210",
    "count_view": 0
  },
  {
    "link_thumb": "https://live.staticflickr.com/65535/50039146298_82e9da0e05_n.jpg",
    "id_album": "1402713104",
    "description": "Landscape_585085",
    "title": "Landscape_585085",
    "link_img": "https://live.staticflickr.com/65535/50039146298_967f33484e_o.jpg",
    "id_image": "Landscape_585085",
    "count_view": 0
  },
  {
    "link_thumb": "https://live.staticflickr.com/65535/50038909273_8c0820a258_n.jpg",
    "id_album": "-1964113117",
    "description": "City_282520",
    "title": "City_282520",
    "link_img": "https://live.staticflickr.com/65535/50038909273_c411ece272_o.jpg",
    "id_image": "City_282520",
    "count_view": 0
  },
  {
    "link_thumb": "https://live.staticflickr.com/65535/50039190868_2355a81eb0_n.jpg",
    "id_album": "-1388385651",
    "description": "MilkyWay_687245",
    "title": "MilkyWay_687245",
    "link_img": "https://live.staticflickr.com/65535/50039190868_01fe78c341_o.jpg",
    "id_image": "MilkyWay_687245",
    "count_view": 0
  },
  {
    "link_thumb": "https://live.staticflickr.com/65535/50039878998_7ae50c9485_n.jpg",
    "id_album": "779690680",
    "description": "Robot_937791",
    "title": "Robot_937791",
    "link_img": "https://live.staticflickr.com/65535/50039878998_e320fbf64d_o.jpg",
    "id_image": "Robot_937791",
    "count_view": 0
  },
  {
    "link_thumb": "https://live.staticflickr.com/65535/50039994567_e4cf7ebd09_n.jpg",
    "id_album": "-1388385651",
    "description": "MilkyWay_153319",
    "title": "MilkyWay_153319",
    "link_img": "https://live.staticflickr.com/65535/50039994567_015966671f_o.jpg",
    "id_image": "MilkyWay_153319",
    "count_view": 0
  },
  {
    "link_thumb": "https://live.staticflickr.com/65535/50039268551_0ae227fa27_n.jpg",
    "id_album": "849020728",
    "description": "Alien_517024",
    "title": "Alien_517024",
    "link_img": "https://live.staticflickr.com/65535/50039268551_c377cac25f_o.jpg",
    "id_image": "Alien_517024",
    "count_view": 0
  },
  {
    "link_thumb": "https://live.staticflickr.com/65535/50040752877_a32626a2d9_n.jpg",
    "id_album": "1613540653",
    "description": "Space_287043",
    "title": "Space_287043",
    "link_img": "https://live.staticflickr.com/65535/50040752877_7cc0bb4da7_o.jpg",
    "id_image": "Space_287043",
    "count_view": 0
  },
  {
    "link_thumb": "https://live.staticflickr.com/65535/50039607787_72c077473d_n.jpg",
    "id_album": "523598895",
    "description": "Artistic_881461",
    "title": "Artistic_881461",
    "link_img": "https://live.staticflickr.com/65535/50039607787_206e2d2c4d_o.jpg",
    "id_image": "Artistic_881461",
    "count_view": 0
  },
  {
    "link_thumb": "https://live.staticflickr.com/65535/50040131291_f78c11e276_n.jpg",
    "id_album": "-1102314093",
    "description": "Planets_73592",
    "title": "Planets_73592",
    "link_img": "https://live.staticflickr.com/65535/50040131291_29aa76070a_o.jpg",
    "id_image": "Planets_73592",
    "count_view": 0
  },
  {
    "link_thumb": "https://live.staticflickr.com/65535/50039642291_0042308154_n.jpg",
    "id_album": "1204249541",
    "description": "Galaxy_550128",
    "title": "Galaxy_550128",
    "link_img": "https://live.staticflickr.com/65535/50039642291_05a56058a5_o.jpg",
    "id_image": "Galaxy_550128",
    "count_view": 0
  },
  {
    "link_thumb": "https://live.staticflickr.com/65535/50040437822_82b623feb8_n.jpg",
    "id_album": "376235057",
    "description": "Planetscape_427580",
    "title": "Planetscape_427580",
    "link_img": "https://live.staticflickr.com/65535/50040437822_3e6bf9c9de_o.jpg",
    "id_image": "Planetscape_427580",
    "count_view": 0
  },
  {
    "link_thumb": "https://live.staticflickr.com/65535/50041457677_cf4fa487b8_n.jpg",
    "id_album": "-1863373220",
    "description": "StarWars_581222",
    "title": "StarWars_581222",
    "link_img": "https://live.staticflickr.com/65535/50041457677_246eabaeca_o.jpg",
    "id_image": "StarWars_581222",
    "count_view": 0
  },
  {
    "link_thumb": "https://live.staticflickr.com/65535/50039822786_a2d41b30d8_n.jpg",
    "id_album": "-1610342324",
    "description": "Nebula_687242",
    "title": "Nebula_687242",
    "link_img": "https://live.staticflickr.com/65535/50039822786_f5cf946704_o.jpg",
    "id_image": "Nebula_687242",
    "count_view": 0
  },
  {
    "link_thumb": "https://live.staticflickr.com/65535/50040398111_4fd9fa165f_n.jpg",
    "id_album": "779690680",
    "description": "Robot_898627",
    "title": "Robot_898627",
    "link_img": "https://live.staticflickr.com/65535/50040398111_844e13fc84_o.jpg",
    "id_image": "Robot_898627",
    "count_view": 0
  },
  {
    "link_thumb": "https://live.staticflickr.com/65535/50040105557_18ed79ac67_n.jpg",
    "id_album": "-1610342324",
    "description": "Nebula_825559",
    "title": "Nebula_825559",
    "link_img": "https://live.staticflickr.com/65535/50040105557_6c85c59395_o.jpg",
    "id_image": "Nebula_825559",
    "count_view": 0
  },
  {
    "link_thumb": "https://live.staticflickr.com/65535/50041585831_5322891d38_n.jpg",
    "id_album": "-1675918237",
    "description": "WomenWarrior_631671",
    "title": "WomenWarrior_631671",
    "link_img": "https://live.staticflickr.com/65535/50041585831_da1f46a1be_o.jpg",
    "id_image": "WomenWarrior_631671",
    "count_view": 0
  },
  {
    "link_thumb": "https://live.staticflickr.com/65535/50039903496_4460e06453_n.jpg",
    "id_album": "395161030",
    "description": "Planet_106114",
    "title": "Planet_106114",
    "link_img": "https://live.staticflickr.com/65535/50039903496_9b51bc6347_o.jpg",
    "id_image": "Planet_106114",
    "count_view": 0
  },
  {
    "link_thumb": "https://live.staticflickr.com/65535/50038755098_f258e06eea_n.jpg",
    "id_album": "523598895",
    "description": "Artistic_172002",
    "title": "Artistic_172002",
    "link_img": "https://live.staticflickr.com/65535/50038755098_36d69634e6_o.jpg",
    "id_image": "Artistic_172002",
    "count_view": 0
  },
  {
    "link_thumb": "https://live.staticflickr.com/65535/50039644902_82c057ffa1_n.jpg",
    "id_album": "869545341",
    "description": "Astronaut_931163",
    "title": "Astronaut_931163",
    "link_img": "https://live.staticflickr.com/65535/50039644902_c32ca24ed8_o.jpg",
    "id_image": "Astronaut_931163",
    "count_view": 0
  },
  {
    "link_thumb": "https://live.staticflickr.com/65535/50040300951_98f52ed963_n.jpg",
    "id_album": "779690680",
    "description": "Robot_393580",
    "title": "Robot_393580",
    "link_img": "https://live.staticflickr.com/65535/50040300951_a7a7abb71a_o.jpg",
    "id_image": "Robot_393580",
    "count_view": 0
  },
  {
    "link_thumb": "https://live.staticflickr.com/65535/50039911567_9e217af0b7_n.jpg",
    "id_album": "1204249541",
    "description": "Galaxy_606743",
    "title": "Galaxy_606743",
    "link_img": "https://live.staticflickr.com/65535/50039911567_2798878b23_o.jpg",
    "id_image": "Galaxy_606743",
    "count_view": 0
  },
  {
    "link_thumb": "https://live.staticflickr.com/65535/50039978788_13765f3a84_n.jpg",
    "id_album": "1613540653",
    "description": "Space_726682",
    "title": "Space_726682",
    "link_img": "https://live.staticflickr.com/65535/50039978788_cb44dbc2b5_o.jpg",
    "id_image": "Space_726682",
    "count_view": 0
  },
  {
    "link_thumb": "https://live.staticflickr.com/65535/50041420051_3649753a66_n.jpg",
    "id_album": "2020068132",
    "description": "Vehicle_927370",
    "title": "Vehicle_927370",
    "link_img": "https://live.staticflickr.com/65535/50041420051_77eb4a50dd_o.jpg",
    "id_image": "Vehicle_927370",
    "count_view": 0
  },
  {
    "link_thumb": "https://live.staticflickr.com/65535/50039423746_97509086a6_n.jpg",
    "id_album": "406431601",
    "description": "Building_804048",
    "title": "Building_804048",
    "link_img": "https://live.staticflickr.com/65535/50039423746_7cf2deb51f_o.jpg",
    "id_image": "Building_804048",
    "count_view": 0
  },
  {
    "link_thumb": "https://live.staticflickr.com/65535/50038730103_caa66ab71a_n.jpg",
    "id_album": "849020728",
    "description": "Alien_967936",
    "title": "Alien_967936",
    "link_img": "https://live.staticflickr.com/65535/50038730103_f29ba7cd68_o.jpg",
    "id_image": "Alien_967936",
    "count_view": 0
  },
  {
    "link_thumb": "https://live.staticflickr.com/65535/50040442596_9a60f16c18_n.jpg",
    "id_album": "779690680",
    "description": "Robot_949797",
    "title": "Robot_949797",
    "link_img": "https://live.staticflickr.com/65535/50040442596_2557fb0c85_o.jpg",
    "id_image": "Robot_949797",
    "count_view": 0
  },
  {
    "link_thumb": "https://live.staticflickr.com/65535/50041563377_7cee198df0_n.jpg",
    "id_album": "1267121215",
    "description": "Steampunk_21623",
    "title": "Steampunk_21623",
    "link_img": "https://live.staticflickr.com/65535/50041563377_5e8fd5d829_o.jpg",
    "id_image": "Steampunk_21623",
    "count_view": 0
  },
  {
    "link_thumb": "https://live.staticflickr.com/65535/50040328097_906344b1be_n.jpg",
    "id_album": "-1102314093",
    "description": "Planets_244606",
    "title": "Planets_244606",
    "link_img": "https://live.staticflickr.com/65535/50040328097_61757a2500_o.jpg",
    "id_image": "Planets_244606",
    "count_view": 0
  },
  {
    "link_thumb": "https://live.staticflickr.com/65535/50039779447_f703d448a7_n.jpg",
    "id_album": "-1964113117",
    "description": "City_906094",
    "title": "City_906094",
    "link_img": "https://live.staticflickr.com/65535/50039779447_450cf3ee10_o.jpg",
    "id_image": "City_906094",
    "count_view": 0
  },
  {
    "link_thumb": "https://live.staticflickr.com/65535/50041351426_00ee3a4f1d_n.jpg",
    "id_album": "-221671103",
    "description": "Sun_549919",
    "title": "Sun_549919",
    "link_img": "https://live.staticflickr.com/65535/50041351426_6177a6fa10_o.jpg",
    "id_image": "Sun_549919",
    "count_view": 0
  },
  {
    "link_thumb": "https://live.staticflickr.com/65535/50040251666_341d31e986_n.jpg",
    "id_album": "779690680",
    "description": "Robot_112407",
    "title": "Robot_112407",
    "link_img": "https://live.staticflickr.com/65535/50040251666_23ccaf6ceb_o.jpg",
    "id_image": "Robot_112407",
    "count_view": 0
  },
  {
    "link_thumb": "https://live.staticflickr.com/65535/50040850811_a5aa81bc66_n.jpg",
    "id_album": "-1449720967",
    "description": "StarTrek_336821",
    "title": "StarTrek_336821",
    "link_img": "https://live.staticflickr.com/65535/50040850811_cfdb1553e0_o.jpg",
    "id_image": "StarTrek_336821",
    "count_view": 0
  },
  {
    "link_thumb": "https://live.staticflickr.com/65535/50039270578_c4fec1ccd0_n.jpg",
    "id_album": "-1610342324",
    "description": "Nebula_666176",
    "title": "Nebula_666176",
    "link_img": "https://live.staticflickr.com/65535/50039270578_d4f3b76157_o.jpg",
    "id_image": "Nebula_666176",
    "count_view": 0
  },
  {
    "link_thumb": "https://live.staticflickr.com/65535/50040128387_e629986e63_n.jpg",
    "id_album": "-1862561193",
    "description": "Other_209413",
    "title": "Other_209413",
    "link_img": "https://live.staticflickr.com/65535/50040128387_e6104a0e3d_o.jpg",
    "id_image": "Other_209413",
    "count_view": 0
  },
  {
    "link_thumb": "https://live.staticflickr.com/65535/50041179866_87006da4c2_n.jpg",
    "id_album": "-1863373220",
    "description": "StarWars_438735",
    "title": "StarWars_438735",
    "link_img": "https://live.staticflickr.com/65535/50041179866_c21b62a264_o.jpg",
    "id_image": "StarWars_438735",
    "count_view": 0
  },
  {
    "link_thumb": "https://live.staticflickr.com/65535/50041421582_fd902eb28e_n.jpg",
    "id_album": "-1863373220",
    "description": "StarWars_276422",
    "title": "StarWars_276422",
    "link_img": "https://live.staticflickr.com/65535/50041421582_7793e604cb_o.jpg",
    "id_image": "StarWars_276422",
    "count_view": 0
  },
  {
    "link_thumb": "https://live.staticflickr.com/65535/50039922358_016f2ae0c6_n.jpg",
    "id_album": "1613540653",
    "description": "Space_192895",
    "title": "Space_192895",
    "link_img": "https://live.staticflickr.com/65535/50039922358_3107c8dc11_o.jpg",
    "id_image": "Space_192895",
    "count_view": 0
  },
  {
    "link_thumb": "https://live.staticflickr.com/65535/50040810976_88bacb8e2e_n.jpg",
    "id_album": "-1449720967",
    "description": "StarTrek_244068",
    "title": "StarTrek_244068",
    "link_img": "https://live.staticflickr.com/65535/50040810976_8128660180_o.jpg",
    "id_image": "StarTrek_244068",
    "count_view": 0
  },
  {
    "link_thumb": "https://live.staticflickr.com/65535/50041578751_0e405c1a99_n.jpg",
    "id_album": "-1675918237",
    "description": "WomenWarrior_529257",
    "title": "WomenWarrior_529257",
    "link_img": "https://live.staticflickr.com/65535/50041578751_8291a699d7_o.jpg",
    "id_image": "WomenWarrior_529257",
    "count_view": 0
  },
  {
    "link_thumb": "https://live.staticflickr.com/65535/50040238091_6696756caf_n.jpg",
    "id_album": "-839602625",
    "description": "Predator_196974",
    "title": "Predator_196974",
    "link_img": "https://live.staticflickr.com/65535/50040238091_1f905a8878_o.jpg",
    "id_image": "Predator_196974",
    "count_view": 0
  },
  {
    "link_thumb": "https://live.staticflickr.com/65535/50040324307_103348949a_n.jpg",
    "id_album": "-1102314093",
    "description": "Planets_219934",
    "title": "Planets_219934",
    "link_img": "https://live.staticflickr.com/65535/50040324307_38f39e5eac_o.jpg",
    "id_image": "Planets_219934",
    "count_view": 0
  },
  {
    "link_thumb": "https://live.staticflickr.com/65535/50039003053_99b1076cd4_n.jpg",
    "id_album": "-437872736",
    "description": "Creature_321344",
    "title": "Creature_321344",
    "link_img": "https://live.staticflickr.com/65535/50039003053_f18664a921_o.jpg",
    "id_image": "Creature_321344",
    "count_view": 0
  },
  {
    "link_thumb": "https://live.staticflickr.com/65535/50041715167_42a09b7b0a_n.jpg",
    "id_album": "-1261420436",
    "description": "Warrior_366402",
    "title": "Warrior_366402",
    "link_img": "https://live.staticflickr.com/65535/50041715167_0940f9af67_o.jpg",
    "id_image": "Warrior_366402",
    "count_view": 0
  },
  {
    "link_thumb": "https://live.staticflickr.com/65535/50040650502_3ac428372d_n.jpg",
    "id_album": "779690680",
    "description": "Robot_875294",
    "title": "Robot_875294",
    "link_img": "https://live.staticflickr.com/65535/50040650502_cb88dd000c_o.jpg",
    "id_image": "Robot_875294",
    "count_view": 0
  },
  {
    "link_thumb": "https://live.staticflickr.com/65535/50041690132_5b04492a65_n.jpg",
    "id_album": "2020068132",
    "description": "Vehicle_978184",
    "title": "Vehicle_978184",
    "link_img": "https://live.staticflickr.com/65535/50041690132_3b8b8287ac_o.jpg",
    "id_image": "Vehicle_978184",
    "count_view": 0
  },
  {
    "link_thumb": "https://live.staticflickr.com/65535/50041041537_837bd96295_n.jpg",
    "id_album": "2130067313",
    "description": "Spaceship_972704",
    "title": "Spaceship_972704",
    "link_img": "https://live.staticflickr.com/65535/50041041537_2670fb3cfa_o.jpg",
    "id_image": "Spaceship_972704",
    "count_view": 0
  },
  {
    "link_thumb": "https://live.staticflickr.com/65535/50039639716_2a63df62a3_n.jpg",
    "id_album": "1204249541",
    "description": "Galaxy_528619",
    "title": "Galaxy_528619",
    "link_img": "https://live.staticflickr.com/65535/50039639716_64bb37a117_o.jpg",
    "id_image": "Galaxy_528619",
    "count_view": 0
  },
  {
    "link_thumb": "https://live.staticflickr.com/65535/50040694157_c317537b7d_n.jpg",
    "id_album": "779690680",
    "description": "Robot_933177",
    "title": "Robot_933177",
    "link_img": "https://live.staticflickr.com/65535/50040694157_b4552efae0_o.jpg",
    "id_image": "Robot_933177",
    "count_view": 0
  },
  {
    "link_thumb": "https://live.staticflickr.com/65535/50039244153_b51ea2b372_n.jpg",
    "id_album": "-1610342324",
    "description": "Nebula_413590",
    "title": "Nebula_413590",
    "link_img": "https://live.staticflickr.com/65535/50039244153_80f2be2aaf_o.jpg",
    "id_image": "Nebula_413590",
    "count_view": 0
  },
  {
    "link_thumb": "https://live.staticflickr.com/65535/50039241761_a77380eed0_n.jpg",
    "id_album": "-406145265",
    "description": "Aircraft_866069",
    "title": "Aircraft_866069",
    "link_img": "https://live.staticflickr.com/65535/50039241761_706a00b32e_o.jpg",
    "id_image": "Aircraft_866069",
    "count_view": 0
  },
  {
    "link_thumb": "https://live.staticflickr.com/65535/50039886737_94af319445_n.jpg",
    "id_album": "1204249541",
    "description": "Galaxy_107614",
    "title": "Galaxy_107614",
    "link_img": "https://live.staticflickr.com/65535/50039886737_dfc9497c61_o.jpg",
    "id_image": "Galaxy_107614",
    "count_view": 0
  },
  {
    "link_thumb": "https://live.staticflickr.com/65535/50039827953_a4a481d507_n.jpg",
    "id_album": "779690680",
    "description": "Robot_871701",
    "title": "Robot_871701",
    "link_img": "https://live.staticflickr.com/65535/50039827953_7ee7bce919_o.jpg",
    "id_image": "Robot_871701",
    "count_view": 0
  },
  {
    "link_thumb": "https://live.staticflickr.com/65535/50039780367_7e1b84899f_n.jpg",
    "id_album": "-1964113117",
    "description": "City_906337",
    "title": "City_906337",
    "link_img": "https://live.staticflickr.com/65535/50039780367_6ec599353f_o.jpg",
    "id_image": "City_906337",
    "count_view": 0
  },
  {
    "link_thumb": "https://live.staticflickr.com/65535/50038852028_7fb34a00f8_n.jpg",
    "id_album": "1187037014",
    "description": "Battle_298861",
    "title": "Battle_298861",
    "link_img": "https://live.staticflickr.com/65535/50038852028_6cd2a25f23_o.jpg",
    "id_image": "Battle_298861",
    "count_view": 0
  },
  {
    "link_thumb": "https://live.staticflickr.com/65535/50040067441_2929c7e767_n.jpg",
    "id_album": "-1102314093",
    "description": "Planets_25111",
    "title": "Planets_25111",
    "link_img": "https://live.staticflickr.com/65535/50040067441_6c39951352_o.jpg",
    "id_image": "Planets_25111",
    "count_view": 0
  },
  {
    "link_thumb": "https://live.staticflickr.com/65535/50039693716_dcd6d4ce62_n.jpg",
    "id_album": "1402713104",
    "description": "Landscape_558948",
    "title": "Landscape_558948",
    "link_img": "https://live.staticflickr.com/65535/50039693716_bc36f43346_o.jpg",
    "id_image": "Landscape_558948",
    "count_view": 0
  },
  {
    "link_thumb": "https://live.staticflickr.com/65535/50039904501_8a802b8335_n.jpg",
    "id_album": "395161030",
    "description": "Planet_115813",
    "title": "Planet_115813",
    "link_img": "https://live.staticflickr.com/65535/50039904501_f96579ec80_o.jpg",
    "id_image": "Planet_115813",
    "count_view": 0
  },
  {
    "link_thumb": "https://live.staticflickr.com/65535/50039304711_09da404022_n.jpg",
    "id_album": "523598895",
    "description": "Artistic_176743",
    "title": "Artistic_176743",
    "link_img": "https://live.staticflickr.com/65535/50039304711_b18678149d_o.jpg",
    "id_image": "Artistic_176743",
    "count_view": 0
  },
  {
    "link_thumb": "https://live.staticflickr.com/65535/50040461891_8914547976_n.jpg",
    "id_album": "1613540653",
    "description": "Space_104944",
    "title": "Space_104944",
    "link_img": "https://live.staticflickr.com/65535/50040461891_1c5a6ca559_o.jpg",
    "id_image": "Space_104944",
    "count_view": 0
  },
  {
    "link_thumb": "https://live.staticflickr.com/65535/50040016003_f45e1bf0da_n.jpg",
    "id_album": "2130067313",
    "description": "Spaceship_106029",
    "title": "Spaceship_106029",
    "link_img": "https://live.staticflickr.com/65535/50040016003_5586083d2d_o.jpg",
    "id_image": "Spaceship_106029",
    "count_view": 0
  },
  {
    "link_thumb": "https://live.staticflickr.com/65535/50041012427_cdbd33bdc7_n.jpg",
    "id_album": "2130067313",
    "description": "Spaceship_778587",
    "title": "Spaceship_778587",
    "link_img": "https://live.staticflickr.com/65535/50041012427_42733f353f_o.jpg",
    "id_image": "Spaceship_778587",
    "count_view": 0
  },
  {
    "link_thumb": "https://live.staticflickr.com/65535/50040055147_edc9332bfd_n.jpg",
    "id_album": "-1610342324",
    "description": "Nebula_397249",
    "title": "Nebula_397249",
    "link_img": "https://live.staticflickr.com/65535/50040055147_223ab811e6_o.jpg",
    "id_image": "Nebula_397249",
    "count_view": 0
  },
  {
    "link_thumb": "https://live.staticflickr.com/65535/50040728483_b52ce2efdb_n.jpg",
    "id_album": "-1587696329",
    "description": "Stars_84199",
    "title": "Stars_84199",
    "link_img": "https://live.staticflickr.com/65535/50040728483_4f5f5ea1f5_o.jpg",
    "id_image": "Stars_84199",
    "count_view": 0
  },
  {
    "link_thumb": "https://live.staticflickr.com/65535/50040920713_bf79d86752_n.jpg",
    "id_album": "-1261420436",
    "description": "Warrior_590988",
    "title": "Warrior_590988",
    "link_img": "https://live.staticflickr.com/65535/50040920713_a4a6ac2c05_o.jpg",
    "id_image": "Warrior_590988",
    "count_view": 0
  },
  {
    "link_thumb": "https://live.staticflickr.com/65535/50039615642_d5ac5c6670_n.jpg",
    "id_album": "869545341",
    "description": "Astronaut_321913",
    "title": "Astronaut_321913",
    "link_img": "https://live.staticflickr.com/65535/50039615642_eac7869c79_o.jpg",
    "id_image": "Astronaut_321913",
    "count_view": 0
  },
  {
    "link_thumb": "https://live.staticflickr.com/65535/50039748948_e1835f14fe_n.jpg",
    "id_album": "779690680",
    "description": "Robot_397668",
    "title": "Robot_397668",
    "link_img": "https://live.staticflickr.com/65535/50039748948_ca09111e48_o.jpg",
    "id_image": "Robot_397668",
    "count_view": 0
  },
  {
    "link_thumb": "https://live.staticflickr.com/65535/50038879778_018990a8ea_n.jpg",
    "id_album": "406431601",
    "description": "Building_958301",
    "title": "Building_958301",
    "link_img": "https://live.staticflickr.com/65535/50038879778_8ca1f51139_o.jpg",
    "id_image": "Building_958301",
    "count_view": 0
  },
  {
    "link_thumb": "https://live.staticflickr.com/65535/50039750786_e2a90d3f07_n.jpg",
    "id_album": "-1388385651",
    "description": "MilkyWay_838606",
    "title": "MilkyWay_838606",
    "link_img": "https://live.staticflickr.com/65535/50039750786_a2afdb5b2f_o.jpg",
    "id_image": "MilkyWay_838606",
    "count_view": 0
  },
  {
    "link_thumb": "https://live.staticflickr.com/65535/50040063481_a79749ee49_n.jpg",
    "id_album": "-1102314093",
    "description": "Planets_234863",
    "title": "Planets_234863",
    "link_img": "https://live.staticflickr.com/65535/50040063481_a384937cef_o.jpg",
    "id_image": "Planets_234863",
    "count_view": 0
  },
  {
    "link_thumb": "https://live.staticflickr.com/65535/50040752923_368539a5c1_n.jpg",
    "id_album": "1267121215",
    "description": "Steampunk_239583",
    "title": "Steampunk_239583",
    "link_img": "https://live.staticflickr.com/65535/50040752923_ae1e384daf_o.jpg",
    "id_image": "Steampunk_239583",
    "count_view": 0
  },
  {
    "link_thumb": "https://live.staticflickr.com/65535/50039278903_1ede999b3e_n.jpg",
    "id_album": "-1610342324",
    "description": "Nebula_747001",
    "title": "Nebula_747001",
    "link_img": "https://live.staticflickr.com/65535/50039278903_356300dfa1_o.jpg",
    "id_image": "Nebula_747001",
    "count_view": 0
  },
  {
    "link_thumb": "https://live.staticflickr.com/65535/50039532296_7a9f90bbb0_n.jpg",
    "id_album": "-1964113117",
    "description": "City_983864",
    "title": "City_983864",
    "link_img": "https://live.staticflickr.com/65535/50039532296_54fe6d37e1_o.jpg",
    "id_image": "City_983864",
    "count_view": 0
  },
  {
    "link_thumb": "https://live.staticflickr.com/65535/50039658692_50dc5dab3a_n.jpg",
    "id_album": "1187037014",
    "description": "Battle_194031",
    "title": "Battle_194031",
    "link_img": "https://live.staticflickr.com/65535/50039658692_283957610d_o.jpg",
    "id_image": "Battle_194031",
    "count_view": 0
  },
  {
    "link_thumb": "https://live.staticflickr.com/65535/50039234426_64c5180c6a_n.jpg",
    "id_album": "-406145265",
    "description": "Aircraft_155277",
    "title": "Aircraft_155277",
    "link_img": "https://live.staticflickr.com/65535/50039234426_a09fe44448_o.jpg",
    "id_image": "Aircraft_155277",
    "count_view": 0
  },
  {
    "link_thumb": "https://live.staticflickr.com/65535/50038972038_1ae4180a64_n.jpg",
    "id_album": "-1964113117",
    "description": "City_915616",
    "title": "City_915616",
    "link_img": "https://live.staticflickr.com/65535/50038972038_f63fa86209_o.jpg",
    "id_image": "City_915616",
    "count_view": 0
  },
  {
    "link_thumb": "https://live.staticflickr.com/65535/50040165217_2486d86da8_n.jpg",
    "id_album": "395161030",
    "description": "Planet_1005765",
    "title": "Planet_1005765",
    "link_img": "https://live.staticflickr.com/65535/50040165217_7ab2c35da6_o.jpg",
    "id_image": "Planet_1005765",
    "count_view": 0
  },
  {
    "link_thumb": "https://live.staticflickr.com/65535/50039530318_43fd2fb54c_n.jpg",
    "id_album": "-1102314093",
    "description": "Planets_324634",
    "title": "Planets_324634",
    "link_img": "https://live.staticflickr.com/65535/50039530318_a2554ae831_o.jpg",
    "id_image": "Planets_324634",
    "count_view": 0
  },
  {
    "link_thumb": "https://live.staticflickr.com/65535/50038942053_29212946b0_n.jpg",
    "id_album": "-1964113117",
    "description": "City_709118",
    "title": "City_709118",
    "link_img": "https://live.staticflickr.com/65535/50038942053_bb84aba71d_o.jpg",
    "id_image": "City_709118",
    "count_view": 0
  },
  {
    "link_thumb": "https://live.staticflickr.com/65535/50040048727_17c67e404c_n.jpg",
    "id_album": "-1610342324",
    "description": "Nebula_304916",
    "title": "Nebula_304916",
    "link_img": "https://live.staticflickr.com/65535/50040048727_64423cc30a_o.jpg",
    "id_image": "Nebula_304916",
    "count_view": 0
  },
  {
    "link_thumb": "https://live.staticflickr.com/65535/50039744573_68a9c671d0_n.jpg",
    "id_album": "779690680",
    "description": "Robot_375017",
    "title": "Robot_375017",
    "link_img": "https://live.staticflickr.com/65535/50039744573_7845f5fdc4_o.jpg",
    "id_image": "Robot_375017",
    "count_view": 0
  },
  {
    "link_thumb": "https://live.staticflickr.com/65535/50040542526_3f2f565e2c_n.jpg",
    "id_album": "1613540653",
    "description": "Space_822450",
    "title": "Space_822450",
    "link_img": "https://live.staticflickr.com/65535/50040542526_fb7acf4825_o.jpg",
    "id_image": "Space_822450",
    "count_view": 0
  },
  {
    "link_thumb": "https://live.staticflickr.com/65535/50039691881_af6410cc4a_n.jpg",
    "id_album": "1402713104",
    "description": "Landscape_529229",
    "title": "Landscape_529229",
    "link_img": "https://live.staticflickr.com/65535/50039691881_399465c1e3_o.jpg",
    "id_image": "Landscape_529229",
    "count_view": 0
  },
  {
    "link_thumb": "https://live.staticflickr.com/65535/50038935973_011efd4108_n.jpg",
    "id_album": "-1964113117",
    "description": "City_656421",
    "title": "City_656421",
    "link_img": "https://live.staticflickr.com/65535/50038935973_15e2683a2a_o.jpg",
    "id_image": "City_656421",
    "count_view": 0
  },
  {
    "link_thumb": "https://live.staticflickr.com/65535/50038831068_49718945d0_n.jpg",
    "id_album": "869545341",
    "description": "Astronaut_923964",
    "title": "Astronaut_923964",
    "link_img": "https://live.staticflickr.com/65535/50038831068_862b9fc374_o.jpg",
    "id_image": "Astronaut_923964",
    "count_view": 0
  },
  {
    "link_thumb": "https://live.staticflickr.com/65535/50041587797_295928b428_n.jpg",
    "id_album": "1267121215",
    "description": "Steampunk_655449",
    "title": "Steampunk_655449",
    "link_img": "https://live.staticflickr.com/65535/50041587797_b97622ae17_o.jpg",
    "id_image": "Steampunk_655449",
    "count_view": 0
  },
  {
    "link_thumb": "https://live.staticflickr.com/65535/50041390587_f7f91c66f4_n.jpg",
    "id_album": "-1863373220",
    "description": "StarWars_205601",
    "title": "StarWars_205601",
    "link_img": "https://live.staticflickr.com/65535/50041390587_bb11a95dfc_o.jpg",
    "id_image": "StarWars_205601",
    "count_view": 0
  },
  {
    "link_thumb": "https://live.staticflickr.com/65535/50039387471_f69b3bf492_n.jpg",
    "id_album": "869545341",
    "description": "Astronaut_969795",
    "title": "Astronaut_969795",
    "link_img": "https://live.staticflickr.com/65535/50039387471_f1234048e0_o.jpg",
    "id_image": "Astronaut_969795",
    "count_view": 0
  },
  {
    "link_thumb": "https://live.staticflickr.com/65535/50041191301_100cc3f929_n.jpg",
    "id_album": "-1863373220",
    "description": "StarWars_558938",
    "title": "StarWars_558938",
    "link_img": "https://live.staticflickr.com/65535/50041191301_d5d48918f5_o.jpg",
    "id_image": "StarWars_558938",
    "count_view": 0
  },
  {
    "link_thumb": "https://live.staticflickr.com/65535/50040162756_b4730129cd_n.jpg",
    "id_album": "376235057",
    "description": "Planetscape_350751",
    "title": "Planetscape_350751",
    "link_img": "https://live.staticflickr.com/65535/50040162756_1def2662b0_o.jpg",
    "id_image": "Planetscape_350751",
    "count_view": 0
  },
  {
    "link_thumb": "https://live.staticflickr.com/65535/50040402231_169df02474_n.jpg",
    "id_album": "779690680",
    "description": "Robot_906338",
    "title": "Robot_906338",
    "link_img": "https://live.staticflickr.com/65535/50040402231_56fb6af091_o.jpg",
    "id_image": "Robot_906338",
    "count_view": 0
  },
  {
    "link_thumb": "https://live.staticflickr.com/65535/50039865848_626f4b2e21_n.jpg",
    "id_album": "779690680",
    "description": "Robot_926847",
    "title": "Robot_926847",
    "link_img": "https://live.staticflickr.com/65535/50039865848_0f3a6344b1_o.jpg",
    "id_image": "Robot_926847",
    "count_view": 0
  },
  {
    "link_thumb": "https://live.staticflickr.com/65535/50039229378_5edcd77c16_n.jpg",
    "id_album": "-1610342324",
    "description": "Nebula_264727",
    "title": "Nebula_264727",
    "link_img": "https://live.staticflickr.com/65535/50039229378_880e13c148_o.jpg",
    "id_image": "Nebula_264727",
    "count_view": 0
  },
  {
    "link_thumb": "https://live.staticflickr.com/65535/50040807622_5df400d8e0_n.jpg",
    "id_album": "1613540653",
    "description": "Space_822462",
    "title": "Space_822462",
    "link_img": "https://live.staticflickr.com/65535/50040807622_8f3e4666d0_o.jpg",
    "id_image": "Space_822462",
    "count_view": 0
  },
  {
    "link_thumb": "https://live.staticflickr.com/65535/50039739836_f274044069_n.jpg",
    "id_album": "-1388385651",
    "description": "MilkyWay_685471",
    "title": "MilkyWay_685471",
    "link_img": "https://live.staticflickr.com/65535/50039739836_62a5222f0b_o.jpg",
    "id_image": "MilkyWay_685471",
    "count_view": 0
  },
  {
    "link_thumb": "https://live.staticflickr.com/65535/50041153906_9006c0eaf3_n.jpg",
    "id_album": "-1863373220",
    "description": "StarWars_246181",
    "title": "StarWars_246181",
    "link_img": "https://live.staticflickr.com/65535/50041153906_ab6b9a5dbb_o.jpg",
    "id_image": "StarWars_246181",
    "count_view": 0
  },
  {
    "link_thumb": "https://live.staticflickr.com/65535/50039894793_0f4c06a501_n.jpg",
    "id_album": "779690680",
    "description": "Robot_959318",
    "title": "Robot_959318",
    "link_img": "https://live.staticflickr.com/65535/50039894793_d1e579d2cd_o.jpg",
    "id_image": "Robot_959318",
    "count_view": 0
  },
  {
    "link_thumb": "https://live.staticflickr.com/65535/50039235398_4c75d4d376_n.jpg",
    "id_album": "-1610342324",
    "description": "Nebula_304913",
    "title": "Nebula_304913",
    "link_img": "https://live.staticflickr.com/65535/50039235398_4bd58af705_o.jpg",
    "id_image": "Nebula_304913",
    "count_view": 0
  },
  {
    "link_thumb": "https://live.staticflickr.com/65535/50041453596_f565cfd8c3_n.jpg",
    "id_album": "-1261420436",
    "description": "Warrior_375736",
    "title": "Warrior_375736",
    "link_img": "https://live.staticflickr.com/65535/50041453596_3cb202530e_o.jpg",
    "id_image": "Warrior_375736",
    "count_view": 0
  },
  {
    "link_thumb": "https://live.staticflickr.com/65535/50040808878_569e6cbceb_n.jpg",
    "id_album": "-1177476763",
    "description": "Sunrise_391881",
    "title": "Sunrise_391881",
    "link_img": "https://live.staticflickr.com/65535/50040808878_83ac0613a0_o.jpg",
    "id_image": "Sunrise_391881",
    "count_view": 0
  },
  {
    "link_thumb": "https://live.staticflickr.com/65535/50038842253_85e000f3ec_n.jpg",
    "id_album": "869545341",
    "description": "Astronaut_987331",
    "title": "Astronaut_987331",
    "link_img": "https://live.staticflickr.com/65535/50038842253_b6b2e51d42_o.jpg",
    "id_image": "Astronaut_987331",
    "count_view": 0
  },
  {
    "link_thumb": "https://live.staticflickr.com/65535/50040068752_b699793469_n.jpg",
    "id_album": "-1610342324",
    "description": "Nebula_533828",
    "title": "Nebula_533828",
    "link_img": "https://live.staticflickr.com/65535/50040068752_711f3c64e3_o.jpg",
    "id_image": "Nebula_533828",
    "count_view": 0
  },
  {
    "link_thumb": "https://live.staticflickr.com/65535/50039296721_5ff1aecc03_n.jpg",
    "id_album": "523598895",
    "description": "Artistic_151473",
    "title": "Artistic_151473",
    "link_img": "https://live.staticflickr.com/65535/50039296721_380a591684_o.jpg",
    "id_image": "Artistic_151473",
    "count_view": 0
  },
  {
    "link_thumb": "https://live.staticflickr.com/65535/50039508382_f3767a51f1_n.jpg",
    "id_album": "849020728",
    "description": "Alien_152001",
    "title": "Alien_152001",
    "link_img": "https://live.staticflickr.com/65535/50039508382_88ca33fe31_o.jpg",
    "id_image": "Alien_152001",
    "count_view": 0
  },
  {
    "link_thumb": "https://live.staticflickr.com/65535/50041118426_915e9c0b22_n.jpg",
    "id_album": "-1863373220",
    "description": "StarWars_107771",
    "title": "StarWars_107771",
    "link_img": "https://live.staticflickr.com/65535/50041118426_4a01191b05_o.jpg",
    "id_image": "StarWars_107771",
    "count_view": 0
  },
  {
    "link_thumb": "https://live.staticflickr.com/65535/50039081008_b6bd6fdcc2_n.jpg",
    "id_album": "1204249541",
    "description": "Galaxy_298926",
    "title": "Galaxy_298926",
    "link_img": "https://live.staticflickr.com/65535/50039081008_e8778a0803_o.jpg",
    "id_image": "Galaxy_298926",
    "count_view": 0
  },
  {
    "link_thumb": "https://live.staticflickr.com/65535/50039907468_a9cee9c566_n.jpg",
    "id_album": "1613540653",
    "description": "Space_106826",
    "title": "Space_106826",
    "link_img": "https://live.staticflickr.com/65535/50039907468_de3bc5c831_o.jpg",
    "id_image": "Space_106826",
    "count_view": 0
  },
  {
    "link_thumb": "https://live.staticflickr.com/65535/50039947966_dd42e58a49_n.jpg",
    "id_album": "395161030",
    "description": "Planet_422157",
    "title": "Planet_422157",
    "link_img": "https://live.staticflickr.com/65535/50039947966_aa53daac30_o.jpg",
    "id_image": "Planet_422157",
    "count_view": 0
  },
  {
    "link_thumb": "https://live.staticflickr.com/65535/50039122123_e661813880_n.jpg",
    "id_album": "1402713104",
    "description": "Landscape_285845",
    "title": "Landscape_285845",
    "link_img": "https://live.staticflickr.com/65535/50039122123_10f62b998e_o.jpg",
    "id_image": "Landscape_285845",
    "count_view": 0
  },
  {
    "link_thumb": "https://live.staticflickr.com/65535/50039655241_c17cab32a1_n.jpg",
    "id_album": "1204249541",
    "description": "Galaxy_89391",
    "title": "Galaxy_89391",
    "link_img": "https://live.staticflickr.com/65535/50039655241_61b06a657b_o.jpg",
    "id_image": "Galaxy_89391",
    "count_view": 0
  },
  {
    "link_thumb": "https://live.staticflickr.com/65535/50040468462_23c99167b3_n.jpg",
    "id_album": "-482547208",
    "description": "PostApocalyptic_283684",
    "title": "PostApocalyptic_283684",
    "link_img": "https://live.staticflickr.com/65535/50040468462_38b748e0bf_o.jpg",
    "id_image": "PostApocalyptic_283684",
    "count_view": 0
  },
  {
    "link_thumb": "https://live.staticflickr.com/65535/50039643566_7d2b1d59f3_n.jpg",
    "id_album": "1204249541",
    "description": "Galaxy_560772",
    "title": "Galaxy_560772",
    "link_img": "https://live.staticflickr.com/65535/50039643566_b04fbb066b_o.jpg",
    "id_image": "Galaxy_560772",
    "count_view": 0
  },
  {
    "link_thumb": "https://live.staticflickr.com/65535/50039322551_ea675d382d_n.jpg",
    "id_album": "523598895",
    "description": "Artistic_237740",
    "title": "Artistic_237740",
    "link_img": "https://live.staticflickr.com/65535/50039322551_8e1fc43566_o.jpg",
    "id_image": "Artistic_237740",
    "count_view": 0
  },
  {
    "link_thumb": "https://live.staticflickr.com/65535/50040277226_8f1b681232_n.jpg",
    "id_album": "779690680",
    "description": "Robot_267586",
    "title": "Robot_267586",
    "link_img": "https://live.staticflickr.com/65535/50040277226_af3e5fa2cc_o.jpg",
    "id_image": "Robot_267586",
    "count_view": 0
  },
  {
    "link_thumb": "https://live.staticflickr.com/65535/50041466112_4a7077b052_n.jpg",
    "id_album": "-1863373220",
    "description": "StarWars_642168",
    "title": "StarWars_642168",
    "link_img": "https://live.staticflickr.com/65535/50041466112_94d6ce4a67_o.jpg",
    "id_image": "StarWars_642168",
    "count_view": 0
  },
  {
    "link_thumb": "https://live.staticflickr.com/65535/50041716207_2a5d85db84_n.jpg",
    "id_album": "-1261420436",
    "description": "Warrior_373914",
    "title": "Warrior_373914",
    "link_img": "https://live.staticflickr.com/65535/50041716207_426664449c_o.jpg",
    "id_image": "Warrior_373914",
    "count_view": 0
  },
  {
    "link_thumb": "https://live.staticflickr.com/65535/50039719782_0e57fa39b5_n.jpg",
    "id_album": "-1964113117",
    "description": "City_273304",
    "title": "City_273304",
    "link_img": "https://live.staticflickr.com/65535/50039719782_65eddb91e4_o.jpg",
    "id_image": "City_273304",
    "count_view": 0
  },
  {
    "link_thumb": "https://live.staticflickr.com/65535/50038700338_4d5bfeccd5_n.jpg",
    "id_album": "849020728",
    "description": "Alien_162788",
    "title": "Alien_162788",
    "link_img": "https://live.staticflickr.com/65535/50038700338_1af298d1e2_o.jpg",
    "id_image": "Alien_162788",
    "count_view": 0
  },
  {
    "link_thumb": "https://live.staticflickr.com/65535/50041701302_63805c67d8_n.jpg",
    "id_album": "-1261420436",
    "description": "Warrior_253117",
    "title": "Warrior_253117",
    "link_img": "https://live.staticflickr.com/65535/50041701302_9bf50f9cbe_o.jpg",
    "id_image": "Warrior_253117",
    "count_view": 0
  },
  {
    "link_thumb": "https://live.staticflickr.com/65535/50039798761_95b4197085_n.jpg",
    "id_album": "-1610342324",
    "description": "Nebula_453086",
    "title": "Nebula_453086",
    "link_img": "https://live.staticflickr.com/65535/50039798761_5eec1daee7_o.jpg",
    "id_image": "Nebula_453086",
    "count_view": 0
  },
  {
    "link_thumb": "https://live.staticflickr.com/65535/50039616693_ba804308e4_n.jpg",
    "id_album": "376235057",
    "description": "Planetscape_372285",
    "title": "Planetscape_372285",
    "link_img": "https://live.staticflickr.com/65535/50039616693_d8b865fa47_o.jpg",
    "id_image": "Planetscape_372285",
    "count_view": 0
  },
  {
    "link_thumb": "https://live.staticflickr.com/65535/50038963158_127936be4a_n.jpg",
    "id_album": "-1964113117",
    "description": "City_879156",
    "title": "City_879156",
    "link_img": "https://live.staticflickr.com/65535/50038963158_e76dc6a9cb_o.jpg",
    "id_image": "City_879156",
    "count_view": 0
  },
  {
    "link_thumb": "https://live.staticflickr.com/65535/50039307181_7d0c0a997c_n.jpg",
    "id_album": "523598895",
    "description": "Artistic_184644",
    "title": "Artistic_184644",
    "link_img": "https://live.staticflickr.com/65535/50039307181_dc2fc25b7f_o.jpg",
    "id_image": "Artistic_184644",
    "count_view": 0
  },
  {
    "link_thumb": "https://live.staticflickr.com/65535/50039113208_9c3fa00833_n.jpg",
    "id_album": "1402713104",
    "description": "Landscape_172001",
    "title": "Landscape_172001",
    "link_img": "https://live.staticflickr.com/65535/50039113208_e728b50cfb_o.jpg",
    "id_image": "Landscape_172001",
    "count_view": 0
  },
  {
    "link_thumb": "https://live.staticflickr.com/65535/50039116588_d9458c850c_n.jpg",
    "id_album": "1402713104",
    "description": "Landscape_225924",
    "title": "Landscape_225924",
    "link_img": "https://live.staticflickr.com/65535/50039116588_4ef0915c0f_o.jpg",
    "id_image": "Landscape_225924",
    "count_view": 0
  },
  {
    "link_thumb": "https://live.staticflickr.com/65535/50041163031_0ef9fcefd5_n.jpg",
    "id_album": "-1863373220",
    "description": "StarWars_306733",
    "title": "StarWars_306733",
    "link_img": "https://live.staticflickr.com/65535/50041163031_8d6820cc93_o.jpg",
    "id_image": "StarWars_306733",
    "count_view": 0
  },
  {
    "link_thumb": "https://live.staticflickr.com/65535/50039669338_8678901538_n.jpg",
    "id_album": "-482547208",
    "description": "PostApocalyptic_717812",
    "title": "PostApocalyptic_717812",
    "link_img": "https://live.staticflickr.com/65535/50039669338_9dfdae034b_o.jpg",
    "id_image": "PostApocalyptic_717812",
    "count_view": 0
  },
  {
    "link_thumb": "https://live.staticflickr.com/65535/50041331591_28628abdc3_n.jpg",
    "id_album": "1267121215",
    "description": "Steampunk_852657",
    "title": "Steampunk_852657",
    "link_img": "https://live.staticflickr.com/65535/50041331591_cebeefe507_o.jpg",
    "id_image": "Steampunk_852657",
    "count_view": 0
  },
  {
    "link_thumb": "https://live.staticflickr.com/65535/50040745673_4dd989279f_n.jpg",
    "id_album": "1267121215",
    "description": "Steampunk_209609",
    "title": "Steampunk_209609",
    "link_img": "https://live.staticflickr.com/65535/50040745673_522e84913b_o.jpg",
    "id_image": "Steampunk_209609",
    "count_view": 0
  },
  {
    "link_thumb": "https://live.staticflickr.com/65535/50040062066_ff378f4c09_n.jpg",
    "id_album": "-1102314093",
    "description": "Planets_221903",
    "title": "Planets_221903",
    "link_img": "https://live.staticflickr.com/65535/50040062066_6edbbf9fb4_o.jpg",
    "id_image": "Planets_221903",
    "count_view": 0
  },
  {
    "link_thumb": "https://live.staticflickr.com/65535/50039608782_e8d2c1dee1_n.jpg",
    "id_album": "523598895",
    "description": "Artistic_914474",
    "title": "Artistic_914474",
    "link_img": "https://live.staticflickr.com/65535/50039608782_ccb2febf2b_o.jpg",
    "id_image": "Artistic_914474",
    "count_view": 0
  },
  {
    "link_thumb": "https://live.staticflickr.com/65535/50040502442_4441c6e5ff_n.jpg",
    "id_album": "-839602625",
    "description": "Predator_196972",
    "title": "Predator_196972",
    "link_img": "https://live.staticflickr.com/65535/50040502442_50004744d3_o.jpg",
    "id_image": "Predator_196972",
    "count_view": 0
  },
  {
    "link_thumb": "https://live.staticflickr.com/65535/50039874433_f90047f51f_n.jpg",
    "id_album": "779690680",
    "description": "Robot_931798",
    "title": "Robot_931798",
    "link_img": "https://live.staticflickr.com/65535/50039874433_f233546d15_o.jpg",
    "id_image": "Robot_931798",
    "count_view": 0
  },
  {
    "link_thumb": "https://live.staticflickr.com/65535/50041593541_37027a1073_n.jpg",
    "id_album": "-1675918237",
    "description": "WomenWarrior_985659",
    "title": "WomenWarrior_985659",
    "link_img": "https://live.staticflickr.com/65535/50041593541_37efdfa449_o.jpg",
    "id_image": "WomenWarrior_985659",
    "count_view": 0
  },
  {
    "link_thumb": "https://live.staticflickr.com/65535/50040597427_0060b066a5_n.jpg",
    "id_album": "779690680",
    "description": "Robot_554881",
    "title": "Robot_554881",
    "link_img": "https://live.staticflickr.com/65535/50040597427_f6891d505a_o.jpg",
    "id_image": "Robot_554881",
    "count_view": 0
  },
  {
    "link_thumb": "https://live.staticflickr.com/65535/50041616952_36a93e0928_n.jpg",
    "id_album": "-221671103",
    "description": "Sun_709935",
    "title": "Sun_709935",
    "link_img": "https://live.staticflickr.com/65535/50041616952_cfa3052446_o.jpg",
    "id_image": "Sun_709935",
    "count_view": 0
  },
  {
    "link_thumb": "https://live.staticflickr.com/65535/50039901021_227e03504a_n.jpg",
    "id_album": "395161030",
    "description": "Planet_1004884",
    "title": "Planet_1004884",
    "link_img": "https://live.staticflickr.com/65535/50039901021_809b33bb08_o.jpg",
    "id_image": "Planet_1004884",
    "count_view": 0
  },
  {
    "link_thumb": "https://live.staticflickr.com/65535/50039773482_1843a2f65b_n.jpg",
    "id_album": "-1964113117",
    "description": "City_879540",
    "title": "City_879540",
    "link_img": "https://live.staticflickr.com/65535/50039773482_8276db99f8_o.jpg",
    "id_image": "City_879540",
    "count_view": 0
  }
]